RESULT: v0x4c52b80_1 : [3,3]
RESULT: v0x4b3c2e0_1 : [0,1]
RESULT: v0x4b40130_1 : [0,1]
RESULT: v0x4b441e0_1 : [0,1]
RESULT: v0x4b54230_1 : [0,1]
RESULT: v0x4b969e0_1 : [0,1]
RESULT: v0x4ba75c0_1 : [0,1]
RESULT: v0x4baeb40_1 : [0,1]
RESULT: v0x4b8e2e0_1 : [0,1]
RESULT: v0x4a1b1f0_1 : [0,1]
RESULT: v0x4b911a0_1 : [0,1]
RESULT: v0x4bbcc40_1 : [0,1]
RESULT: v0x4a810f0_1 : [0,1]
RESULT: v0x4bb1c60_1 : [0,2]
RESULT: v0x4bae6c0_1 : [0,3]
RESULT: v0x4b9dac0_1 : [0,1]
RESULT: v0x4bae140_1 : [123,777]
RESULT: v0x4ba9b80_1 : [0,666]
RESULT: v0x4b3ce40_1 : [0,2]
RESULT: v0x4a15e00_1 : [0,1]
RESULT: v0x4b2e7b0_1 : [0,2]
RESULT: v0x4ba8680_1 : [0,456]
RESULT: v0x4cf9e70_1 : [0,123]
RESULT: v0x4c7ea00_1 : [0,456]
