RESULT: v0xee295d0_0 : [-1/0,1/0]
RESULT: v0xcbda320_0 : [-1/0,1/0]
RESULT: v0xc64a2a0_0 : [-1/0,1/0]
RESULT: v0x8004750_0 : [-1/0,1/0]
RESULT: v0xc508d70_0 : [-1/0,1/0]
RESULT: v0xc4562f0_0 : [-1/0,1/0]
RESULT: v0xd34dfd0_0 : [-1/0,1/0]
RESULT: v0x5023800_0 : [-1/0,1/0]
RESULT: v0xc866640_0 : [-1/0,1/0]
RESULT: v0x6fcd5e0_0 : [-1/0,1/0]
RESULT: v0xc5b7b80_0 : [-1/0,1/0]
RESULT: v0xd980700_0 : [-1/0,1/0]
RESULT: v0xd397480_0 : [-1/0,1/0]
RESULT: v0xb251260_0 : [-1/0,1/0]
RESULT: v0x814c550_0 : [-1/0,1/0]
RESULT: v0xc854080_0 : [-1/0,1/0]
RESULT: v0xd453b00_0 : [-1/0,1/0]
RESULT: v0xd44fe80_0 : [-1/0,1/0]
RESULT: v0xb195150_0 : [-1/0,1/0]
RESULT: v0xc656220_0 : [-1/0,1/0]
RESULT: v0xc70cf80_0 : [-1/0,1/0]
RESULT: v0xd4a7180_0 : [-1/0,1/0]
RESULT: v0x8aedbd0_0 : [-1/0,1/0]
RESULT: v0xc6f6800_0 : [-1/0,1/0]
RESULT: v0xc8366f0_0 : [-1/0,1/0]
RESULT: v0x8072510_0 : [-1/0,1/0]
