RESULT: v0x5ee2c20_0 : [0,1/0]
RESULT: v0x594f690_0 : [-1/0,1/0]
RESULT: v0x594fb90_0 : [-1/0,1/0]
RESULT: v0x60d5ab0_0 : [0,1]
RESULT: v0x5d70b40_0 : [0,1]
RESULT: v0x5e092e0_0 : [0,1]
RESULT: v0x5e0faa0_0 : [0,3]
RESULT: v0x60eefe0_0 : [0,1]
RESULT: v0x5e8e120_0 : [0,3]
RESULT: v0x5ec6020_0 : [0,2]
RESULT: v0x5ed2e60_0 : [0,1]
RESULT: v0x5dbd960_0 : [0,1]
RESULT: v0x5afe2d0_0 : [0,666]
RESULT: v0x5bfd0a0_0 : [0,1]
RESULT: v0x60d6e30_0 : [123,777]
RESULT: v0x60ee360_0 : [0,1]
RESULT: v0x60d4730_0 : [0,1]
RESULT: v0x5ee06a0_0 : [0,1]
RESULT: v0x60d09b0_0 : [0,456]
RESULT: v0x60edfe0_0 : [0,2]
RESULT: v0x5bfd5a0_0 : [0,1]
RESULT: v0x5ef4b40_0 : [0,456]
RESULT: v0x60d6a30_0 : [0,2]
RESULT: v0x60e36a0_0 : [0,1]
RESULT: v0x5f3f6f0_0 : [0,1]
RESULT: v0x5d709c0_0 : [0,123]
RESULT: v0x5d715c0_0 : [0,1]
RESULT: v0x5950790_0 : [789,789]
RESULT: v0x594f890_0 : [-1/0,1/0]
RESULT: v0x594f990_0 : [-1/0,1/0]
RESULT: v0x594f790_0 : [-1/0,1/0]
RESULT: v0x5953c90_0 : [-1/0,1/0]
RESULT: v0x5953b90_0 : [0,0]
