RESULT: v0x32c07e0_0 : [0,0]
RESULT: v0x35a78e0_1 : [0,1]
RESULT: v0x3595c40_1 : [0,1]
RESULT: v0x35bb720_1 : [0,1]
RESULT: v0x35bf9d0_1 : [0,1]
RESULT: v0x35c04b0_1 : [0,1]
RESULT: v0x35b4b00_1 : [0,1]
RESULT: v0x35ad510_1 : [0,1]
RESULT: v0x35a5e10_1 : [0,1]
RESULT: v0x35a6190_1 : [0,1]
RESULT: v0x35a6b90_1 : [0,1]
RESULT: v0x359ad20_1 : [0,1]
RESULT: v0x3577290_1 : [0,1]
RESULT: v0x35c27d0_1 : [0,1]
RESULT: v0x35c6cf0_1 : [-1/0,1/0]
RESULT: v0x35a0da0_1 : [-1/0,1/0]
RESULT: v0x35a12e0_1 : [0,2]
RESULT: v0x35a19c0_1 : [0,2]
RESULT: v0x358d2f0_1 : [0,2]
RESULT: v0x358d570_1 : [0,2]
RESULT: v0x357da90_1 : [0,2]
RESULT: v0x3573fd0_1 : [0,2]
RESULT: v0x3575390_1 : [0,2]
RESULT: v0x35d03a0_1 : [0,2]
RESULT: v0x35d0460_1 : [0,2]
RESULT: v0x342d7c0_1 : [0,2]
RESULT: v0x35727d0_1 : [0,2]
RESULT: v0x3578b60_1 : [0,2]
RESULT: v0x3576af0_1 : [0,2]
RESULT: v0x3579540_1 : [0,0]
