RESULT: v0x8345d10_0 : [-1/0,1/0]
RESULT: v0x6008ad0_0 : [-1/0,1/0]
RESULT: v0x56f9be0_0 : [0,1]
RESULT: v0x5fe9490_0 : [0,1]
RESULT: v0xf1846b0_0 : [-1/0,1/0]
RESULT: v0xf1aafa0_0 : [-1/0,1/0]
RESULT: v0xf6faff0_0 : [0,0]
RESULT: v0x4e8eda0_0 : [67,1/0]
RESULT: v0xd1f1180_0 : [67,1/0]
RESULT: v0x4e8eea0_0 : [0,1]
RESULT: v0x4e8efa0_0 : [0,1]
RESULT: v0x4e8f0a0_0 : [-1/0,1/0]
RESULT: v0x4e8f1a0_0 : [-1/0,1/0]
RESULT: v0x4e8f2a0_0 : [0,0]
RESULT: v0x4e8f3a0_0 : [0,0]
RESULT: v0x4e8f4a0_0 : [-1/0,1/0]
RESULT: v0xc8fe6d0_0 : [-1/0,1/0]
RESULT: v0x4e8f5a0_0 : [-1/0,1/0]
RESULT: v0x774e560_0 : [-1/0,1/0]
RESULT: v0x4e8f6a0_0 : [-1/0,1/0]
RESULT: v0x5076760_0 : [-1/0,1/0]
RESULT: v0x4e8f7a0_0 : [-1/0,1/0]
RESULT: v0x4e8f8a0_0 : [-1/0,1/0]
RESULT: v0x4e8f9a0_0 : [-1/0,1/0]
RESULT: v0x4e8faa0_0 : [-1/0,1/0]
RESULT: v0x83791f0_0 : [-1/0,1/0]
RESULT: v0x7744840_0 : [-1/0,1/0]
RESULT: v0xe868eb0_0 : [0,0]
RESULT: v0x66e8c60_0 : [-1/0,10]
RESULT: v0x834ce90_0 : [-1/0,1/0]
RESULT: v0x4e8fda0_0 : [-1/0,1/0]
