RESULT: v0x438bcf0_0 : [0,1]
RESULT: v0x4325490_0 : [0,1]
RESULT: v0x4325690_0 : [0,1]
RESULT: v0x4325890_0 : [0,1]
RESULT: v0x4325a90_0 : [0,1]
RESULT: v0x438c9b0_0 : [0,1]
RESULT: v0x438cbb0_0 : [0,1]
RESULT: v0x438cdb0_0 : [0,1]
RESULT: v0x438cfb0_0 : [0,1]
RESULT: v0x438d1b0_0 : [0,1]
RESULT: v0x438d3b0_0 : [1,1]
RESULT: v0x438d5b0_0 : [-1/0,1/0]
RESULT: v0x438d7b0_0 : [-1/0,1/0]
RESULT: v0x438d9b0_0 : [0,2]
RESULT: v0x438dbb0_0 : [0,2]
RESULT: v0x438ddb0_0 : [0,2]
RESULT: v0x438dfb0_0 : [0,2]
RESULT: v0x438e1b0_0 : [0,2]
RESULT: v0x438e3b0_0 : [0,2]
RESULT: v0x438e5b0_0 : [0,2]
RESULT: v0x438e7b0_0 : [0,2]
RESULT: v0x438e9b0_0 : [0,2]
RESULT: v0x438ebb0_0 : [0,2]
RESULT: v0x438edb0_0 : [2,2]
