RESULT: v0x3ada4a0_1 : [3,3]
RESULT: v0x3ada600_1 : [0,1]
RESULT: v0x3ada780_1 : [0,1]
RESULT: v0x3ada9c0_1 : [0,1]
RESULT: v0x3aa6760_1 : [0,1]
RESULT: v0x3aa65e0_1 : [0,1]
RESULT: v0x3aa6560_1 : [0,1]
RESULT: v0x399e550_1 : [0,1]
RESULT: v0x3990bc0_1 : [0,1]
RESULT: v0x3990c80_1 : [0,1]
RESULT: v0x3990d40_1 : [0,1]
RESULT: v0x3990e00_1 : [0,1]
RESULT: v0x3990ec0_1 : [0,1]
RESULT: v0x3990f80_1 : [123,777]
RESULT: v0x397a9a0_1 : [0,666]
RESULT: v0x397d080_1 : [0,2]
RESULT: v0x3951140_1 : [0,1]
RESULT: v0x397dc30_1 : [0,2]
RESULT: v0x3981ad0_1 : [0,456]
RESULT: v0x3985e80_1 : [0,123]
RESULT: v0x3981a40_1 : [0,456]
RESULT: v0x3995230_1 : [0,3]
