RESULT: v0x6890320_0 : [0,1]
RESULT: v0x5326660_0 : [0,1]
RESULT: v0x67c8680_0 : [0,1]
RESULT: v0x60e1b90_0 : [0,1]
RESULT: v0x5ad5890_0 : [0,1]
RESULT: v0x58f51c0_0 : [0,1]
RESULT: v0x66f9ef0_0 : [0,1]
RESULT: v0x67d46e0_0 : [0,1]
RESULT: v0x66cca10_0 : [0,1]
RESULT: v0x66cce30_0 : [0,1]
RESULT: v0x66cd270_0 : [1,1]
RESULT: v0x66cd6b0_0 : [-1/0,2]
RESULT: v0x66cd9d0_0 : [-1/0,2]
RESULT: v0x66c5870_0 : [-1/0,2]
RESULT: v0x47cbb10_0 : [-1/0,2]
RESULT: v0x47cbd10_0 : [-1/0,2]
RESULT: v0x6dfb600_0 : [-1/0,2]
RESULT: v0x6dfb800_0 : [-1/0,2]
RESULT: v0x66cb970_0 : [-1/0,2]
RESULT: v0x66cbb70_0 : [0,2]
RESULT: v0x66cbd70_0 : [0,2]
RESULT: v0x6dfaf20_0 : [2,2]
