RESULT: v0x45fd190_0 : [2,1/0]
RESULT: v0x453ea20_0 : [0,1]
RESULT: v0x461b290_0 : [0,1]
RESULT: v0x43764a0_0 : [123,123]
RESULT: v0x45bf8d0_0 : [0,0]
RESULT: v0x44fc780_0 : [0,1]
RESULT: v0x4533da0_0 : [0,1]
RESULT: v0x45d0350_0 : [0,2]
RESULT: v0x4584570_0 : [0,3]
RESULT: v0x453c000_0 : [0,1]
RESULT: v0x4535650_0 : [0,1]
RESULT: v0x45817d0_0 : [0,1]
RESULT: v0x4389b60_0 : [0,666]
RESULT: v0x4419300_0 : [0,1]
RESULT: v0x45e51d0_0 : [0,1]
RESULT: v0x44bf5b0_0 : [0,2]
RESULT: v0x4418ac0_0 : [0,456]
RESULT: v0x45b5850_0 : [0,123]
RESULT: v0x45f9230_0 : [0,456]
RESULT: v0x439d220_0 : [0,2]
RESULT: v0x457b590_0 : [0,1]
RESULT: v0x4595a20_0 : [0,1]
RESULT: v0x4619d90_0 : [0,1]
RESULT: v0x45c7b90_0 : [0,1]
