RESULT: v0x541c2c0_1 : [4,4]
RESULT: v0x545bb20_1 : [0,1]
RESULT: v0x5440f80_1 : [0,1]
RESULT: v0x54630c0_1 : [0,1]
RESULT: v0x54a9e00_1 : [0,1]
RESULT: v0x54a3380_1 : [0,1]
RESULT: v0x5496860_1 : [0,1]
RESULT: v0x54ad3e0_1 : [0,1]
RESULT: v0x53df710_1 : [0,1]
RESULT: v0x540ce10_1 : [0,1]
RESULT: v0x5424440_1 : [123,777]
RESULT: v0x53e6cb0_1 : [0,666]
RESULT: v0x54af400_1 : [0,2]
RESULT: v0x541d960_1 : [0,1]
RESULT: v0x5154a20_1 : [0,2]
RESULT: v0x5477200_1 : [0,456]
RESULT: v0x542ef60_1 : [0,123]
RESULT: v0x542da00_1 : [0,456]
RESULT: v0x5437a60_1 : [0,3]
RESULT: v0x54b53c0_1 : [0,1]
RESULT: v0x549bd80_1 : [0,1]
