RESULT: v0x56b0cc0_0 : [0,1]
RESULT: v0x53afa10_0 : [0,1]
RESULT: v0x60f3360_0 : [0,1]
RESULT: v0x5a17180_0 : [0,1]
RESULT: v0x5388690_0 : [0,1]
RESULT: v0x55daf40_0 : [0,1]
RESULT: v0x62edc60_0 : [0,1]
RESULT: v0x56920c0_0 : [0,1]
RESULT: v0x62ecca0_0 : [0,1]
RESULT: v0x59f6e50_0 : [0,1]
RESULT: v0x59f6cd0_0 : [1,1]
RESULT: v0x62e96c0_0 : [-1/0,1/0]
RESULT: v0x59f6a30_0 : [-1/0,1/0]
RESULT: v0x59faf30_0 : [0,2]
RESULT: v0x59fc1d0_0 : [0,2]
RESULT: v0x62e8ff0_0 : [0,2]
RESULT: v0x62e9a80_0 : [0,2]
RESULT: v0x59f6b70_0 : [0,2]
RESULT: v0x62ee3a0_0 : [0,2]
RESULT: v0x62ecad0_0 : [0,2]
RESULT: v0x62edf00_0 : [0,2]
RESULT: v0x59fbfb0_0 : [0,2]
RESULT: v0x62e9430_0 : [0,2]
RESULT: v0x62ec980_0 : [2,2]
