RESULT: v0x55adc90_0 : [2,1/0]
RESULT: v0x53fb420_0 : [0,1]
RESULT: v0x55a8410_0 : [0,1]
RESULT: v0x55a0e70_0 : [0,1]
RESULT: v0x518f2e0_0 : [0,1]
RESULT: v0x55aced0_0 : [0,1]
RESULT: v0x53fff20_0 : [0,1]
RESULT: v0x529e790_0 : [0,1]
RESULT: v0x520ed30_0 : [0,0]
RESULT: v0x53e9200_0 : [0,1]
RESULT: v0x5214ba0_0 : [1,1]
RESULT: v0x52846c0_0 : [1,1]
RESULT: v0x53eec80_0 : [1,1]
RESULT: v0x55b7270_0 : [123,777]
RESULT: v0x55f3cb0_0 : [0,666]
RESULT: v0x55b4590_0 : [2,2]
RESULT: v0x5598fd0_0 : [0,0]
RESULT: v0x53ba990_0 : [456,456]
RESULT: v0x55f3eb0_0 : [0,0]
RESULT: v0x5043ba0_0 : [-1/0,1/0]
RESULT: v0x50438a0_0 : [456,456]
RESULT: v0x5044ba0_0 : [0,0]
RESULT: v0x5044ca0_0 : [0,456]
RESULT: v0x5043aa0_0 : [0,0]
RESULT: v0x5044fa0_0 : [123,777]
RESULT: v0x50452a0_0 : [0,456]
RESULT: v0x50453a0_0 : [0,0]
