RESULT: v0x3792bb0_0 : [-1/0,1/0]
RESULT: v0x3792b30_0 : [-1/0,1/0]
RESULT: v0x3792590_0 : [-1/0,1/0]
RESULT: v0x3792650_0 : [-1/0,1/0]
RESULT: v0x3792710_0 : [-1/0,1/0]
RESULT: v0x3792950_0 : [-1/0,1/0]
RESULT: v0x3792c50_0 : [-1/0,1/0]
RESULT: v0x37924d0_0 : [-1/0,1/0]
RESULT: v0x373e9b0_0 : [-1/0,1/0]
RESULT: v0x3723400_0 : [-1/0,1/0]
RESULT: v0x3792430_0 : [-1/0,1/0]
RESULT: v0x3792dd0_0 : [-1/0,1/0]
RESULT: v0x3792e90_0 : [-1/0,1/0]
RESULT: v0x3792f50_0 : [-1/0,1/0]
RESULT: v0x3793010_0 : [-1/0,1/0]
RESULT: v0x37930d0_0 : [-1/0,1/0]
RESULT: v0x3793190_0 : [-1/0,1/0]
RESULT: v0x3793250_0 : [-1/0,1/0]
RESULT: v0x3793310_0 : [-1/0,1/0]
RESULT: v0x37933d0_0 : [-1/0,1/0]
RESULT: v0x3792d10_0 : [-1/0,1/0]
RESULT: v0x3792b70_0 : [-1/0,1/0]
RESULT: v0x3792890_0 : [-1/0,1/0]
RESULT: v0x37927d0_0 : [-1/0,1/0]
