RESULT: v0x4836cf0_0 : [2,1/0]
RESULT: v0x49902e0_0 : [0,1]
RESULT: v0x4a62ee0_0 : [123,777]
RESULT: v0x4864aa0_0 : [0,1]
RESULT: v0x4a022c0_0 : [0,1]
RESULT: v0x4a08320_0 : [0,2]
RESULT: v0x4d62bc0_0 : [0,3]
RESULT: v0x4aafc60_0 : [0,1]
RESULT: v0x48a2320_0 : [0,0]
RESULT: v0x4afd4a0_0 : [456,456]
RESULT: v0x49818a0_0 : [0,0]
RESULT: v0x4984740_0 : [0,1]
RESULT: v0x4b1b6a0_0 : [0,2]
RESULT: v0x4afd3e0_0 : [0,456]
RESULT: v0x4af3680_0 : [0,1]
RESULT: v0x4852720_0 : [0,123]
RESULT: v0x48555f0_0 : [0,1]
RESULT: v0x48ab3c0_0 : [0,1]
RESULT: v0x4aab3c0_0 : [0,3]
RESULT: v0x4aea260_0 : [0,1]
RESULT: v0x4897840_0 : [0,1]
RESULT: v0x4a80660_0 : [0,1]
RESULT: v0x4b217c0_0 : [1,1]
RESULT: v0x4a5ce40_0 : [2,2]
RESULT: v0x4adc1f0_0 : [456,456]
