RESULT: v0x3a388c0_0 : [0,1]
RESULT: v0x4b33310_1 : [0,1]
RESULT: v0x3cab330_1 : [0,1]
RESULT: v0x47b95f0_1 : [0,1]
RESULT: v0x438c490_1 : [0,1]
RESULT: v0x3e26ba0_1 : [0,1]
RESULT: v0x3eb2660_1 : [0,1]
RESULT: v0x46f4a90_1 : [0,1]
RESULT: v0x3eb0150_1 : [0,1]
RESULT: v0x4b32890_1 : [0,1]
RESULT: v0x4288580_1 : [0,1]
RESULT: v0x45679f0_1 : [0,2]
RESULT: v0x3ca4c80_1 : [0,2]
RESULT: v0x46b5d10_1 : [0,2]
RESULT: v0x42e8790_1 : [0,2]
RESULT: v0x42d7760_1 : [0,2]
RESULT: v0x3e5d370_1 : [0,2]
RESULT: v0x3f59a70_1 : [0,2]
RESULT: v0x428cdd0_1 : [0,2]
RESULT: v0x3e6e820_1 : [0,2]
RESULT: v0x4518950_1 : [0,2]
RESULT: v0x438cb70_1 : [0,2]
