RESULT: v0x38b1910_0 : [1,1/0]
RESULT: v0x3bc9e30_0 : [0,1]
RESULT: v0x39da1d0_0 : [0,1]
RESULT: v0x3b8bb70_0 : [123,777]
RESULT: v0x3aede20_0 : [0,1]
RESULT: v0x3be2690_0 : [0,1]
RESULT: v0x3a3efd0_0 : [0,2]
RESULT: v0x3b69910_0 : [0,1]
RESULT: v0x3bdac70_0 : [0,456]
RESULT: v0x3b89890_0 : [0,1]
RESULT: v0x3bd2b30_0 : [0,666]
RESULT: v0x3bb9450_0 : [0,1]
RESULT: v0x3a322f0_0 : [0,2]
RESULT: v0x3bc8950_0 : [0,456]
RESULT: v0x3bff230_0 : [0,1]
RESULT: v0x3b89b90_0 : [0,1]
RESULT: v0x3b8d170_0 : [0,1]
RESULT: v0x3ba4610_0 : [0,123]
RESULT: v0x3b94e50_0 : [0,1]
RESULT: v0x3c1d550_0 : [0,3]
RESULT: v0x39dcbe0_0 : [0,1]
RESULT: v0x3b83af0_0 : [0,1]
RESULT: v0x38978a0_0 : [-1/0,1/0]
RESULT: v0x38975a0_0 : [0,456]
RESULT: v0x38977a0_0 : [0,1]
