RESULT: v0x4150d80_0 : [1,1]
RESULT: v0x8de3f10_0 : [-1/0,1/0]
RESULT: v0x71699d0_0 : [-1/0,1/0]
RESULT: v0x56019a0_0 : [-1/0,1/0]
RESULT: v0x6f462e0_0 : [-1/0,1/0]
RESULT: v0x6ed3d40_0 : [-1/0,1/0]
RESULT: v0x69da740_0 : [-1/0,1/0]
RESULT: v0x40faaa0_0 : [67,1/0]
RESULT: v0x8813110_0 : [27,1/0]
RESULT: v0x40faba0_0 : [0,1]
RESULT: v0x40faca0_0 : [0,1]
RESULT: v0x40fada0_0 : [-1/0,1/0]
RESULT: v0x40faea0_0 : [-1/0,1/0]
RESULT: v0x40fafa0_0 : [-1/0,1/0]
RESULT: v0x40fb0a0_0 : [-1/0,1/0]
RESULT: v0x40fb1a0_0 : [-1/0,1/0]
RESULT: v0x44978c0_0 : [-1/0,1/0]
RESULT: v0x40fb2a0_0 : [-1/0,1/0]
RESULT: v0x92ed630_0 : [-1/0,1/0]
RESULT: v0x40fb3a0_0 : [-1/0,1/0]
RESULT: v0x56018e0_0 : [-1/0,1/0]
RESULT: v0x40fb4a0_0 : [-1/0,1/0]
RESULT: v0x40fb5a0_0 : [-1/0,1/0]
RESULT: v0x40fb6a0_0 : [-1/0,1/0]
RESULT: v0x40fb7a0_0 : [-1/0,1/0]
RESULT: v0x4405770_0 : [-1/0,1/0]
RESULT: v0x63bf710_0 : [-1/0,1/0]
RESULT: v0x7bd9e60_0 : [-1/0,1/0]
RESULT: v0x6ed3c80_0 : [-1/0,10]
RESULT: v0x8fd9f00_0 : [-1/0,1/0]
RESULT: v0x40fcaa0_0 : [-1/0,1/0]
