RESULT: v0x4551180_0 : [0,1]
RESULT: v0x5773010_1 : [0,1]
RESULT: v0x5773850_1 : [0,1]
RESULT: v0x50b57c0_1 : [0,1]
RESULT: v0x480c6d0_1 : [0,1]
RESULT: v0x47fb090_1 : [0,1]
RESULT: v0x49edb60_1 : [0,1]
RESULT: v0x50a1eb0_1 : [0,1]
RESULT: v0x5095440_1 : [0,1]
RESULT: v0x47c84e0_1 : [0,1]
RESULT: v0x47c7fc0_1 : [0,1]
RESULT: v0x47ebab0_1 : [0,1]
RESULT: v0x50aed80_1 : [0,1]
RESULT: v0x499c520_1 : [0,2]
RESULT: v0x47d1ed0_1 : [0,2]
RESULT: v0x47f6600_1 : [0,2]
RESULT: v0x5768da0_1 : [0,2]
RESULT: v0x57662a0_1 : [0,2]
RESULT: v0x56eca00_1 : [0,2]
RESULT: v0x5097fd0_1 : [0,2]
RESULT: v0x509f210_1 : [0,2]
RESULT: v0x50a0160_1 : [0,2]
RESULT: v0x50a4cc0_1 : [0,2]
RESULT: v0x509a830_1 : [0,2]
RESULT: v0x47efa10_1 : [0,2]
RESULT: v0x5754590_1 : [0,2]
