RESULT: v0x37c2660_1 : [3,3]
RESULT: v0x37d85d0_1 : [0,1]
RESULT: v0x37dc440_1 : [0,1]
RESULT: v0x37e04d0_1 : [0,1]
RESULT: v0x37f0520_1 : [0,1]
RESULT: v0x36af570_1 : [0,1]
RESULT: v0x37cba10_1 : [0,1]
RESULT: v0x3833130_1 : [0,1]
RESULT: v0x384d270_1 : [0,1]
RESULT: v0x382cf70_1 : [0,1]
RESULT: v0x37d1800_1 : [0,1]
RESULT: v0x388dce0_1 : [0,1]
RESULT: v0x3846e50_1 : [0,1]
RESULT: v0x3841890_1 : [0,2]
RESULT: v0x37d25d0_1 : [0,3]
RESULT: v0x382ac10_1 : [0,1]
RESULT: v0x384c3d0_1 : [123,777]
RESULT: v0x3840d90_1 : [0,666]
RESULT: v0x382d170_1 : [0,2]
RESULT: v0x383c7b0_1 : [0,1]
RESULT: v0x3839cd0_1 : [0,2]
RESULT: v0x3843e30_1 : [0,456]
RESULT: v0x3996280_1 : [0,123]
RESULT: v0x391ad20_1 : [0,456]
