RESULT: v0x6280df0_0 : [0,0]
RESULT: v0x6281330_0 : [0,0]
RESULT: v0x54ef9c0_0 : [40,40]
RESULT: v0x6280bb0_0 : [0,0]
RESULT: v0x626ec50_0 : [0,0]
RESULT: v0x4ba23c0_0 : [0,0]
RESULT: v0x4ba24c0_0 : [-1/0,1/0]
RESULT: v0x4dcb230_0 : [3,3]
RESULT: v0x5dcf2d0_0 : [1,1]
RESULT: v0x6280230_0 : [1,1]
RESULT: v0x53a2c10_0 : [0,0]
RESULT: v0x62604a0_0 : [1,1]
RESULT: v0x627f670_0 : [0,0]
RESULT: v0x5174a10_0 : [1,1]
RESULT: v0x56fa540_0 : [1,1]
RESULT: v0x4ead1c0_0 : [1,1]
RESULT: v0x627fcd0_0 : [1,1]
RESULT: v0x4ba22c0_0 : [-1/0,1/0]
RESULT: v0x4bb86c0_0 : [80,80]
RESULT: v0x4bb87c0_0 : [0,0]
RESULT: v0x4bb88c0_0 : [0,0]
RESULT: v0x4bb89c0_0 : [1,1]
RESULT: v0x4bb8ac0_0 : [1,1]
RESULT: v0x4bb8bc0_0 : [0,0]
RESULT: v0x4bb8cc0_0 : [1,1]
RESULT: v0x4bb8dc0_0 : [3,3]
RESULT: v0x4bb8ec0_0 : [1,1]
RESULT: v0x4bb8fc0_0 : [1,1]
RESULT: v0x4bb90c0_0 : [1,1]
RESULT: v0x4bb91c0_0 : [0,0]
RESULT: v0x4bb92c0_0 : [1,1]
RESULT: v0x4bb93c0_0 : [1,1]
RESULT: v0x66164f0_0 : [2,2]
RESULT: v0x4bba6c0_0 : [4,4]
