RESULT: v0x38b3a70_1 : [-1/0,1/0]
RESULT: v0x38b43e0_1 : [-1/0,1/0]
RESULT: v0x38b4660_1 : [-1/0,1/0]
RESULT: v0x38b48e0_1 : [-1/0,1/0]
RESULT: v0x38b4c00_1 : [-1/0,1/0]
RESULT: v0x38b4e80_1 : [-1/0,1/0]
RESULT: v0x378d620_1 : [-1/0,1/0]
RESULT: v0x38b5280_1 : [-1/0,1/0]
RESULT: v0x38b53c0_1 : [-1/0,1/0]
RESULT: v0x38b55c0_1 : [-1/0,1/0]
RESULT: v0x38b57c0_1 : [-1/0,1/0]
RESULT: v0x38b59c0_1 : [-1/0,1/0]
RESULT: v0x38b5bc0_1 : [-1/0,1/0]
RESULT: v0x38b5160_1 : [-1/0,1/0]
RESULT: v0x38b6080_1 : [-1/0,1/0]
RESULT: v0x38b6280_1 : [-1/0,1/0]
RESULT: v0x38b6480_1 : [-1/0,1/0]
RESULT: v0x38b6680_1 : [-1/0,1/0]
RESULT: v0x38b6880_1 : [-1/0,1/0]
RESULT: v0x38b6a80_1 : [-1/0,1/0]
RESULT: v0x38b6c80_1 : [-1/0,1/0]
RESULT: v0x38b6e80_1 : [-1/0,1/0]
RESULT: v0x38b7080_1 : [-1/0,1/0]
RESULT: v0x38b7280_1 : [-1/0,1/0]
RESULT: v0x38b7480_1 : [-1/0,1/0]
RESULT: v0x38b5dc0_1 : [-1/0,1/0]
RESULT: v0x38b7950_1 : [-1/0,1/0]
RESULT: v0x38b7b50_1 : [-1/0,1/0]
RESULT: v0x38b7d50_1 : [-1/0,1/0]
