RESULT: v0x4878650_0 : [-1/0,1/0]
RESULT: v0x4878590_0 : [-1/0,1/0]
RESULT: v0x4878110_0 : [-1/0,1/0]
RESULT: v0x48781d0_0 : [-1/0,1/0]
RESULT: v0x4878290_0 : [-1/0,1/0]
RESULT: v0x48787d0_0 : [-1/0,1/0]
RESULT: v0x4878890_0 : [-1/0,1/0]
RESULT: v0x4878050_0 : [-1/0,1/0]
RESULT: v0x481d0d0_0 : [-1/0,1/0]
RESULT: v0x4801820_0 : [-1/0,1/0]
RESULT: v0x4877f90_0 : [-1/0,1/0]
RESULT: v0x4878c30_0 : [-1/0,1/0]
RESULT: v0x4878bf0_0 : [-1/0,1/0]
RESULT: v0x4878c70_0 : [-1/0,1/0]
RESULT: v0x4878a10_0 : [-1/0,1/0]
RESULT: v0x4878d10_0 : [-1/0,1/0]
RESULT: v0x4878dd0_0 : [-1/0,1/0]
RESULT: v0x4878e90_0 : [-1/0,1/0]
RESULT: v0x4878f70_0 : [-1/0,1/0]
RESULT: v0x4879010_0 : [-1/0,1/0]
RESULT: v0x4878950_0 : [-1/0,1/0]
RESULT: v0x48784d0_0 : [-1/0,1/0]
RESULT: v0x4878410_0 : [-1/0,1/0]
RESULT: v0x4878710_0 : [-1/0,1/0]
RESULT: v0x4878350_0 : [-1/0,1/0]
