RESULT: v0x41b1e10_0 : [1,1]
RESULT: v0x41a4820_0 : [1,1]
RESULT: v0x3b0df90_0 : [0,0]
RESULT: v0x43d3e60_0 : [0,0]
RESULT: v0x419a9d0_0 : [40,40]
RESULT: v0x418a820_0 : [0,0]
RESULT: v0x43cee90_0 : [1,1]
RESULT: v0x3f282b0_0 : [1,1]
RESULT: v0x4299240_0 : [0,0]
RESULT: v0x419b9b0_0 : [1,1]
RESULT: v0x418b420_0 : [0,0]
RESULT: v0x39df730_0 : [1,1]
RESULT: v0x3a77c30_0 : [1,1]
RESULT: v0x4480f90_0 : [1,1]
RESULT: v0x390cd30_0 : [80,80]
RESULT: v0x390ce30_0 : [0,0]
RESULT: v0x390cf30_0 : [1,1]
RESULT: v0x390d030_0 : [0,0]
RESULT: v0x390d130_0 : [0,0]
RESULT: v0x390d230_0 : [1,1]
RESULT: v0x390d330_0 : [1,1]
RESULT: v0x390d430_0 : [4,4]
RESULT: v0x390d530_0 : [1,1]
RESULT: v0x390d630_0 : [1,1]
RESULT: v0x390d730_0 : [1,1]
RESULT: v0x390d830_0 : [1,1]
RESULT: v0x390d930_0 : [0,0]
RESULT: v0x390da30_0 : [1,1]
RESULT: v0x43122b0_0 : [4,4]
RESULT: v0x4810950_0 : [3,3]
RESULT: v0x390ed30_0 : [5,5]
