RESULT: v0x55ca3c0_1 : [3,3]
RESULT: v0x55ca5e0_1 : [0,1]
RESULT: v0x55c8b00_1 : [0,1]
RESULT: v0x55c8c60_1 : [0,1]
RESULT: v0x556bf10_1 : [0,1]
RESULT: v0x556bc70_1 : [0,1]
RESULT: v0x556baf0_1 : [0,1]
RESULT: v0x556b8b0_1 : [0,1]
RESULT: v0x530f330_1 : [0,1]
RESULT: v0x530f6f0_1 : [0,1]
RESULT: v0x530fab0_1 : [0,1]
RESULT: v0x530fe70_1 : [0,1]
RESULT: v0x5310230_1 : [0,1]
RESULT: v0x53105f0_1 : [0,2]
RESULT: v0x53109b0_1 : [0,3]
RESULT: v0x5310d70_1 : [123,777]
RESULT: v0x530b930_1 : [0,666]
RESULT: v0x532edf0_1 : [0,2]
RESULT: v0x532eff0_1 : [0,1]
RESULT: v0x53361f0_1 : [0,2]
RESULT: v0x5332670_1 : [0,456]
RESULT: v0x5444130_1 : [0,123]
RESULT: v0x5451f40_1 : [0,456]
