RESULT: v0x9848560_0 : [-1/0,1/0]
RESULT: v0x1370bac0_0 : [-1/0,1/0]
RESULT: v0xb2fd8c0_0 : [-1/0,1/0]
RESULT: v0x11045090_0 : [-1/0,1/0]
RESULT: v0x11a612b0_0 : [67,1/0]
RESULT: v0xa3ed580_0 : [-1/0,1/0]
RESULT: v0x52ab0e0_0 : [-1/0,1/0]
RESULT: v0x107d0900_0 : [0,0]
RESULT: v0xb3247d0_0 : [-1/0,1/0]
RESULT: v0x5fb0f10_0 : [-1/0,1/0]
RESULT: v0x98484e0_0 : [-1/0,1/0]
RESULT: v0x3fa3330_0 : [67,1/0]
RESULT: v0x3fa3430_0 : [-1/0,1/0]
RESULT: v0x3fa3530_0 : [-1/0,1/0]
RESULT: v0x3fa3630_0 : [-1/0,1/0]
RESULT: v0x3fa3730_0 : [-1/0,1/0]
RESULT: v0x3fa3830_0 : [0,1]
RESULT: v0x3fa3930_0 : [-1/0,1/0]
RESULT: v0x3fa3a30_0 : [-1/0,1/0]
RESULT: v0x3fa3b30_0 : [0,0]
RESULT: v0x3fa3c30_0 : [0,0]
RESULT: v0x3fa3d30_0 : [-1/0,1/0]
RESULT: v0x3fa3e30_0 : [-1/0,1/0]
RESULT: v0x3fa3f30_0 : [-1/0,1/0]
RESULT: v0xb324530_0 : [-1/0,1/0]
RESULT: v0xee93760_0 : [0,0]
RESULT: v0x758f310_0 : [-1/0,10]
RESULT: v0x5a99b70_0 : [-1/0,1/0]
RESULT: v0xb324850_0 : [-1/0,1/0]
RESULT: v0x3fa4230_0 : [-1/0,1/0]
