RESULT: v0x66021c0_0 : [0,1]
RESULT: v0x675e1d0_0 : [0,1]
RESULT: v0x675e3d0_0 : [0,1]
RESULT: v0x675e5d0_0 : [0,1]
RESULT: v0x675e7d0_0 : [0,1]
RESULT: v0x675e9d0_0 : [0,1]
RESULT: v0x675ebd0_0 : [0,1]
RESULT: v0x675edd0_0 : [0,1]
RESULT: v0x675efd0_0 : [0,1]
RESULT: v0x675f1d0_0 : [0,1]
RESULT: v0x675f3d0_0 : [0,1]
RESULT: v0x675f5d0_0 : [0,1]
RESULT: v0x675f7d0_0 : [1,1]
RESULT: v0x675f9d0_0 : [0,2]
RESULT: v0x675fbd0_0 : [0,2]
RESULT: v0x675fdd0_0 : [0,2]
RESULT: v0x675ffd0_0 : [0,2]
RESULT: v0x67601d0_0 : [0,2]
RESULT: v0x67603d0_0 : [0,2]
RESULT: v0x67605d0_0 : [0,2]
RESULT: v0x67607d0_0 : [0,2]
RESULT: v0x67609d0_0 : [0,2]
RESULT: v0x6760bd0_0 : [0,2]
RESULT: v0x6760dd0_0 : [0,2]
RESULT: v0x6760fd0_0 : [0,2]
RESULT: v0x67611d0_0 : [2,2]
