RESULT: v0x4cd7e20_1 : [4,4]
RESULT: v0x4d7aec0_1 : [0,1]
RESULT: v0x4da45a0_1 : [0,1]
RESULT: v0x4d80c20_1 : [0,1]
RESULT: v0x4cd70a0_1 : [0,1]
RESULT: v0x4d05d00_1 : [0,1]
RESULT: v0x4d6b610_1 : [0,1]
RESULT: v0x4dc9240_1 : [0,1]
RESULT: v0x4d069c0_1 : [0,1]
RESULT: v0x4dda6e0_1 : [0,1]
RESULT: v0x4ddd1c0_1 : [0,1]
RESULT: v0x4da0f20_1 : [0,1]
RESULT: v0x4bb1c60_1 : [0,1]
RESULT: v0x4bae6c0_1 : [0,2]
RESULT: v0x4b9dac0_1 : [0,3]
RESULT: v0x4bae140_1 : [0,1]
RESULT: v0x4ba9b80_1 : [123,777]
RESULT: v0x4b3ce40_1 : [0,666]
RESULT: v0x4a15e00_1 : [0,2]
RESULT: v0x4b2e7b0_1 : [0,1]
RESULT: v0x4ba8680_1 : [0,2]
RESULT: v0x4cf9e70_1 : [0,456]
RESULT: v0x4c7ea00_1 : [0,123]
RESULT: v0x4b2f260_1 : [0,456]
