RESULT: v0x7289b10_0 : [-1/0,1/0]
RESULT: v0xb1e67b0_0 : [-1/0,1/0]
RESULT: v0x8a10c60_0 : [-1/0,1/0]
RESULT: v0x521a850_0 : [0,1]
RESULT: v0x7289870_0 : [67,1/0]
RESULT: v0xd1ee190_0 : [-1/0,1/0]
RESULT: v0xac43400_0 : [-1/0,1/0]
RESULT: v0xac43380_0 : [-1/0,1/0]
RESULT: v0x521a810_0 : [0,0]
RESULT: v0xdac10e0_0 : [-1/0,1/0]
RESULT: v0x54db210_0 : [-1/0,1/0]
RESULT: v0x478d2d0_0 : [67,1/0]
RESULT: v0x478d3d0_0 : [0,1]
RESULT: v0x478d4d0_0 : [-1/0,1/0]
RESULT: v0x478d5d0_0 : [-1/0,1/0]
RESULT: v0x478d6d0_0 : [-1/0,1/0]
RESULT: v0x478d7d0_0 : [-1/0,1/0]
RESULT: v0x478d8d0_0 : [0,1]
RESULT: v0x478d9d0_0 : [-1/0,1/0]
RESULT: v0x478dad0_0 : [-1/0,1/0]
RESULT: v0x478dbd0_0 : [0,0]
RESULT: v0x478dcd0_0 : [-1/0,1/0]
RESULT: v0x478ddd0_0 : [-1/0,1/0]
RESULT: v0x478ded0_0 : [-1/0,1/0]
RESULT: v0x478dfd0_0 : [-1/0,1/0]
RESULT: v0xacc6e30_0 : [-1/0,1/0]
RESULT: v0xb07f7a0_0 : [-1/0,1/0]
RESULT: v0xb9b9980_0 : [0,0]
RESULT: v0x74516b0_0 : [-1/0,10]
RESULT: v0xb07f5a0_0 : [-1/0,1/0]
RESULT: v0x478e2d0_0 : [-1/0,1/0]
