RESULT: v0x126d13b0_0 : [-1/0,1/0]
RESULT: v0x7da2db0_0 : [-1/0,1/0]
RESULT: v0x41000d0_0 : [0,1]
RESULT: v0x45cdb20_0 : [-1/0,1/0]
RESULT: v0x142eaf90_0 : [27,1/0]
RESULT: v0x10476bf0_0 : [-1/0,1/0]
RESULT: v0x10554a90_0 : [-1/0,1/0]
RESULT: v0x11927540_0 : [0,0]
RESULT: v0xf214a50_0 : [-1/0,1/0]
RESULT: v0xb2af390_0 : [-1/0,1/0]
RESULT: v0x129a83a0_0 : [-1/0,1/0]
RESULT: v0x3fa3330_0 : [67,1/0]
RESULT: v0x3fa3430_0 : [-1/0,1/0]
RESULT: v0x3fa3530_0 : [-1/0,1/0]
RESULT: v0x3fa3630_0 : [-1/0,1/0]
RESULT: v0x3fa3730_0 : [-1/0,1/0]
RESULT: v0x3fa3830_0 : [0,1]
RESULT: v0x3fa3930_0 : [-1/0,1/0]
RESULT: v0x3fa3a30_0 : [-1/0,1/0]
RESULT: v0x3fa3b30_0 : [-1/0,1/0]
RESULT: v0x3fa3c30_0 : [0,0]
RESULT: v0x3fa3d30_0 : [-1/0,1/0]
RESULT: v0x3fa3e30_0 : [-1/0,1/0]
RESULT: v0x3fa3f30_0 : [-1/0,1/0]
RESULT: v0xa586f40_0 : [-1/0,1/0]
RESULT: v0x16344f80_0 : [0,0]
RESULT: v0x9bedbd0_0 : [-1/0,10]
RESULT: v0x8236e70_0 : [-1/0,1/0]
RESULT: v0xf214ad0_0 : [-1/0,1/0]
RESULT: v0x3fa4230_0 : [-1/0,1/0]
