RESULT: v0x32d6eb0_0 : [0,1]
RESULT: v0x45ac150_1 : [0,1]
RESULT: v0x45a87d0_1 : [0,1]
RESULT: v0x45abd90_1 : [0,1]
RESULT: v0x4a09960_1 : [0,1]
RESULT: v0x4db6350_1 : [0,1]
RESULT: v0x49b68b0_1 : [0,1]
RESULT: v0x4db69b0_1 : [0,1]
RESULT: v0x4db6130_1 : [0,1]
RESULT: v0x45afd30_1 : [0,1]
RESULT: v0x45b2d30_1 : [0,1]
RESULT: v0x45ad7d0_1 : [0,1]
RESULT: v0x45aacb0_1 : [0,2]
RESULT: v0x417e3e0_1 : [0,2]
RESULT: v0x45af6f0_1 : [0,2]
RESULT: v0x36493b0_1 : [0,2]
RESULT: v0x478c430_1 : [0,2]
RESULT: v0x417f300_1 : [0,2]
RESULT: v0x49be730_1 : [0,2]
RESULT: v0x3ea9e60_1 : [0,2]
RESULT: v0x3ed6190_1 : [0,2]
RESULT: v0x4db7c90_1 : [0,2]
RESULT: v0x3589900_1 : [0,2]
RESULT: v0x457ec30_1 : [0,2]
