RESULT: v0x40cdc20_0 : [-1/0,1/0]
RESULT: v0x40cdb60_0 : [-1/0,1/0]
RESULT: v0x40cd6e0_0 : [-1/0,1/0]
RESULT: v0x40cd7a0_0 : [-1/0,1/0]
RESULT: v0x40cd860_0 : [-1/0,1/0]
RESULT: v0x40cdda0_0 : [-1/0,1/0]
RESULT: v0x40cde60_0 : [-1/0,1/0]
RESULT: v0x4023510_0 : [-1/0,1/0]
RESULT: v0x4023610_0 : [1,1]
RESULT: v0x4023710_0 : [0,1]
RESULT: v0x4023810_0 : [-1/0,1/0]
RESULT: v0x4023910_0 : [-1/0,1/0]
RESULT: v0x4023a10_0 : [-1/0,1/0]
RESULT: v0x4047190_0 : [-1/0,1/0]
RESULT: v0x4023f10_0 : [0,0]
RESULT: v0x4024010_0 : [-1/0,1/0]
RESULT: v0x4024110_0 : [0,0]
RESULT: v0x4062a40_0 : [-1/0,1/0]
RESULT: v0x40cdfe0_0 : [-1/0,1/0]
RESULT: v0x40ce0a0_0 : [-1/0,1/0]
RESULT: v0x40ce160_0 : [-1/0,1/0]
RESULT: v0x40ce220_0 : [-1/0,1/0]
RESULT: v0x40ce4a0_0 : [-1/0,1/0]
RESULT: v0x40ce460_0 : [-1/0,1/0]
RESULT: v0x40ce520_0 : [-1/0,1/0]
RESULT: v0x40ce2e0_0 : [-1/0,1/0]
RESULT: v0x40ce5e0_0 : [-1/0,1/0]
RESULT: v0x40ce6c0_0 : [-1/0,1/0]
RESULT: v0x40ce760_0 : [-1/0,1/0]
RESULT: v0x40cdf20_0 : [-1/0,1/0]
RESULT: v0x40cdaa0_0 : [-1/0,1/0]
RESULT: v0x40cd9e0_0 : [-1/0,1/0]
RESULT: v0x40cdce0_0 : [-1/0,1/0]
RESULT: v0x40cd920_0 : [-1/0,1/0]
