RESULT: v0x5b98b50_0 : [-1/0,1/0]
RESULT: v0x7c21880_0 : [0,1]
RESULT: v0x7a5f930_0 : [-1/0,1/0]
RESULT: v0x5dda0e0_0 : [-1/0,1/0]
RESULT: v0x4fe5910_0 : [67,1/0]
RESULT: v0x508df60_0 : [-1/0,1/0]
RESULT: v0x5bab4a0_0 : [-1/0,1/0]
RESULT: v0x51c05a0_0 : [-1/0,1/0]
RESULT: v0x7012750_0 : [0,0]
RESULT: v0x46b9230_0 : [-1/0,1/0]
RESULT: v0x5bb1c60_0 : [-1/0,1/0]
RESULT: v0x391f010_0 : [-1/0,1/0]
RESULT: v0x391f110_0 : [-1/0,1/0]
RESULT: v0x391f210_0 : [-1/0,1/0]
RESULT: v0x391f310_0 : [-1/0,1/0]
RESULT: v0x391f410_0 : [67,1/0]
RESULT: v0x391f510_0 : [0,1]
RESULT: v0x391f610_0 : [0,1]
RESULT: v0x391f710_0 : [-1/0,1/0]
RESULT: v0x391f810_0 : [-1/0,1/0]
RESULT: v0x391f910_0 : [0,0]
RESULT: v0x391fa10_0 : [-1/0,1/0]
RESULT: v0x391fb10_0 : [-1/0,1/0]
RESULT: v0x391fc10_0 : [-1/0,1/0]
RESULT: v0x391fd10_0 : [-1/0,1/0]
RESULT: v0x7743a70_0 : [-1/0,1/0]
RESULT: v0x890d6f0_0 : [-1/0,1/0]
RESULT: v0x518c460_0 : [0,0]
RESULT: v0x8d8b1e0_0 : [-1/0,10]
RESULT: v0x5bb5040_0 : [-1/0,1/0]
RESULT: v0x3920010_0 : [-1/0,1/0]
