RESULT: v0x39df170_1 : [3,3]
RESULT: v0x3b5f910_1 : [0,1]
RESULT: v0x3b5fb50_1 : [0,1]
RESULT: v0x3b5fd90_1 : [0,1]
RESULT: v0x397b350_1 : [0,1]
RESULT: v0x39f6930_1 : [0,1]
RESULT: v0x3975fe0_1 : [0,1]
RESULT: v0x39dc750_1 : [0,1]
RESULT: v0x39d3150_1 : [0,1]
RESULT: v0x396f8e0_1 : [0,1]
RESULT: v0x39840f0_1 : [0,1]
RESULT: v0x3853580_1 : [0,1]
RESULT: v0x39e72d0_1 : [0,1]
RESULT: v0x384ea80_1 : [0,2]
RESULT: v0x397d770_1 : [0,3]
RESULT: v0x385bb80_1 : [0,1]
RESULT: v0x3985bd0_1 : [123,777]
RESULT: v0x39efe30_1 : [0,666]
RESULT: v0x39e17d0_1 : [0,2]
RESULT: v0x397f760_1 : [0,1]
RESULT: v0x39f0390_1 : [0,2]
RESULT: v0x397cb30_1 : [0,456]
RESULT: v0x3978030_1 : [0,123]
RESULT: v0x3c4a470_1 : [0,456]
RESULT: v0x3c177f0_1 : [0,3]
