RESULT: v0x39e9210_1 : [3,3]
RESULT: v0x3bc0bb0_1 : [0,1]
RESULT: v0x3bc0df0_1 : [0,1]
RESULT: v0x3bc1030_1 : [0,1]
RESULT: v0x39e3010_1 : [0,1]
RESULT: v0x3a67140_1 : [0,1]
RESULT: v0x3a69c20_1 : [0,1]
RESULT: v0x39eddd0_1 : [0,1]
RESULT: v0x3b375c0_1 : [0,1]
RESULT: v0x39ae430_1 : [0,1]
RESULT: v0x3a666a0_1 : [0,1]
RESULT: v0x3a48470_1 : [0,1]
RESULT: v0x3a37df0_1 : [0,1]
RESULT: v0x3a59b10_1 : [0,2]
RESULT: v0x39e5470_1 : [0,3]
RESULT: v0x3a4ca30_1 : [0,1]
RESULT: v0x3a43430_1 : [123,777]
RESULT: v0x3a5bb50_1 : [0,666]
RESULT: v0x3a489f0_1 : [0,2]
RESULT: v0x39e7460_1 : [0,1]
RESULT: v0x3a57b10_1 : [0,2]
RESULT: v0x38be2b0_1 : [0,456]
RESULT: v0x3a61bd0_1 : [0,123]
RESULT: v0x3c77b40_1 : [0,456]
RESULT: v0x3b1a3e0_1 : [0,3]
