RESULT: v0x51172d0_0 : [2,1/0]
RESULT: v0x520d850_0 : [0,1]
RESULT: v0x52359b0_0 : [0,1]
RESULT: v0x525edb0_0 : [123,777]
RESULT: v0x5022490_0 : [0,1]
RESULT: v0x5233830_0 : [0,1]
RESULT: v0x526d1b0_0 : [0,2]
RESULT: v0x5192640_0 : [0,3]
RESULT: v0x52734b0_0 : [0,1]
RESULT: v0x510f7d0_0 : [0,1]
RESULT: v0x5195cc0_0 : [0,1]
RESULT: v0x51f0c10_0 : [0,666]
RESULT: v0x5253350_0 : [0,2]
RESULT: v0x50243d0_0 : [0,456]
RESULT: v0x506e2a0_0 : [0,1]
RESULT: v0x5220430_0 : [0,1]
RESULT: v0x523bbf0_0 : [1,1]
RESULT: v0x5154fb0_0 : [0,3]
RESULT: v0x5237130_0 : [2,2]
RESULT: v0x5039c50_0 : [456,456]
RESULT: v0x517a9b0_0 : [0,1]
RESULT: v0x51175f0_0 : [0,1]
RESULT: v0x4ff1f80_0 : [0,123]
RESULT: v0x5109b60_0 : [0,1]
