RESULT: v0x9967390_0 : [2,2]
RESULT: v0x99b8530_0 : [0,1]
RESULT: v0x7dbed70_0 : [1,1]
RESULT: v0xa10ce50_0 : [0,1]
RESULT: v0x99a7750_0 : [40,120]
RESULT: v0x9c2ed00_0 : [0,1]
RESULT: v0x99eb060_0 : [0,1]
RESULT: v0x9a60740_0 : [0,1]
RESULT: v0xa076e30_0 : [0,1]
RESULT: v0x99f01a0_0 : [0,1]
RESULT: v0x9959650_0 : [0,1]
RESULT: v0x8df3090_0 : [0,1]
RESULT: v0x9c4fca0_0 : [-1/0,1/0]
RESULT: v0x3f531e0_0 : [0,1]
RESULT: v0x3f532e0_0 : [0,1]
RESULT: v0x3f533e0_0 : [0,1]
RESULT: v0x3f534e0_0 : [0,1]
RESULT: v0x3f535e0_0 : [80,120]
RESULT: v0x3f536e0_0 : [0,1]
RESULT: v0x3f537e0_0 : [-1/0,1/0]
RESULT: v0x3f538e0_0 : [0,1]
RESULT: v0x3f539e0_0 : [0,1]
RESULT: v0x3f53ae0_0 : [0,1]
RESULT: v0x3f53be0_0 : [0,1]
RESULT: v0x3f53ce0_0 : [0,1]
RESULT: v0x9d43380_0 : [-1/0,1/0]
RESULT: v0x3f54fe0_0 : [-1/0,1/0]
