RESULT: v0x453fbd0_0 : [-1/0,1/0]
RESULT: v0x45e5a70_0 : [-1/0,1/0]
RESULT: v0x453fe70_0 : [-1/0,1/0]
RESULT: v0x453fed0_0 : [-1/0,1/0]
RESULT: v0x4540760_0 : [-1/0,1/0]
RESULT: v0x453fd50_0 : [-1/0,1/0]
RESULT: v0x4540b80_0 : [-1/0,1/0]
RESULT: v0x453ed40_0 : [-1/0,1/0]
RESULT: v0x4540820_0 : [-1/0,1/0]
RESULT: v0x4540b40_0 : [-1/0,1/0]
RESULT: v0x4541f10_0 : [-1/0,1/0]
RESULT: v0x4541170_0 : [-1/0,1/0]
RESULT: v0x4540be0_0 : [-1/0,1/0]
RESULT: v0x45c7650_0 : [-1/0,1/0]
RESULT: v0x453fb10_0 : [-1/0,1/0]
RESULT: v0x453eec0_0 : [-1/0,1/0]
RESULT: v0x453f040_0 : [-1/0,1/0]
RESULT: v0x453ef80_0 : [-1/0,1/0]
RESULT: v0x453f990_0 : [-1/0,1/0]
RESULT: v0x453fa50_0 : [-1/0,1/0]
RESULT: v0x453f8d0_0 : [-1/0,1/0]
RESULT: v0x453fe30_0 : [-1/0,1/0]
RESULT: v0x453f810_0 : [-1/0,1/0]
RESULT: v0x453f710_0 : [-1/0,1/0]
RESULT: v0x45408e0_0 : [-1/0,1/0]
