RESULT: v0x37aed10_0 : [0,1/0]
RESULT: v0x37fb910_0 : [0,1]
RESULT: v0x36e2270_0 : [0,1]
RESULT: v0x37a0e10_0 : [123,777]
RESULT: v0x37b0390_0 : [0,1]
RESULT: v0x37a7530_0 : [0,1]
RESULT: v0x37f8cf0_0 : [0,1]
RESULT: v0x37a3f30_0 : [0,2]
RESULT: v0x37f1930_0 : [0,3]
RESULT: v0x37d2c30_0 : [0,1]
RESULT: v0x37aeb10_0 : [0,1]
RESULT: v0x37e1ab0_0 : [0,1]
RESULT: v0x3809b10_0 : [0,666]
RESULT: v0x37c98f0_0 : [0,1]
RESULT: v0x3767480_0 : [0,1]
RESULT: v0x38306f0_0 : [0,2]
RESULT: v0x37fa450_0 : [0,456]
RESULT: v0x3815080_0 : [0,123]
RESULT: v0x36e29d0_0 : [0,456]
RESULT: v0x36e1590_0 : [0,2]
RESULT: v0x37af4f0_0 : [0,1]
RESULT: v0x382d0f0_0 : [0,1]
RESULT: v0x37d0ed0_0 : [0,1]
RESULT: v0x3805150_0 : [0,1]
