RESULT: v0x3aa2140_1 : [3,3]
RESULT: v0x3aa2380_1 : [0,1]
RESULT: v0x3aa2500_1 : [0,1]
RESULT: v0x3aa2740_1 : [0,1]
RESULT: v0x3b68340_1 : [0,1]
RESULT: v0x3b681c0_1 : [0,1]
RESULT: v0x3b68040_1 : [0,1]
RESULT: v0x3b67e00_1 : [0,1]
RESULT: v0x3a90ad0_1 : [0,1]
RESULT: v0x3a90b90_1 : [0,1]
RESULT: v0x395d1e0_1 : [123,777]
RESULT: v0x3a90dd0_1 : [0,666]
RESULT: v0x3a90e90_1 : [0,2]
RESULT: v0x3a647c0_1 : [0,1]
RESULT: v0x3a7cc90_1 : [0,2]
RESULT: v0x3a73170_1 : [0,456]
RESULT: v0x3a7d980_1 : [0,123]
RESULT: v0x3a816b0_1 : [0,456]
RESULT: v0x3a85890_1 : [0,3]
RESULT: v0x3a81620_1 : [0,1]
RESULT: v0x3a9a9e0_1 : [0,1]
