RESULT: v0x5542f10_0 : [0,1]
RESULT: v0x55430f0_0 : [1,1]
RESULT: v0x55432f0_0 : [0,1]
RESULT: v0x55434f0_0 : [0,1]
RESULT: v0x55436f0_0 : [0,1]
RESULT: v0x55438f0_0 : [0,1]
RESULT: v0x5543af0_0 : [0,1]
RESULT: v0x5543cf0_0 : [0,1]
RESULT: v0x5543ef0_0 : [0,1]
RESULT: v0x55440f0_0 : [0,1]
RESULT: v0x55442f0_0 : [0,1]
RESULT: v0x55444f0_0 : [0,1]
RESULT: v0x55446f0_0 : [0,1]
RESULT: v0x55448f0_0 : [0,1]
RESULT: v0x5544af0_0 : [0,2]
RESULT: v0x5544cf0_0 : [2,2]
RESULT: v0x5544ef0_0 : [0,2]
RESULT: v0x55450f0_0 : [0,2]
RESULT: v0x55452f0_0 : [0,2]
RESULT: v0x55454f0_0 : [0,2]
RESULT: v0x55456f0_0 : [0,2]
RESULT: v0x55458f0_0 : [0,2]
RESULT: v0x5545af0_0 : [0,2]
RESULT: v0x5545cf0_0 : [0,2]
RESULT: v0x5545ef0_0 : [0,2]
RESULT: v0x55460f0_0 : [0,2]
RESULT: v0x55462f0_0 : [0,2]
RESULT: v0x55464f0_0 : [0,2]
RESULT: v0x55466f0_0 : [2,2]
