RESULT: v0x522bb60_0 : [0,0]
RESULT: v0x4f77b20_0 : [40,40]
RESULT: v0x51f1b20_0 : [0,0]
RESULT: v0x5211920_0 : [1,1]
RESULT: v0x5229530_0 : [1,1]
RESULT: v0x51f41e0_0 : [0,0]
RESULT: v0x4f70f30_0 : [1,1]
RESULT: v0x4f9bfe0_0 : [1,1]
RESULT: v0x4f79a60_0 : [1,1]
RESULT: v0x521d6c0_0 : [1,1]
RESULT: v0x5210160_0 : [1,1]
RESULT: v0x51eab10_0 : [0,0]
RESULT: v0x4f0b120_0 : [0,0]
RESULT: v0x520bbe0_0 : [1,1]
RESULT: v0x47b41d0_0 : [80,80]
RESULT: v0x47b42d0_0 : [0,0]
RESULT: v0x47b43d0_0 : [1,1]
RESULT: v0x47b44d0_0 : [4,4]
RESULT: v0x47b45d0_0 : [1,1]
RESULT: v0x47b46d0_0 : [1,1]
RESULT: v0x47b47d0_0 : [1,1]
RESULT: v0x47b48d0_0 : [1,1]
RESULT: v0x47b49d0_0 : [0,0]
RESULT: v0x47b4ad0_0 : [1,1]
RESULT: v0x47b4bd0_0 : [1,1]
RESULT: v0x47b4cd0_0 : [0,0]
RESULT: v0x47b4dd0_0 : [0,0]
RESULT: v0x47b4ed0_0 : [1,1]
RESULT: v0x522a6b0_0 : [4,4]
RESULT: v0x573a540_0 : [3,3]
RESULT: v0x47b61d0_0 : [5,5]
