RESULT: v0x3fbeb10_0 : [0,1]
RESULT: v0x3fbee10_0 : [-1/0,1/0]
RESULT: v0x6708190_0 : [-1/0,1/0]
RESULT: v0x3fbef10_0 : [-1/0,1]
RESULT: v0x3fbf110_0 : [0,1]
RESULT: v0x3fbe4b0_0 : [0,1]
RESULT: v0x3fbec10_0 : [0,1]
RESULT: v0x3fbe6b0_0 : [0,1]
RESULT: v0x3fbf5d0_0 : [0,1]
RESULT: v0x3fbe2b0_0 : [1,1]
RESULT: v0x3fbe910_0 : [-1/0,1/0]
RESULT: v0x3fbe110_0 : [-1/0,1/0]
RESULT: v0x3fbf310_0 : [-1/0,1/0]
RESULT: v0x67045b0_0 : [-1/0,1/0]
RESULT: v0x67049d0_0 : [-1/0,1/0]
RESULT: v0x67085b0_0 : [-1/0,1/0]
RESULT: v0x3fbf210_0 : [-1/0,1/0]
RESULT: v0x6705d70_0 : [-1/0,1/0]
RESULT: v0x3fbf6d0_0 : [-1/0,1/0]
RESULT: v0x3fbed10_0 : [-1/0,1/0]
RESULT: v0x6706c90_0 : [-1/0,1/0]
RESULT: v0x673a4d0_0 : [-1/0,1/0]
RESULT: v0x66acce0_0 : [0,1]
RESULT: v0x66b0cf0_0 : [-1/0,1/0]
RESULT: v0x67364b0_0 : [0,1]
RESULT: v0x58449b0_0 : [-1/0,1/0]
RESULT: v0x58574b0_0 : [0,1]
RESULT: v0x5843450_0 : [0,1]
RESULT: v0x6769040_0 : [-1/0,1/0]
RESULT: v0x631bc30_0 : [-1/0,1]
RESULT: v0x6694c60_0 : [-1/0,1/0]
RESULT: v0x66af780_0 : [0,1]
RESULT: v0x66ff8f0_0 : [-1/0,1/0]
RESULT: v0x66e2310_0 : [0,1]
RESULT: v0x631e6d0_0 : [-1/0,1/0]
RESULT: v0x66e6310_0 : [0,0]
RESULT: v0x671f970_0 : [0,0]
RESULT: v0x673a490_0 : [0,0]
RESULT: v0x671ceb0_0 : [0,0]
RESULT: v0x66f6350_0 : [0,0]
RESULT: v0x3fc26a0_0 : [-1/0,1/0]
RESULT: v0x3fc0c70_0 : [-1/0,1/0]
RESULT: v0x3fc0d70_0 : [-1/0,1/0]
RESULT: v0x3fc0e70_0 : [-1/0,1/0]
