RESULT: v0x6833eb0_0 : [2,1/0]
RESULT: v0x60981b0_0 : [-1/0,1/0]
RESULT: v0x60983b0_0 : [-1/0,1/0]
RESULT: v0x65e28a0_0 : [0,1]
RESULT: v0x65da250_0 : [0,1]
RESULT: v0x681b360_0 : [0,1]
RESULT: v0x64f75b0_0 : [0,3]
RESULT: v0x6578ef0_0 : [0,1]
RESULT: v0x66d0560_0 : [0,3]
RESULT: v0x655b530_0 : [0,2]
RESULT: v0x6336530_0 : [0,1]
RESULT: v0x632a370_0 : [0,1]
RESULT: v0x65fa100_0 : [0,666]
RESULT: v0x65cdc70_0 : [0,1]
RESULT: v0x681b760_0 : [123,777]
RESULT: v0x6832b90_0 : [0,1]
RESULT: v0x63752b0_0 : [0,1]
RESULT: v0x6831930_0 : [0,1]
RESULT: v0x6832850_0 : [0,456]
RESULT: v0x6832810_0 : [0,2]
RESULT: v0x6834e10_0 : [0,1]
RESULT: v0x66053f0_0 : [0,456]
RESULT: v0x64e7070_0 : [0,2]
RESULT: v0x6371b90_0 : [0,1]
RESULT: v0x65c5570_0 : [0,1]
RESULT: v0x64f2ab0_0 : [0,123]
RESULT: v0x657a070_0 : [0,1]
RESULT: v0x60990b0_0 : [789,789]
RESULT: v0x60980b0_0 : [-1/0,1/0]
RESULT: v0x60982b0_0 : [-1/0,1/0]
RESULT: v0x6097fb0_0 : [-1/0,1/0]
