RESULT: v0x4955d60_0 : [2,1/0]
RESULT: v0x4935ee0_0 : [0,1]
RESULT: v0x49a3540_0 : [0,1]
RESULT: v0x4966f60_0 : [123,777]
RESULT: v0x49ba860_0 : [0,1]
RESULT: v0x49285a0_0 : [0,1]
RESULT: v0x48601c0_0 : [0,2]
RESULT: v0x495b9a0_0 : [0,3]
RESULT: v0x47b8d70_0 : [0,1]
RESULT: v0x4858a60_0 : [0,1]
RESULT: v0x48c3900_0 : [1,1]
RESULT: v0x499c160_0 : [0,0]
RESULT: v0x47405a0_0 : [0,2]
RESULT: v0x4929220_0 : [0,456]
RESULT: v0x47b73d0_0 : [0,1]
RESULT: v0x4725850_0 : [0,1]
RESULT: v0x4986a40_0 : [0,1]
RESULT: v0x48502f0_0 : [3,3]
RESULT: v0x49b9380_0 : [0,2]
RESULT: v0x496fe40_0 : [0,456]
RESULT: v0x48c3ac0_0 : [0,1]
RESULT: v0x4860880_0 : [1,1]
RESULT: v0x4984840_0 : [0,123]
RESULT: v0x4861540_0 : [0,1]
RESULT: v0x45c4e80_0 : [2,2]
RESULT: v0x45c4f80_0 : [0,1]
RESULT: v0x45c5080_0 : [0,456]
RESULT: v0x45c5180_0 : [-1/0,1/0]
RESULT: v0x45c5280_0 : [3,3]
RESULT: v0x45c5380_0 : [2,2]
RESULT: v0x45c5480_0 : [1,1]
RESULT: v0x45c5980_0 : [0,0]
RESULT: v0x45c5a80_0 : [123,777]
RESULT: v0x45c5b80_0 : [0,0]
