RESULT: v0x4551180_0 : [0,1/0]
RESULT: v0x720cfb0_1 : [0,1]
RESULT: v0x71efa40_1 : [0,1]
RESULT: v0x655a920_1 : [0,1]
RESULT: v0x655c380_1 : [0,1]
RESULT: v0x71e83a0_1 : [0,1]
RESULT: v0x71eb6c0_1 : [0,1]
RESULT: v0x71e79c0_1 : [0,1]
RESULT: v0x6559240_1 : [0,1]
RESULT: v0x655f220_1 : [0,1]
RESULT: v0x65537f0_1 : [0,1]
RESULT: v0x655b3c0_1 : [0,1/0]
RESULT: v0x655c7e0_1 : [0,1/0]
RESULT: v0x6564940_1 : [-1/0,2]
RESULT: v0x6564bc0_1 : [-1/0,2]
RESULT: v0x5f60c70_1 : [-1/0,2]
RESULT: v0x7246710_1 : [-1/0,2]
RESULT: v0x5e0e010_1 : [-1/0,2]
RESULT: v0x722c610_1 : [-1/0,2]
RESULT: v0x5dee990_1 : [-1/0,2]
RESULT: v0x7223b10_1 : [-1/0,2]
RESULT: v0x5f34ac0_1 : [0,2]
RESULT: v0x655cb00_1 : [0,2]
RESULT: v0x65536d0_1 : [0,2]
RESULT: v0x72491d0_1 : [0,2]
RESULT: v0x49d7930_1 : [0,2]
