RESULT: v0x4fd6ff0_1 : [3,3]
RESULT: v0x4fd7230_1 : [0,1]
RESULT: v0x4fd73b0_1 : [0,1]
RESULT: v0x4fd75f0_1 : [0,1]
RESULT: v0x509dae0_1 : [0,1]
RESULT: v0x509d960_1 : [0,1]
RESULT: v0x509d7e0_1 : [0,1]
RESULT: v0x509d5a0_1 : [0,1]
RESULT: v0x4fc5980_1 : [0,1]
RESULT: v0x4fc5a40_1 : [0,1]
RESULT: v0x4e934b0_1 : [123,777]
RESULT: v0x4fc5c80_1 : [0,666]
RESULT: v0x4fc5d40_1 : [0,2]
RESULT: v0x4f99c40_1 : [0,1]
RESULT: v0x4fb1dc0_1 : [0,2]
RESULT: v0x4fa7840_1 : [0,456]
RESULT: v0x4fb2af0_1 : [0,123]
RESULT: v0x4fb6950_1 : [0,456]
RESULT: v0x4fbab70_1 : [0,3]
RESULT: v0x4fb68c0_1 : [0,1]
RESULT: v0x4fcf890_1 : [0,1]
