RESULT: v0x3e8a680_0 : [-1/0,1/0]
RESULT: v0x3e89980_0 : [-1/0,1/0]
RESULT: v0x3e89940_0 : [-1/0,1/0]
RESULT: v0x3ec1bd0_0 : [-1/0,1/0]
RESULT: v0x3e8a640_0 : [-1/0,1/0]
RESULT: v0x3e8c300_0 : [-1/0,1/0]
RESULT: v0x3e8c3e0_0 : [-1/0,1/0]
RESULT: v0x3e8c4a0_0 : [-1/0,1/0]
RESULT: v0x3e8c340_0 : [-1/0,1/0]
RESULT: v0x3e8c560_0 : [-1/0,1/0]
RESULT: v0x3e8d520_0 : [-1/0,1/0]
RESULT: v0x3ee0390_0 : [-1/0,1/0]
RESULT: v0x3e88d00_0 : [-1/0,1/0]
RESULT: v0x3e87990_0 : [-1/0,1/0]
RESULT: v0x3e87810_0 : [-1/0,1/0]
RESULT: v0x3e87f70_0 : [-1/0,1/0]
RESULT: v0x3e880f0_0 : [-1/0,1/0]
RESULT: v0x3e88330_0 : [-1/0,1/0]
RESULT: v0x3e883d0_0 : [-1/0,1/0]
RESULT: v0x3e88270_0 : [-1/0,1/0]
RESULT: v0x3e88b00_0 : [-1/0,1/0]
RESULT: v0x3e881b0_0 : [-1/0,1/0]
RESULT: v0x3e88030_0 : [-1/0,1/0]
RESULT: v0x3e8e070_0 : [-1/0,1/0]
RESULT: v0x3e8c260_0 : [-1/0,1/0]
