RESULT: v0x62912e0_0 : [-1/0,1/0]
RESULT: v0xd9b0960_0 : [-1/0,1/0]
RESULT: v0x5fb5090_0 : [-1/0,1/0]
RESULT: v0xd90b790_0 : [0,1]
RESULT: v0x6291040_0 : [67,1/0]
RESULT: v0x53ad9a0_0 : [-1/0,1/0]
RESULT: v0x4af66c0_0 : [-1/0,1/0]
RESULT: v0x4af6640_0 : [-1/0,1/0]
RESULT: v0xd90b750_0 : [0,0]
RESULT: v0x96598d0_0 : [-1/0,1/0]
RESULT: v0x6e20800_0 : [-1/0,1/0]
RESULT: v0x478d2d0_0 : [67,1/0]
RESULT: v0x478d3d0_0 : [0,1]
RESULT: v0x478d4d0_0 : [-1/0,1/0]
RESULT: v0x478d5d0_0 : [-1/0,1/0]
RESULT: v0x478d6d0_0 : [-1/0,1/0]
RESULT: v0x478d7d0_0 : [-1/0,1/0]
RESULT: v0x478d8d0_0 : [0,1]
RESULT: v0x478d9d0_0 : [-1/0,1/0]
RESULT: v0x478dad0_0 : [-1/0,1/0]
RESULT: v0x478dbd0_0 : [0,0]
RESULT: v0x478dcd0_0 : [-1/0,1/0]
RESULT: v0x478ddd0_0 : [-1/0,1/0]
RESULT: v0x478ded0_0 : [-1/0,1/0]
RESULT: v0x478dfd0_0 : [-1/0,1/0]
RESULT: v0x4af6920_0 : [-1/0,1/0]
RESULT: v0xdac1020_0 : [-1/0,1/0]
RESULT: v0xf5a1d50_0 : [0,0]
RESULT: v0x4b08a60_0 : [-1/0,10]
RESULT: v0xdac0de0_0 : [-1/0,1/0]
RESULT: v0x478e2d0_0 : [-1/0,1/0]
