RESULT: v0x52a05d0_0 : [-1/0,1/0]
RESULT: v0x4fa09e0_0 : [-1/0,1/0]
RESULT: v0x6a47230_0 : [0,1]
RESULT: v0x58a0a70_0 : [-1/0,1/0]
RESULT: v0x556f300_0 : [-1/0,1/0]
RESULT: v0x4fadf30_0 : [-1/0,1/0]
RESULT: v0x4fcacc0_0 : [0,0]
RESULT: v0x4e8eda0_0 : [67,1/0]
RESULT: v0x7b250b0_0 : [27,1/0]
RESULT: v0x4e8eea0_0 : [0,1]
RESULT: v0x4e8efa0_0 : [0,1]
RESULT: v0x4e8f0a0_0 : [-1/0,1/0]
RESULT: v0x4e8f1a0_0 : [-1/0,1/0]
RESULT: v0x4e8f2a0_0 : [-1/0,1/0]
RESULT: v0x4e8f3a0_0 : [0,0]
RESULT: v0x4e8f4a0_0 : [-1/0,1/0]
RESULT: v0x4fadeb0_0 : [-1/0,1/0]
RESULT: v0x4e8f5a0_0 : [-1/0,1/0]
RESULT: v0x51a08a0_0 : [-1/0,1/0]
RESULT: v0x4e8f6a0_0 : [-1/0,1/0]
RESULT: v0x4ec8e30_0 : [-1/0,1/0]
RESULT: v0x4e8f7a0_0 : [-1/0,1/0]
RESULT: v0x4e8f8a0_0 : [-1/0,1/0]
RESULT: v0x4e8f9a0_0 : [-1/0,1/0]
RESULT: v0x4e8faa0_0 : [-1/0,1/0]
RESULT: v0x71aeba0_0 : [-1/0,1/0]
RESULT: v0x5662320_0 : [-1/0,1/0]
RESULT: v0x4faeb70_0 : [0,0]
RESULT: v0x534f120_0 : [-1/0,10]
RESULT: v0x545fbd0_0 : [-1/0,1/0]
RESULT: v0x4e8fda0_0 : [-1/0,1/0]
