RESULT: v0x68439f0_0 : [0,1]
RESULT: v0x6843bb0_0 : [0,1]
RESULT: v0x6843db0_0 : [0,1]
RESULT: v0x6843fb0_0 : [0,1]
RESULT: v0x68441b0_0 : [0,1]
RESULT: v0x68443b0_0 : [0,1]
RESULT: v0x68445b0_0 : [0,1]
RESULT: v0x68447b0_0 : [0,1]
RESULT: v0x68449b0_0 : [0,1]
RESULT: v0x6844bb0_0 : [0,1]
RESULT: v0x6844db0_0 : [0,1]
RESULT: v0x6844fb0_0 : [1,1]
RESULT: v0x68451b0_0 : [-1/0,1/0]
RESULT: v0x68453b0_0 : [-1/0,1/0]
RESULT: v0x68455b0_0 : [0,2]
RESULT: v0x68457b0_0 : [0,2]
RESULT: v0x68459b0_0 : [0,2]
RESULT: v0x6845bb0_0 : [0,2]
RESULT: v0x6845db0_0 : [0,2]
RESULT: v0x6845fb0_0 : [0,2]
RESULT: v0x68461b0_0 : [0,2]
RESULT: v0x68463b0_0 : [0,2]
RESULT: v0x68465b0_0 : [0,2]
RESULT: v0x68467b0_0 : [0,2]
RESULT: v0x68469b0_0 : [0,2]
RESULT: v0x6846bb0_0 : [2,2]
