RESULT: v0x383e8d0_1 : [4,4]
RESULT: v0x3837df0_1 : [0,1]
RESULT: v0x3768bc0_1 : [0,1]
RESULT: v0x37e42b0_1 : [0,1]
RESULT: v0x38139c0_1 : [0,1]
RESULT: v0x37bc140_1 : [0,1]
RESULT: v0x3824510_1 : [0,1]
RESULT: v0x383e990_1 : [0,1]
RESULT: v0x37f5010_1 : [0,1]
RESULT: v0x38327b0_1 : [0,1]
RESULT: v0x376a080_1 : [0,1]
RESULT: v0x3805050_1 : [0,1]
RESULT: v0x35f3320_1 : [0,1]
RESULT: v0x35683b0_1 : [0,2]
RESULT: v0x35fce60_1 : [0,3]
RESULT: v0x35a5800_1 : [0,1]
RESULT: v0x347a790_1 : [123,777]
RESULT: v0x35a8d80_1 : [0,666]
RESULT: v0x35fe8e0_1 : [0,2]
RESULT: v0x35f9880_1 : [0,1]
RESULT: v0x3474770_1 : [0,2]
RESULT: v0x375c430_1 : [0,456]
RESULT: v0x36e1050_1 : [0,123]
RESULT: v0x358ff40_1 : [0,456]
