RESULT: v0x3e5a780_0 : [0,0]
RESULT: v0x4323070_1 : [0,1]
RESULT: v0x4325790_1 : [0,1]
RESULT: v0x4322bf0_1 : [0,1]
RESULT: v0x43256d0_1 : [0,1]
RESULT: v0x43228f0_1 : [0,1]
RESULT: v0x4322770_1 : [0,1]
RESULT: v0x40ddcf0_1 : [0,1]
RESULT: v0x40e9780_1 : [0,1]
RESULT: v0x3e9a290_1 : [0,1]
RESULT: v0x3e9fd70_1 : [-1/0,1/0]
RESULT: v0x40c2280_1 : [-1/0,1/0]
RESULT: v0x40e9a80_1 : [0,2]
RESULT: v0x40c83e0_1 : [0,2]
RESULT: v0x40d46e0_1 : [0,2]
RESULT: v0x3f6eff0_1 : [0,2]
RESULT: v0x40cf570_1 : [0,2]
RESULT: v0x43040c0_1 : [0,2]
RESULT: v0x40c9e70_1 : [0,2]
RESULT: v0x40bedc0_1 : [0,2]
RESULT: v0x40dc880_1 : [0,2]
RESULT: v0x430d690_1 : [0,0]
