RESULT: v0x3a4f150_1 : [4,4]
RESULT: v0x3b1f8f0_1 : [0,1]
RESULT: v0x3ac8b20_1 : [0,1]
RESULT: v0x3a63a00_1 : [0,1]
RESULT: v0x3a56430_1 : [0,1]
RESULT: v0x3b16b30_1 : [0,1]
RESULT: v0x3ae3eb0_1 : [0,1]
RESULT: v0x3ac7680_1 : [0,1]
RESULT: v0x3b3ce90_1 : [0,1]
RESULT: v0x3ac9510_1 : [0,1]
RESULT: v0x3b28350_1 : [0,1]
RESULT: v0x3a1b920_1 : [0,1]
RESULT: v0x39066f0_1 : [0,1]
RESULT: v0x38f2010_1 : [0,2]
RESULT: v0x3895e90_1 : [0,3]
RESULT: v0x38eea50_1 : [0,1]
RESULT: v0x38ecf70_1 : [123,777]
RESULT: v0x3904bd0_1 : [0,666]
RESULT: v0x3909150_1 : [0,2]
RESULT: v0x38f6ff0_1 : [0,1]
RESULT: v0x38f7b50_1 : [0,2]
RESULT: v0x3a4e330_1 : [0,456]
RESULT: v0x39dae20_1 : [0,123]
RESULT: v0x386a420_1 : [0,456]
