RESULT: v0x48ba6e0_0 : [-1/0,1/0]
RESULT: v0x48babe0_0 : [-1/0,1/0]
RESULT: v0x48bb7e0_0 : [789,789]
RESULT: v0x48ba8e0_0 : [-1/0,1/0]
RESULT: v0x48baae0_0 : [-1/0,1/0]
RESULT: v0x48ba7e0_0 : [-1/0,1/0]
RESULT: v0x4f5e8e0_1 : [4,4]
RESULT: v0x4f0a7e0_1 : [0,1]
RESULT: v0x4fb19a0_1 : [0,1]
RESULT: v0x4f83be0_1 : [0,1]
RESULT: v0x4f42be0_1 : [0,1]
RESULT: v0x4ee2f60_1 : [0,1]
RESULT: v0x4f6d2a0_1 : [0,1]
RESULT: v0x4f1bfe0_1 : [0,1]
RESULT: v0x4f7e960_1 : [0,1]
RESULT: v0x4f22660_1 : [0,1]
RESULT: v0x4f020e0_1 : [0,1]
RESULT: v0x4fda2a0_1 : [0,1]
RESULT: v0x4fda520_1 : [0,2]
RESULT: v0x4fd8fa0_1 : [0,3]
RESULT: v0x4fd9260_1 : [0,1]
RESULT: v0x4fd8da0_1 : [123,777]
RESULT: v0x4fd92a0_1 : [0,666]
RESULT: v0x4fd90a0_1 : [0,2]
RESULT: v0x4fd95e0_1 : [0,1]
RESULT: v0x4f4aa20_1 : [0,2]
RESULT: v0x4f9d5e0_1 : [0,456]
RESULT: v0x4ed1c60_1 : [0,123]
RESULT: v0x4fa9660_1 : [0,456]
RESULT: v0x4f33320_1 : [0,3]
RESULT: v0x4fb7620_1 : [0,1]
