RESULT: v0x3d9aff0_1 : [-1/0,11]
RESULT: v0x3e7e410_1 : [-1/0,1/0]
RESULT: v0x3d7f240_1 : [0,1]
RESULT: v0x3db94e0_1 : [-1/0,1/0]
RESULT: v0x3d7f180_1 : [-1/0,1/0]
RESULT: v0x3ea93d0_1 : [-1/0,1/0]
RESULT: v0x3d7f120_1 : [-1/0,1/0]
RESULT: v0x3c5d9f0_1 : [-1/0,1/0]
RESULT: v0x3dfee10_1 : [-1/0,1/0]
RESULT: v0x3c5da30_1 : [-1/0,1/0]
RESULT: v0x3f0b900_1 : [-1/0,1/0]
RESULT: v0x3f0ba80_1 : [-1/0,1/0]
RESULT: v0x3dbab00_1 : [-1/0,1/0]
RESULT: v0x3d976d0_1 : [-1/0,1/0]
RESULT: v0x3f0b2c0_1 : [-1/0,1/0]
RESULT: v0x3dff050_1 : [-1/0,1/0]
