RESULT: v0x576eab0_0 : [-1/0,1/0]
RESULT: v0x576efb0_0 : [-1/0,1/0]
RESULT: v0x576fbb0_0 : [789,789]
RESULT: v0x576ecb0_0 : [-1/0,1/0]
RESULT: v0x576eeb0_0 : [-1/0,1/0]
RESULT: v0x576ebb0_0 : [-1/0,1/0]
RESULT: v0x5c9f3b0_1 : [3,3]
RESULT: v0x5c9f630_1 : [0,1]
RESULT: v0x5c9f4f0_1 : [0,1]
RESULT: v0x5c9ed70_1 : [0,1]
RESULT: v0x5ca20b0_1 : [0,1]
RESULT: v0x5ca0670_1 : [0,1]
RESULT: v0x5ca49f0_1 : [0,1]
RESULT: v0x5ca66b0_1 : [0,1]
RESULT: v0x5caadf0_1 : [0,1]
RESULT: v0x5caaf30_1 : [0,1]
RESULT: v0x5caab70_1 : [0,1]
RESULT: v0x5ca8230_1 : [0,1]
RESULT: v0x5a29870_1 : [0,1]
RESULT: v0x5bb9570_1 : [0,2]
RESULT: v0x5bc73f0_1 : [0,3]
RESULT: v0x5c8b3b0_1 : [0,1]
RESULT: v0x5b85630_1 : [123,777]
RESULT: v0x5c8e970_1 : [0,666]
RESULT: v0x5c4cf70_1 : [0,2]
RESULT: v0x5bb19b0_1 : [0,1]
RESULT: v0x5bc2cb0_1 : [0,2]
RESULT: v0x5bc2df0_1 : [0,456]
RESULT: v0x5bb9430_1 : [0,123]
RESULT: v0x5bef530_1 : [0,456]
RESULT: v0x5c5f030_1 : [0,3]
