RESULT: v0x44bc8f0_0 : [1,2]
RESULT: v0x44bbc90_0 : [0,54]
RESULT: v0x44bbb90_0 : [0,53]
RESULT: v0x44bb8f0_0 : [0,51]
RESULT: v0x44bb9f0_0 : [0,52]
RESULT: v0x44bb7f0_0 : [0,50]
RESULT: v0x44bcbf0_0 : [-1/0,1/0]
RESULT: v0x6d70400_0 : [-1/0,1/0]
RESULT: v0x6d70500_0 : [-1/0,1/0]
RESULT: v0x6d70600_0 : [-1/0,1/0]
RESULT: v0x6d70700_0 : [0,1]
RESULT: v0x6d70800_0 : [0,1/0]
RESULT: v0x6d67db0_0 : [0,1/0]
RESULT: v0x6d67eb0_0 : [-1/0,4]
RESULT: v0x6d67fb0_0 : [-1/0,1/0]
RESULT: v0x6d680b0_0 : [-1/0,1/0]
RESULT: v0x6d710a0_0 : [-1/0,1/0]
RESULT: v0x6d711a0_0 : [-1/0,1/0]
RESULT: v0x6d712a0_0 : [-1/0,1/0]
RESULT: v0x6d713a0_0 : [-1/0,1/0]
RESULT: v0x6d714a0_0 : [-1/0,1/0]
RESULT: v0x6d715a0_0 : [-1/0,1/0]
