RESULT: v0x4775dd0_0 : [-1/0,1/0]
RESULT: v0x48ec8d0_0 : [-1/0,1/0]
RESULT: v0x48ec0d0_0 : [-1/0,1/0]
RESULT: v0x4773750_0 : [-1/0,1/0]
RESULT: v0x48eb6d0_0 : [-1/0,1/0]
RESULT: v0x48ebf20_0 : [-1/0,1/0]
RESULT: v0x4775d90_0 : [-1/0,1/0]
RESULT: v0x48ebfe0_0 : [-1/0,1/0]
RESULT: v0x48ecad0_0 : [-1/0,1/0]
RESULT: v0x4e7eae0_0 : [-1/0,1/0]
RESULT: v0x4e43e50_0 : [-1/0,1/0]
RESULT: v0x4e43310_0 : [-1/0,1/0]
RESULT: v0x4e8e2a0_0 : [-1/0,1/0]
RESULT: v0x48ec1a0_0 : [-1/0,1/0]
RESULT: v0x48eb550_0 : [-1/0,1/0]
RESULT: v0x48eb3d0_0 : [-1/0,1/0]
RESULT: v0x48eb490_0 : [-1/0,1/0]
RESULT: v0x48eb610_0 : [-1/0,1/0]
RESULT: v0x48eca10_0 : [-1/0,1/0]
RESULT: v0x48ec990_0 : [-1/0,1/0]
RESULT: v0x48eab70_0 : [-1/0,1/0]
RESULT: v0x4e69250_0 : [-1/0,1/0]
RESULT: v0x48eb310_0 : [-1/0,1/0]
RESULT: v0x48eaf30_0 : [-1/0,1/0]
