RESULT: v0x54cfee0_0 : [-1/0,1/0]
RESULT: v0x57a9940_0 : [-1/0,1/0]
RESULT: v0x57a9a80_0 : [-1/0,1/0]
RESULT: v0x57aa200_0 : [-1/0,1/0]
RESULT: v0x57aa0c0_0 : [-1/0,1/0]
RESULT: v0x57a9f80_0 : [-1/0,1/0]
RESULT: v0x57a96c0_0 : [-1/0,1/0]
RESULT: v0x57a9580_0 : [-1/0,1/0]
RESULT: v0x57aa340_0 : [-1/0,1/0]
RESULT: v0x57a4bc0_0 : [-1/0,1/0]
RESULT: v0x57aa480_0 : [-1/0,1/0]
RESULT: v0x57a9300_0 : [-1/0,1/0]
RESULT: v0x57a91c0_0 : [-1/0,1/0]
RESULT: v0x57a9080_0 : [-1/0,1/0]
RESULT: v0x57a8f40_0 : [-1/0,1/0]
RESULT: v0x57a8e00_0 : [-1/0,1/0]
RESULT: v0x57a8cc0_0 : [-1/0,1/0]
RESULT: v0x575d110_0 : [-1/0,1/0]
RESULT: v0x579e400_0 : [-1/0,1/0]
RESULT: v0x5780540_0 : [-1/0,1/0]
RESULT: v0x57c1e00_0 : [-1/0,1/0]
RESULT: v0x57a9bc0_0 : [-1/0,1/0]
RESULT: v0x57a9440_0 : [-1/0,1/0]
RESULT: v0x57a9800_0 : [-1/0,1/0]
RESULT: v0x57a9d00_0 : [-1/0,1/0]
RESULT: v0x57a9e40_0 : [-1/0,1/0]
