RESULT: v0x44d8ea0_0 : [-1/0,1/0]
RESULT: v0x44d94a0_0 : [-1/0,1/0]
RESULT: v0x44d9b20_0 : [-1/0,1/0]
RESULT: v0x44d8dc0_0 : [-1/0,1/0]
RESULT: v0x44d8e60_0 : [-1/0,1/0]
RESULT: v0x44d8f40_0 : [-1/0,1/0]
RESULT: v0x4511170_0 : [-1/0,1/0]
RESULT: v0x44d9540_0 : [-1/0,1/0]
RESULT: v0x45021b0_0 : [-1/0,1/0]
RESULT: v0x44d72a0_0 : [-1/0,1/0]
RESULT: v0x44d7200_0 : [-1/0,1/0]
RESULT: v0x4023510_0 : [-1/0,1/0]
RESULT: v0x4023610_0 : [1,1]
RESULT: v0x4023710_0 : [0,1]
RESULT: v0x4023810_0 : [-1/0,1/0]
RESULT: v0x4023910_0 : [-1/0,1/0]
RESULT: v0x4023a10_0 : [-1/0,1/0]
RESULT: v0x4023f10_0 : [0,0]
RESULT: v0x4024010_0 : [-1/0,1/0]
RESULT: v0x4024110_0 : [0,0]
RESULT: v0x47e8310_0 : [-1/0,1/0]
RESULT: v0x44d8830_0 : [-1/0,1/0]
RESULT: v0x44d7b20_0 : [-1/0,1/0]
RESULT: v0x44d7a80_0 : [-1/0,1/0]
RESULT: v0x44d8230_0 : [-1/0,1/0]
RESULT: v0x44d8190_0 : [-1/0,1/0]
RESULT: v0x44d8790_0 : [-1/0,1/0]
RESULT: v0x44d8530_0 : [-1/0,1/0]
RESULT: v0x44d86b0_0 : [-1/0,1/0]
RESULT: v0x44d8470_0 : [-1/0,1/0]
RESULT: v0x44d8750_0 : [-1/0,1/0]
RESULT: v0x44d83b0_0 : [-1/0,1/0]
RESULT: v0x44d9a80_0 : [-1/0,1/0]
RESULT: v0x44d7240_0 : [-1/0,1/0]
