RESULT: v0x4cde190_0 : [1,1]
RESULT: v0x4cd4790_0 : [40,40]
RESULT: v0x4cd3c50_0 : [0,0]
RESULT: v0x4cd3770_0 : [0,0]
RESULT: v0x4cd2cf0_0 : [0,0]
RESULT: v0x4cd2b30_0 : [0,0]
RESULT: v0x4cd25f0_0 : [1,1]
RESULT: v0x4cd24b0_0 : [0,0]
RESULT: v0x4cd1970_0 : [0,0]
RESULT: v0x4cd1d70_0 : [1,1]
RESULT: v0x4cd2310_0 : [1,1]
RESULT: v0x4cd2130_0 : [1,1]
RESULT: v0x4cd1fd0_0 : [1,1]
RESULT: v0x4cd1a30_0 : [1,1]
RESULT: v0x47b41d0_0 : [80,80]
RESULT: v0x47b42d0_0 : [0,0]
RESULT: v0x47b43d0_0 : [0,0]
RESULT: v0x47b44d0_0 : [4,4]
RESULT: v0x47b45d0_0 : [1,1]
RESULT: v0x47b46d0_0 : [1,1]
RESULT: v0x47b47d0_0 : [1,1]
RESULT: v0x47b48d0_0 : [1,1]
RESULT: v0x47b49d0_0 : [0,0]
RESULT: v0x47b4ad0_0 : [1,1]
RESULT: v0x47b4bd0_0 : [1,1]
RESULT: v0x47b4cd0_0 : [0,0]
RESULT: v0x47b4dd0_0 : [0,0]
RESULT: v0x47b4ed0_0 : [1,1]
RESULT: v0x4cd35d0_0 : [4,4]
RESULT: v0x4faa300_0 : [0,0]
RESULT: v0x47b51d0_0 : [5,5]
