RESULT: v0x84c8070_0 : [0,1]
RESULT: v0x84c8190_0 : [-1/0,1/0]
RESULT: v0x8498fe0_0 : [1,1]
RESULT: v0x84bf0b0_0 : [4,10]
RESULT: v0x848cf80_0 : [40,120]
RESULT: v0x7e523e0_0 : [0,1]
RESULT: v0x7e522e0_0 : [0,1]
RESULT: v0x8214480_0 : [0,1]
RESULT: v0x8214500_0 : [0,1]
RESULT: v0x84c8b90_0 : [1,1]
RESULT: v0x8487d80_0 : [0,1]
RESULT: v0x8234da0_0 : [0,1]
RESULT: v0x84c9e90_0 : [0,0]
RESULT: v0x44496e0_0 : [80,120]
RESULT: v0x44497e0_0 : [0,1]
RESULT: v0x44498e0_0 : [-1/0,1/0]
RESULT: v0x44499e0_0 : [1,1]
RESULT: v0x4449ae0_0 : [1,1]
RESULT: v0x4449be0_0 : [0,1]
RESULT: v0x4449ce0_0 : [0,1]
RESULT: v0x4449de0_0 : [1,1]
RESULT: v0x4449ee0_0 : [0,1]
RESULT: v0x4449fe0_0 : [0,1]
RESULT: v0x444a0e0_0 : [0,1]
RESULT: v0x444a1e0_0 : [0,1]
RESULT: v0x8969360_0 : [0,0]
RESULT: v0x444a4e0_0 : [-1/0,1/0]
