RESULT: v0x5756c50_0 : [-1/0,1/0]
RESULT: v0x5756e50_0 : [-1/0,1/0]
RESULT: v0x5757b50_0 : [789,789]
RESULT: v0x5756b50_0 : [-1/0,1/0]
RESULT: v0x5756d50_0 : [-1/0,1/0]
RESULT: v0x5756a50_0 : [-1/0,1/0]
RESULT: v0x5c920f0_1 : [3,3]
RESULT: v0x5c92730_1 : [0,1]
RESULT: v0x5c92230_1 : [0,1]
RESULT: v0x5c91ab0_1 : [0,1]
RESULT: v0x5c951b0_1 : [0,1]
RESULT: v0x5c93770_1 : [0,1]
RESULT: v0x5c970f0_1 : [0,1]
RESULT: v0x5c9caf0_1 : [0,1]
RESULT: v0x5c9be70_1 : [0,1]
RESULT: v0x5c9bfb0_1 : [0,1]
RESULT: v0x5c9bbf0_1 : [0,1]
RESULT: v0x5c9b830_1 : [0,1]
RESULT: v0x5bd7370_1 : [0,2]
RESULT: v0x5c74870_1 : [0,3]
RESULT: v0x5b942f0_1 : [0,1]
RESULT: v0x5c31930_1 : [123,777]
RESULT: v0x5ca5330_1 : [0,666]
RESULT: v0x5c4eb70_1 : [0,2]
RESULT: v0x5ca50b0_1 : [0,1]
RESULT: v0x5b88630_1 : [0,2]
RESULT: v0x5c4def0_1 : [0,456]
RESULT: v0x5c50470_1 : [0,123]
RESULT: v0x5c54f70_1 : [0,456]
RESULT: v0x5bb71b0_1 : [0,3]
RESULT: v0x5bbd5b0_1 : [0,1]
