RESULT: v0x3fc86e0_1 : [3,3]
RESULT: v0x3fc8620_1 : [0,1]
RESULT: v0x3fc8560_1 : [0,1]
RESULT: v0x3e8f140_1 : [0,1]
RESULT: v0x40db9e0_1 : [0,1]
RESULT: v0x40db920_1 : [0,1]
RESULT: v0x40db8a0_1 : [0,1]
RESULT: v0x40db4a0_1 : [0,1]
RESULT: v0x3fc8c20_1 : [0,1]
RESULT: v0x3fc8ce0_1 : [0,1]
RESULT: v0x3e922f0_1 : [0,1]
RESULT: v0x3fc8f20_1 : [123,777]
RESULT: v0x3fc8fe0_1 : [0,666]
RESULT: v0x3fc90a0_1 : [0,2]
RESULT: v0x3fb2b30_1 : [0,1]
RESULT: v0x3fb5210_1 : [0,2]
RESULT: v0x3faa5c0_1 : [0,456]
RESULT: v0x3fb5fc0_1 : [0,123]
RESULT: v0x3fb9c30_1 : [0,456]
RESULT: v0x3fbdfc0_1 : [0,3]
RESULT: v0x3fb9ba0_1 : [0,1]
RESULT: v0x3fd1dd0_1 : [0,1]
