RESULT: v0x83589f0_0 : [-1/0,1/0]
RESULT: v0xc11c0a0_0 : [-1/0,1/0]
RESULT: v0xb17d970_0 : [-1/0,1/0]
RESULT: v0x623e420_0 : [0,1]
RESULT: v0xc0d78e0_0 : [-1/0,1/0]
RESULT: v0xc0da5f0_0 : [-1/0,1/0]
RESULT: v0xc116fb0_0 : [0,0]
RESULT: v0x4e8eda0_0 : [67,1/0]
RESULT: v0xcf00c10_0 : [67,1/0]
RESULT: v0x4e8eea0_0 : [0,1]
RESULT: v0x4e8efa0_0 : [0,1]
RESULT: v0x4e8f0a0_0 : [-1/0,1/0]
RESULT: v0x4e8f1a0_0 : [-1/0,1/0]
RESULT: v0x4e8f2a0_0 : [0,0]
RESULT: v0x4e8f3a0_0 : [-1/0,1/0]
RESULT: v0x4e8f4a0_0 : [-1/0,1/0]
RESULT: v0x836bcb0_0 : [-1/0,1/0]
RESULT: v0x4e8f5a0_0 : [-1/0,1/0]
RESULT: v0x556c260_0 : [-1/0,1/0]
RESULT: v0x4e8f6a0_0 : [-1/0,1/0]
RESULT: v0xc520840_0 : [-1/0,1/0]
RESULT: v0x4e8f7a0_0 : [-1/0,1/0]
RESULT: v0x4e8f8a0_0 : [-1/0,1/0]
RESULT: v0x4e8f9a0_0 : [-1/0,1/0]
RESULT: v0x4e8faa0_0 : [-1/0,1/0]
RESULT: v0x8373e10_0 : [-1/0,1/0]
RESULT: v0x65788d0_0 : [-1/0,1/0]
RESULT: v0xa1d65b0_0 : [0,0]
RESULT: v0x66960d0_0 : [-1/0,10]
RESULT: v0x67c8510_0 : [-1/0,1/0]
RESULT: v0x4e8fda0_0 : [-1/0,1/0]
