RESULT: v0x4d52410_0 : [2,1/0]
RESULT: v0x50b2d90_0 : [0,1]
RESULT: v0x4ed5990_0 : [0,1]
RESULT: v0x4ecd150_0 : [123,777]
RESULT: v0x4fa19a0_0 : [0,1]
RESULT: v0x502ea70_0 : [0,1]
RESULT: v0x4d5b590_0 : [0,2]
RESULT: v0x5023a50_0 : [0,1]
RESULT: v0x502b090_0 : [0,456]
RESULT: v0x50886b0_0 : [0,1]
RESULT: v0x505c8f0_0 : [0,666]
RESULT: v0x500ce10_0 : [0,1]
RESULT: v0x50b6ab0_0 : [0,2]
RESULT: v0x4f9bf10_0 : [0,456]
RESULT: v0x5032390_0 : [0,1]
RESULT: v0x5053d30_0 : [0,1]
RESULT: v0x4e4bdc0_0 : [0,1]
RESULT: v0x4f8e840_0 : [0,123]
RESULT: v0x5063ab0_0 : [0,1]
RESULT: v0x501f930_0 : [0,3]
RESULT: v0x5047c90_0 : [0,1]
RESULT: v0x50694b0_0 : [0,1]
RESULT: v0x4d37a00_0 : [-1/0,1/0]
RESULT: v0x4d37700_0 : [0,456]
RESULT: v0x4d38900_0 : [-1/0,1/0]
RESULT: v0x4d38a00_0 : [0,456]
RESULT: v0x4d38b00_0 : [0,1]
RESULT: v0x4d38f00_0 : [1,2]
RESULT: v0x4d39000_0 : [0,2]
RESULT: v0x4d39100_0 : [0,1]
RESULT: v0x4d39200_0 : [0,1]
RESULT: v0x4d3a800_0 : [0,0]
RESULT: v0x4d3a900_0 : [123,777]
RESULT: v0x4d3aa00_0 : [0,0]
RESULT: v0x4d3ab00_0 : [1,1]
RESULT: v0x4d3ac00_0 : [1,3]
RESULT: v0x4d3ad00_0 : [2,2]
RESULT: v0x4d3ae00_0 : [1,1]
RESULT: v0x4d3af00_0 : [1,3]
RESULT: v0x4d3b900_0 : [0,0]
RESULT: v0x4d3ba00_0 : [0,123]
RESULT: v0x4d3bb00_0 : [0,0]
RESULT: v0x4d3bc00_0 : [0,1]
RESULT: v0x4d3bd00_0 : [2,2]
RESULT: v0x4d3be00_0 : [2,2]
RESULT: v0x4d3bf00_0 : [0,0]
RESULT: v0x4d3c100_0 : [0,1]
RESULT: v0x4d37900_0 : [0,1]
