RESULT: v0x4285b40_1 : [-1/0,11]
RESULT: v0x4285560_1 : [-1/0,1/0]
RESULT: v0x42857e0_1 : [-1/0,1/0]
RESULT: v0x4285620_1 : [-1/0,1/0]
RESULT: v0x4285a40_1 : [-1/0,1/0]
RESULT: v0x4284b80_1 : [-1/0,1/0]
RESULT: v0x42846a0_1 : [-1/0,1/0]
RESULT: v0x42849e0_1 : [-1/0,1/0]
RESULT: v0x4284840_1 : [-1/0,1/0]
RESULT: v0x4284c80_1 : [-1/0,1/0]
RESULT: v0x4283e80_1 : [-1/0,1/0]
