RESULT: v0x3a6dba0_1 : [-1/0,2]
RESULT: v0x3a6d790_1 : [-1/0,1/0]
RESULT: v0x3a6d5a0_1 : [-1/0,1/0]
RESULT: v0x3a6d2a0_1 : [-1/0,1/0]
RESULT: v0x3a6cfe0_1 : [-1/0,1]
RESULT: v0x3a6cd00_1 : [-1/0,1/0]
RESULT: v0x3a6c9e0_1 : [-1/0,1/0]
RESULT: v0x3a6c820_1 : [-1/0,1/0]
RESULT: v0x3a74140_1 : [-1/0,1/0]
RESULT: v0x3a6be80_1 : [-1/0,1/0]
RESULT: v0x3a6b080_1 : [-1/0,1/0]
