RESULT: v0x44c5700_0 : [-1/0,1/0]
RESULT: v0x4545860_0 : [-1/0,1/0]
RESULT: v0x114af8e0_0 : [0,1]
RESULT: v0x1441d420_0 : [-1/0,1/0]
RESULT: v0x44c56a0_0 : [27,1/0]
RESULT: v0x6936750_0 : [-1/0,1/0]
RESULT: v0x9be4d90_0 : [-1/0,1/0]
RESULT: v0x11d265a0_0 : [0,0]
RESULT: v0x9be4d10_0 : [-1/0,1/0]
RESULT: v0x114af7a0_0 : [-1/0,1/0]
RESULT: v0x14011ac0_0 : [-1/0,1/0]
RESULT: v0x3f94330_0 : [67,1/0]
RESULT: v0x3f94430_0 : [0,1]
RESULT: v0x3f94530_0 : [-1/0,1/0]
RESULT: v0x3f94630_0 : [-1/0,1/0]
RESULT: v0x3f94730_0 : [-1/0,1/0]
RESULT: v0x3f94830_0 : [-1/0,1/0]
RESULT: v0x3f94930_0 : [0,1]
RESULT: v0x3f94a30_0 : [-1/0,1/0]
RESULT: v0x3f94b30_0 : [-1/0,1/0]
RESULT: v0x3f94c30_0 : [-1/0,1/0]
RESULT: v0x3f94d30_0 : [0,0]
RESULT: v0x3f94e30_0 : [-1/0,1/0]
RESULT: v0x3f94f30_0 : [-1/0,1/0]
RESULT: v0x3f95030_0 : [-1/0,1/0]
RESULT: v0xabccfb0_0 : [-1/0,1/0]
RESULT: v0x40ff6b0_0 : [-1/0,1/0]
RESULT: v0x93d9c10_0 : [0,0]
RESULT: v0x9bd7bb0_0 : [-1/0,10]
RESULT: v0x7458810_0 : [-1/0,1/0]
RESULT: v0x3f95330_0 : [-1/0,1/0]
