RESULT: v0x7069ef0_0 : [-1/0,1/0]
RESULT: v0x9ddef20_0 : [-1/0,1/0]
RESULT: v0x16399fb0_0 : [0,1]
RESULT: v0x13e8c7c0_0 : [-1/0,1/0]
RESULT: v0x410be20_0 : [27,1/0]
RESULT: v0x40e4db0_0 : [-1/0,1/0]
RESULT: v0x10076d70_0 : [-1/0,1/0]
RESULT: v0x528db60_0 : [0,0]
RESULT: v0x16c45c90_0 : [-1/0,1/0]
RESULT: v0x4b68d70_0 : [-1/0,1/0]
RESULT: v0x7069e70_0 : [-1/0,1/0]
RESULT: v0x3fa3330_0 : [67,1/0]
RESULT: v0x3fa3430_0 : [-1/0,1/0]
RESULT: v0x3fa3530_0 : [-1/0,1/0]
RESULT: v0x3fa3630_0 : [-1/0,1/0]
RESULT: v0x3fa3730_0 : [-1/0,1/0]
RESULT: v0x3fa3830_0 : [0,1]
RESULT: v0x3fa3930_0 : [-1/0,1/0]
RESULT: v0x3fa3a30_0 : [-1/0,1/0]
RESULT: v0x3fa3b30_0 : [-1/0,1/0]
RESULT: v0x3fa3c30_0 : [0,0]
RESULT: v0x3fa3d30_0 : [-1/0,1/0]
RESULT: v0x3fa3e30_0 : [-1/0,1/0]
RESULT: v0x3fa3f30_0 : [-1/0,1/0]
RESULT: v0x10814450_0 : [-1/0,1/0]
RESULT: v0x9c38f00_0 : [0,0]
RESULT: v0x1458d440_0 : [-1/0,10]
RESULT: v0xa5730f0_0 : [-1/0,1/0]
RESULT: v0x16c45d10_0 : [-1/0,1/0]
RESULT: v0x3fa4230_0 : [-1/0,1/0]
