RESULT: v0x3d0ec10_0 : [2,1/0]
RESULT: v0x3cdb240_0 : [0,1]
RESULT: v0x3f52970_0 : [0,1]
RESULT: v0x3e349b0_0 : [0,1]
RESULT: v0x414bb90_0 : [0,1]
RESULT: v0x3f54970_0 : [0,1]
RESULT: v0x3d88e00_0 : [0,1]
RESULT: v0x4151130_0 : [0,1]
RESULT: v0x41430d0_0 : [0,0]
RESULT: v0x412c370_0 : [0,1]
RESULT: v0x3f88980_0 : [1,1]
RESULT: v0x4134590_0 : [1,1]
RESULT: v0x4145e50_0 : [1,1]
RESULT: v0x415b470_0 : [123,777]
RESULT: v0x3db0ff0_0 : [0,666]
RESULT: v0x41406d0_0 : [2,2]
RESULT: v0x3e34ad0_0 : [0,0]
RESULT: v0x414d2b0_0 : [456,456]
RESULT: v0x3f78cc0_0 : [0,0]
RESULT: v0x3bd7ed0_0 : [0,0]
RESULT: v0x3bd7fd0_0 : [0,456]
RESULT: v0x3bd75d0_0 : [-1/0,1/0]
RESULT: v0x3bd72d0_0 : [456,456]
RESULT: v0x3bd74d0_0 : [0,0]
RESULT: v0x3bd84d0_0 : [0,0]
RESULT: v0x3bd85d0_0 : [0,456]
