RESULT: v0x495f070_0 : [-1/0,1/0]
RESULT: v0x495f2f0_0 : [-1/0,1/0]
RESULT: v0x4960470_0 : [-1/0,1/0]
RESULT: v0x49601f0_0 : [-1/0,1/0]
RESULT: v0x495eb70_0 : [27,1/0]
RESULT: v0x49606f0_0 : [-1/0,1/0]
RESULT: v0x4960970_0 : [-1/0,1/0]
RESULT: v0x4960bf0_0 : [-1/0,1/0]
RESULT: v0x495fa70_0 : [0,0]
RESULT: v0x495f570_0 : [-1/0,1/0]
RESULT: v0x495f7f0_0 : [-1/0,1/0]
RESULT: v0x478d2d0_0 : [67,1/0]
RESULT: v0x478d3d0_0 : [0,1]
RESULT: v0x478d4d0_0 : [-1/0,1/0]
RESULT: v0x478d5d0_0 : [-1/0,1/0]
RESULT: v0x478d6d0_0 : [-1/0,1/0]
RESULT: v0x478d7d0_0 : [-1/0,1/0]
RESULT: v0x478d8d0_0 : [0,1]
RESULT: v0x478d9d0_0 : [-1/0,1/0]
RESULT: v0x478dad0_0 : [-1/0,1/0]
RESULT: v0x478dbd0_0 : [-1/0,1/0]
RESULT: v0x478dcd0_0 : [-1/0,1/0]
RESULT: v0x478ddd0_0 : [-1/0,1/0]
RESULT: v0x478ded0_0 : [-1/0,1/0]
RESULT: v0x478dfd0_0 : [-1/0,1/0]
RESULT: v0x495fcf0_0 : [-1/0,1/0]
RESULT: v0x495ff70_0 : [-1/0,1/0]
RESULT: v0x4a5ebf0_0 : [0,0]
RESULT: v0x495e7b0_0 : [-1/0,10]
RESULT: v0x495edf0_0 : [-1/0,1/0]
RESULT: v0x478e2d0_0 : [-1/0,1/0]
