RESULT: v0x549b090_0 : [-1/0,1/0]
RESULT: v0x549ae50_0 : [-1/0,1/0]
RESULT: v0x549afd0_0 : [-1/0,1/0]
RESULT: v0x5499870_0 : [-1/0,1/0]
RESULT: v0x549ad90_0 : [-1/0,1/0]
RESULT: v0x54997b0_0 : [-1/0,1/0]
RESULT: v0x549bbd0_0 : [-1/0,1/0]
RESULT: v0x54ad990_0 : [-1/0,1/0]
RESULT: v0x549af10_0 : [-1/0,1/0]
RESULT: v0x549b990_0 : [-1/0,1/0]
RESULT: v0x549bb10_0 : [-1/0,1/0]
RESULT: v0x549b150_0 : [-1/0,1/0]
RESULT: v0x54db7e0_0 : [-1/0,1/0]
RESULT: v0x54c7600_0 : [-1/0,1/0]
RESULT: v0x549ba50_0 : [-1/0,1/0]
RESULT: v0x5499630_0 : [-1/0,1/0]
RESULT: v0x54994b0_0 : [-1/0,1/0]
RESULT: v0x5499570_0 : [-1/0,1/0]
RESULT: v0x54985b0_0 : [-1/0,1/0]
RESULT: v0x515dce0_0 : [-1/0,1/0]
RESULT: v0x5498dd0_0 : [-1/0,1/0]
RESULT: v0x5498b90_0 : [-1/0,1/0]
RESULT: v0x54996f0_0 : [-1/0,1/0]
RESULT: v0x54993f0_0 : [-1/0,1/0]
