RESULT: v0xdafd280_0 : [-1/0,1/0]
RESULT: v0xdad7f80_0 : [-1/0,1/0]
RESULT: v0xa36f950_0 : [-1/0,1/0]
RESULT: v0x59dc010_0 : [0,1]
RESULT: v0xfbae250_0 : [67,1/0]
RESULT: v0x5e1e410_0 : [-1/0,1/0]
RESULT: v0x8a10060_0 : [-1/0,1/0]
RESULT: v0x5e1e0f0_0 : [0,0]
RESULT: v0x140b00c0_0 : [-1/0,1/0]
RESULT: v0x8a100a0_0 : [-1/0,1/0]
RESULT: v0xdafcd60_0 : [-1/0,1/0]
RESULT: v0x3fa3330_0 : [67,1/0]
RESULT: v0x3fa3430_0 : [-1/0,1/0]
RESULT: v0x3fa3530_0 : [-1/0,1/0]
RESULT: v0x3fa3630_0 : [-1/0,1/0]
RESULT: v0x3fa3730_0 : [-1/0,1/0]
RESULT: v0x3fa3830_0 : [0,1]
RESULT: v0x3fa3930_0 : [-1/0,1/0]
RESULT: v0x3fa3a30_0 : [-1/0,1/0]
RESULT: v0x3fa3b30_0 : [0,0]
RESULT: v0x3fa3c30_0 : [-1/0,1/0]
RESULT: v0x3fa3d30_0 : [-1/0,1/0]
RESULT: v0x3fa3e30_0 : [-1/0,1/0]
RESULT: v0x3fa3f30_0 : [-1/0,1/0]
RESULT: v0x59dbf50_0 : [-1/0,1/0]
RESULT: v0xadda8a0_0 : [0,0]
RESULT: v0x5e1e170_0 : [-1/0,10]
RESULT: v0xdbf6950_0 : [-1/0,1/0]
RESULT: v0xee9fb10_0 : [-1/0,1/0]
RESULT: v0x3fa4230_0 : [-1/0,1/0]
