RESULT: v0x3855f00_1 : [4,4]
RESULT: v0x37ce4d0_1 : [0,1]
RESULT: v0x37394c0_1 : [0,1]
RESULT: v0x382dab0_1 : [0,1]
RESULT: v0x3868780_1 : [0,1]
RESULT: v0x38973e0_1 : [0,1]
RESULT: v0x3889360_1 : [0,1]
RESULT: v0x3893760_1 : [0,1]
RESULT: v0x382dcd0_1 : [0,1]
RESULT: v0x3848880_1 : [0,1]
RESULT: v0x380d120_1 : [0,1]
RESULT: v0x38085e0_1 : [0,1]
RESULT: v0x34e4490_1 : [0,1]
RESULT: v0x36539e0_1 : [0,2]
RESULT: v0x3607f00_1 : [0,3]
RESULT: v0x36594e0_1 : [0,1]
RESULT: v0x34d3dd0_1 : [123,777]
RESULT: v0x3651980_1 : [0,666]
RESULT: v0x3669060_1 : [0,2]
RESULT: v0x36018d0_1 : [0,1]
RESULT: v0x34d3370_1 : [0,2]
RESULT: v0x37bcfa0_1 : [0,456]
RESULT: v0x3741a80_1 : [0,123]
RESULT: v0x35d2e80_1 : [0,456]
