RESULT: v0x3eddb30_0 : [1,1/0]
RESULT: v0x40a9da0_0 : [0,1]
RESULT: v0x409eee0_0 : [123,777]
RESULT: v0x40a3aa0_0 : [0,1]
RESULT: v0x3f0a1c0_0 : [0,1]
RESULT: v0x41339e0_0 : [0,2]
RESULT: v0x4405430_0 : [0,3]
RESULT: v0x40bde70_0 : [0,1]
RESULT: v0x3f3b9d0_0 : [0,1]
RESULT: v0x41afd40_0 : [0,666]
RESULT: v0x3f4e5d0_0 : [0,1]
RESULT: v0x402c480_0 : [0,1]
RESULT: v0x41adce0_0 : [0,2]
RESULT: v0x41282a0_0 : [0,456]
RESULT: v0x3ef4260_0 : [0,1]
RESULT: v0x419eac0_0 : [0,123]
RESULT: v0x3efae10_0 : [0,1]
RESULT: v0x3f44fd0_0 : [0,1]
RESULT: v0x412a340_0 : [0,3]
RESULT: v0x409fde0_0 : [0,1]
RESULT: v0x4172900_0 : [0,1]
RESULT: v0x419a680_0 : [0,1]
RESULT: v0x3f00680_0 : [0,1]
RESULT: v0x41a26e0_0 : [0,2]
RESULT: v0x41a26a0_0 : [0,456]
