RESULT: v0x4ebac20_0 : [1,1]
RESULT: v0x4ebcc40_0 : [0,0]
RESULT: v0x4ec17a0_0 : [0,1]
RESULT: v0x4ebafe0_0 : [0,1]
RESULT: v0x4ebb760_0 : [0,1]
RESULT: v0x4ebbb20_0 : [40,120]
RESULT: v0x4ec1dc0_0 : [0,1]
RESULT: v0x4ec2000_0 : [0,1]
RESULT: v0x4ec1a40_0 : [0,1]
RESULT: v0x4ebb460_0 : [1,1]
RESULT: v0x4ec20c0_0 : [1,1]
RESULT: v0x4ec1d80_0 : [1,1]
RESULT: v0x4ec0680_0 : [1,1]
RESULT: v0x4ebde60_0 : [1,1]
RESULT: v0x4ec08e0_0 : [3,4]
RESULT: v0x3971700_0 : [0,1]
RESULT: v0x3971800_0 : [0,1]
RESULT: v0x3971900_0 : [0,1]
RESULT: v0x3971a00_0 : [0,1]
RESULT: v0x3971b00_0 : [80,120]
RESULT: v0x3971c00_0 : [0,1]
RESULT: v0x3971d00_0 : [0,1]
RESULT: v0x3971e00_0 : [2,4]
RESULT: v0x3971f00_0 : [0,1]
RESULT: v0x3972000_0 : [1,1]
RESULT: v0x3972100_0 : [1,1]
RESULT: v0x3972200_0 : [0,1]
RESULT: v0x3972300_0 : [0,1]
RESULT: v0x3972400_0 : [1,1]
RESULT: v0x4d8bf90_0 : [1,3]
RESULT: v0x3973700_0 : [3,5]
