RESULT: v0x448ef50_0 : [-1/0,1/0]
RESULT: v0x448f1d0_0 : [-1/0,1/0]
RESULT: v0x4490350_0 : [-1/0,1/0]
RESULT: v0x44900d0_0 : [-1/0,1/0]
RESULT: v0x448ea50_0 : [27,1/0]
RESULT: v0x44905d0_0 : [-1/0,1/0]
RESULT: v0x4490850_0 : [-1/0,1/0]
RESULT: v0x448f950_0 : [0,0]
RESULT: v0x4490ad0_0 : [-1/0,1/0]
RESULT: v0x448f450_0 : [-1/0,1/0]
RESULT: v0x448f6d0_0 : [-1/0,1/0]
RESULT: v0x3f94330_0 : [67,1/0]
RESULT: v0x3f94430_0 : [0,1]
RESULT: v0x3f94530_0 : [-1/0,1/0]
RESULT: v0x3f94630_0 : [-1/0,1/0]
RESULT: v0x3f94730_0 : [-1/0,1/0]
RESULT: v0x3f94830_0 : [-1/0,1/0]
RESULT: v0x3f94930_0 : [0,1]
RESULT: v0x3f94a30_0 : [-1/0,1/0]
RESULT: v0x3f94b30_0 : [-1/0,1/0]
RESULT: v0x3f94c30_0 : [-1/0,1/0]
RESULT: v0x3f94d30_0 : [-1/0,1/0]
RESULT: v0x3f94e30_0 : [-1/0,1/0]
RESULT: v0x3f94f30_0 : [-1/0,1/0]
RESULT: v0x3f95030_0 : [-1/0,1/0]
RESULT: v0x448fbd0_0 : [-1/0,1/0]
RESULT: v0x448fe50_0 : [-1/0,1/0]
RESULT: v0x40b8c30_0 : [0,0]
RESULT: v0x448e690_0 : [-1/0,10]
RESULT: v0x448ecd0_0 : [-1/0,1/0]
RESULT: v0x3f95330_0 : [-1/0,1/0]
