RESULT: v0x76f50c0_0 : [-1/0,1/0]
RESULT: v0x76f5160_0 : [-1/0,1/0]
RESULT: v0xf97a780_0 : [-1/0,1/0]
RESULT: v0x6df1680_0 : [-1/0,1/0]
RESULT: v0xf1ac990_0 : [-1/0,1/0]
RESULT: v0xe7a2310_0 : [-1/0,1/0]
RESULT: v0xd947e20_0 : [0,0]
RESULT: v0x4e8eda0_0 : [67,1/0]
RESULT: v0xe78c700_0 : [27,1/0]
RESULT: v0x4e8eea0_0 : [0,1]
RESULT: v0x4e8efa0_0 : [0,1]
RESULT: v0x4e8f0a0_0 : [-1/0,1/0]
RESULT: v0x4e8f1a0_0 : [-1/0,1/0]
RESULT: v0x4e8f2a0_0 : [-1/0,1/0]
RESULT: v0x4e8f3a0_0 : [-1/0,1/0]
RESULT: v0x4e8f4a0_0 : [-1/0,1/0]
RESULT: v0x5a91d90_0 : [-1/0,1/0]
RESULT: v0x4e8f5a0_0 : [-1/0,1/0]
RESULT: v0x4f954d0_0 : [-1/0,1/0]
RESULT: v0x4e8f6a0_0 : [-1/0,1/0]
RESULT: v0x76f51c0_0 : [-1/0,1/0]
RESULT: v0x4e8f7a0_0 : [-1/0,1/0]
RESULT: v0x4e8f8a0_0 : [-1/0,1/0]
RESULT: v0x4e8f9a0_0 : [-1/0,1/0]
RESULT: v0x4e8faa0_0 : [-1/0,1/0]
RESULT: v0x5c2f290_0 : [-1/0,1/0]
RESULT: v0x5c2f1d0_0 : [-1/0,1/0]
RESULT: v0x9f870a0_0 : [0,0]
RESULT: v0x7702660_0 : [-1/0,10]
RESULT: v0xf13cf90_0 : [-1/0,1/0]
RESULT: v0x4e8fda0_0 : [-1/0,1/0]
