RESULT: v0x4cd0be0_0 : [0,0]
RESULT: v0x4f63890_1 : [0,1]
RESULT: v0x4f5eb10_1 : [0,1]
RESULT: v0x4f6be10_1 : [0,1]
RESULT: v0x4f6b890_1 : [0,1]
RESULT: v0x4f84fc0_1 : [0,1]
RESULT: v0x4f84330_1 : [0,1]
RESULT: v0x4e26ee0_1 : [0,1]
RESULT: v0x4f912a0_1 : [0,1]
RESULT: v0x4f8d300_1 : [0,1]
RESULT: v0x4f93590_1 : [0,1]
RESULT: v0x4f9e970_1 : [0,1]
RESULT: v0x4fa6530_1 : [-1/0,1/0]
RESULT: v0x4f7df10_1 : [-1/0,1/0]
RESULT: v0x4f92b50_1 : [0,2]
RESULT: v0x4f8b680_1 : [0,2]
RESULT: v0x4f8c180_1 : [0,2]
RESULT: v0x4f5c1f0_1 : [0,2]
RESULT: v0x4f84e80_1 : [0,2]
RESULT: v0x4f851e0_1 : [0,2]
RESULT: v0x4f85b60_1 : [0,2]
RESULT: v0x4f85ea0_1 : [0,2]
RESULT: v0x4f8aa60_1 : [0,2]
RESULT: v0x4f8c4a0_1 : [0,2]
RESULT: v0x4f8d3a0_1 : [0,2]
RESULT: v0x4f91000_1 : [0,0]
