RESULT: v0x4a80620_0 : [2,1/0]
RESULT: v0x4d83790_0 : [0,1]
RESULT: v0x4ba98d0_0 : [0,1]
RESULT: v0x4cbf080_0 : [123,777]
RESULT: v0x4d9a3d0_0 : [0,1]
RESULT: v0x4d62bd0_0 : [0,1]
RESULT: v0x4ba89f0_0 : [0,2]
RESULT: v0x4c012e0_0 : [0,1]
RESULT: v0x4d677f0_0 : [0,456]
RESULT: v0x4de2e30_0 : [0,1]
RESULT: v0x4de2590_0 : [0,0]
RESULT: v0x4b9d110_0 : [1,1]
RESULT: v0x4f3ea20_0 : [0,2]
RESULT: v0x4cceb20_0 : [0,456]
RESULT: v0x4da96d0_0 : [0,1]
RESULT: v0x4dbeff0_0 : [0,1]
RESULT: v0x4bc2400_0 : [0,1]
RESULT: v0x4da19b0_0 : [0,123]
RESULT: v0x4d58930_0 : [0,1]
RESULT: v0x4d838b0_0 : [0,3]
RESULT: v0x4ccbbd0_0 : [0,1]
RESULT: v0x4db1790_0 : [0,1]
RESULT: v0x4a65a10_0 : [-1/0,1/0]
RESULT: v0x4a65710_0 : [0,456]
RESULT: v0x4a66910_0 : [-1/0,1/0]
RESULT: v0x4a66a10_0 : [0,456]
RESULT: v0x4a66b10_0 : [0,1]
RESULT: v0x4a66f10_0 : [1,2]
RESULT: v0x4a67010_0 : [0,2]
RESULT: v0x4a67110_0 : [0,1]
RESULT: v0x4a67210_0 : [0,1]
RESULT: v0x4a68810_0 : [0,0]
RESULT: v0x4a68910_0 : [123,777]
RESULT: v0x4a68a10_0 : [0,0]
RESULT: v0x4a68b10_0 : [1,1]
RESULT: v0x4a68c10_0 : [1,3]
RESULT: v0x4a68d10_0 : [2,2]
RESULT: v0x4a68e10_0 : [1,1]
RESULT: v0x4a68f10_0 : [1,3]
RESULT: v0x4a69910_0 : [0,0]
RESULT: v0x4a69a10_0 : [0,456]
RESULT: v0x4a69b10_0 : [0,0]
RESULT: v0x4a69c10_0 : [-1/0,1/0]
RESULT: v0x4a69d10_0 : [2,2]
RESULT: v0x4a69e10_0 : [2,2]
RESULT: v0x4a69f10_0 : [0,0]
RESULT: v0x4a65910_0 : [0,1]
