RESULT: v0x3df4090_1 : [3,3]
RESULT: v0x3cdd850_1 : [0,1]
RESULT: v0x3ce15e0_1 : [0,1]
RESULT: v0x3ce5670_1 : [0,1]
RESULT: v0x3cf56c0_1 : [0,1]
RESULT: v0x3d51b70_1 : [0,1]
RESULT: v0x3d34950_1 : [0,1]
RESULT: v0x3d4f030_1 : [0,1]
RESULT: v0x3d45ef0_1 : [0,1]
RESULT: v0x3d2cc70_1 : [0,1]
RESULT: v0x3d41d10_1 : [0,1]
RESULT: v0x3d94390_1 : [0,1]
RESULT: v0x3caf020_1 : [0,1]
RESULT: v0x3d2d3f0_1 : [0,2]
RESULT: v0x3d38a10_1 : [0,3]
RESULT: v0x3ce23b0_1 : [0,1]
RESULT: v0x3d33ef0_1 : [123,777]
RESULT: v0x3d41a90_1 : [0,666]
RESULT: v0x3d52110_1 : [0,2]
RESULT: v0x3d4c5d0_1 : [0,1]
RESULT: v0x3d47010_1 : [0,2]
RESULT: v0x3e124b0_1 : [0,456]
RESULT: v0x3e9b5b0_1 : [0,123]
RESULT: v0x3e20050_1 : [0,456]
