RESULT: v0x3c59610_1 : [-1/0,11]
RESULT: v0x3c59f80_1 : [-1/0,1/0]
RESULT: v0x3c5a200_1 : [-1/0,1/0]
RESULT: v0x3c5a480_1 : [-1/0,1/0]
RESULT: v0x3c5a700_1 : [-1/0,1/0]
RESULT: v0x3c5a980_1 : [-1/0,1/0]
RESULT: v0x3c5ac00_1 : [0,1]
RESULT: v0x3a2a450_1 : [-1/0,1/0]
RESULT: v0x3a42a80_1 : [-1/0,1/0]
RESULT: v0x3a303e0_1 : [-1/0,1/0]
RESULT: v0x3c5afc0_1 : [-1/0,1/0]
RESULT: v0x3c5b240_1 : [-1/0,1/0]
RESULT: v0x3c5b4c0_1 : [-1/0,1/0]
RESULT: v0x3c5b800_1 : [-1/0,1/0]
RESULT: v0x3c5ba80_1 : [-1/0,1/0]
RESULT: v0x3c5bd00_1 : [-1/0,1/0]
