RESULT: v0x3a20080_1 : [3,3]
RESULT: v0x3a379b0_1 : [0,1]
RESULT: v0x3a3c9d0_1 : [0,1]
RESULT: v0x3a39250_1 : [0,1]
RESULT: v0x3b4a620_1 : [0,1]
RESULT: v0x3b4a4a0_1 : [0,1]
RESULT: v0x3b4a320_1 : [0,1]
RESULT: v0x3b4a0e0_1 : [0,1]
RESULT: v0x3a352e0_1 : [0,1]
RESULT: v0x3a353a0_1 : [0,1]
RESULT: v0x38f8250_1 : [0,2]
RESULT: v0x3a355e0_1 : [0,3]
RESULT: v0x3a356a0_1 : [123,777]
RESULT: v0x3a35760_1 : [0,666]
RESULT: v0x3a35820_1 : [0,2]
RESULT: v0x39114f0_1 : [0,1]
RESULT: v0x3913f70_1 : [0,2]
RESULT: v0x39177b0_1 : [0,456]
RESULT: v0x3918290_1 : [0,123]
RESULT: v0x391dc90_1 : [0,456]
RESULT: v0x3a2a6b0_1 : [0,1]
RESULT: v0x3a28030_1 : [0,1]
RESULT: v0x3a37500_1 : [0,1]
