RESULT: v0x9b50f60_0 : [0,2]
RESULT: v0x9b4d100_0 : [0,0]
RESULT: v0x9b4fd00_0 : [0,1]
RESULT: v0x44bc8f0_0 : [1,2]
RESULT: v0x9b62020_0 : [-1/0,1/0]
RESULT: v0x9b50d60_0 : [0,1/0]
RESULT: v0x9b519e0_0 : [0,0]
RESULT: v0x9b515c0_0 : [0,0]
RESULT: v0x9b4f4a0_0 : [0,1/0]
RESULT: v0x9b4e3e0_0 : [0,1/0]
RESULT: v0x9b4ec40_0 : [0,54]
RESULT: v0x9b50560_0 : [0,1]
RESULT: v0x9b62160_0 : [0,1]
RESULT: v0x9b51180_0 : [0,1]
RESULT: v0x9b4db80_0 : [0,1]
RESULT: v0x44bbc90_0 : [0,53]
RESULT: v0x44bb8f0_0 : [0,51]
RESULT: v0x44bb9f0_0 : [0,52]
RESULT: v0x44bbb90_0 : [0,53]
RESULT: v0x44bb7f0_0 : [0,50]
RESULT: v0x9b50e60_0 : [-1/0,1/0]
RESULT: v0x44bcbf0_0 : [-1/0,1/0]
RESULT: v0x82108e0_0 : [1,1]
RESULT: v0x939d5a0_0 : [0,4]
RESULT: v0x821af40_0 : [50,54]
RESULT: v0x9381360_0 : [0,1/0]
RESULT: v0x936fde0_0 : [0,0]
RESULT: v0x9ef8db0_0 : [1,1]
RESULT: v0x5fe3840_0 : [0,1]
RESULT: v0x937a8a0_0 : [0,1]
RESULT: v0x896e460_0 : [0,1/0]
RESULT: v0x952d970_0 : [-1/0,1/0]
RESULT: v0x98111b0_0 : [0,2]
RESULT: v0x8abd350_0 : [0,1]
RESULT: v0x44be3b0_0 : [-1/0,1/0]
