RESULT: v0x47305c0_0 : [-1/0,1/0]
RESULT: v0x1441d1c0_0 : [-1/0,1/0]
RESULT: v0x878bba0_0 : [-1/0,1/0]
RESULT: v0xabccd10_0 : [-1/0,1/0]
RESULT: v0x4730580_0 : [27,1/0]
RESULT: v0x1441d180_0 : [-1/0,1/0]
RESULT: v0xabcccd0_0 : [-1/0,1/0]
RESULT: v0x7060070_0 : [0,0]
RESULT: v0x9328750_0 : [-1/0,1/0]
RESULT: v0x9328710_0 : [-1/0,1/0]
RESULT: v0x132825c0_0 : [-1/0,1/0]
RESULT: v0x3fa3330_0 : [67,1/0]
RESULT: v0x3fa3430_0 : [-1/0,1/0]
RESULT: v0x3fa3530_0 : [-1/0,1/0]
RESULT: v0x3fa3630_0 : [-1/0,1/0]
RESULT: v0x3fa3730_0 : [-1/0,1/0]
RESULT: v0x3fa3830_0 : [0,1]
RESULT: v0x3fa3930_0 : [-1/0,1/0]
RESULT: v0x3fa3a30_0 : [-1/0,1/0]
RESULT: v0x3fa3b30_0 : [-1/0,1/0]
RESULT: v0x3fa3c30_0 : [-1/0,1/0]
RESULT: v0x3fa3d30_0 : [-1/0,1/0]
RESULT: v0x3fa3e30_0 : [-1/0,1/0]
RESULT: v0x3fa3f30_0 : [-1/0,1/0]
RESULT: v0x4730540_0 : [-1/0,1/0]
RESULT: v0xf298a40_0 : [0,0]
RESULT: v0x93286d0_0 : [-1/0,10]
RESULT: v0x61e50e0_0 : [-1/0,1/0]
RESULT: v0x126846d0_0 : [-1/0,1/0]
RESULT: v0x3fa4230_0 : [-1/0,1/0]
