RESULT: v0x386f7a0_0 : [0,1]
RESULT: v0x4e79e90_1 : [0,1]
RESULT: v0x3cda650_1 : [0,1]
RESULT: v0x3adf670_1 : [0,1]
RESULT: v0x4e997c0_1 : [0,1]
RESULT: v0x4e8e710_1 : [0,1]
RESULT: v0x4e94240_1 : [0,1]
RESULT: v0x4e9f020_1 : [0,1]
RESULT: v0x3ccb870_1 : [0,1]
RESULT: v0x3cdb610_1 : [0,1]
RESULT: v0x3d23690_1 : [0,1]
RESULT: v0x509ca80_1 : [-1/0,1/0]
RESULT: v0x509c520_1 : [-1/0,1/0]
RESULT: v0x3cdf8c0_1 : [0,2]
RESULT: v0x4e833b0_1 : [0,2]
RESULT: v0x4ea2220_1 : [0,2]
RESULT: v0x437c4b0_1 : [0,2]
RESULT: v0x4ea1e00_1 : [0,2]
RESULT: v0x4358970_1 : [0,2]
RESULT: v0x4caa1f0_1 : [0,2]
RESULT: v0x50a3a80_1 : [0,2]
RESULT: v0x438dfb0_1 : [0,2]
RESULT: v0x509bd20_1 : [0,2]
RESULT: v0x4e954e0_1 : [0,2]
