RESULT: v0x4436860_0 : [-1/0,1/0]
RESULT: v0x44367a0_0 : [-1/0,1/0]
RESULT: v0x44369e0_0 : [-1/0,1/0]
RESULT: v0x4436aa0_0 : [-1/0,1/0]
RESULT: v0x4436260_0 : [-1/0,1/0]
RESULT: v0x44364a0_0 : [-1/0,1/0]
RESULT: v0x44363e0_0 : [-1/0,1/0]
RESULT: v0x4436320_0 : [-1/0,1/0]
RESULT: v0x43f6b10_0 : [-1/0,1/0]
RESULT: v0x43c7fc0_0 : [-1/0,1/0]
RESULT: v0x44361a0_0 : [-1/0,1/0]
RESULT: v0x4436e40_0 : [-1/0,1/0]
RESULT: v0x4436e00_0 : [-1/0,1/0]
RESULT: v0x4436e80_0 : [-1/0,1/0]
RESULT: v0x4436c20_0 : [-1/0,1/0]
RESULT: v0x4436f20_0 : [-1/0,1/0]
RESULT: v0x4436fe0_0 : [-1/0,1/0]
RESULT: v0x44370a0_0 : [-1/0,1/0]
RESULT: v0x4437180_0 : [-1/0,1/0]
RESULT: v0x4437220_0 : [-1/0,1/0]
RESULT: v0x4436b60_0 : [-1/0,1/0]
RESULT: v0x44366e0_0 : [-1/0,1/0]
RESULT: v0x4436920_0 : [-1/0,1/0]
RESULT: v0x4436620_0 : [-1/0,1/0]
RESULT: v0x4436560_0 : [-1/0,1/0]
