RESULT: v0x3a388c0_0 : [0,1/0]
RESULT: v0x4edea90_1 : [0,1]
RESULT: v0x4edfa50_1 : [0,1]
RESULT: v0x4eba550_1 : [0,1]
RESULT: v0x4ecdd30_1 : [0,1]
RESULT: v0x4eca170_1 : [0,1]
RESULT: v0x5324200_1 : [0,1]
RESULT: v0x3c1dea0_1 : [0,1]
RESULT: v0x4ecf4d0_1 : [0,1]
RESULT: v0x4f15b30_1 : [0,1]
RESULT: v0x4ed3120_1 : [0,1]
RESULT: v0x5bc0be0_1 : [-1/0,2]
RESULT: v0x3cd0a70_1 : [-1/0,2]
RESULT: v0x5bbcfc0_1 : [-1/0,2]
RESULT: v0x3eaf9b0_1 : [-1/0,2]
RESULT: v0x5b0bf70_1 : [-1/0,2]
RESULT: v0x4ec9650_1 : [-1/0,2]
RESULT: v0x4b52b40_1 : [-1/0,2]
RESULT: v0x5ad4610_1 : [-1/0,2]
RESULT: v0x46f3f70_1 : [0,2]
RESULT: v0x5bbcc80_1 : [0,2]
RESULT: v0x5b15fb0_1 : [0,2]
