RESULT: v0x50b6bd0_0 : [1,1/0]
RESULT: v0x4ec39b0_0 : [0,1]
RESULT: v0x4f9a120_0 : [0,1]
RESULT: v0x50a1e90_0 : [123,777]
RESULT: v0x4f953a0_0 : [0,1]
RESULT: v0x4fa2b40_0 : [0,2]
RESULT: v0x4fa56e0_0 : [0,1]
RESULT: v0x5071510_0 : [0,1]
RESULT: v0x5003300_0 : [0,3]
RESULT: v0x506dfa0_0 : [0,1]
RESULT: v0x50750d0_0 : [0,1]
RESULT: v0x4f9e0a0_0 : [0,1]
RESULT: v0x4f78900_0 : [0,666]
RESULT: v0x505ba90_0 : [0,1]
RESULT: v0x502baf0_0 : [0,456]
RESULT: v0x505fd30_0 : [0,2]
RESULT: v0x5020310_0 : [0,1]
RESULT: v0x50b7430_0 : [0,456]
RESULT: v0x4d51bb0_0 : [0,2]
RESULT: v0x4e7b0a0_0 : [0,1]
RESULT: v0x50c8b30_0 : [0,123]
RESULT: v0x4f9be80_0 : [0,1]
RESULT: v0x4ff26f0_0 : [0,1]
