RESULT: v0x48d9480_0 : [-1/0,1/0]
RESULT: v0x48d93c0_0 : [-1/0,1/0]
RESULT: v0x48d96c0_0 : [-1/0,1/0]
RESULT: v0x48d9780_0 : [-1/0,1/0]
RESULT: v0x48d90c0_0 : [-1/0,1/0]
RESULT: v0x48d9020_0 : [-1/0,1/0]
RESULT: v0x48558e0_0 : [-1/0,1/0]
RESULT: v0x48815a0_0 : [-1/0,1/0]
RESULT: v0x48d9840_0 : [-1/0,1/0]
RESULT: v0x48d9900_0 : [-1/0,1/0]
RESULT: v0x48d99c0_0 : [-1/0,1/0]
RESULT: v0x48d9a80_0 : [-1/0,1/0]
RESULT: v0x48d9b40_0 : [-1/0,1/0]
RESULT: v0x48d9c00_0 : [-1/0,1/0]
RESULT: v0x48d9cc0_0 : [-1/0,1/0]
RESULT: v0x48d9d80_0 : [-1/0,1/0]
RESULT: v0x48d9e40_0 : [-1/0,1/0]
RESULT: v0x48d9f00_0 : [-1/0,1/0]
RESULT: v0x48d9fc0_0 : [-1/0,1/0]
RESULT: v0x48d9540_0 : [-1/0,1/0]
RESULT: v0x48d9300_0 : [-1/0,1/0]
RESULT: v0x48d9700_0 : [-1/0,1/0]
RESULT: v0x48d9240_0 : [-1/0,1/0]
RESULT: v0x48d9180_0 : [-1/0,1/0]
