RESULT: v0x5de4550_0 : [1,1]
RESULT: v0x94aa460_0 : [1,1]
RESULT: v0x5decb80_0 : [0,1]
RESULT: v0x8f10660_0 : [4,10]
RESULT: v0x90f8f40_0 : [80,200]
RESULT: v0x84f7a40_0 : [0,1]
RESULT: v0x84c9f10_0 : [0,1]
RESULT: v0x9139130_0 : [0,1]
RESULT: v0x8f5c680_0 : [0,0]
RESULT: v0x94af740_0 : [0,1]
RESULT: v0x76ec640_0 : [1,1]
RESULT: v0x5841c00_0 : [1,1]
RESULT: v0x9136290_0 : [0,0]
RESULT: v0x44496e0_0 : [80,200]
RESULT: v0x44497e0_0 : [0,0]
RESULT: v0x44498e0_0 : [0,1]
RESULT: v0x44499e0_0 : [1,1]
RESULT: v0x4449ae0_0 : [0,0]
RESULT: v0x4449be0_0 : [0,1]
RESULT: v0x4449ce0_0 : [0,1]
RESULT: v0x4449de0_0 : [0,1]
RESULT: v0x4449ee0_0 : [1,1]
RESULT: v0x4449fe0_0 : [0,0]
RESULT: v0x444a0e0_0 : [0,1]
RESULT: v0x444a1e0_0 : [1,1]
RESULT: v0x9482930_0 : [0,0]
RESULT: v0x444a4e0_0 : [1,2]
