RESULT: v0x32c07e0_0 : [0,0]
RESULT: v0x35c4850_1 : [0,1]
RESULT: v0x35aea90_1 : [0,1]
RESULT: v0x35b4ac0_1 : [0,1]
RESULT: v0x35cbb40_1 : [0,1]
RESULT: v0x35b5580_1 : [0,1]
RESULT: v0x35bab00_1 : [0,1]
RESULT: v0x35b73b0_1 : [0,1]
RESULT: v0x3591db0_1 : [0,1]
RESULT: v0x35a0180_1 : [0,1]
RESULT: v0x35a0260_1 : [0,1]
RESULT: v0x35d41e0_1 : [0,1]
RESULT: v0x35b6160_1 : [0,1]
RESULT: v0x3588fe0_1 : [0,1]
RESULT: v0x3574610_1 : [-1/0,1/0]
RESULT: v0x3429390_1 : [-1/0,1/0]
RESULT: v0x357c530_1 : [0,2]
RESULT: v0x3321c20_1 : [0,2]
RESULT: v0x3427120_1 : [0,2]
RESULT: v0x3304d60_1 : [0,2]
RESULT: v0x3572250_1 : [0,2]
RESULT: v0x3822180_1 : [0,2]
RESULT: v0x38215c0_1 : [0,2]
RESULT: v0x381d690_1 : [0,2]
RESULT: v0x35661e0_1 : [0,2]
RESULT: v0x381d130_1 : [0,2]
RESULT: v0x38165e0_1 : [0,2]
RESULT: v0x3816ae0_1 : [0,2]
RESULT: v0x35669c0_1 : [0,2]
RESULT: v0x38164e0_1 : [0,0]
