RESULT: v0x45f9b90_0 : [-1/0,1/0]
RESULT: v0x45bdb60_0 : [-1/0,1/0]
RESULT: v0x114b51c0_0 : [-1/0,1/0]
RESULT: v0xda127c0_0 : [-1/0,1/0]
RESULT: v0xaeac350_0 : [67,1/0]
RESULT: v0x9640d80_0 : [-1/0,1/0]
RESULT: v0x7b94090_0 : [-1/0,1/0]
RESULT: v0xaf35e90_0 : [0,0]
RESULT: v0x6a8fc30_0 : [-1/0,1/0]
RESULT: v0x9d9d810_0 : [-1/0,1/0]
RESULT: v0x45f9b10_0 : [-1/0,1/0]
RESULT: v0x3fa3330_0 : [67,1/0]
RESULT: v0x3fa3430_0 : [-1/0,1/0]
RESULT: v0x3fa3530_0 : [-1/0,1/0]
RESULT: v0x3fa3630_0 : [-1/0,1/0]
RESULT: v0x3fa3730_0 : [-1/0,1/0]
RESULT: v0x3fa3830_0 : [0,1]
RESULT: v0x3fa3930_0 : [-1/0,1/0]
RESULT: v0x3fa3a30_0 : [-1/0,1/0]
RESULT: v0x3fa3b30_0 : [0,0]
RESULT: v0x3fa3c30_0 : [0,0]
RESULT: v0x3fa3d30_0 : [-1/0,1/0]
RESULT: v0x3fa3e30_0 : [-1/0,1/0]
RESULT: v0x3fa3f30_0 : [-1/0,1/0]
RESULT: v0x8a5d130_0 : [-1/0,1/0]
RESULT: v0x9de0ae0_0 : [0,0]
RESULT: v0x14b3e760_0 : [-1/0,10]
RESULT: v0x1345d130_0 : [-1/0,1/0]
RESULT: v0x6a8fcb0_0 : [-1/0,1/0]
RESULT: v0x3fa4230_0 : [-1/0,1/0]
