RESULT: v0x456ab10_0 : [-1/0,1/0]
RESULT: v0x4153be0_0 : [-1/0,1/0]
RESULT: v0x4154060_0 : [-1/0,1/0]
RESULT: v0x456afb0_0 : [-1/0,1/0]
RESULT: v0x456aa90_0 : [67,1/0]
RESULT: v0x4152e80_0 : [-1/0,1/0]
RESULT: v0x4153ba0_0 : [-1/0,1/0]
RESULT: v0x41ec620_0 : [0,0]
RESULT: v0x456aad0_0 : [-1/0,1/0]
RESULT: v0x41ed720_0 : [-1/0,1/0]
RESULT: v0x4153c20_0 : [-1/0,1/0]
RESULT: v0x3f94330_0 : [67,1/0]
RESULT: v0x3f94430_0 : [0,1]
RESULT: v0x3f94530_0 : [-1/0,1/0]
RESULT: v0x3f94630_0 : [-1/0,1/0]
RESULT: v0x3f94730_0 : [-1/0,1/0]
RESULT: v0x3f94830_0 : [-1/0,1/0]
RESULT: v0x3f94930_0 : [0,1]
RESULT: v0x3f94a30_0 : [-1/0,1/0]
RESULT: v0x3f94b30_0 : [-1/0,1/0]
RESULT: v0x3f94c30_0 : [0,0]
RESULT: v0x3f94d30_0 : [0,0]
RESULT: v0x3f94e30_0 : [-1/0,1/0]
RESULT: v0x3f94f30_0 : [-1/0,1/0]
RESULT: v0x3f95030_0 : [-1/0,1/0]
RESULT: v0x4153320_0 : [-1/0,1/0]
RESULT: v0x41ed2a0_0 : [-1/0,1/0]
RESULT: v0x4219c40_0 : [0,0]
RESULT: v0x41ec5e0_0 : [-1/0,10]
RESULT: v0x41ecf00_0 : [-1/0,1/0]
RESULT: v0x3f95330_0 : [-1/0,1/0]
