RESULT: v0x4600fe0_0 : [0,1]
RESULT: v0x48a0cf0_1 : [0,1]
RESULT: v0x48910d0_1 : [0,1]
RESULT: v0x4640d10_1 : [0,1]
RESULT: v0x54a4460_1 : [0,1]
RESULT: v0x54975c0_1 : [0,1]
RESULT: v0x4a331e0_1 : [0,1]
RESULT: v0x5165070_1 : [0,1]
RESULT: v0x514de80_1 : [0,1]
RESULT: v0x4a61160_1 : [0,1]
RESULT: v0x5491990_1 : [-1/0,1/0]
RESULT: v0x4a0fa30_1 : [-1/0,1/0]
RESULT: v0x4a2c610_1 : [0,2]
RESULT: v0x4a34b60_1 : [0,2]
RESULT: v0x4a0e770_1 : [0,2]
RESULT: v0x4a10b20_1 : [0,2]
RESULT: v0x4a6a7d0_1 : [0,2]
RESULT: v0x4834fc0_1 : [0,2]
RESULT: v0x48805f0_1 : [0,2]
RESULT: v0x489aa20_1 : [0,2]
RESULT: v0x4a2fe20_1 : [0,2]
RESULT: v0x514b820_1 : [0,2]
