RESULT: v0x4109ec0_1 : [3,3]
RESULT: v0x3fe21d0_1 : [0,1]
RESULT: v0x410a340_1 : [0,1]
RESULT: v0x3fe2410_1 : [0,1]
RESULT: v0x4046900_1 : [0,1]
RESULT: v0x4046a60_1 : [0,1]
RESULT: v0x4046780_1 : [0,1]
RESULT: v0x40466c0_1 : [0,1]
RESULT: v0x4046480_1 : [0,1]
RESULT: v0x40463c0_1 : [0,1]
RESULT: v0x4046180_1 : [0,1]
RESULT: v0x40460c0_1 : [0,2]
RESULT: v0x4045e80_1 : [0,3]
RESULT: v0x4045dc0_1 : [0,1]
RESULT: v0x4045b80_1 : [123,777]
RESULT: v0x4045ac0_1 : [0,666]
RESULT: v0x4045880_1 : [0,2]
RESULT: v0x406d830_1 : [0,1]
RESULT: v0x4045550_1 : [0,2]
RESULT: v0x4045490_1 : [0,456]
RESULT: v0x4045250_1 : [0,123]
RESULT: v0x4045190_1 : [0,456]
RESULT: v0x4045790_1 : [0,3]
RESULT: v0x410a700_1 : [0,1]
RESULT: v0x406d930_1 : [0,1]
