RESULT: v0x48ba6e0_0 : [-1/0,1/0]
RESULT: v0x48babe0_0 : [-1/0,1/0]
RESULT: v0x48bb7e0_0 : [789,789]
RESULT: v0x48ba8e0_0 : [-1/0,1/0]
RESULT: v0x48baae0_0 : [-1/0,1/0]
RESULT: v0x48ba7e0_0 : [-1/0,1/0]
RESULT: v0x4fb7760_1 : [3,3]
RESULT: v0x4fb7da0_1 : [0,1]
RESULT: v0x4fb78a0_1 : [0,1]
RESULT: v0x4fb7120_1 : [0,1]
RESULT: v0x4fba820_1 : [0,1]
RESULT: v0x4fb8de0_1 : [0,1]
RESULT: v0x4fbc760_1 : [0,1]
RESULT: v0x4fc2160_1 : [0,1]
RESULT: v0x4fc14e0_1 : [0,1]
RESULT: v0x4fc1620_1 : [0,1]
RESULT: v0x4fc1260_1 : [0,1]
RESULT: v0x4fc0ea0_1 : [0,1]
RESULT: v0x4f14a60_1 : [0,2]
RESULT: v0x4f827e0_1 : [0,3]
RESULT: v0x4eb33a0_1 : [0,1]
RESULT: v0x4f46920_1 : [123,777]
RESULT: v0x4fca9a0_1 : [0,666]
RESULT: v0x4eeb2a0_1 : [0,2]
RESULT: v0x4fca720_1 : [0,1]
RESULT: v0x4f8cce0_1 : [0,2]
RESULT: v0x4ed54a0_1 : [0,456]
RESULT: v0x4f502e0_1 : [0,123]
RESULT: v0x4f54de0_1 : [0,456]
RESULT: v0x4ef48a0_1 : [0,3]
RESULT: v0x4efaca0_1 : [0,1]
