RESULT: v0x3b7df40_0 : [-1/0,1/0]
RESULT: v0x3b7ef20_0 : [-1/0,1/0]
RESULT: v0x3b7b260_0 : [-1/0,1/0]
RESULT: v0x3b7c760_0 : [0,0]
RESULT: v0x3b7b060_0 : [-1/0,1/0]
RESULT: v0x3b7de80_0 : [-1/0,1/0]
RESULT: v0x3b7eac0_0 : [-1/0,1/0]
RESULT: v0x3b7e3c0_0 : [-1/0,1/0]
RESULT: v0x3b7e0c0_0 : [-1/0,1/0]
RESULT: v0x3399500_0 : [2,2]
RESULT: v0x3399600_0 : [0,1]
RESULT: v0x3399700_0 : [-1/0,1/0]
RESULT: v0x3399800_0 : [-1/0,1/0]
RESULT: v0x3399900_0 : [-1/0,1/0]
RESULT: v0x3399a00_0 : [2,2]
RESULT: v0x3399b00_0 : [1,1]
RESULT: v0x339a000_0 : [0,0]
RESULT: v0x339a100_0 : [-1/0,1/0]
RESULT: v0x339a200_0 : [0,0]
RESULT: v0x3bc0da0_0 : [-1/0,1/0]
RESULT: v0x3bbd810_0 : [-1/0,1/0]
RESULT: v0x3b7ee60_0 : [-1/0,1/0]
RESULT: v0x3b7a960_0 : [-1/0,1/0]
RESULT: v0x3b7a8c0_0 : [-1/0,1/0]
RESULT: v0x3ba1d10_0 : [-1/0,1/0]
RESULT: v0x3ba1f50_0 : [-1/0,1/0]
RESULT: v0x3b7a440_0 : [-1/0,1/0]
RESULT: v0x3b7a500_0 : [-1/0,1/0]
RESULT: v0x3b7a800_0 : [-1/0,1/0]
RESULT: v0x3b7a740_0 : [-1/0,1/0]
RESULT: v0x3ba29b0_0 : [-1/0,1/0]
RESULT: v0x3b7e000_0 : [-1/0,1/0]
RESULT: v0x3b80590_0 : [-1/0,1/0]
RESULT: v0x3b7dc40_0 : [-1/0,1/0]
