RESULT: v0x3f4dff0_1 : [4,4]
RESULT: v0x3f5b5d0_1 : [0,1]
RESULT: v0x3f94d30_1 : [0,1]
RESULT: v0x3f1a5b0_1 : [0,1]
RESULT: v0x41ff600_1 : [0,1]
RESULT: v0x3ed8e00_1 : [0,1]
RESULT: v0x3f728f0_1 : [0,1]
RESULT: v0x3ec9080_1 : [0,1]
RESULT: v0x3f15350_1 : [0,1]
RESULT: v0x3fc79d0_1 : [0,1]
RESULT: v0x3fa0dd0_1 : [0,1]
RESULT: v0x3f44870_1 : [0,1]
RESULT: v0x3f146b0_1 : [0,1]
RESULT: v0x3fb2c70_1 : [0,2]
RESULT: v0x3e52460_1 : [0,3]
RESULT: v0x3e52420_1 : [123,777]
RESULT: v0x3d81f00_1 : [0,666]
RESULT: v0x3d81e40_1 : [0,2]
RESULT: v0x3d81b60_1 : [0,1]
RESULT: v0x3d81aa0_1 : [0,2]
RESULT: v0x3e21ca0_1 : [0,456]
RESULT: v0x3e21be0_1 : [0,123]
RESULT: v0x3e219a0_1 : [0,456]
RESULT: v0x3d83100_1 : [0,3]
