RESULT: v0x4551180_0 : [0,1]
RESULT: v0x573f140_1 : [0,1]
RESULT: v0x57193d0_1 : [0,1]
RESULT: v0x5f7c4e0_1 : [0,1]
RESULT: v0x5f83ac0_1 : [0,1]
RESULT: v0x608f8e0_1 : [0,1]
RESULT: v0x5f80fe0_1 : [0,1]
RESULT: v0x59289c0_1 : [0,1]
RESULT: v0x509a010_1 : [0,1]
RESULT: v0x57693a0_1 : [0,1]
RESULT: v0x62543d0_1 : [0,1]
RESULT: v0x5772950_1 : [0,1]
RESULT: v0x6375de0_1 : [0,1]
RESULT: v0x5749620_1 : [0,2]
RESULT: v0x5f93020_1 : [0,2]
RESULT: v0x5720de0_1 : [0,2]
RESULT: v0x570b1c0_1 : [0,2]
RESULT: v0x6220c90_1 : [0,2]
RESULT: v0x621c4c0_1 : [0,2]
RESULT: v0x621c700_1 : [0,2]
RESULT: v0x6220bd0_1 : [0,2]
RESULT: v0x621aba0_1 : [0,2]
RESULT: v0x6220930_1 : [0,2]
RESULT: v0x59353a0_1 : [0,2]
RESULT: v0x59351e0_1 : [0,2]
RESULT: v0x59349c0_1 : [0,2]
