RESULT: v0x38a89e0_0 : [2,1/0]
RESULT: v0x3747690_0 : [0,1]
RESULT: v0x3841be0_0 : [0,1]
RESULT: v0x387de20_0 : [123,777]
RESULT: v0x370d250_0 : [0,1]
RESULT: v0x3815260_0 : [0,1]
RESULT: v0x3799ed0_0 : [0,1]
RESULT: v0x384d000_0 : [0,2]
RESULT: v0x3737100_0 : [0,3]
RESULT: v0x361c700_0 : [0,1]
RESULT: v0x3874950_0 : [0,1]
RESULT: v0x3745a10_0 : [0,1]
RESULT: v0x34df030_0 : [0,666]
RESULT: v0x381c450_0 : [0,1]
RESULT: v0x36a6be0_0 : [0,1]
RESULT: v0x38993e0_0 : [0,2]
RESULT: v0x3652580_0 : [0,456]
RESULT: v0x37c2510_0 : [0,123]
RESULT: v0x373f5c0_0 : [0,456]
RESULT: v0x3733b80_0 : [0,2]
RESULT: v0x38339c0_0 : [0,1]
RESULT: v0x380f980_0 : [0,1]
RESULT: v0x386aa00_0 : [0,1]
RESULT: v0x3abde70_0 : [0,1]
