RESULT: v0x53b5300_0 : [-1/0,1/0]
RESULT: v0x51c4d30_0 : [-1/0,1/0]
RESULT: v0x53ebfa0_0 : [-1/0,1/0]
RESULT: v0x51f6f80_0 : [-1/0,1/0]
RESULT: v0x524bff0_0 : [-1/0,1/0]
RESULT: v0x51dc860_0 : [-1/0,1/0]
RESULT: v0x4f6baa0_0 : [1,1]
RESULT: v0x516fe90_0 : [67,1/0]
RESULT: v0x51c2e10_0 : [27,1/0]
RESULT: v0x516ff90_0 : [0,1]
RESULT: v0x5170090_0 : [-1/0,1/0]
RESULT: v0x5170190_0 : [-1/0,1/0]
RESULT: v0x5170290_0 : [-1/0,1/0]
RESULT: v0x5170390_0 : [-1/0,1/0]
RESULT: v0x523c3f0_0 : [-1/0,1/0]
RESULT: v0x5170490_0 : [-1/0,1/0]
RESULT: v0x52196f0_0 : [-1/0,1/0]
RESULT: v0x5170590_0 : [-1/0,1/0]
RESULT: v0x51f6fc0_0 : [-1/0,1/0]
RESULT: v0x5170690_0 : [-1/0,1/0]
RESULT: v0x5170790_0 : [-1/0,1/0]
RESULT: v0x5170890_0 : [-1/0,1/0]
RESULT: v0x5170990_0 : [-1/0,1/0]
RESULT: v0x51f5b00_0 : [-1/0,1/0]
RESULT: v0x523fa10_0 : [-1/0,1/0]
RESULT: v0x534bb90_0 : [-1/0,10]
RESULT: v0x5171c90_0 : [-1/0,1/0]
