RESULT: v0xac43180_0 : [-1/0,1/0]
RESULT: v0xc848080_0 : [-1/0,1/0]
RESULT: v0xbda2270_0 : [-1/0,1/0]
RESULT: v0x7cd9b90_0 : [-1/0,1/0]
RESULT: v0xa405f50_0 : [67,1/0]
RESULT: v0xa5b5720_0 : [-1/0,1/0]
RESULT: v0xad49440_0 : [-1/0,1/0]
RESULT: v0x791c8a0_0 : [-1/0,1/0]
RESULT: v0x123db7c0_0 : [0,0]
RESULT: v0xb8142e0_0 : [-1/0,1/0]
RESULT: v0xa5b5be0_0 : [-1/0,1/0]
RESULT: v0x478d2d0_0 : [67,1/0]
RESULT: v0x478d3d0_0 : [0,1]
RESULT: v0x478d4d0_0 : [-1/0,1/0]
RESULT: v0x478d5d0_0 : [-1/0,1/0]
RESULT: v0x478d6d0_0 : [-1/0,1/0]
RESULT: v0x478d7d0_0 : [-1/0,1/0]
RESULT: v0x478d8d0_0 : [0,1]
RESULT: v0x478d9d0_0 : [-1/0,1/0]
RESULT: v0x478dad0_0 : [-1/0,1/0]
RESULT: v0x478dbd0_0 : [0,0]
RESULT: v0x478dcd0_0 : [0,0]
RESULT: v0x478ddd0_0 : [-1/0,1/0]
RESULT: v0x478ded0_0 : [-1/0,1/0]
RESULT: v0x478dfd0_0 : [-1/0,1/0]
RESULT: v0xbda22b0_0 : [-1/0,1/0]
RESULT: v0xce66670_0 : [-1/0,1/0]
RESULT: v0xacbca30_0 : [0,0]
RESULT: v0xf57aab0_0 : [-1/0,10]
RESULT: v0xce66390_0 : [-1/0,1/0]
RESULT: v0x478e2d0_0 : [-1/0,1/0]
