RESULT: v0x890fd90_0 : [0,1]
RESULT: v0x890a9f0_0 : [0,2]
RESULT: v0x44bc8f0_0 : [1,2]
RESULT: v0x890ecf0_0 : [0,0]
RESULT: v0x62b5190_0 : [-1/0,1/0]
RESULT: v0x89040d0_0 : [0,1/0]
RESULT: v0x890b210_0 : [0,0]
RESULT: v0x890add0_0 : [0,0]
RESULT: v0x890fc90_0 : [0,1/0]
RESULT: v0x890fa90_0 : [0,1/0]
RESULT: v0x890fb90_0 : [0,54]
RESULT: v0x890fe90_0 : [0,1]
RESULT: v0x890aaf0_0 : [0,1]
RESULT: v0x890e490_0 : [0,1]
RESULT: v0x890f550_0 : [0,1]
RESULT: v0x44bbc90_0 : [0,53]
RESULT: v0x44bb9f0_0 : [0,52]
RESULT: v0x44bb7f0_0 : [0,50]
RESULT: v0x44bbb90_0 : [0,53]
RESULT: v0x44bb8f0_0 : [0,51]
RESULT: v0x890a8f0_0 : [-1/0,1/0]
RESULT: v0x44bcbf0_0 : [-1/0,1/0]
RESULT: v0x89b5ad0_0 : [1,1]
RESULT: v0x7950000_0 : [0,4]
RESULT: v0x892f980_0 : [50,54]
RESULT: v0x89a44f0_0 : [0,1/0]
RESULT: v0x895ca40_0 : [0,0]
RESULT: v0x8900f90_0 : [1,1]
RESULT: v0x8918130_0 : [0,1]
RESULT: v0x88fd670_0 : [0,1]
RESULT: v0x8986e20_0 : [0,1/0]
RESULT: v0x8905670_0 : [-1/0,1/0]
RESULT: v0x8915050_0 : [0,2]
RESULT: v0x6296320_0 : [0,1]
RESULT: v0x44be3b0_0 : [-1/0,1/0]
