RESULT: v0x4259f40_1 : [3,3]
RESULT: v0x41325b0_1 : [0,1]
RESULT: v0x425a3e0_1 : [0,1]
RESULT: v0x41327f0_1 : [0,1]
RESULT: v0x4196980_1 : [0,1]
RESULT: v0x4196ae0_1 : [0,1]
RESULT: v0x4196800_1 : [0,1]
RESULT: v0x4196740_1 : [0,1]
RESULT: v0x4196500_1 : [0,1]
RESULT: v0x4196440_1 : [0,1]
RESULT: v0x4196200_1 : [0,1]
RESULT: v0x4196140_1 : [0,2]
RESULT: v0x4195f00_1 : [0,3]
RESULT: v0x4195e40_1 : [0,1]
RESULT: v0x4195c00_1 : [123,777]
RESULT: v0x4195b40_1 : [0,666]
RESULT: v0x4195900_1 : [0,2]
RESULT: v0x4100600_1 : [0,1]
RESULT: v0x41955d0_1 : [0,2]
RESULT: v0x4195510_1 : [0,456]
RESULT: v0x41952d0_1 : [0,123]
RESULT: v0x4195210_1 : [0,456]
RESULT: v0x4195810_1 : [0,3]
RESULT: v0x425a7a0_1 : [0,1]
RESULT: v0x4100700_1 : [0,1]
