RESULT: v0x6254630_0 : [0,1]
RESULT: v0x62547d0_0 : [0,1]
RESULT: v0x62549d0_0 : [0,1]
RESULT: v0x6254bd0_0 : [0,1]
RESULT: v0x6254dd0_0 : [0,1]
RESULT: v0x6254fd0_0 : [0,1]
RESULT: v0x62551d0_0 : [0,1]
RESULT: v0x62553d0_0 : [0,1]
RESULT: v0x62555d0_0 : [0,1]
RESULT: v0x62557d0_0 : [0,1]
RESULT: v0x62559d0_0 : [0,1]
RESULT: v0x6255bd0_0 : [0,1]
RESULT: v0x6255dd0_0 : [1,1]
RESULT: v0x6255fd0_0 : [0,2]
RESULT: v0x62561d0_0 : [0,2]
RESULT: v0x62563d0_0 : [0,2]
RESULT: v0x62565d0_0 : [0,2]
RESULT: v0x62567d0_0 : [0,2]
RESULT: v0x62569d0_0 : [0,2]
RESULT: v0x6256bd0_0 : [0,2]
RESULT: v0x508bb30_0 : [0,2]
RESULT: v0x508bd30_0 : [0,2]
RESULT: v0x508bf30_0 : [0,2]
RESULT: v0x508c130_0 : [0,2]
RESULT: v0x508c330_0 : [0,2]
RESULT: v0x508c530_0 : [2,2]
