RESULT: v0x458b750_1 : [-1/0,11]
RESULT: v0x3f49ee0_1 : [-1/0,1/0]
RESULT: v0x422a6a0_1 : [-1/0,1/0]
RESULT: v0x3f49c80_1 : [-1/0,1/0]
RESULT: v0x422a5e0_1 : [-1/0,1/0]
RESULT: v0x3ec8ed0_1 : [-1/0,1/0]
RESULT: v0x4213a90_1 : [0,1]
RESULT: v0x3ec9090_1 : [-1/0,1/0]
RESULT: v0x3ec8e10_1 : [-1/0,1/0]
RESULT: v0x423f400_1 : [-1/0,1/0]
RESULT: v0x3c70f00_1 : [-1/0,1/0]
RESULT: v0x42385f0_1 : [-1/0,1/0]
RESULT: v0x3ea7e10_1 : [-1/0,1/0]
RESULT: v0x3d74080_1 : [-1/0,1/0]
RESULT: v0x3ea8160_1 : [-1/0,1/0]
RESULT: v0x3d73d80_1 : [-1/0,1/0]
