RESULT: v0x4551180_0 : [0,1/0]
RESULT: v0x5e11870_1 : [0,1]
RESULT: v0x5f9eff0_1 : [0,1]
RESULT: v0x5e157e0_1 : [0,1]
RESULT: v0x5f97b30_1 : [0,1]
RESULT: v0x635be90_1 : [0,1]
RESULT: v0x56ecfa0_1 : [0,1]
RESULT: v0x65e9070_1 : [0,1]
RESULT: v0x5db2f20_1 : [0,1]
RESULT: v0x65fac10_1 : [0,1]
RESULT: v0x56fdb20_1 : [0,1]
RESULT: v0x6219b80_1 : [0,1/0]
RESULT: v0x4a65180_1 : [0,1/0]
RESULT: v0x5919dc0_1 : [-1/0,2]
RESULT: v0x658b6f0_1 : [-1/0,2]
RESULT: v0x577ea10_1 : [-1/0,2]
RESULT: v0x49fa5f0_1 : [-1/0,2]
RESULT: v0x65fb050_1 : [-1/0,2]
RESULT: v0x593b810_1 : [-1/0,2]
RESULT: v0x5f56430_1 : [-1/0,2]
RESULT: v0x65fe2f0_1 : [-1/0,2]
RESULT: v0x65fe5f0_1 : [0,2]
RESULT: v0x4fd9e50_1 : [0,2]
RESULT: v0x6761290_1 : [0,2]
RESULT: v0x65fdb90_1 : [0,2]
RESULT: v0x5e15720_1 : [0,2]
