RESULT: v0x3b49ba0_0 : [1,1/0]
RESULT: v0x3a36830_0 : [0,1]
RESULT: v0x3c08720_0 : [0,1]
RESULT: v0x3bb3e00_0 : [123,777]
RESULT: v0x3b3ab10_0 : [0,1]
RESULT: v0x3b36a80_0 : [0,1]
RESULT: v0x3a86d80_0 : [0,2]
RESULT: v0x3bfde20_0 : [0,3]
RESULT: v0x3c148e0_0 : [0,1]
RESULT: v0x3b1ed60_0 : [0,1]
RESULT: v0x3b9dc40_0 : [0,666]
RESULT: v0x3bb7b60_0 : [0,1]
RESULT: v0x3bff380_0 : [0,1]
RESULT: v0x3c3aa40_0 : [0,1]
RESULT: v0x3c32d60_0 : [0,2]
RESULT: v0x3bf9cc0_0 : [0,456]
RESULT: v0x3bc5960_0 : [0,1]
RESULT: v0x3b405f0_0 : [0,1]
RESULT: v0x3c01cc0_0 : [0,123]
RESULT: v0x3b37b20_0 : [0,1]
RESULT: v0x3bfae40_0 : [0,1]
RESULT: v0x3c01460_0 : [0,2]
RESULT: v0x3a3ee70_0 : [0,456]
