RESULT: v0x395b000_0 : [-1/0,1/0]
RESULT: v0x395b100_0 : [-1/0,1/0]
RESULT: v0x395b200_0 : [-1/0,1/0]
RESULT: v0x3aa1d70_0 : [-1/0,1/0]
RESULT: v0x3a77b20_0 : [-1/0,1/0]
RESULT: v0x3975000_0 : [-1/0,1/0]
RESULT: v0x395b600_0 : [-1/0,1/0]
RESULT: v0x395b700_0 : [-1/0,1/0]
RESULT: v0x395b800_0 : [-1/0,1/0]
RESULT: v0x3a7ae40_0 : [-1/0,1/0]
RESULT: v0x3a9a060_0 : [-1/0,1/0]
RESULT: v0x395bc00_0 : [-1/0,1/0]
RESULT: v0x395bd00_0 : [-1/0,1/0]
RESULT: v0x395be00_0 : [-1/0,1/0]
RESULT: v0x3aa1b30_0 : [-1/0,1/0]
RESULT: v0x3aa8560_0 : [-1/0,1/0]
RESULT: v0x395c200_0 : [-1/0,1/0]
RESULT: v0x395c300_0 : [-1/0,1/0]
RESULT: v0x395c400_0 : [-1/0,1/0]
RESULT: v0x3abf590_0 : [-1/0,1/0]
RESULT: v0x3abd510_0 : [-1/0,1/0]
RESULT: v0x395c800_0 : [-1/0,1/0]
RESULT: v0x395c900_0 : [-1/0,1/0]
RESULT: v0x395ca00_0 : [-1/0,1/0]
RESULT: v0x3a833d0_0 : [-1/0,1/0]
RESULT: v0x3a9bcd0_0 : [-1/0,1/0]
RESULT: v0x395ce00_0 : [-1/0,1/0]
RESULT: v0x3959a30_0 : [-1/0,1/0]
RESULT: v0x3959b30_0 : [-1/0,1/0]
RESULT: v0x3aaad10_0 : [-1/0,1/0]
RESULT: v0x3ab4e50_0 : [-1/0,1/0]
RESULT: v0x395d7f0_0 : [-1/0,1/0]
RESULT: v0x395d8f0_0 : [-1/0,1/0]
RESULT: v0x395d9f0_0 : [-1/0,1/0]
RESULT: v0x3a98600_0 : [-1/0,1/0]
RESULT: v0x3ab4cd0_0 : [-1/0,1/0]
RESULT: v0x395ddf0_0 : [-1/0,1/0]
RESULT: v0x395def0_0 : [-1/0,1/0]
RESULT: v0x395dff0_0 : [-1/0,1/0]
RESULT: v0x3abd5d0_0 : [-1/0,1/0]
RESULT: v0x3aad090_0 : [-1/0,1/0]
RESULT: v0x395e3f0_0 : [-1/0,1/0]
RESULT: v0x395e4f0_0 : [-1/0,1/0]
RESULT: v0x395e5f0_0 : [-1/0,1/0]
RESULT: v0x3ab96e0_0 : [-1/0,1/0]
RESULT: v0x3aab610_0 : [-1/0,1/0]
RESULT: v0x395e9f0_0 : [-1/0,1/0]
RESULT: v0x395eaf0_0 : [-1/0,1/0]
RESULT: v0x395ebf0_0 : [-1/0,1/0]
RESULT: v0x3aa3290_0 : [-1/0,1/0]
RESULT: v0x3ab94e0_0 : [-1/0,1/0]
RESULT: v0x395eff0_0 : [-1/0,1/0]
RESULT: v0x395f0f0_0 : [-1/0,1/0]
RESULT: v0x395f1f0_0 : [-1/0,1/0]
RESULT: v0x3aa1450_0 : [-1/0,1/0]
RESULT: v0x3aaac50_0 : [-1/0,1/0]
RESULT: v0x395f5f0_0 : [-1/0,1/0]
RESULT: v0x395f6f0_0 : [-1/0,1/0]
RESULT: v0x395f7f0_0 : [-1/0,1/0]
RESULT: v0x3ab1080_0 : [-1/0,1/0]
RESULT: v0x3a85bd0_0 : [-1/0,1/0]
RESULT: v0x395faf0_0 : [-1/0,1/0]
RESULT: v0x395fbf0_0 : [-1/0,1/0]
RESULT: v0x395fcf0_0 : [0,0]
RESULT: v0x3ab1340_0 : [-1/0,1/0]
RESULT: v0x3aa3010_0 : [-1/0,1/0]
RESULT: v0x395fdf0_0 : [-1/0,1/0]
