RESULT: v0x4dbe730_1 : [3,3]
RESULT: v0x4dbe670_1 : [0,1]
RESULT: v0x4dbe5b0_1 : [0,1]
RESULT: v0x4c85ae0_1 : [0,1]
RESULT: v0x4ed1c50_1 : [0,1]
RESULT: v0x4ed1b90_1 : [0,1]
RESULT: v0x4ed1b10_1 : [0,1]
RESULT: v0x4ed1710_1 : [0,1]
RESULT: v0x4dbec70_1 : [0,1]
RESULT: v0x4dbed30_1 : [0,1]
RESULT: v0x4c88c90_1 : [0,1]
RESULT: v0x4dbef70_1 : [123,777]
RESULT: v0x4dbf030_1 : [0,666]
RESULT: v0x4dbf0f0_1 : [0,2]
RESULT: v0x4da8c70_1 : [0,1]
RESULT: v0x4dab290_1 : [0,2]
RESULT: v0x4d7f420_1 : [0,456]
RESULT: v0x4dabe60_1 : [0,123]
RESULT: v0x4dafc80_1 : [0,456]
RESULT: v0x4db3ff0_1 : [0,3]
RESULT: v0x4dafbf0_1 : [0,1]
RESULT: v0x4dc7e70_1 : [0,1]
