RESULT: v0x3a388c0_0 : [0,1]
RESULT: v0x3cabaf0_1 : [0,1]
RESULT: v0x3e2d2a0_1 : [0,1]
RESULT: v0x42d15a0_1 : [0,1]
RESULT: v0x3eac1b0_1 : [0,1]
RESULT: v0x42bed90_1 : [0,1]
RESULT: v0x42c2de0_1 : [0,1]
RESULT: v0x42eeaa0_1 : [0,1]
RESULT: v0x42e6610_1 : [0,1]
RESULT: v0x3eb4d80_1 : [0,1]
RESULT: v0x3cb7890_1 : [0,1]
RESULT: v0x3e278e0_1 : [0,2]
RESULT: v0x45139a0_1 : [0,2]
RESULT: v0x42f4080_1 : [0,2]
RESULT: v0x42c34a0_1 : [0,2]
RESULT: v0x3eab980_1 : [0,2]
RESULT: v0x42e5810_1 : [0,2]
RESULT: v0x3eabde0_1 : [0,2]
RESULT: v0x3cbf050_1 : [0,2]
RESULT: v0x3cc5560_1 : [0,2]
RESULT: v0x42d4600_1 : [0,2]
RESULT: v0x42c0960_1 : [0,2]
