RESULT: v0x42e4680_1 : [3,3]
RESULT: v0x41cda00_1 : [0,1]
RESULT: v0x41d1850_1 : [0,1]
RESULT: v0x41d58e0_1 : [0,1]
RESULT: v0x41e5930_1 : [0,1]
RESULT: v0x41c9e80_1 : [0,1]
RESULT: v0x4220a20_1 : [0,1]
RESULT: v0x41c12d0_1 : [0,1]
RESULT: v0x422ff80_1 : [0,1]
RESULT: v0x4229900_1 : [0,1]
RESULT: v0x42363c0_1 : [0,1]
RESULT: v0x428d0c0_1 : [0,1]
RESULT: v0x41d3fc0_1 : [0,1]
RESULT: v0x4231be0_1 : [0,2]
RESULT: v0x423d760_1 : [0,3]
RESULT: v0x41ce480_1 : [0,1]
RESULT: v0x4226ae0_1 : [123,777]
RESULT: v0x40ac4a0_1 : [0,666]
RESULT: v0x422db40_1 : [0,2]
RESULT: v0x41d2f40_1 : [0,1]
RESULT: v0x4223fc0_1 : [0,2]
RESULT: v0x4303090_1 : [0,456]
RESULT: v0x438b670_1 : [0,123]
RESULT: v0x43100f0_1 : [0,456]
