RESULT: v0x3fbeb10_0 : [0,1]
RESULT: v0x3fbee10_0 : [-1/0,1/0]
RESULT: v0x3fc3df0_0 : [0,0]
RESULT: v0x3fc38f0_0 : [-1/0,1/0]
RESULT: v0x3fc1ba0_0 : [-1/0,1/0]
RESULT: v0x3fbef10_0 : [-1/0,1]
RESULT: v0x3fbf110_0 : [0,1]
RESULT: v0x3fbe4b0_0 : [0,1]
RESULT: v0x3fbec10_0 : [0,1]
RESULT: v0x3fbe6b0_0 : [0,1]
RESULT: v0x3fbf5d0_0 : [0,1]
RESULT: v0x3fbe2b0_0 : [1,1]
RESULT: v0x3fbe910_0 : [-1/0,1/0]
RESULT: v0x3fbe110_0 : [-1/0,1/0]
RESULT: v0x3fbf310_0 : [-1/0,1/0]
RESULT: v0x3fc11a0_0 : [-1/0,1/0]
RESULT: v0x3fc12a0_0 : [-1/0,1/0]
RESULT: v0x3fc1ca0_0 : [-1/0,1/0]
RESULT: v0x3fbf210_0 : [-1/0,1/0]
RESULT: v0x3fc1fa0_0 : [-1/0,1/0]
RESULT: v0x3fbf6d0_0 : [-1/0,1/0]
RESULT: v0x3fbed10_0 : [-1/0,1/0]
RESULT: v0x3fc16a0_0 : [-1/0,1/0]
RESULT: v0x3fc26a0_0 : [-1/0,1/0]
RESULT: v0x3fc0c70_0 : [-1/0,1/0]
RESULT: v0x3fc0e70_0 : [-1/0,1/0]
RESULT: v0x6d9dee0_1 : [-1/0,1/0]
RESULT: v0x55b0900_1 : [0,1]
RESULT: v0x55b0d20_1 : [-1/0,1/0]
RESULT: v0x55b1160_1 : [0,1]
RESULT: v0x55b1580_1 : [-1/0,1/0]
RESULT: v0x55b1a80_1 : [0,1]
RESULT: v0x55c2000_1 : [0,1]
RESULT: v0x55c2100_1 : [-1/0,1/0]
RESULT: v0x55c2200_1 : [-1/0,1]
RESULT: v0x55c2300_1 : [-1/0,1/0]
RESULT: v0x55c2400_1 : [0,1]
RESULT: v0x55c2500_1 : [-1/0,1/0]
RESULT: v0x55c27a0_1 : [0,1]
RESULT: v0x55c2bc0_1 : [0,1]
RESULT: v0x55b20c0_1 : [0,1]
RESULT: v0x55b24e0_1 : [0,1]
RESULT: v0x55b2900_1 : [0,1]
