RESULT: v0x5f04950_0 : [2,1/0]
RESULT: v0x576eab0_0 : [-1/0,1/0]
RESULT: v0x576efb0_0 : [-1/0,1/0]
RESULT: v0x5eff350_0 : [0,1]
RESULT: v0x5d54ea0_0 : [0,1]
RESULT: v0x5f07ab0_0 : [0,1]
RESULT: v0x5f11800_0 : [0,3]
RESULT: v0x5f0d240_0 : [0,1]
RESULT: v0x5f069f0_0 : [0,3]
RESULT: v0x5c32030_0 : [0,2]
RESULT: v0x5cb06b0_0 : [0,1]
RESULT: v0x5bceab0_0 : [0,1]
RESULT: v0x5d7e150_0 : [0,666]
RESULT: v0x5ae16d0_0 : [0,1]
RESULT: v0x5eff390_0 : [123,777]
RESULT: v0x5f16900_0 : [0,1]
RESULT: v0x5cafa30_0 : [0,1]
RESULT: v0x5f20600_0 : [0,1]
RESULT: v0x5cb9870_0 : [0,456]
RESULT: v0x5f16580_0 : [0,2]
RESULT: v0x5d57420_0 : [0,1]
RESULT: v0x5cbf230_0 : [0,456]
RESULT: v0x5efed50_0 : [0,2]
RESULT: v0x5ca8d70_0 : [0,1]
RESULT: v0x5c63c70_0 : [0,1]
RESULT: v0x5c5a030_0 : [0,123]
RESULT: v0x5f1f500_0 : [0,1]
RESULT: v0x576fbb0_0 : [789,789]
RESULT: v0x576ecb0_0 : [-1/0,1/0]
RESULT: v0x576eeb0_0 : [-1/0,1/0]
RESULT: v0x576ebb0_0 : [-1/0,1/0]
