RESULT: v0x386f7a0_0 : [0,0]
RESULT: v0x3b21960_1 : [0,1]
RESULT: v0x3b28800_1 : [0,1]
RESULT: v0x3b1a870_1 : [0,1]
RESULT: v0x3b1abd0_1 : [0,1]
RESULT: v0x3b10240_1 : [0,1]
RESULT: v0x3b143a0_1 : [0,1]
RESULT: v0x3ae8250_1 : [0,1]
RESULT: v0x3ad1f80_1 : [0,1]
RESULT: v0x3b1d2a0_1 : [0,1]
RESULT: v0x3b09860_1 : [0,1]
RESULT: v0x3b09ae0_1 : [-1/0,1/0]
RESULT: v0x3af4be0_1 : [-1/0,1/0]
RESULT: v0x3afa120_1 : [0,2]
RESULT: v0x3afc160_1 : [0,2]
RESULT: v0x3adcbb0_1 : [0,2]
RESULT: v0x3add9b0_1 : [0,2]
RESULT: v0x3aafc60_1 : [0,2]
RESULT: v0x3b22bc0_1 : [0,2]
RESULT: v0x3b22c80_1 : [0,2]
RESULT: v0x3adb0b0_1 : [0,2]
RESULT: v0x3ae0fb0_1 : [0,2]
RESULT: v0x3adbb30_1 : [0,2]
RESULT: v0x3ae18e0_1 : [0,0]
