RESULT: v0x4649990_0 : [-1/0,1/0]
RESULT: v0x4649070_0 : [-1/0,1/0]
RESULT: v0x4649550_0 : [-1/0,1/0]
RESULT: v0x4649e70_0 : [0,1]
RESULT: v0x4649950_0 : [67,1/0]
RESULT: v0x4647bb0_0 : [-1/0,1/0]
RESULT: v0x4649510_0 : [-1/0,1/0]
RESULT: v0x46459d0_0 : [0,0]
RESULT: v0x46487d0_0 : [-1/0,1/0]
RESULT: v0x4647310_0 : [-1/0,1/0]
RESULT: v0x46490f0_0 : [-1/0,1/0]
RESULT: v0x3f94330_0 : [67,1/0]
RESULT: v0x3f94430_0 : [0,1]
RESULT: v0x3f94530_0 : [-1/0,1/0]
RESULT: v0x3f94630_0 : [-1/0,1/0]
RESULT: v0x3f94730_0 : [-1/0,1/0]
RESULT: v0x3f94830_0 : [-1/0,1/0]
RESULT: v0x3f94930_0 : [0,1]
RESULT: v0x3f94a30_0 : [-1/0,1/0]
RESULT: v0x3f94b30_0 : [-1/0,1/0]
RESULT: v0x3f94c30_0 : [0,0]
RESULT: v0x3f94d30_0 : [-1/0,1/0]
RESULT: v0x3f94e30_0 : [-1/0,1/0]
RESULT: v0x3f94f30_0 : [-1/0,1/0]
RESULT: v0x3f95030_0 : [-1/0,1/0]
RESULT: v0x4648850_0 : [-1/0,1/0]
RESULT: v0x46466b0_0 : [-1/0,1/0]
RESULT: v0x40b8e60_0 : [0,0]
RESULT: v0x4645e50_0 : [-1/0,10]
RESULT: v0x4646670_0 : [-1/0,1/0]
RESULT: v0x3f95330_0 : [-1/0,1/0]
