RESULT: v0x458fc30_1 : [-1/0,11]
RESULT: v0x4590f20_1 : [-1/0,1/0]
RESULT: v0x4591f20_1 : [-1/0,1/0]
RESULT: v0x4589d50_1 : [-1/0,1/0]
RESULT: v0x458f3b0_1 : [-1/0,1/0]
RESULT: v0x45942d0_1 : [-1/0,1/0]
RESULT: v0x4591dc0_1 : [0,1]
RESULT: v0x4591e60_1 : [-1/0,1/0]
RESULT: v0x4592d60_1 : [-1/0,1/0]
RESULT: v0x45929c0_1 : [-1/0,1/0]
RESULT: v0x4590450_1 : [-1/0,1/0]
RESULT: v0x458fe70_1 : [-1/0,1/0]
RESULT: v0x4593640_1 : [-1/0,1/0]
RESULT: v0x458f3f0_1 : [-1/0,1/0]
RESULT: v0x458fb70_1 : [-1/0,1/0]
RESULT: v0x458e590_1 : [-1/0,1/0]
