RESULT: v0x51130f0_0 : [-1/0,1/0]
RESULT: v0x4b2be10_0 : [-1/0,1/0]
RESULT: v0x4ac4aa0_0 : [-1/0,1/0]
RESULT: v0x539bb50_0 : [-1/0,1/0]
RESULT: v0x75ac630_0 : [27,1/0]
RESULT: v0x5f1f080_0 : [-1/0,1/0]
RESULT: v0x539b910_0 : [-1/0,1/0]
RESULT: v0x4fa95b0_0 : [-1/0,1/0]
RESULT: v0x4a496e0_0 : [1,1]
RESULT: v0x539bbd0_0 : [-1/0,1/0]
RESULT: v0x5fa5200_0 : [-1/0,1/0]
RESULT: v0x478d2d0_0 : [67,1/0]
RESULT: v0x478d3d0_0 : [0,1]
RESULT: v0x478d4d0_0 : [-1/0,1/0]
RESULT: v0x478d5d0_0 : [-1/0,1/0]
RESULT: v0x478d6d0_0 : [-1/0,1/0]
RESULT: v0x478d7d0_0 : [-1/0,1/0]
RESULT: v0x478d8d0_0 : [0,1]
RESULT: v0x478d9d0_0 : [-1/0,1/0]
RESULT: v0x478dad0_0 : [-1/0,1/0]
RESULT: v0x478dbd0_0 : [-1/0,1/0]
RESULT: v0x478dcd0_0 : [-1/0,1/0]
RESULT: v0x478ddd0_0 : [-1/0,1/0]
RESULT: v0x478ded0_0 : [-1/0,1/0]
RESULT: v0x478dfd0_0 : [-1/0,1/0]
RESULT: v0x75cbe30_0 : [-1/0,1/0]
RESULT: v0x5fba720_0 : [-1/0,1/0]
RESULT: v0x59070a0_0 : [-1/0,1/0]
RESULT: v0x5212090_0 : [-1/0,10]
RESULT: v0x4a49b00_0 : [-1/0,1/0]
RESULT: v0x478f2d0_0 : [-1/0,1/0]
