RESULT: v0x866a570_0 : [-1/0,1/0]
RESULT: v0xb3ae2e0_0 : [-1/0,1/0]
RESULT: v0xec353a0_0 : [-1/0,1/0]
RESULT: v0x46a7890_0 : [-1/0,1/0]
RESULT: v0xb3ae280_0 : [27,1/0]
RESULT: v0x119bb0d0_0 : [-1/0,1/0]
RESULT: v0xa533e40_0 : [-1/0,1/0]
RESULT: v0xa509770_0 : [1,1]
RESULT: v0x5841110_0 : [-1/0,1/0]
RESULT: v0x68afa80_0 : [-1/0,1/0]
RESULT: v0x71af130_0 : [-1/0,1/0]
RESULT: v0x3fa3330_0 : [67,1/0]
RESULT: v0x3fa3430_0 : [-1/0,1/0]
RESULT: v0x3fa3530_0 : [-1/0,1/0]
RESULT: v0x3fa3630_0 : [-1/0,1/0]
RESULT: v0x3fa3730_0 : [-1/0,1/0]
RESULT: v0x3fa3830_0 : [0,1]
RESULT: v0x3fa3930_0 : [-1/0,1/0]
RESULT: v0x3fa3a30_0 : [-1/0,1/0]
RESULT: v0x3fa3b30_0 : [-1/0,1/0]
RESULT: v0x3fa3c30_0 : [-1/0,1/0]
RESULT: v0x3fa3d30_0 : [-1/0,1/0]
RESULT: v0x3fa3e30_0 : [-1/0,1/0]
RESULT: v0x3fa3f30_0 : [-1/0,1/0]
RESULT: v0x6e71da0_0 : [-1/0,1/0]
RESULT: v0x113eca30_0 : [-1/0,1/0]
RESULT: v0x146509e0_0 : [-1/0,10]
RESULT: v0x14360610_0 : [-1/0,1/0]
RESULT: v0x40973b0_0 : [-1/0,1/0]
RESULT: v0x3fa5230_0 : [-1/0,1/0]
