RESULT: v0x4600fe0_0 : [0,1]
RESULT: v0x514d9e0_1 : [0,1]
RESULT: v0x4a29bd0_1 : [0,1]
RESULT: v0x486c380_1 : [0,1]
RESULT: v0x4857160_1 : [0,1]
RESULT: v0x4a62720_1 : [0,1]
RESULT: v0x4867190_1 : [0,1]
RESULT: v0x54a6a20_1 : [0,1]
RESULT: v0x54a0d00_1 : [0,1]
RESULT: v0x4895a50_1 : [0,1]
RESULT: v0x4892490_1 : [-1/0,1/0]
RESULT: v0x47425b0_1 : [-1/0,1/0]
RESULT: v0x4a6b5a0_1 : [0,2]
RESULT: v0x464be60_1 : [0,2]
RESULT: v0x5498d50_1 : [0,2]
RESULT: v0x487b6d0_1 : [0,2]
RESULT: v0x54ab3f0_1 : [0,2]
RESULT: v0x4862ef0_1 : [0,2]
RESULT: v0x54ac8a0_1 : [0,2]
RESULT: v0x5494c30_1 : [0,2]
RESULT: v0x56976e0_1 : [0,2]
RESULT: v0x4861ee0_1 : [0,2]
