RESULT: v0x32d6eb0_0 : [0,1]
RESULT: v0x37d49d0_1 : [0,1]
RESULT: v0x3744c30_1 : [0,1]
RESULT: v0x3ed9050_1 : [0,1]
RESULT: v0x3ed9910_1 : [0,1]
RESULT: v0x35710c0_1 : [0,1]
RESULT: v0x35896c0_1 : [0,1]
RESULT: v0x357ae60_1 : [0,1]
RESULT: v0x356e7d0_1 : [0,1]
RESULT: v0x36664e0_1 : [0,1]
RESULT: v0x37c6930_1 : [0,1]
RESULT: v0x3546ee0_1 : [0,1]
RESULT: v0x37ebbc0_1 : [0,2]
RESULT: v0x3584430_1 : [0,2]
RESULT: v0x354d670_1 : [0,2]
RESULT: v0x3650830_1 : [0,2]
RESULT: v0x37cae50_1 : [0,2]
RESULT: v0x3ed80b0_1 : [0,2]
RESULT: v0x355f5b0_1 : [0,2]
RESULT: v0x37cc050_1 : [0,2]
RESULT: v0x35836d0_1 : [0,2]
RESULT: v0x3ed3590_1 : [0,2]
RESULT: v0x3ed3030_1 : [0,2]
RESULT: v0x37dfdd0_1 : [0,2]
