RESULT: v0x45482c0_0 : [0,0]
RESULT: v0x4b250e0_1 : [0,1]
RESULT: v0x4b24390_1 : [0,1]
RESULT: v0x4b24610_1 : [0,1]
RESULT: v0x4b24450_1 : [0,1]
RESULT: v0x4b23c70_1 : [0,1]
RESULT: v0x4b23640_1 : [0,1]
RESULT: v0x4b2e050_1 : [0,1]
RESULT: v0x4b2de10_1 : [0,1]
RESULT: v0x4b2dd50_1 : [0,1]
RESULT: v0x4b2db10_1 : [0,1]
RESULT: v0x4b2da50_1 : [0,1]
RESULT: v0x4b2d690_1 : [0,1]
RESULT: v0x4b32410_1 : [0,1]
RESULT: v0x4b321d0_1 : [-1/0,1/0]
RESULT: v0x4b33c30_1 : [-1/0,1/0]
RESULT: v0x4b149e0_1 : [0,2]
RESULT: v0x4858060_1 : [0,2]
RESULT: v0x48304e0_1 : [0,2]
RESULT: v0x481f690_1 : [0,2]
RESULT: v0x4850700_1 : [0,2]
RESULT: v0x484cb00_1 : [0,2]
RESULT: v0x4837e00_1 : [0,2]
RESULT: v0x48666d0_1 : [0,2]
RESULT: v0x47f87b0_1 : [0,2]
RESULT: v0x4b03850_1 : [0,2]
RESULT: v0x4afe480_1 : [0,2]
RESULT: v0x4824d70_1 : [0,2]
RESULT: v0x4b00910_1 : [0,2]
RESULT: v0x4b12920_1 : [0,0]
