RESULT: v0x444a1e0_0 : [0,1]
RESULT: v0x4449ee0_0 : [0,1]
RESULT: v0x4449de0_0 : [0,1]
RESULT: v0x4449ae0_0 : [0,1]
RESULT: v0x44499e0_0 : [0,1]
RESULT: v0x444a4e0_0 : [-1/0,1/0]
RESULT: v0x4449ce0_0 : [0,1]
RESULT: v0x44424e0_0 : [0,1]
RESULT: v0x44422e0_0 : [0,0]
RESULT: v0x44423e0_0 : [-1/0,1/0]
RESULT: v0x44498e0_0 : [-1/0,1/0]
RESULT: v0x4449fe0_0 : [0,1]
RESULT: v0x44496e0_0 : [80,200]
RESULT: v0x4449be0_0 : [0,1]
RESULT: v0x444a0e0_0 : [0,1]
RESULT: v0x4442be0_0 : [0,1]
RESULT: v0x44420e0_0 : [3,10]
RESULT: v0x4442ae0_0 : [0,1]
RESULT: v0x44426e0_0 : [0,1]
RESULT: v0x44421e0_0 : [40,120]
RESULT: v0x44427e0_0 : [0,1]
RESULT: v0x44428e0_0 : [1,1]
RESULT: v0x4442ce0_0 : [1,1]
RESULT: v0x44429e0_0 : [1,1]
RESULT: v0x44425e0_0 : [1,1]
RESULT: v0x69f48e0_0 : [-1/0,1/0]
RESULT: v0x444d1e0_0 : [-1/0,1/0]
