RESULT: v0x5756c50_0 : [-1/0,1/0]
RESULT: v0x5756e50_0 : [-1/0,1/0]
RESULT: v0x5757b50_0 : [789,789]
RESULT: v0x5756a50_0 : [-1/0,1/0]
RESULT: v0x5756d50_0 : [-1/0,1/0]
RESULT: v0x5756b50_0 : [-1/0,1/0]
RESULT: v0x5bb1530_1 : [2,2]
RESULT: v0x5bb0ef0_1 : [0,1]
RESULT: v0x5bb21b0_1 : [0,1]
RESULT: v0x5bb0c70_1 : [0,1]
RESULT: v0x5bb1df0_1 : [0,1]
RESULT: v0x5bb1a30_1 : [0,1]
RESULT: v0x5bb9370_1 : [0,1]
RESULT: v0x5bba130_1 : [0,1]
RESULT: v0x5bb9d70_1 : [0,1]
RESULT: v0x5bb8970_1 : [0,1]
RESULT: v0x5bb95f0_1 : [0,1]
RESULT: v0x5bb8330_1 : [0,1]
RESULT: v0x5bb8470_1 : [0,2]
RESULT: v0x5bb85b0_1 : [0,3]
RESULT: v0x5bbdd30_1 : [0,1]
RESULT: v0x5bb71b0_1 : [123,777]
RESULT: v0x5bbd5b0_1 : [0,666]
RESULT: v0x5bbcf70_1 : [0,2]
RESULT: v0x5b937b0_1 : [0,1]
RESULT: v0x5bbc430_1 : [0,2]
RESULT: v0x5bd3270_1 : [0,456]
RESULT: v0x5bd33b0_1 : [0,123]
RESULT: v0x5bd2af0_1 : [0,456]
RESULT: v0x5bd2730_1 : [0,3]
RESULT: v0x5bd70f0_1 : [0,1]
