RESULT: v0x45482c0_0 : [0,0]
RESULT: v0x4859fe0_1 : [0,1]
RESULT: v0x485a760_1 : [0,1]
RESULT: v0x47f6cb0_1 : [0,1]
RESULT: v0x47b6610_1 : [0,1]
RESULT: v0x485e420_1 : [0,1]
RESULT: v0x47fbd30_1 : [0,1]
RESULT: v0x47fb5f0_1 : [0,1]
RESULT: v0x47c14e0_1 : [0,1]
RESULT: v0x482bea0_1 : [0,1]
RESULT: v0x482c980_1 : [0,1]
RESULT: v0x481feb0_1 : [0,1]
RESULT: v0x4820690_1 : [0,1]
RESULT: v0x4821850_1 : [0,1]
RESULT: v0x48253c0_1 : [-1/0,1/0]
RESULT: v0x4834760_1 : [-1/0,1/0]
RESULT: v0x4835100_1 : [0,2]
RESULT: v0x4827930_1 : [0,2]
RESULT: v0x4811c50_1 : [0,2]
RESULT: v0x4813620_1 : [0,2]
RESULT: v0x47fde70_1 : [0,2]
RESULT: v0x4800140_1 : [0,2]
RESULT: v0x46b5820_1 : [0,2]
RESULT: v0x47f8eb0_1 : [0,2]
RESULT: v0x4856da0_1 : [0,2]
RESULT: v0x47fa2b0_1 : [0,2]
RESULT: v0x47fba70_1 : [0,2]
RESULT: v0x47fcef0_1 : [0,2]
RESULT: v0x47ff810_1 : [0,2]
RESULT: v0x4806810_1 : [0,0]
