RESULT: v0x5b7ba00_0 : [-1/0,1/0]
RESULT: v0x6742b30_0 : [-1/0,1/0]
RESULT: v0xbd73a90_0 : [0,1]
RESULT: v0x50012a0_0 : [0,1]
RESULT: v0x4fb50f0_0 : [-1/0,1/0]
RESULT: v0x7384390_0 : [-1/0,1/0]
RESULT: v0x5bc61e0_0 : [0,0]
RESULT: v0x4e8eda0_0 : [67,1/0]
RESULT: v0xa3a9590_0 : [67,1/0]
RESULT: v0x4e8eea0_0 : [0,1]
RESULT: v0x4e8efa0_0 : [0,1]
RESULT: v0x4e8f0a0_0 : [-1/0,1/0]
RESULT: v0x4e8f1a0_0 : [-1/0,1/0]
RESULT: v0x4e8f2a0_0 : [0,0]
RESULT: v0x4e8f3a0_0 : [0,0]
RESULT: v0x4e8f4a0_0 : [-1/0,1/0]
RESULT: v0x6fbf930_0 : [-1/0,1/0]
RESULT: v0x4e8f5a0_0 : [-1/0,1/0]
RESULT: v0x5bc6040_0 : [-1/0,1/0]
RESULT: v0x4e8f6a0_0 : [-1/0,1/0]
RESULT: v0x6b4f770_0 : [-1/0,1/0]
RESULT: v0x4e8f7a0_0 : [-1/0,1/0]
RESULT: v0x4e8f8a0_0 : [-1/0,1/0]
RESULT: v0x4e8f9a0_0 : [-1/0,1/0]
RESULT: v0x4e8faa0_0 : [-1/0,1/0]
RESULT: v0x52a5390_0 : [-1/0,1/0]
RESULT: v0x5bc60e0_0 : [-1/0,1/0]
RESULT: v0x73bc480_0 : [0,0]
RESULT: v0x761b340_0 : [-1/0,10]
RESULT: v0x7337a90_0 : [-1/0,1/0]
RESULT: v0x4e8fda0_0 : [-1/0,1/0]
