RESULT: v0x4d0c290_0 : [0,0]
RESULT: v0x51fa4b0_1 : [0,1]
RESULT: v0x51faeb0_1 : [1,1]
RESULT: v0x51fad10_1 : [0,1]
RESULT: v0x51fa930_1 : [0,1]
RESULT: v0x4fe4090_1 : [0,1]
RESULT: v0x4fe0080_1 : [0,1]
RESULT: v0x4fb5d00_1 : [0,1]
RESULT: v0x4fe3350_1 : [0,1]
RESULT: v0x4fc2d80_1 : [0,1]
RESULT: v0x4fc3760_1 : [0,1]
RESULT: v0x4fc8030_1 : [0,1]
RESULT: v0x4fc4dc0_1 : [0,1]
RESULT: v0x4fa1de0_1 : [0,1]
RESULT: v0x4fb1df0_1 : [0,2]
RESULT: v0x4e355a0_1 : [2,2]
RESULT: v0x4d56990_1 : [0,2]
RESULT: v0x51f5d60_1 : [0,2]
RESULT: v0x5013a00_1 : [0,2]
RESULT: v0x50070e0_1 : [0,2]
RESULT: v0x5204df0_1 : [0,2]
RESULT: v0x51ff6e0_1 : [0,2]
RESULT: v0x4d56090_1 : [0,2]
RESULT: v0x51fe900_1 : [0,2]
RESULT: v0x51fdce0_1 : [0,2]
RESULT: v0x51ecb20_1 : [0,2]
RESULT: v0x51feac0_1 : [0,2]
RESULT: v0x51ff720_1 : [0,0]
