RESULT: v0x4551180_0 : [0,0]
RESULT: v0x47dd860_1 : [0,1]
RESULT: v0x47ddce0_1 : [0,1]
RESULT: v0x47e4080_1 : [0,1]
RESULT: v0x47df3e0_1 : [0,1]
RESULT: v0x47dfcc0_1 : [0,1]
RESULT: v0x47ffdb0_1 : [0,1]
RESULT: v0x49eae60_1 : [0,1]
RESULT: v0x49e7680_1 : [0,1]
RESULT: v0x480a210_1 : [0,1]
RESULT: v0x49e6790_1 : [0,1]
RESULT: v0x46960f0_1 : [0,1]
RESULT: v0x47d12d0_1 : [0,1]
RESULT: v0x49e5b10_1 : [0,2]
RESULT: v0x49e5e70_1 : [0,2]
RESULT: v0x49e6650_1 : [0,2]
RESULT: v0x49e6930_1 : [0,2]
RESULT: v0x49ab9d0_1 : [0,2]
RESULT: v0x49eaea0_1 : [0,2]
RESULT: v0x47d06b0_1 : [0,2]
RESULT: v0x47d84c0_1 : [0,2]
RESULT: v0x47d7a10_1 : [0,2]
RESULT: v0x47d64c0_1 : [0,2]
RESULT: v0x47d5440_1 : [0,2]
RESULT: v0x4596010_1 : [0,2]
RESULT: v0x47f6460_1 : [0,0]
