RESULT: v0x62caaa0_0 : [0,1]
RESULT: v0x623b320_0 : [0,1]
RESULT: v0x5113390_0 : [0,1]
RESULT: v0x62d58c0_0 : [0,1]
RESULT: v0x4a66a90_0 : [0,1]
RESULT: v0x5eb1ce0_0 : [0,1]
RESULT: v0x5e986a0_0 : [0,1]
RESULT: v0x62de3c0_0 : [0,1]
RESULT: v0x62d18a0_0 : [0,1]
RESULT: v0x62f4f40_0 : [0,1]
RESULT: v0x6258990_0 : [0,1]
RESULT: v0x62f0f20_0 : [0,1]
RESULT: v0x62b4240_0 : [0,1]
RESULT: v0x62e2ea0_0 : [1,1]
RESULT: v0x5168130_0 : [-1/0,1/0]
RESULT: v0x508e3f0_0 : [-1/0,1/0]
RESULT: v0x517ecb0_0 : [0,2]
RESULT: v0x62c8300_0 : [0,2]
RESULT: v0x62d38c0_0 : [0,2]
RESULT: v0x5e97c00_0 : [0,2]
RESULT: v0x51575f0_0 : [0,2]
RESULT: v0x5162bb0_0 : [0,2]
RESULT: v0x62c42e0_0 : [0,2]
RESULT: v0x5149570_0 : [0,2]
RESULT: v0x4cd1680_0 : [0,2]
RESULT: v0x62f19e0_0 : [0,2]
RESULT: v0x54fd7f0_0 : [0,2]
RESULT: v0x62ca320_0 : [0,2]
RESULT: v0x62b2240_0 : [0,2]
RESULT: v0x62d4380_0 : [2,2]
