RESULT: v0x4958280_0 : [-1/0,1/0]
RESULT: v0x4958780_0 : [-1/0,1/0]
RESULT: v0x4959380_0 : [789,789]
RESULT: v0x4958380_0 : [-1/0,1/0]
RESULT: v0x4958580_0 : [-1/0,1/0]
RESULT: v0x4958480_0 : [-1/0,1/0]
RESULT: v0x4dbcfe0_1 : [2,2]
RESULT: v0x4dbdda0_1 : [0,1]
RESULT: v0x4d800e0_1 : [0,1]
RESULT: v0x4dc47e0_1 : [0,1]
RESULT: v0x4dc6ea0_1 : [0,1]
RESULT: v0x4dc6ae0_1 : [0,1]
RESULT: v0x4dc6c20_1 : [0,1]
RESULT: v0x4dc5e60_1 : [0,1]
RESULT: v0x4dc5be0_1 : [0,1]
RESULT: v0x4dc5d20_1 : [0,1]
RESULT: v0x4dc4e20_1 : [0,1]
RESULT: v0x4dc5960_1 : [0,2]
RESULT: v0x4dc4a60_1 : [0,3]
RESULT: v0x4dc4ba0_1 : [0,1]
RESULT: v0x4dca460_1 : [123,777]
RESULT: v0x4dc38e0_1 : [0,666]
RESULT: v0x4bdefe0_1 : [0,2]
RESULT: v0x4dca0a0_1 : [0,1]
RESULT: v0x4dc97e0_1 : [0,2]
RESULT: v0x4dc9ba0_1 : [0,456]
RESULT: v0x4dfaae0_1 : [0,123]
RESULT: v0x4dfad60_1 : [0,456]
RESULT: v0x4bf6aa0_1 : [0,3]
RESULT: v0x4bf66e0_1 : [0,1]
RESULT: v0x4dfdce0_1 : [0,1]
