RESULT: v0x63c1d20_0 : [-1/0,1/0]
RESULT: v0x146c8d10_0 : [-1/0,1/0]
RESULT: v0xde4cec0_0 : [-1/0,1/0]
RESULT: v0x108199d0_0 : [-1/0,1/0]
RESULT: v0x10817b30_0 : [27,1/0]
RESULT: v0x107a4790_0 : [-1/0,1/0]
RESULT: v0x48cc830_0 : [-1/0,1/0]
RESULT: v0xfbd6560_0 : [1,1]
RESULT: v0x5de8df0_0 : [-1/0,1/0]
RESULT: v0x565a890_0 : [-1/0,1/0]
RESULT: v0x6475990_0 : [-1/0,1/0]
RESULT: v0x3fa3330_0 : [67,1/0]
RESULT: v0x3fa3430_0 : [-1/0,1/0]
RESULT: v0x3fa3530_0 : [-1/0,1/0]
RESULT: v0x3fa3630_0 : [-1/0,1/0]
RESULT: v0x3fa3730_0 : [-1/0,1/0]
RESULT: v0x3fa3830_0 : [0,1]
RESULT: v0x3fa3930_0 : [-1/0,1/0]
RESULT: v0x3fa3a30_0 : [-1/0,1/0]
RESULT: v0x3fa3b30_0 : [-1/0,1/0]
RESULT: v0x3fa3c30_0 : [-1/0,1/0]
RESULT: v0x3fa3d30_0 : [-1/0,1/0]
RESULT: v0x3fa3e30_0 : [-1/0,1/0]
RESULT: v0x3fa3f30_0 : [-1/0,1/0]
RESULT: v0x7408010_0 : [-1/0,1/0]
RESULT: v0x7245130_0 : [-1/0,1/0]
RESULT: v0x7407df0_0 : [-1/0,10]
RESULT: v0x10819a10_0 : [-1/0,1/0]
RESULT: v0x59931b0_0 : [-1/0,1/0]
RESULT: v0x3fa5230_0 : [-1/0,1/0]
