RESULT: v0x3e8a380_1 : [4,4]
RESULT: v0x3f213b0_1 : [0,1]
RESULT: v0x3f50010_1 : [0,1]
RESULT: v0x3f5bdb0_1 : [0,1]
RESULT: v0x3e96be0_1 : [0,1]
RESULT: v0x3f552d0_1 : [0,1]
RESULT: v0x3edb910_1 : [0,1]
RESULT: v0x3f58bb0_1 : [0,1]
RESULT: v0x3f52a10_1 : [0,1]
RESULT: v0x3e616b0_1 : [0,1]
RESULT: v0x3f57510_1 : [0,1]
RESULT: v0x3f3de60_1 : [0,1]
RESULT: v0x3d2e430_1 : [0,1]
RESULT: v0x3c973e0_1 : [0,2]
RESULT: v0x3d36f50_1 : [0,3]
RESULT: v0x3d34470_1 : [0,1]
RESULT: v0x3d394b0_1 : [123,777]
RESULT: v0x3d3b4d0_1 : [0,666]
RESULT: v0x3ccdcb0_1 : [0,2]
RESULT: v0x3d2b8d0_1 : [0,1]
RESULT: v0x3d35f90_1 : [0,2]
RESULT: v0x3e7cad0_1 : [0,456]
RESULT: v0x3e094e0_1 : [0,123]
RESULT: v0x3cb9a40_1 : [0,456]
