RESULT: v0x4b77be0_0 : [-1/0,1/0]
RESULT: v0x4b76c20_0 : [-1/0,1/0]
RESULT: v0x4b778c0_0 : [-1/0,1/0]
RESULT: v0x4b1fca0_0 : [0,1]
RESULT: v0x4b77940_0 : [67,1/0]
RESULT: v0x4b756a0_0 : [-1/0,1/0]
RESULT: v0x4b21870_0 : [-1/0,1/0]
RESULT: v0x4b763c0_0 : [-1/0,1/0]
RESULT: v0x4b6f420_0 : [0,0]
RESULT: v0x4b72e40_0 : [-1/0,1/0]
RESULT: v0x4b77380_0 : [-1/0,1/0]
RESULT: v0x478d2d0_0 : [67,1/0]
RESULT: v0x478d3d0_0 : [0,1]
RESULT: v0x478d4d0_0 : [-1/0,1/0]
RESULT: v0x478d5d0_0 : [-1/0,1/0]
RESULT: v0x478d6d0_0 : [-1/0,1/0]
RESULT: v0x478d7d0_0 : [-1/0,1/0]
RESULT: v0x478d8d0_0 : [0,1]
RESULT: v0x478d9d0_0 : [-1/0,1/0]
RESULT: v0x478dad0_0 : [-1/0,1/0]
RESULT: v0x478dbd0_0 : [0,0]
RESULT: v0x478dcd0_0 : [-1/0,1/0]
RESULT: v0x478ddd0_0 : [-1/0,1/0]
RESULT: v0x478ded0_0 : [-1/0,1/0]
RESULT: v0x478dfd0_0 : [-1/0,1/0]
RESULT: v0x4b76440_0 : [-1/0,1/0]
RESULT: v0x4b71f40_0 : [-1/0,1/0]
RESULT: v0x480c6b0_0 : [0,0]
RESULT: v0x4b55b40_0 : [-1/0,10]
RESULT: v0x4b721a0_0 : [-1/0,1/0]
RESULT: v0x478e2d0_0 : [-1/0,1/0]
