RESULT: v0x44b8ba0_1 : [4,4]
RESULT: v0x44963d0_1 : [0,1]
RESULT: v0x449bee0_1 : [0,1]
RESULT: v0x448fe00_1 : [0,1]
RESULT: v0x4329eb0_1 : [0,1]
RESULT: v0x44a0f40_1 : [0,1]
RESULT: v0x448b860_1 : [0,1]
RESULT: v0x44791c0_1 : [0,1]
RESULT: v0x4479720_1 : [0,1]
RESULT: v0x44ba740_1 : [0,1]
RESULT: v0x44919a0_1 : [0,1]
RESULT: v0x432aa70_1 : [0,1]
RESULT: v0x4203500_1 : [0,1]
RESULT: v0x4327f10_1 : [0,2]
RESULT: v0x44bbc60_1 : [0,3]
RESULT: v0x44b0160_1 : [123,777]
RESULT: v0x44c12a0_1 : [0,2]
RESULT: v0x44a6b60_1 : [0,1]
RESULT: v0x4487920_1 : [0,2]
RESULT: v0x43ef770_1 : [0,456]
RESULT: v0x4401de0_1 : [0,123]
RESULT: v0x4437d20_1 : [0,456]
