RESULT: v0x3e5a780_0 : [0,1]
RESULT: v0x4eb82b0_1 : [0,1]
RESULT: v0x4eaf6e0_1 : [0,1]
RESULT: v0x42f0320_1 : [0,1]
RESULT: v0x42fbe90_1 : [0,1]
RESULT: v0x3f96e00_1 : [0,1]
RESULT: v0x44032d0_1 : [0,1]
RESULT: v0x440b490_1 : [0,1]
RESULT: v0x42ff200_1 : [0,1]
RESULT: v0x40ed5a0_1 : [0,1]
RESULT: v0x42e11b0_1 : [-1/0,1/0]
RESULT: v0x40dbbe0_1 : [-1/0,1/0]
RESULT: v0x40b1920_1 : [0,2]
RESULT: v0x4ea2cf0_1 : [0,2]
RESULT: v0x4324b70_1 : [0,2]
RESULT: v0x430b330_1 : [0,2]
RESULT: v0x4e98020_1 : [0,2]
RESULT: v0x43259d0_1 : [0,2]
RESULT: v0x4eb0b80_1 : [0,2]
RESULT: v0x4eb3d80_1 : [0,2]
RESULT: v0x43247b0_1 : [0,2]
RESULT: v0x4e9dcd0_1 : [0,2]
