RESULT: v0x3a388c0_0 : [0,1/0]
RESULT: v0x3eae970_1 : [0,1]
RESULT: v0x5879670_1 : [0,1]
RESULT: v0x603eed0_1 : [0,1]
RESULT: v0x603f560_1 : [0,1]
RESULT: v0x5871c10_1 : [0,1]
RESULT: v0x603d330_1 : [0,1]
RESULT: v0x58792f0_1 : [0,1]
RESULT: v0x603f620_1 : [0,1]
RESULT: v0x5bbd000_1 : [0,1]
RESULT: v0x5f82b70_1 : [0,1]
RESULT: v0x58793b0_1 : [-1/0,2]
RESULT: v0x5875640_1 : [-1/0,2]
RESULT: v0x5875100_1 : [-1/0,2]
RESULT: v0x586fef0_1 : [-1/0,2]
RESULT: v0x47c13b0_1 : [-1/0,2]
RESULT: v0x531fc40_1 : [-1/0,2]
RESULT: v0x4c96790_1 : [-1/0,2]
RESULT: v0x47a5ee0_1 : [-1/0,2]
RESULT: v0x57e92f0_1 : [0,2]
RESULT: v0x5804ca0_1 : [0,2]
RESULT: v0x57e7000_1 : [0,2]
