RESULT: v0x353c820_0 : [-1/0,1/0]
RESULT: v0x353cf80_0 : [-1/0,1/0]
RESULT: v0x37de3f0_0 : [-1/0,1/0]
RESULT: v0x3603e60_0 : [-1/0,1/0]
RESULT: v0x361a660_0 : [-1/0,1/0]
RESULT: v0x3656390_0 : [-1/0,1/0]
RESULT: v0x37b3c50_0 : [-1/0,1/0]
RESULT: v0x3623cb0_0 : [-1/0,1/0]
RESULT: v0x36129b0_0 : [-1/0,1/0]
RESULT: v0x372a330_0 : [-1/0,1/0]
RESULT: v0x35d9a20_0 : [-1/0,1/0]
RESULT: v0x36035e0_0 : [-1/0,1/0]
RESULT: v0x35d4080_0 : [-1/0,1/0]
RESULT: v0x3609f30_0 : [1,1]
RESULT: v0x35f0690_0 : [-1/0,1/0]
RESULT: v0x362c000_0 : [-1/0,1/0]
RESULT: v0x3556d60_0 : [-1/0,1/0]
RESULT: v0x349a1c0_0 : [-1/0,1/0]
RESULT: v0x361da60_0 : [-1/0,1/0]
RESULT: v0x3550710_0 : [-1/0,1/0]
RESULT: v0x35d4340_0 : [-1/0,1/0]
RESULT: v0x356d350_0 : [-1/0,1/0]
RESULT: v0x35fbab0_0 : [-1/0,1/0]
RESULT: v0x36215f0_0 : [-1/0,1/0]
RESULT: v0x357fd40_0 : [-1/0,1/0]
RESULT: v0x3557d00_0 : [-1/0,1/0]
RESULT: v0x3588ed0_0 : [-1/0,1/0]
RESULT: v0x35d4b40_0 : [-1/0,1/0]
RESULT: v0x356dcd0_0 : [-1/0,1/0]
RESULT: v0x3567bf0_0 : [2,2]
