RESULT: v0x415a940_1 : [3,3]
RESULT: v0x415aa00_1 : [0,1]
RESULT: v0x415aa80_1 : [0,1]
RESULT: v0x415ab40_1 : [0,1]
RESULT: v0x4127760_1 : [0,1]
RESULT: v0x41275e0_1 : [0,1]
RESULT: v0x4127560_1 : [0,1]
RESULT: v0x401f730_1 : [0,1]
RESULT: v0x4011dc0_1 : [0,1]
RESULT: v0x4011e80_1 : [0,1]
RESULT: v0x4011f40_1 : [0,1]
RESULT: v0x4012000_1 : [0,1]
RESULT: v0x40120c0_1 : [0,1]
RESULT: v0x4012180_1 : [123,777]
RESULT: v0x3ffbbb0_1 : [0,666]
RESULT: v0x3ffe2b0_1 : [0,2]
RESULT: v0x3ff4170_1 : [0,1]
RESULT: v0x3ffef60_1 : [0,2]
RESULT: v0x4002cd0_1 : [0,456]
RESULT: v0x4007040_1 : [0,123]
RESULT: v0x4002c40_1 : [0,456]
RESULT: v0x40164d0_1 : [0,3]
