RESULT: v0x408b560_1 : [3,3]
RESULT: v0x406a7f0_1 : [0,1]
RESULT: v0x409ab80_1 : [0,1]
RESULT: v0x4088f00_1 : [0,1]
RESULT: v0x4175b70_1 : [0,1]
RESULT: v0x41759f0_1 : [0,1]
RESULT: v0x4175930_1 : [0,1]
RESULT: v0x4175630_1 : [0,1]
RESULT: v0x4088790_1 : [0,1]
RESULT: v0x4088850_1 : [0,1]
RESULT: v0x4088910_1 : [0,1]
RESULT: v0x40889d0_1 : [0,1]
RESULT: v0x4088a90_1 : [123,777]
RESULT: v0x405c440_1 : [0,666]
RESULT: v0x4074830_1 : [0,2]
RESULT: v0x4069b80_1 : [0,1]
RESULT: v0x40754c0_1 : [0,2]
RESULT: v0x40792a0_1 : [0,456]
RESULT: v0x407d8c0_1 : [0,123]
RESULT: v0x4079210_1 : [0,456]
RESULT: v0x4091580_1 : [0,3]
