RESULT: v0x657b520_0 : [2,2]
RESULT: v0x628d590_0 : [0,1]
RESULT: v0x6891af0_0 : [0,1]
RESULT: v0x68918d0_0 : [40,120]
RESULT: v0x5ff89a0_0 : [1,1]
RESULT: v0x6891550_0 : [0,0]
RESULT: v0x5fcdd90_0 : [1,1]
RESULT: v0x6890c70_0 : [0,1]
RESULT: v0x6890eb0_0 : [0,1]
RESULT: v0x6872380_0 : [1,1]
RESULT: v0x508f680_0 : [0,1]
RESULT: v0x62f2d80_0 : [1,1]
RESULT: v0x688e770_0 : [-1/0,1/0]
RESULT: v0x4fdfd80_0 : [0,1]
RESULT: v0x4fdfe80_0 : [0,1]
RESULT: v0x4fdff80_0 : [0,1]
RESULT: v0x4fe0080_0 : [0,1]
RESULT: v0x4fe0180_0 : [80,120]
RESULT: v0x4fe0280_0 : [0,1]
RESULT: v0x4fe0380_0 : [-1/0,1/0]
RESULT: v0x4fe0480_0 : [1,1]
RESULT: v0x4fe0580_0 : [1,1]
RESULT: v0x4fe0680_0 : [0,1]
RESULT: v0x4fe0780_0 : [0,1]
RESULT: v0x4fe0880_0 : [1,1]
RESULT: v0x6ab99f0_0 : [0,0]
RESULT: v0x4fe0b80_0 : [-1/0,1/0]
