RESULT: v0x4850320_1 : [3,3]
RESULT: v0x4b51d80_1 : [0,1]
RESULT: v0x4b51fc0_1 : [0,1]
RESULT: v0x4b52200_1 : [0,1]
RESULT: v0x49759d0_1 : [0,1]
RESULT: v0x49d4ab0_1 : [0,1]
RESULT: v0x4970e20_1 : [0,1]
RESULT: v0x4859480_1 : [0,1]
RESULT: v0x49eac50_1 : [0,1]
RESULT: v0x494a020_1 : [0,1]
RESULT: v0x49d0fd0_1 : [0,1]
RESULT: v0x4851400_1 : [0,1]
RESULT: v0x49e0650_1 : [0,1]
RESULT: v0x49cd4f0_1 : [0,2]
RESULT: v0x4977dd0_1 : [0,3]
RESULT: v0x49e8190_1 : [0,1]
RESULT: v0x49d9b30_1 : [123,777]
RESULT: v0x4851ec0_1 : [0,666]
RESULT: v0x497a9a0_1 : [0,2]
RESULT: v0x4979de0_1 : [0,1]
RESULT: v0x4859a00_1 : [0,2]
RESULT: v0x4ab0020_1 : [0,456]
RESULT: v0x484e3e0_1 : [0,123]
RESULT: v0x4c38330_1 : [0,456]
RESULT: v0x4bcb490_1 : [0,3]
