RESULT: v0x4faee30_0 : [0,1/0]
RESULT: v0x6486230_0 : [0,1]
RESULT: v0x4545f20_0 : [0,1]
RESULT: v0x4daad40_0 : [0,1]
RESULT: v0x4026490_0 : [0,1]
RESULT: v0x3598230_0 : [0,1]
RESULT: v0x4971af0_0 : [0,1]
RESULT: v0x51ee9f0_0 : [0,1]
RESULT: v0x4d94160_0 : [0,1]
RESULT: v0x51f8a40_0 : [0,1]
RESULT: v0x4fbe020_0 : [0,1/0]
RESULT: v0x4704ee0_0 : [0,1/0]
RESULT: v0x4543e80_0 : [-1/0,2]
RESULT: v0x4fb3fb0_0 : [-1/0,2]
RESULT: v0x3feecd0_0 : [-1/0,2]
RESULT: v0x4d9e780_0 : [-1/0,2]
RESULT: v0x57428b0_0 : [-1/0,2]
RESULT: v0x4fbde20_0 : [-1/0,2]
RESULT: v0x53ddbc0_0 : [-1/0,2]
RESULT: v0x3eec7d0_0 : [0,2]
RESULT: v0x5d5cc20_0 : [0,2]
RESULT: v0x478a770_0 : [0,2]
RESULT: v0x3437cd0_0 : [0,2]
RESULT: v0x51f1190_0 : [0,2]
