RESULT: v0x488eb40_1 : [-1/0,11]
RESULT: v0x488b860_1 : [-1/0,1/0]
RESULT: v0x488b420_1 : [-1/0,1/0]
RESULT: v0x488b3e0_1 : [-1/0,1/0]
RESULT: v0x488afc0_1 : [-1/0,1/0]
RESULT: v0x488af80_1 : [-1/0,1/0]
RESULT: v0x488ab40_1 : [-1/0,1/0]
RESULT: v0x488ab00_1 : [-1/0,1/0]
RESULT: v0x488a720_1 : [-1/0,1/0]
RESULT: v0x488a6e0_1 : [-1/0,1/0]
RESULT: v0x49dd320_1 : [-1/0,1/0]
