RESULT: v0x9ff4c30_0 : [-1/0,1/0]
RESULT: v0x13289510_0 : [-1/0,1/0]
RESULT: v0x6377240_0 : [-1/0,1/0]
RESULT: v0x9f55ec0_0 : [0,1]
RESULT: v0x98590c0_0 : [67,1/0]
RESULT: v0x9858ea0_0 : [-1/0,1/0]
RESULT: v0xf4db710_0 : [-1/0,1/0]
RESULT: v0x105f17e0_0 : [0,0]
RESULT: v0x433dc30_0 : [-1/0,1/0]
RESULT: v0xf4db750_0 : [-1/0,1/0]
RESULT: v0xaea7e30_0 : [-1/0,1/0]
RESULT: v0x3fa3330_0 : [67,1/0]
RESULT: v0x3fa3430_0 : [-1/0,1/0]
RESULT: v0x3fa3530_0 : [-1/0,1/0]
RESULT: v0x3fa3630_0 : [-1/0,1/0]
RESULT: v0x3fa3730_0 : [-1/0,1/0]
RESULT: v0x3fa3830_0 : [0,1]
RESULT: v0x3fa3930_0 : [-1/0,1/0]
RESULT: v0x3fa3a30_0 : [-1/0,1/0]
RESULT: v0x3fa3b30_0 : [0,0]
RESULT: v0x3fa3c30_0 : [-1/0,1/0]
RESULT: v0x3fa3d30_0 : [-1/0,1/0]
RESULT: v0x3fa3e30_0 : [-1/0,1/0]
RESULT: v0x3fa3f30_0 : [-1/0,1/0]
RESULT: v0x9f55e00_0 : [-1/0,1/0]
RESULT: v0x11a462b0_0 : [0,0]
RESULT: v0x105f1860_0 : [-1/0,10]
RESULT: v0x1341df10_0 : [-1/0,1/0]
RESULT: v0x10e7a7e0_0 : [-1/0,1/0]
RESULT: v0x3fa4230_0 : [-1/0,1/0]
