RESULT: v0x4a95f40_1 : [4,4]
RESULT: v0x4a854c0_1 : [0,1]
RESULT: v0x4ad77c0_1 : [0,1]
RESULT: v0x4abe180_1 : [0,1]
RESULT: v0x4a512e0_1 : [0,1]
RESULT: v0x4aa6120_1 : [0,1]
RESULT: v0x4ac97c0_1 : [0,1]
RESULT: v0x4ab0180_1 : [0,1]
RESULT: v0x4aa3660_1 : [0,1]
RESULT: v0x4a12670_1 : [0,1]
RESULT: v0x4ab8c80_1 : [123,777]
RESULT: v0x4a7bfa0_1 : [0,666]
RESULT: v0x49f7ad0_1 : [0,2]
RESULT: v0x4a6f480_1 : [0,1]
RESULT: v0x4a3dd60_1 : [0,2]
RESULT: v0x4a49320_1 : [0,456]
RESULT: v0x47ef290_1 : [0,123]
RESULT: v0x4aa8140_1 : [0,456]
RESULT: v0x4a9a0c0_1 : [0,3]
RESULT: v0x49fcfd0_1 : [0,1]
RESULT: v0x4a41d00_1 : [0,1]
