RESULT: v0x3b249e0_0 : [-1/0,1/0]
RESULT: v0x3b24920_0 : [-1/0,1/0]
RESULT: v0x3aa00f0_0 : [-1/0,1/0]
RESULT: v0x3b24580_0 : [-1/0,1/0]
RESULT: v0x3b24620_0 : [-1/0,1/0]
RESULT: v0x3b24c20_0 : [-1/0,1/0]
RESULT: v0x3b24ce0_0 : [-1/0,1/0]
RESULT: v0x3acd730_0 : [-1/0,1/0]
RESULT: v0x3b24da0_0 : [-1/0,1/0]
RESULT: v0x3b24e60_0 : [-1/0,1/0]
RESULT: v0x3b24f20_0 : [-1/0,1/0]
RESULT: v0x3b24fe0_0 : [-1/0,1/0]
RESULT: v0x3b250a0_0 : [-1/0,1/0]
RESULT: v0x3b25160_0 : [-1/0,1/0]
RESULT: v0x3b25220_0 : [-1/0,1/0]
RESULT: v0x3b252e0_0 : [-1/0,1/0]
RESULT: v0x3b253a0_0 : [-1/0,1/0]
RESULT: v0x3b25460_0 : [-1/0,1/0]
RESULT: v0x3b25520_0 : [-1/0,1/0]
RESULT: v0x3b24aa0_0 : [-1/0,1/0]
RESULT: v0x3b24860_0 : [-1/0,1/0]
RESULT: v0x3b247a0_0 : [-1/0,1/0]
RESULT: v0x3b24c60_0 : [-1/0,1/0]
RESULT: v0x3b246e0_0 : [-1/0,1/0]
