RESULT: v0x3549140_0 : [-1/0,1/0]
RESULT: v0x3549180_0 : [-1/0,1/0]
RESULT: v0x3548540_0 : [-1/0,1/0]
RESULT: v0x35485e0_0 : [-1/0,1/0]
RESULT: v0x3547900_0 : [-1/0,1/0]
RESULT: v0x35479a0_0 : [-1/0,1/0]
RESULT: v0x3543940_0 : [-1/0,1/0]
RESULT: v0x353b950_0 : [-1/0,1/0]
RESULT: v0x353b030_0 : [-1/0,1/0]
RESULT: v0x343c0b0_0 : [-1/0,1/0]
RESULT: v0x3499be0_0 : [-1/0,1/0]
RESULT: v0x353acf0_0 : [-1/0,1/0]
RESULT: v0x343eaf0_0 : [-1/0,1/0]
RESULT: v0x343e770_0 : [1,1]
RESULT: v0x3499e90_0 : [-1/0,1/0]
RESULT: v0x3440770_0 : [-1/0,1/0]
RESULT: v0x3439fe0_0 : [-1/0,1/0]
RESULT: v0x3438f00_0 : [-1/0,1/0]
RESULT: v0x3439ce0_0 : [-1/0,1/0]
RESULT: v0x34399e0_0 : [-1/0,1/0]
RESULT: v0x3436200_0 : [-1/0,1/0]
RESULT: v0x3586ab0_0 : [-1/0,1/0]
RESULT: v0x3435720_0 : [-1/0,1/0]
RESULT: v0x3434f20_0 : [-1/0,1/0]
RESULT: v0x353c820_0 : [-1/0,1/0]
RESULT: v0x349aaa0_0 : [-1/0,1/0]
RESULT: v0x353c320_0 : [-1/0,1/0]
RESULT: v0x349a530_0 : [-1/0,1/0]
RESULT: v0x343b4a0_0 : [-1/0,1/0]
RESULT: v0x34386a0_0 : [2,2]
