RESULT: v0x3e53500_0 : [0,0]
RESULT: v0x3e53100_0 : [0,0]
RESULT: v0x3e4abf0_0 : [-1/0,2]
RESULT: v0x3e52b00_0 : [0,1]
RESULT: v0x3e52c00_0 : [-1/0,2]
RESULT: v0x3e4b0f0_0 : [0,1]
RESULT: v0x3e4b4f0_0 : [-1/0,2]
RESULT: v0x3e53200_0 : [0,1]
RESULT: v0x3e53300_0 : [0,3]
RESULT: v0x3e52a00_0 : [-1/0,1/0]
RESULT: v0x3e4a030_0 : [1,1]
RESULT: v0x3e4b5f0_0 : [0,1]
RESULT: v0x3e4b1f0_0 : [-1/0,1/0]
RESULT: v0x3e4a9f0_0 : [-1/0,1/0]
RESULT: v0x3e4b2f0_0 : [-1/0,1/0]
RESULT: v0x3e4aaf0_0 : [0,1]
RESULT: v0x3e53000_0 : [0,1/0]
RESULT: v0x3e53700_0 : [0,3]
RESULT: v0x3e4aff0_0 : [0,1/0]
RESULT: v0x3e4b6f0_0 : [0,3]
RESULT: v0x3e52e00_0 : [0,1/0]
RESULT: v0x3e52f00_0 : [0,53]
RESULT: v0x3e4adf0_0 : [0,1/0]
RESULT: v0x3e4aef0_0 : [0,53]
RESULT: v0x3e53800_0 : [-1/0,1/0]
RESULT: v0x3e4b7f0_0 : [-1/0,1/0]
RESULT: v0x3e53600_0 : [1,1]
RESULT: v0x3e52d00_0 : [0,1]
RESULT: v0x3e4acf0_0 : [0,1]
RESULT: v0x3e49230_0 : [0,52]
RESULT: v0x3e49030_0 : [0,50]
RESULT: v0x3e493d0_0 : [0,53]
RESULT: v0x3e49130_0 : [0,51]
RESULT: v0x3e4b3f0_0 : [-1/0,1/0]
RESULT: v0x3e4a330_0 : [-1/0,1/0]
RESULT: v0x3e53400_0 : [-1/0,1/0]
RESULT: v0xaa65210_1 : [-1/0,1/0]
RESULT: v0xaa65850_1 : [0,50]
RESULT: v0xaa2e130_1 : [0,51]
RESULT: v0xaa2eb90_1 : [0,52]
RESULT: v0xaa58890_1 : [0,53]
RESULT: v0xaa60c30_1 : [-1/0,1]
RESULT: v0xaa61cf0_1 : [1,1]
RESULT: v0xaa62db0_1 : [0,0]
RESULT: v0xaa63e70_1 : [-1/0,1/0]
