RESULT: v0x342aec0_0 : [-1/0,1/0]
RESULT: v0x342ae40_0 : [0,0]
RESULT: v0x342a8a0_0 : [-1/0,1/0]
RESULT: v0x342a960_0 : [-1/0,1/0]
RESULT: v0x342aa20_0 : [-1/0,1/0]
RESULT: v0x342ac60_0 : [-1/0,1/0]
RESULT: v0x342af60_0 : [-1/0,1/0]
RESULT: v0x3399500_0 : [2,2]
RESULT: v0x3399600_0 : [0,1]
RESULT: v0x3399700_0 : [-1/0,1/0]
RESULT: v0x3399800_0 : [-1/0,1/0]
RESULT: v0x3399900_0 : [-1/0,1/0]
RESULT: v0x3399a00_0 : [2,2]
RESULT: v0x3399b00_0 : [1,1]
RESULT: v0x342a7e0_0 : [-1/0,1/0]
RESULT: v0x339a000_0 : [0,0]
RESULT: v0x339a100_0 : [-1/0,1/0]
RESULT: v0x339a200_0 : [0,0]
RESULT: v0x33d7270_0 : [-1/0,1/0]
RESULT: v0x33bbe60_0 : [-1/0,1/0]
RESULT: v0x342a740_0 : [-1/0,1/0]
RESULT: v0x342b0e0_0 : [-1/0,1/0]
RESULT: v0x342b1a0_0 : [-1/0,1/0]
RESULT: v0x342b260_0 : [-1/0,1/0]
RESULT: v0x342b320_0 : [-1/0,1/0]
RESULT: v0x342b3e0_0 : [-1/0,1/0]
RESULT: v0x342b4a0_0 : [-1/0,1/0]
RESULT: v0x342b560_0 : [-1/0,1/0]
RESULT: v0x342b620_0 : [-1/0,1/0]
RESULT: v0x342b6e0_0 : [-1/0,1/0]
RESULT: v0x342b020_0 : [-1/0,1/0]
RESULT: v0x342ae80_0 : [-1/0,1/0]
RESULT: v0x342aba0_0 : [-1/0,1/0]
RESULT: v0x342aae0_0 : [-1/0,1/0]
