RESULT: v0x5da0e50_0 : [-1/0,1/0]
RESULT: v0x47aeb10_0 : [-1/0,1/0]
RESULT: v0x63e6c30_0 : [-1/0,1/0]
RESULT: v0x47aeb50_0 : [-1/0,1/0]
RESULT: v0x45c4260_0 : [67,1/0]
RESULT: v0x98488c0_0 : [-1/0,1/0]
RESULT: v0x61b2f20_0 : [-1/0,1/0]
RESULT: v0x6f9bcb0_0 : [0,0]
RESULT: v0x641e6b0_0 : [-1/0,1/0]
RESULT: v0x6380690_0 : [-1/0,1/0]
RESULT: v0x5da0c90_0 : [-1/0,1/0]
RESULT: v0x3fa3330_0 : [67,1/0]
RESULT: v0x3fa3430_0 : [-1/0,1/0]
RESULT: v0x3fa3530_0 : [-1/0,1/0]
RESULT: v0x3fa3630_0 : [-1/0,1/0]
RESULT: v0x3fa3730_0 : [-1/0,1/0]
RESULT: v0x3fa3830_0 : [0,1]
RESULT: v0x3fa3930_0 : [-1/0,1/0]
RESULT: v0x3fa3a30_0 : [-1/0,1/0]
RESULT: v0x3fa3b30_0 : [0,0]
RESULT: v0x3fa3c30_0 : [0,0]
RESULT: v0x3fa3d30_0 : [-1/0,1/0]
RESULT: v0x3fa3e30_0 : [-1/0,1/0]
RESULT: v0x3fa3f30_0 : [-1/0,1/0]
RESULT: v0x62f8ca0_0 : [-1/0,1/0]
RESULT: v0x4a81d30_0 : [0,0]
RESULT: v0x41751f0_0 : [-1/0,10]
RESULT: v0x5f5c130_0 : [-1/0,1/0]
RESULT: v0x5f5c1b0_0 : [-1/0,1/0]
RESULT: v0x3fa4230_0 : [-1/0,1/0]
