RESULT: v0x79bb6e0_0 : [0,0]
RESULT: v0x79b76f0_0 : [0,1]
RESULT: v0x62da1d0_0 : [0,2]
RESULT: v0x44bc8f0_0 : [1,2]
RESULT: v0x79eb7a0_0 : [-1/0,1/0]
RESULT: v0x8c979b0_0 : [0,1/0]
RESULT: v0x79d6240_0 : [0,0]
RESULT: v0x8c62340_0 : [0,1/0]
RESULT: v0x62d36d0_0 : [0,1/0]
RESULT: v0x8c863e0_0 : [0,54]
RESULT: v0x8c78e80_0 : [0,0]
RESULT: v0x79b8c50_0 : [0,1]
RESULT: v0x7a02300_0 : [0,1]
RESULT: v0x8c83900_0 : [0,1]
RESULT: v0x7a00d80_0 : [0,1]
RESULT: v0x44bbc90_0 : [0,53]
RESULT: v0x44bb8f0_0 : [0,51]
RESULT: v0x44bb9f0_0 : [0,52]
RESULT: v0x44bbb90_0 : [0,53]
RESULT: v0x44bb7f0_0 : [0,50]
RESULT: v0x8c98f10_0 : [-1/0,1/0]
RESULT: v0x44bcbf0_0 : [-1/0,1/0]
RESULT: v0x6c98fe0_0 : [1,1]
RESULT: v0x87f64c0_0 : [0,4]
RESULT: v0x882a5b0_0 : [50,54]
RESULT: v0x79fe3a0_0 : [0,1/0]
RESULT: v0x87ef9f0_0 : [0,0]
RESULT: v0x8c6b980_0 : [1,1]
RESULT: v0x79df860_0 : [0,1]
RESULT: v0x4bfe280_0 : [0,1]
RESULT: v0x87e2450_0 : [0,1/0]
RESULT: v0x8c839e0_0 : [-1/0,1/0]
RESULT: v0x88cfdf0_0 : [0,2]
RESULT: v0x6b51f20_0 : [0,1]
RESULT: v0x44be3b0_0 : [-1/0,1/0]
