RESULT: v0x3b11750_0 : [2,1/0]
RESULT: v0x3b04b70_0 : [0,1]
RESULT: v0x3aa0490_0 : [0,1]
RESULT: v0x3acb390_0 : [123,777]
RESULT: v0x3a18aa0_0 : [0,1]
RESULT: v0x3a022d0_0 : [0,1]
RESULT: v0x3a1b5a0_0 : [0,1]
RESULT: v0x3a69a30_0 : [0,1]
RESULT: v0x3abbad0_0 : [0,2]
RESULT: v0x3b00210_0 : [0,3]
RESULT: v0x3abda30_0 : [0,1]
RESULT: v0x3ac7470_0 : [0,1]
RESULT: v0x3a65190_0 : [0,666]
RESULT: v0x3ab5af0_0 : [0,2]
RESULT: v0x3a1ab80_0 : [0,456]
RESULT: v0x3995ce0_0 : [0,3]
RESULT: v0x396b8b0_0 : [456,456]
RESULT: v0x3aa3e70_0 : [1,1]
RESULT: v0x3ac12f0_0 : [2,2]
RESULT: v0x3a659f0_0 : [0,1]
RESULT: v0x3ae4250_0 : [0,1]
RESULT: v0x3a0c2a0_0 : [0,1]
RESULT: v0x3a8adf0_0 : [0,123]
RESULT: v0x3a82910_0 : [0,1]
