RESULT: v0x3c73910_0 : [-1/0,1/0]
RESULT: v0x39e88a0_0 : [-1/0,1/0]
RESULT: v0x3bcc390_0 : [-1/0,1/0]
RESULT: v0x3c73000_0 : [-1/0,1/0]
RESULT: v0x3ce7640_0 : [27,1/0]
RESULT: v0x3934010_0 : [-1/0,1/0]
RESULT: v0x3c8b3a0_0 : [-1/0,1/0]
RESULT: v0x393bba0_0 : [-1/0,1/0]
RESULT: v0x3be7c80_0 : [1,1]
RESULT: v0x3b74370_0 : [-1/0,1/0]
RESULT: v0x3c90fc0_0 : [-1/0,1/0]
RESULT: v0x391f010_0 : [-1/0,1/0]
RESULT: v0x391f110_0 : [-1/0,1/0]
RESULT: v0x391f210_0 : [-1/0,1/0]
RESULT: v0x391f310_0 : [-1/0,1/0]
RESULT: v0x391f410_0 : [67,1/0]
RESULT: v0x391f510_0 : [0,1]
RESULT: v0x391f610_0 : [0,1]
RESULT: v0x391f710_0 : [-1/0,1/0]
RESULT: v0x391f810_0 : [-1/0,1/0]
RESULT: v0x391f910_0 : [-1/0,1/0]
RESULT: v0x391fa10_0 : [-1/0,1/0]
RESULT: v0x391fb10_0 : [-1/0,1/0]
RESULT: v0x391fc10_0 : [-1/0,1/0]
RESULT: v0x391fd10_0 : [-1/0,1/0]
RESULT: v0x3a66380_0 : [-1/0,1/0]
RESULT: v0x3c7c3a0_0 : [-1/0,1/0]
RESULT: v0x3bce4b0_0 : [-1/0,1/0]
RESULT: v0x39e87e0_0 : [-1/0,10]
RESULT: v0x3a8eab0_0 : [-1/0,1/0]
RESULT: v0x3921010_0 : [-1/0,1/0]
