RESULT: v0x5354b20_1 : [3,3]
RESULT: v0x5369340_1 : [0,1]
RESULT: v0x536e360_1 : [0,1]
RESULT: v0x536abe0_1 : [0,1]
RESULT: v0x547bf00_1 : [0,1]
RESULT: v0x547bd80_1 : [0,1]
RESULT: v0x547bc00_1 : [0,1]
RESULT: v0x547b9c0_1 : [0,1]
RESULT: v0x5366c70_1 : [0,1]
RESULT: v0x5366d30_1 : [0,1]
RESULT: v0x5229750_1 : [0,2]
RESULT: v0x5366f70_1 : [0,3]
RESULT: v0x5367030_1 : [123,777]
RESULT: v0x53670f0_1 : [0,666]
RESULT: v0x53671b0_1 : [0,2]
RESULT: v0x52429f0_1 : [0,1]
RESULT: v0x5245470_1 : [0,2]
RESULT: v0x5248cb0_1 : [0,456]
RESULT: v0x5249a70_1 : [0,123]
RESULT: v0x524e710_1 : [0,456]
RESULT: v0x524f2a0_1 : [0,1]
RESULT: v0x5355e40_1 : [0,1]
RESULT: v0x5368e90_1 : [0,1]
