RESULT: v0x472aa20_0 : [2,1/0]
RESULT: v0x45108f0_0 : [0,1]
RESULT: v0x438c5b0_0 : [0,0]
RESULT: v0x45113d0_0 : [0,1]
RESULT: v0x46d4400_0 : [0,1]
RESULT: v0x46da460_0 : [0,1]
RESULT: v0x434ee00_0 : [0,1]
RESULT: v0x44fc840_0 : [0,1]
RESULT: v0x46d0ec0_0 : [1,1]
RESULT: v0x46eae20_0 : [0,1]
RESULT: v0x46ec380_0 : [1,1]
RESULT: v0x42c33a0_0 : [0,0]
RESULT: v0x46e72c0_0 : [1,1]
RESULT: v0x43be000_0 : [123,123]
RESULT: v0x42fa0c0_0 : [0,666]
RESULT: v0x4358f40_0 : [0,0]
RESULT: v0x46e5b60_0 : [1,1]
RESULT: v0x453d710_0 : [0,0]
RESULT: v0x46ebc80_0 : [123,123]
RESULT: v0x417cab0_0 : [-1/0,1/0]
RESULT: v0x417c7b0_0 : [0,0]
RESULT: v0x417c9b0_0 : [1,1]
