RESULT: v0x41338a0_0 : [-1/0,1/0]
RESULT: v0x4133a20_0 : [-1/0,1/0]
RESULT: v0x4135d40_0 : [-1/0,1/0]
RESULT: v0x4133ca0_0 : [-1/0,1/0]
RESULT: v0x4133ba0_0 : [-1/0,1/0]
RESULT: v0x4133b60_0 : [-1/0,1/0]
RESULT: v0x4133be0_0 : [0,0]
RESULT: v0x40faaa0_0 : [67,1/0]
RESULT: v0x9c55f60_0 : [27,1/0]
RESULT: v0x40faba0_0 : [0,1]
RESULT: v0x40faca0_0 : [0,1]
RESULT: v0x40fada0_0 : [-1/0,1/0]
RESULT: v0x40faea0_0 : [-1/0,1/0]
RESULT: v0x40fafa0_0 : [-1/0,1/0]
RESULT: v0x40fb0a0_0 : [-1/0,1/0]
RESULT: v0x40fb1a0_0 : [-1/0,1/0]
RESULT: v0x4135ec0_0 : [-1/0,1/0]
RESULT: v0x40fb2a0_0 : [-1/0,1/0]
RESULT: v0x4135aa0_0 : [-1/0,1/0]
RESULT: v0x40fb3a0_0 : [-1/0,1/0]
RESULT: v0x4135c60_0 : [-1/0,1/0]
RESULT: v0x40fb4a0_0 : [-1/0,1/0]
RESULT: v0x40fb5a0_0 : [-1/0,1/0]
RESULT: v0x40fb6a0_0 : [-1/0,1/0]
RESULT: v0x40fb7a0_0 : [-1/0,1/0]
RESULT: v0x4133920_0 : [-1/0,1/0]
RESULT: v0x4133960_0 : [-1/0,1/0]
RESULT: v0x60e57f0_0 : [0,0]
RESULT: v0x412fe80_0 : [-1/0,10]
RESULT: v0x9c55ea0_0 : [-1/0,1/0]
RESULT: v0x40fbaa0_0 : [-1/0,1/0]
