RESULT: v0x4bb8fc0_0 : [1,1]
RESULT: v0x4ba2cc0_0 : [0,0]
RESULT: v0x4ba2ec0_0 : [0,0]
RESULT: v0x4ba2dc0_0 : [40,40]
RESULT: v0x4ba35c0_0 : [0,0]
RESULT: v0x4ba39c0_0 : [0,0]
RESULT: v0x4bb8cc0_0 : [1,1]
RESULT: v0x4ba23c0_0 : [0,0]
RESULT: v0x4bb8ec0_0 : [1,1]
RESULT: v0x4bb92c0_0 : [0,1]
RESULT: v0x4bb91c0_0 : [0,1]
RESULT: v0x4bb86c0_0 : [80,120]
RESULT: v0x4bb88c0_0 : [0,1]
RESULT: v0x4ba34c0_0 : [3,3]
RESULT: v0x4ba24c0_0 : [-1/0,1/0]
RESULT: v0x4ba22c0_0 : [-1/0,1/0]
RESULT: v0x4bb8bc0_0 : [0,1]
RESULT: v0x4bb8dc0_0 : [3,3]
RESULT: v0x4bb89c0_0 : [1,1]
RESULT: v0x4bb8ac0_0 : [1,1]
RESULT: v0x4bb90c0_0 : [1,1]
RESULT: v0x4bb93c0_0 : [1,1]
RESULT: v0x4bb87c0_0 : [0,0]
RESULT: v0x4ba2fc0_0 : [1,1]
RESULT: v0x4ba3ac0_0 : [1,1]
RESULT: v0x4ba38c0_0 : [0,0]
RESULT: v0x4ba37c0_0 : [1,1]
RESULT: v0x4ba36c0_0 : [0,0]
RESULT: v0x4ba33c0_0 : [1,1]
RESULT: v0x4ba32c0_0 : [1,1]
RESULT: v0x4ba31c0_0 : [1,1]
RESULT: v0x4ba30c0_0 : [1,1]
RESULT: v0x4bba6c0_0 : [4,4]
RESULT: v0x4bba7c0_0 : [0,1/0]
RESULT: v0x5627c50_0 : [0,0]
