RESULT: v0xae5db90_0 : [-1/0,1/0]
RESULT: v0x9054a30_0 : [-1/0,1/0]
RESULT: v0x65a6170_0 : [-1/0,1/0]
RESULT: v0x6fb1830_0 : [-1/0,1/0]
RESULT: v0x8647c40_0 : [-1/0,1/0]
RESULT: v0xa1b4ca0_0 : [-1/0,1/0]
RESULT: v0x868ee50_0 : [1,1]
RESULT: v0x516fe90_0 : [67,1/0]
RESULT: v0x65b70c0_0 : [27,1/0]
RESULT: v0x516ff90_0 : [0,1]
RESULT: v0x5170090_0 : [-1/0,1/0]
RESULT: v0x5170190_0 : [-1/0,1/0]
RESULT: v0x5170290_0 : [-1/0,1/0]
RESULT: v0x5170390_0 : [-1/0,1/0]
RESULT: v0x88e8970_0 : [-1/0,1/0]
RESULT: v0x5170490_0 : [-1/0,1/0]
RESULT: v0xae62b60_0 : [-1/0,1/0]
RESULT: v0x5170590_0 : [-1/0,1/0]
RESULT: v0x5407640_0 : [-1/0,1/0]
RESULT: v0x5170690_0 : [-1/0,1/0]
RESULT: v0x5170790_0 : [-1/0,1/0]
RESULT: v0x5170890_0 : [-1/0,1/0]
RESULT: v0x5170990_0 : [-1/0,1/0]
RESULT: v0x8d8e310_0 : [-1/0,1/0]
RESULT: v0x9385fb0_0 : [-1/0,1/0]
RESULT: v0x51df440_0 : [-1/0,10]
RESULT: v0x5171c90_0 : [-1/0,1/0]
