RESULT: v0x47044b0_0 : [1,1/0]
RESULT: v0x48c0090_0 : [0,1]
RESULT: v0x4871e30_0 : [0,1]
RESULT: v0x47f8320_0 : [123,777]
RESULT: v0x4905af0_0 : [0,1]
RESULT: v0x48d1960_0 : [0,1]
RESULT: v0x491b750_0 : [0,1]
RESULT: v0x4956ed0_0 : [0,2]
RESULT: v0x48387b0_0 : [0,3]
RESULT: v0x48e8450_0 : [0,1]
RESULT: v0x47ece20_0 : [0,1]
RESULT: v0x495c4f0_0 : [0,1]
RESULT: v0x48bcc10_0 : [0,666]
RESULT: v0x48e16b0_0 : [1,1]
RESULT: v0x48bd6b0_0 : [1,1]
RESULT: v0x48e6d70_0 : [0,2]
RESULT: v0x48e8ef0_0 : [0,456]
RESULT: v0x48ef990_0 : [0,123]
RESULT: v0x47f51a0_0 : [0,456]
RESULT: v0x490ecb0_0 : [0,2]
RESULT: v0x48ea030_0 : [0,1]
RESULT: v0x494ef50_0 : [0,1]
RESULT: v0x4952ef0_0 : [0,1]
RESULT: v0x49183d0_0 : [0,1]
