RESULT: v0x50a84f0_0 : [0,0]
RESULT: v0x50a04e0_0 : [0,2]
RESULT: v0x50a00e0_0 : [0,1]
RESULT: v0x509fbe0_0 : [0,2]
RESULT: v0x50a05e0_0 : [0,1]
RESULT: v0x50a80f0_0 : [0,0]
RESULT: v0x50a82f0_0 : [0,1]
RESULT: v0x50a7bf0_0 : [0,2]
RESULT: v0x50a7af0_0 : [0,1]
RESULT: v0x50a81f0_0 : [0,1]
RESULT: v0x509f020_0 : [1,1]
RESULT: v0x50a79f0_0 : [-1/0,6]
RESULT: v0x509e320_0 : [0,1/0]
RESULT: v0x509e220_0 : [0,1/0]
RESULT: v0x50a7ff0_0 : [0,1]
RESULT: v0x50a86f0_0 : [0,1]
RESULT: v0x509fae0_0 : [0,1]
RESULT: v0x509ffe0_0 : [0,1]
RESULT: v0x509f9e0_0 : [-1/0,6]
RESULT: v0x50a02e0_0 : [0,1]
RESULT: v0x50a06e0_0 : [0,1]
RESULT: v0x50a01e0_0 : [0,1]
RESULT: v0x50a7ef0_0 : [0,1/0]
RESULT: v0x50a7df0_0 : [0,1]
RESULT: v0x50a7cf0_0 : [0,1]
RESULT: v0x50a85f0_0 : [1,1]
RESULT: v0x509fee0_0 : [0,1/0]
RESULT: v0x509fce0_0 : [0,1]
RESULT: v0x509fde0_0 : [0,1]
RESULT: v0x50a87f0_0 : [-1/0,1/0]
RESULT: v0x50a07e0_0 : [-1/0,1/0]
RESULT: v0x50a83f0_0 : [-1/0,1/0]
RESULT: v0x50a03e0_0 : [-1/0,1/0]
RESULT: v0x8011680_1 : [-1/0,1/0]
RESULT: v0x87398e0_1 : [0,1/0]
RESULT: v0x877c3a0_1 : [0,1/0]
RESULT: v0x8724380_1 : [0,1]
RESULT: v0x8819920_1 : [1,1]
RESULT: v0x883ee80_1 : [0,0]
RESULT: v0x8829920_1 : [-1/0,1/0]
