RESULT: v0x47000e0_0 : [-1/0,1/0]
RESULT: v0x60f0e20_0 : [-1/0,1/0]
RESULT: v0x7ccfb50_0 : [-1/0,1/0]
RESULT: v0x7741e50_0 : [-1/0,1/0]
RESULT: v0x3b03150_0 : [67,1/0]
RESULT: v0x7d0ae60_0 : [-1/0,1/0]
RESULT: v0x697bf10_0 : [-1/0,1/0]
RESULT: v0x6fe0b60_0 : [-1/0,1/0]
RESULT: v0x3d35e20_0 : [0,0]
RESULT: v0x89d9e90_0 : [-1/0,1/0]
RESULT: v0x4f3da80_0 : [-1/0,1/0]
RESULT: v0x391f010_0 : [-1/0,1/0]
RESULT: v0x391f110_0 : [-1/0,1/0]
RESULT: v0x391f210_0 : [-1/0,1/0]
RESULT: v0x391f310_0 : [-1/0,1/0]
RESULT: v0x391f410_0 : [67,1/0]
RESULT: v0x391f510_0 : [0,1]
RESULT: v0x391f610_0 : [0,1]
RESULT: v0x391f710_0 : [-1/0,1/0]
RESULT: v0x391f810_0 : [-1/0,1/0]
RESULT: v0x391f910_0 : [0,0]
RESULT: v0x391fa10_0 : [0,0]
RESULT: v0x391fb10_0 : [-1/0,1/0]
RESULT: v0x391fc10_0 : [-1/0,1/0]
RESULT: v0x391fd10_0 : [-1/0,1/0]
RESULT: v0x414b420_0 : [-1/0,1/0]
RESULT: v0x8e7f140_0 : [-1/0,1/0]
RESULT: v0x55fc1d0_0 : [0,0]
RESULT: v0x7b1c2c0_0 : [-1/0,10]
RESULT: v0x60f0420_0 : [-1/0,1/0]
RESULT: v0x3920010_0 : [-1/0,1/0]
