RESULT: v0x32c07e0_0 : [0,1]
RESULT: v0x37a2190_1 : [0,1]
RESULT: v0x4da6d10_1 : [0,1]
RESULT: v0x454d4b0_1 : [0,1]
RESULT: v0x3ca7980_1 : [0,1]
RESULT: v0x471f050_1 : [0,1]
RESULT: v0x3ca4640_1 : [0,1]
RESULT: v0x49eb950_1 : [0,1]
RESULT: v0x3c74690_1 : [0,1]
RESULT: v0x49b81e0_1 : [0,1]
RESULT: v0x4723f30_1 : [0,1]
RESULT: v0x4e09d80_1 : [0,1]
RESULT: v0x4e13de0_1 : [0,1]
RESULT: v0x4e11320_1 : [0,1]
RESULT: v0x49e82b0_1 : [-1/0,1/0]
RESULT: v0x481a1f0_1 : [-1/0,1/0]
RESULT: v0x471ce10_1 : [0,2]
RESULT: v0x49ba8a0_1 : [0,2]
RESULT: v0x4e2afc0_1 : [0,2]
RESULT: v0x3ccde80_1 : [0,2]
RESULT: v0x37a7e00_1 : [0,2]
RESULT: v0x4daeb20_1 : [0,2]
RESULT: v0x49bb100_1 : [0,2]
RESULT: v0x3c49e80_1 : [0,2]
RESULT: v0x3cc0d80_1 : [0,2]
RESULT: v0x4e2ba60_1 : [0,2]
RESULT: v0x3c996c0_1 : [0,2]
RESULT: v0x49b4620_1 : [0,2]
RESULT: v0x4549250_1 : [0,2]
RESULT: v0x3c3fda0_1 : [0,2]
