RESULT: v0x4945b30_0 : [-1/0,1/0]
RESULT: v0x4946a80_0 : [-1/0,1/0]
RESULT: v0x4944ff0_0 : [-1/0,1/0]
RESULT: v0x49450b0_0 : [-1/0,1/0]
RESULT: v0x4945830_0 : [-1/0,1/0]
RESULT: v0x4945a70_0 : [-1/0,1/0]
RESULT: v0x49459b0_0 : [-1/0,1/0]
RESULT: v0x4946240_0 : [-1/0,1/0]
RESULT: v0x4946780_0 : [-1/0,1/0]
RESULT: v0x4946840_0 : [-1/0,1/0]
RESULT: v0x499b7e0_0 : [-1/0,1/0]
RESULT: v0x4363b80_0 : [-1/0,1/0]
RESULT: v0x4946b40_0 : [-1/0,1/0]
RESULT: v0x4944cf0_0 : [-1/0,1/0]
RESULT: v0x4944950_0 : [-1/0,1/0]
RESULT: v0x4944890_0 : [-1/0,1/0]
RESULT: v0x4941a10_0 : [-1/0,1/0]
RESULT: v0x4941890_0 : [-1/0,1/0]
RESULT: v0x4944290_0 : [-1/0,1/0]
RESULT: v0x49441d0_0 : [-1/0,1/0]
RESULT: v0x4944710_0 : [-1/0,1/0]
RESULT: v0x4944630_0 : [-1/0,1/0]
RESULT: v0x4945770_0 : [-1/0,1/0]
RESULT: v0x4945bf0_0 : [-1/0,1/0]
