RESULT: v0xb055fd0_0 : [-1/0,1/0]
RESULT: v0x47ecbc0_0 : [-1/0,1/0]
RESULT: v0x6dc2c30_0 : [-1/0,1/0]
RESULT: v0x646a840_0 : [-1/0,1/0]
RESULT: v0x47edaa0_0 : [27,1/0]
RESULT: v0x4aa2c40_0 : [-1/0,1/0]
RESULT: v0x553c2e0_0 : [-1/0,1/0]
RESULT: v0x77d73c0_0 : [-1/0,1/0]
RESULT: v0xb1d1630_0 : [1,1]
RESULT: v0x553c0c0_0 : [-1/0,1/0]
RESULT: v0x5409530_0 : [-1/0,1/0]
RESULT: v0x478d2d0_0 : [67,1/0]
RESULT: v0x478d3d0_0 : [0,1]
RESULT: v0x478d4d0_0 : [-1/0,1/0]
RESULT: v0x478d5d0_0 : [-1/0,1/0]
RESULT: v0x478d6d0_0 : [-1/0,1/0]
RESULT: v0x478d7d0_0 : [-1/0,1/0]
RESULT: v0x478d8d0_0 : [0,1]
RESULT: v0x478d9d0_0 : [-1/0,1/0]
RESULT: v0x478dad0_0 : [-1/0,1/0]
RESULT: v0x478dbd0_0 : [-1/0,1/0]
RESULT: v0x478dcd0_0 : [-1/0,1/0]
RESULT: v0x478ddd0_0 : [-1/0,1/0]
RESULT: v0x478ded0_0 : [-1/0,1/0]
RESULT: v0x478dfd0_0 : [-1/0,1/0]
RESULT: v0x7cad250_0 : [-1/0,1/0]
RESULT: v0x7cad510_0 : [-1/0,1/0]
RESULT: v0x7e7d3c0_0 : [-1/0,1/0]
RESULT: v0x4aa2b20_0 : [-1/0,10]
RESULT: v0x47ec560_0 : [-1/0,1/0]
RESULT: v0x478f2d0_0 : [-1/0,1/0]
