RESULT: v0x3d26240_0 : [2,1/0]
RESULT: v0x39973d0_0 : [0,1]
RESULT: v0x3a2b960_0 : [0,1]
RESULT: v0x37eb9c0_0 : [0,1]
RESULT: v0x3b58ed0_0 : [0,1]
RESULT: v0x3b483b0_0 : [0,1]
RESULT: v0x3d7a2c0_0 : [0,1]
RESULT: v0x3b58430_0 : [0,1]
RESULT: v0x3d3b5e0_0 : [0,1]
RESULT: v0x3d79640_0 : [0,1]
RESULT: v0x3d288a0_0 : [1,1]
RESULT: v0x3d34040_0 : [0,1]
RESULT: v0x3d37880_0 : [1,1]
RESULT: v0x3907180_0 : [123,777]
RESULT: v0x39aca70_0 : [0,666]
RESULT: v0x3b5a510_0 : [0,2]
RESULT: v0x39849b0_0 : [0,1]
RESULT: v0x3d1d650_0 : [0,456]
RESULT: v0x3d34240_0 : [0,123]
RESULT: v0x37ce150_0 : [-1/0,1/0]
RESULT: v0x37ce250_0 : [0,456]
RESULT: v0x37cdb50_0 : [-1/0,1/0]
RESULT: v0x37cd850_0 : [0,456]
RESULT: v0x37cda50_0 : [0,1]
RESULT: v0x37ce750_0 : [0,1]
RESULT: v0x37ce850_0 : [0,123]
