RESULT: v0x4d0c290_0 : [0,1]
RESULT: v0x567ddc0_1 : [0,1]
RESULT: v0x59fe9f0_1 : [1,1]
RESULT: v0x55ed970_1 : [0,1]
RESULT: v0x567caf0_1 : [0,1]
RESULT: v0x6102d00_1 : [0,1]
RESULT: v0x5edca80_1 : [0,1]
RESULT: v0x569e640_1 : [0,1]
RESULT: v0x60f5bc0_1 : [0,1]
RESULT: v0x6109d40_1 : [0,1]
RESULT: v0x4fb1970_1 : [0,1]
RESULT: v0x52191d0_1 : [0,1]
RESULT: v0x5207090_1 : [0,1]
RESULT: v0x60f6620_1 : [0,1]
RESULT: v0x520f0b0_1 : [0,2]
RESULT: v0x4fca890_1 : [2,2]
RESULT: v0x528b730_1 : [0,2]
RESULT: v0x5691000_1 : [0,2]
RESULT: v0x5203620_1 : [0,2]
RESULT: v0x51fd1a0_1 : [0,2]
RESULT: v0x5203760_1 : [0,2]
RESULT: v0x60fede0_1 : [0,2]
RESULT: v0x4fe6850_1 : [0,2]
RESULT: v0x6103300_1 : [0,2]
RESULT: v0x51aa290_1 : [0,2]
RESULT: v0x59fdd50_1 : [0,2]
RESULT: v0x4fae2d0_1 : [0,2]
RESULT: v0x60ff4c0_1 : [0,2]
