RESULT: v0x39f3cb0_0 : [-1/0,1/0]
RESULT: v0x39f39d0_0 : [-1/0,1/0]
RESULT: v0x39f3570_0 : [-1/0,1/0]
RESULT: v0x39f3610_0 : [-1/0,1/0]
RESULT: v0x39f36d0_0 : [-1/0,1/0]
RESULT: v0x39f3c70_0 : [-1/0,1/0]
RESULT: v0x39f3cf0_0 : [-1/0,1/0]
RESULT: v0x3987f40_0 : [-1/0,1/0]
RESULT: v0x39a59d0_0 : [-1/0,1/0]
RESULT: v0x39f3d90_0 : [-1/0,1/0]
RESULT: v0x39f3e50_0 : [-1/0,1/0]
RESULT: v0x39f3f10_0 : [-1/0,1/0]
RESULT: v0x39f3fd0_0 : [-1/0,1/0]
RESULT: v0x39f4090_0 : [-1/0,1/0]
RESULT: v0x39f4150_0 : [-1/0,1/0]
RESULT: v0x39f4210_0 : [-1/0,1/0]
RESULT: v0x39f42d0_0 : [-1/0,1/0]
RESULT: v0x39f4390_0 : [-1/0,1/0]
RESULT: v0x39f4450_0 : [-1/0,1/0]
RESULT: v0x39f4510_0 : [-1/0,1/0]
RESULT: v0x39f3a90_0 : [-1/0,1/0]
RESULT: v0x39f3910_0 : [-1/0,1/0]
RESULT: v0x39f3850_0 : [-1/0,1/0]
RESULT: v0x39f3790_0 : [-1/0,1/0]
