RESULT: v0x3b94be0_0 : [-1/0,1/0]
RESULT: v0x3b94b20_0 : [-1/0,1/0]
RESULT: v0x3b946a0_0 : [-1/0,1/0]
RESULT: v0x3b94760_0 : [-1/0,1/0]
RESULT: v0x3b94820_0 : [-1/0,1/0]
RESULT: v0x3b94d60_0 : [-1/0,1/0]
RESULT: v0x3b94e20_0 : [-1/0,1/0]
RESULT: v0x3b945e0_0 : [-1/0,1/0]
RESULT: v0x3b40300_0 : [-1/0,1/0]
RESULT: v0x3b25eb0_0 : [-1/0,1/0]
RESULT: v0x3b94520_0 : [-1/0,1/0]
RESULT: v0x3b951c0_0 : [-1/0,1/0]
RESULT: v0x3b95180_0 : [-1/0,1/0]
RESULT: v0x3b95200_0 : [-1/0,1/0]
RESULT: v0x3b94fa0_0 : [-1/0,1/0]
RESULT: v0x3b952a0_0 : [-1/0,1/0]
RESULT: v0x3b95360_0 : [-1/0,1/0]
RESULT: v0x3b95420_0 : [-1/0,1/0]
RESULT: v0x3b95500_0 : [-1/0,1/0]
RESULT: v0x3b955a0_0 : [-1/0,1/0]
RESULT: v0x3b94ee0_0 : [-1/0,1/0]
RESULT: v0x3b94a60_0 : [-1/0,1/0]
RESULT: v0x3b949a0_0 : [-1/0,1/0]
RESULT: v0x3b94ca0_0 : [-1/0,1/0]
RESULT: v0x3b948e0_0 : [-1/0,1/0]
