RESULT: v0x5c50140_0 : [-1/0,1/0]
RESULT: v0x4ed29b0_0 : [-1/0,1/0]
RESULT: v0x5fd97d0_0 : [-1/0,1/0]
RESULT: v0x5faf5b0_0 : [0,1]
RESULT: v0x6055070_0 : [-1/0,1/0]
RESULT: v0x55335e0_0 : [-1/0,1/0]
RESULT: v0x6534720_0 : [0,0]
RESULT: v0x4e8eda0_0 : [67,1/0]
RESULT: v0x4f1b260_0 : [67,1/0]
RESULT: v0x4e8eea0_0 : [0,1]
RESULT: v0x4e8efa0_0 : [0,1]
RESULT: v0x4e8f0a0_0 : [-1/0,1/0]
RESULT: v0x4e8f1a0_0 : [-1/0,1/0]
RESULT: v0x4e8f2a0_0 : [0,0]
RESULT: v0x4e8f3a0_0 : [-1/0,1/0]
RESULT: v0x4e8f4a0_0 : [-1/0,1/0]
RESULT: v0x64e9af0_0 : [-1/0,1/0]
RESULT: v0x4e8f5a0_0 : [-1/0,1/0]
RESULT: v0x653cb60_0 : [-1/0,1/0]
RESULT: v0x4e8f6a0_0 : [-1/0,1/0]
RESULT: v0x5534600_0 : [-1/0,1/0]
RESULT: v0x4e8f7a0_0 : [-1/0,1/0]
RESULT: v0x4e8f8a0_0 : [-1/0,1/0]
RESULT: v0x4e8f9a0_0 : [-1/0,1/0]
RESULT: v0x4e8faa0_0 : [-1/0,1/0]
RESULT: v0x64446e0_0 : [-1/0,1/0]
RESULT: v0x79b7b40_0 : [-1/0,1/0]
RESULT: v0x64805e0_0 : [0,0]
RESULT: v0x600ce60_0 : [-1/0,10]
RESULT: v0x54c7c10_0 : [-1/0,1/0]
RESULT: v0x4e8fda0_0 : [-1/0,1/0]
