RESULT: v0x47797e0_0 : [0,0]
RESULT: v0x4a6e660_1 : [0,1]
RESULT: v0x4a89700_1 : [0,1]
RESULT: v0x4a4c5c0_1 : [0,1]
RESULT: v0x4a79c10_1 : [0,1]
RESULT: v0x4a68670_1 : [0,1]
RESULT: v0x4a6d140_1 : [0,1]
RESULT: v0x4a8d000_1 : [0,1]
RESULT: v0x4a66750_1 : [0,1]
RESULT: v0x4a592a0_1 : [0,1]
RESULT: v0x4a59380_1 : [0,1]
RESULT: v0x4a6b790_1 : [0,1]
RESULT: v0x4a63a30_1 : [0,1]
RESULT: v0x4a420c0_1 : [0,1]
RESULT: v0x4a2d6d0_1 : [-1/0,1/0]
RESULT: v0x48e2270_1 : [-1/0,1/0]
RESULT: v0x4a35630_1 : [0,2]
RESULT: v0x47dab20_1 : [0,2]
RESULT: v0x479abd0_1 : [0,2]
RESULT: v0x48dc5e0_1 : [0,2]
RESULT: v0x48dbf00_1 : [0,2]
RESULT: v0x4cdb200_1 : [0,2]
RESULT: v0x4cda640_1 : [0,2]
RESULT: v0x4cd6710_1 : [0,2]
RESULT: v0x4a1fbe0_1 : [0,2]
RESULT: v0x4cd61b0_1 : [0,2]
RESULT: v0x4ccf660_1 : [0,2]
RESULT: v0x4ccfb60_1 : [0,2]
RESULT: v0x49f1fe0_1 : [0,2]
RESULT: v0x4ccf560_1 : [0,0]
