RESULT: v0x75ad110_0 : [-1/0,1/0]
RESULT: v0x6e31de0_0 : [-1/0,1/0]
RESULT: v0x7c67b70_0 : [-1/0,1/0]
RESULT: v0x7c67d90_0 : [-1/0,1/0]
RESULT: v0x6ab2310_0 : [27,1/0]
RESULT: v0xb1d18f0_0 : [-1/0,1/0]
RESULT: v0x5f195e0_0 : [-1/0,1/0]
RESULT: v0x6d82830_0 : [-1/0,1/0]
RESULT: v0x630b930_0 : [0,0]
RESULT: v0x75af600_0 : [-1/0,1/0]
RESULT: v0xa5b22c0_0 : [-1/0,1/0]
RESULT: v0x478d2d0_0 : [67,1/0]
RESULT: v0x478d3d0_0 : [0,1]
RESULT: v0x478d4d0_0 : [-1/0,1/0]
RESULT: v0x478d5d0_0 : [-1/0,1/0]
RESULT: v0x478d6d0_0 : [-1/0,1/0]
RESULT: v0x478d7d0_0 : [-1/0,1/0]
RESULT: v0x478d8d0_0 : [0,1]
RESULT: v0x478d9d0_0 : [-1/0,1/0]
RESULT: v0x478dad0_0 : [-1/0,1/0]
RESULT: v0x478dbd0_0 : [-1/0,1/0]
RESULT: v0x478dcd0_0 : [-1/0,1/0]
RESULT: v0x478ddd0_0 : [-1/0,1/0]
RESULT: v0x478ded0_0 : [-1/0,1/0]
RESULT: v0x478dfd0_0 : [-1/0,1/0]
RESULT: v0x47d3920_0 : [-1/0,1/0]
RESULT: v0x47d3460_0 : [-1/0,1/0]
RESULT: v0x53fafe0_0 : [0,0]
RESULT: v0x595c750_0 : [-1/0,10]
RESULT: v0x4c143a0_0 : [-1/0,1/0]
RESULT: v0x478e2d0_0 : [-1/0,1/0]
