RESULT: v0x405ca90_0 : [2,1/0]
RESULT: v0x4159100_0 : [0,1]
RESULT: v0x3ef5dd0_0 : [0,1]
RESULT: v0x4202240_0 : [123,777]
RESULT: v0x41be840_0 : [0,1]
RESULT: v0x41e89c0_0 : [0,1]
RESULT: v0x422a180_0 : [0,2]
RESULT: v0x41e09e0_0 : [0,456]
RESULT: v0x42478c0_0 : [0,1]
RESULT: v0x415a280_0 : [0,1]
RESULT: v0x4206e40_0 : [0,666]
RESULT: v0x405dc50_0 : [0,1]
RESULT: v0x41bddc0_0 : [0,1]
RESULT: v0x41e2000_0 : [0,1]
RESULT: v0x41e4420_0 : [0,123]
RESULT: v0x41c9480_0 : [0,1]
RESULT: v0x400fec0_0 : [0,1]
RESULT: v0x420aba0_0 : [456,456]
RESULT: v0x41b32e0_0 : [2,2]
RESULT: v0x41d1440_0 : [1,1]
RESULT: v0x3edd1b0_0 : [0,1]
RESULT: v0x41b5760_0 : [0,3]
RESULT: v0x3ec02d0_0 : [0,0]
RESULT: v0x3ec03d0_0 : [0,456]
RESULT: v0x3ebf9d0_0 : [-1/0,1/0]
RESULT: v0x3ebf6d0_0 : [456,456]
RESULT: v0x3ec07d0_0 : [0,2]
RESULT: v0x3ec08d0_0 : [0,1]
RESULT: v0x3ec09d0_0 : [0,1]
RESULT: v0x3ec0ad0_0 : [1,2]
RESULT: v0x3ec20d0_0 : [0,0]
RESULT: v0x3ec21d0_0 : [0,456]
RESULT: v0x3ec22d0_0 : [0,0]
RESULT: v0x3ec23d0_0 : [0,0]
RESULT: v0x3ec24d0_0 : [2,2]
RESULT: v0x3ec25d0_0 : [1,1]
RESULT: v0x3ec26d0_0 : [1,3]
RESULT: v0x3ec27d0_0 : [2,2]
RESULT: v0x3ec28d0_0 : [2,2]
RESULT: v0x3ec29d0_0 : [0,0]
RESULT: v0x3ebf8d0_0 : [0,0]
