RESULT: v0x509e220_0 : [0,0]
RESULT: v0x509e320_0 : [0,0]
RESULT: v0x509f020_0 : [0,0]
RESULT: v0x509f320_0 : [0,0]
RESULT: v0x509f620_0 : [0,0]
RESULT: v0x563a000_0 : [0,6]
RESULT: v0x52e0e30_0 : [0,1]
RESULT: v0x55ca860_0 : [1,2]
RESULT: v0x597b4f0_0 : [0,1]
RESULT: v0x5976800_0 : [0,1]
RESULT: v0x52ec1d0_0 : [0,51]
RESULT: v0x5305560_0 : [0,1]
RESULT: v0x59790b0_0 : [0,0]
RESULT: v0x55c7a50_0 : [0,1]
RESULT: v0x51d47f0_0 : [0,1]
RESULT: v0x530f3a0_0 : [-1/0,1/0]
RESULT: v0x55c5a40_0 : [0,0]
RESULT: v0x597ed40_0 : [1,1]
RESULT: v0x52fc850_0 : [0,1]
RESULT: v0x5304dd0_0 : [-1/0,1/0]
RESULT: v0x50a79f0_0 : [0,6]
RESULT: v0x50a7af0_0 : [0,1]
RESULT: v0x50a7bf0_0 : [1,2]
RESULT: v0x50a7cf0_0 : [0,1]
RESULT: v0x50a7df0_0 : [0,1]
RESULT: v0x50a7ef0_0 : [0,51]
RESULT: v0x50a7ff0_0 : [0,1]
RESULT: v0x50a80f0_0 : [0,0]
RESULT: v0x50a81f0_0 : [0,1]
RESULT: v0x50a82f0_0 : [0,1]
RESULT: v0x50a83f0_0 : [-1/0,1/0]
RESULT: v0x50a84f0_0 : [0,0]
RESULT: v0x50a85f0_0 : [1,1]
RESULT: v0x50a86f0_0 : [0,1]
RESULT: v0x50a87f0_0 : [-1/0,1/0]
RESULT: v0x50a89f0_0 : [-1/0,1/0]
RESULT: v0x5a370a0_0 : [-1/0,1/0]
RESULT: v0x5a37200_0 : [0,50]
RESULT: v0x5a37400_0 : [0,51]
RESULT: v0x5a37600_0 : [0,2]
RESULT: v0x5a37800_0 : [1,1]
RESULT: v0x5a37a00_0 : [1,1]
RESULT: v0x5a37c00_0 : [0,0]
RESULT: v0x50a88f0_0 : [-1/0,1/0]
