RESULT: v0x3e8e170_0 : [1,1/0]
RESULT: v0x41cc320_0 : [0,1]
RESULT: v0x4006ab0_0 : [0,1]
RESULT: v0x40d78a0_0 : [123,777]
RESULT: v0x418de80_0 : [0,1]
RESULT: v0x41955e0_0 : [0,1]
RESULT: v0x40c87f0_0 : [0,2]
RESULT: v0x40ca7d0_0 : [0,1]
RESULT: v0x3fb7440_0 : [0,456]
RESULT: v0x4166f40_0 : [0,1]
RESULT: v0x41c9f80_0 : [0,666]
RESULT: v0x419b1c0_0 : [0,1]
RESULT: v0x40d4e50_0 : [0,2]
RESULT: v0x41752c0_0 : [0,456]
RESULT: v0x4174520_0 : [0,1]
RESULT: v0x41c0ae0_0 : [0,1]
RESULT: v0x4013af0_0 : [0,1]
RESULT: v0x400fd70_0 : [0,123]
RESULT: v0x41ab1c0_0 : [0,1]
RESULT: v0x3fb52d0_0 : [0,3]
RESULT: v0x41a5ca0_0 : [0,1]
RESULT: v0x3faa2e0_0 : [0,1]
RESULT: v0x3e72cd0_0 : [-1/0,1/0]
RESULT: v0x3e729d0_0 : [0,456]
RESULT: v0x3e72bd0_0 : [0,1]
