RESULT: v0x4712070_0 : [0,1/0]
RESULT: v0x4917ad0_0 : [0,1]
RESULT: v0x4737bb0_0 : [0,1]
RESULT: v0x4962750_0 : [123,777]
RESULT: v0x4a04bf0_0 : [0,1]
RESULT: v0x4a27a70_0 : [0,1]
RESULT: v0x48a09c0_0 : [0,2]
RESULT: v0x49ea150_0 : [0,1]
RESULT: v0x49d85c0_0 : [0,456]
RESULT: v0x4a0ca50_0 : [0,1]
RESULT: v0x49f6cb0_0 : [0,666]
RESULT: v0x4a34170_0 : [0,1]
RESULT: v0x4960d10_0 : [0,2]
RESULT: v0x49f6b90_0 : [0,456]
RESULT: v0x4a38bf0_0 : [0,1]
RESULT: v0x4a2ee90_0 : [0,1]
RESULT: v0x4716d30_0 : [0,1]
RESULT: v0x48506f0_0 : [0,123]
RESULT: v0x4a235d0_0 : [0,1]
RESULT: v0x495f100_0 : [0,3]
RESULT: v0x4a4a7f0_0 : [0,1]
RESULT: v0x495cc60_0 : [0,1]
RESULT: v0x46fa9f0_0 : [0,123]
