RESULT: v0x3eb4960_0 : [2,2]
RESULT: v0x3eb4c60_0 : [0,0]
RESULT: v0x3ec2c60_0 : [0,0]
RESULT: v0x3ec3660_0 : [0,1]
RESULT: v0x3ec2f60_0 : [0,1]
RESULT: v0x3ec2d60_0 : [-1/0,1/0]
RESULT: v0x3eb4e60_0 : [0,1]
RESULT: v0x3eb4f60_0 : [0,1]
RESULT: v0x3ec3560_0 : [0,1]
RESULT: v0x3eb5460_0 : [0,1]
RESULT: v0x3ec3b60_0 : [-1/0,1/0]
RESULT: v0x3eb4d60_0 : [-1/0,1/0]
RESULT: v0x3ec3060_0 : [1,1]
RESULT: v0x3ec2e60_0 : [-1/0,1/0]
RESULT: v0x3ec3160_0 : [0,1]
RESULT: v0x3ec3360_0 : [0,1]
RESULT: v0x3ec3260_0 : [0,1]
RESULT: v0x3ec2b60_0 : [80,160]
RESULT: v0x3ec3460_0 : [0,1]
RESULT: v0x3ec3760_0 : [0,1]
RESULT: v0x3ec3860_0 : [0,1]
RESULT: v0x3eb5160_0 : [0,1]
RESULT: v0x3eb5760_0 : [0,1]
RESULT: v0x3eb4a60_0 : [40,80]
RESULT: v0x3eb5260_0 : [0,1]
RESULT: v0x3eb5660_0 : [1,1]
RESULT: v0x3eb5360_0 : [1,1]
RESULT: v0x3eb5560_0 : [1,1]
RESULT: v0x3eb5060_0 : [1,1]
RESULT: v0x3eb4b60_0 : [0,0]
RESULT: v0x3ec6860_0 : [-1/0,1/0]
RESULT: v0x8d0ca00_0 : [-1/0,1/0]
