RESULT: v0x3f314d0_1 : [3,3]
RESULT: v0x3f48800_1 : [0,1]
RESULT: v0x3f4c650_1 : [0,1]
RESULT: v0x3f50700_1 : [0,1]
RESULT: v0x3f60750_1 : [0,1]
RESULT: v0x3fb5240_1 : [0,1]
RESULT: v0x3fb2200_1 : [0,1]
RESULT: v0x3f51aa0_1 : [0,1]
RESULT: v0x3fbc720_1 : [0,1]
RESULT: v0x3fad000_1 : [0,1]
RESULT: v0x3f3a700_1 : [0,1]
RESULT: v0x3f329d0_1 : [0,1]
RESULT: v0x3e22050_1 : [0,1]
RESULT: v0x3fba8a0_1 : [0,2]
RESULT: v0x3f9a640_1 : [0,3]
RESULT: v0x3e2cb90_1 : [0,1]
RESULT: v0x3fa3160_1 : [123,777]
RESULT: v0x3fbe8a0_1 : [0,666]
RESULT: v0x3fbb860_1 : [0,2]
RESULT: v0x3fb0200_1 : [0,1]
RESULT: v0x3fa6140_1 : [0,2]
RESULT: v0x3fa7200_1 : [0,456]
RESULT: v0x4106440_1 : [0,123]
RESULT: v0x408af30_1 : [0,456]
