RESULT: v0x50343a0_0 : [0,1]
RESULT: v0x50266a0_0 : [0,1]
RESULT: v0x4cdef00_0 : [0,1]
RESULT: v0x4d48000_0 : [0,1]
RESULT: v0x4ce37e0_0 : [0,1]
RESULT: v0x503cb00_0 : [0,1]
RESULT: v0x4f0aa20_0 : [0,1]
RESULT: v0x5f530d0_0 : [0,1]
RESULT: v0x4cb6dd0_0 : [0,1]
RESULT: v0x6416560_0 : [0,1]
RESULT: v0x4fa4ed0_0 : [0,1]
RESULT: v0x4c82470_0 : [0,1]
RESULT: v0x4cd0a10_0 : [1,1]
RESULT: v0x4ca3ea0_0 : [-1/0,1/0]
RESULT: v0x4cca820_0 : [-1/0,1/0]
RESULT: v0x501eb10_0 : [0,2]
RESULT: v0x5666c70_0 : [0,2]
RESULT: v0x4ce4e60_0 : [0,2]
RESULT: v0x50314e0_0 : [0,2]
RESULT: v0x4b47160_0 : [0,2]
RESULT: v0x5037820_0 : [0,2]
RESULT: v0x4ccecc0_0 : [0,2]
RESULT: v0x4ce3f60_0 : [0,2]
RESULT: v0x501bcd0_0 : [0,2]
RESULT: v0x5039900_0 : [0,2]
RESULT: v0x4a11db0_0 : [0,2]
RESULT: v0x5504f40_0 : [0,2]
RESULT: v0x503a180_0 : [2,2]
