RESULT: v0x6ef7440_0 : [0,1]
RESULT: v0x6ef75e0_0 : [1,1]
RESULT: v0x6ef77e0_0 : [0,1]
RESULT: v0x6ef79e0_0 : [0,1]
RESULT: v0x6ef7be0_0 : [0,1]
RESULT: v0x6ef7de0_0 : [0,1]
RESULT: v0x6ef7fe0_0 : [0,1]
RESULT: v0x6ef81e0_0 : [0,1]
RESULT: v0x6ef83e0_0 : [0,1]
RESULT: v0x6ef85e0_0 : [0,1]
RESULT: v0x6ef87e0_0 : [0,1]
RESULT: v0x6ef89e0_0 : [0,1]
RESULT: v0x6ef8be0_0 : [0,1]
RESULT: v0x6ef8de0_0 : [1,1]
RESULT: v0x6ef8fe0_0 : [0,2]
RESULT: v0x6ef91e0_0 : [2,2]
RESULT: v0x6ef93e0_0 : [0,2]
RESULT: v0x6ef95e0_0 : [0,2]
RESULT: v0x6ef97e0_0 : [0,2]
RESULT: v0x6ef99e0_0 : [0,2]
RESULT: v0x6ef9be0_0 : [0,2]
RESULT: v0x6ef9de0_0 : [0,2]
RESULT: v0x6ef9fe0_0 : [0,2]
RESULT: v0x6efa1e0_0 : [0,2]
RESULT: v0x6efa3e0_0 : [0,2]
RESULT: v0x6efa5e0_0 : [0,2]
RESULT: v0x6efa7e0_0 : [0,2]
RESULT: v0x6efa9e0_0 : [2,2]
