RESULT: v0x62f61e0_0 : [0,1]
RESULT: v0x62f6380_0 : [0,1]
RESULT: v0x62f6580_0 : [0,1]
RESULT: v0x62f6780_0 : [0,1]
RESULT: v0x62f6980_0 : [0,1]
RESULT: v0x62f6b80_0 : [0,1]
RESULT: v0x62f6d80_0 : [0,1]
RESULT: v0x62f6f80_0 : [0,1]
RESULT: v0x62f7180_0 : [0,1]
RESULT: v0x62f7380_0 : [0,1/0]
RESULT: v0x62f7580_0 : [0,1/0]
RESULT: v0x62f7780_0 : [1,1]
RESULT: v0x62f7980_0 : [0,2]
RESULT: v0x62f7b80_0 : [-1/0,2]
RESULT: v0x62f7d80_0 : [-1/0,2]
RESULT: v0x62f7f80_0 : [-1/0,2]
RESULT: v0x62f8180_0 : [-1/0,2]
RESULT: v0x62f8380_0 : [-1/0,2]
RESULT: v0x62f8580_0 : [-1/0,2]
RESULT: v0x62f8780_0 : [0,2]
RESULT: v0x62f8980_0 : [0,2]
RESULT: v0x62f8b80_0 : [0,2]
RESULT: v0x62f8d80_0 : [0,2]
RESULT: v0x62f8f80_0 : [2,2]
