RESULT: v0x6726a20_0 : [0,1]
RESULT: v0x716bb90_0 : [0,1]
RESULT: v0x5840900_0 : [-1/0,1/0]
RESULT: v0x4a51070_0 : [-1/0,1/0]
RESULT: v0x9f1dd80_0 : [-1/0,1/0]
RESULT: v0x69f13f0_0 : [-1/0,1/0]
RESULT: v0x45a06f0_0 : [0,0]
RESULT: v0x40faaa0_0 : [67,1/0]
RESULT: v0x61f73f0_0 : [67,1/0]
RESULT: v0x40faba0_0 : [0,1]
RESULT: v0x40faca0_0 : [0,1]
RESULT: v0x40fada0_0 : [-1/0,1/0]
RESULT: v0x40faea0_0 : [-1/0,1/0]
RESULT: v0x40fafa0_0 : [0,0]
RESULT: v0x40fb0a0_0 : [0,0]
RESULT: v0x40fb1a0_0 : [-1/0,1/0]
RESULT: v0x6283b90_0 : [-1/0,1/0]
RESULT: v0x40fb2a0_0 : [-1/0,1/0]
RESULT: v0x668e290_0 : [-1/0,1/0]
RESULT: v0x40fb3a0_0 : [-1/0,1/0]
RESULT: v0x6283c70_0 : [-1/0,1/0]
RESULT: v0x40fb4a0_0 : [-1/0,1/0]
RESULT: v0x40fb5a0_0 : [-1/0,1/0]
RESULT: v0x40fb6a0_0 : [-1/0,1/0]
RESULT: v0x40fb7a0_0 : [-1/0,1/0]
RESULT: v0x5652150_0 : [-1/0,1/0]
RESULT: v0x51b9050_0 : [-1/0,1/0]
RESULT: v0xa227740_0 : [0,0]
RESULT: v0x51b8c10_0 : [-1/0,10]
RESULT: v0x60b2430_0 : [-1/0,1/0]
RESULT: v0x40fbaa0_0 : [-1/0,1/0]
