RESULT: v0x3be9410_0 : [-1/0,1/0]
RESULT: v0x3be9350_0 : [-1/0,1/0]
RESULT: v0x3be96b0_0 : [-1/0,1/0]
RESULT: v0x3be9730_0 : [-1/0,1/0]
RESULT: v0x3be9050_0 : [-1/0,1/0]
RESULT: v0x3be8fb0_0 : [-1/0,1/0]
RESULT: v0x3b787c0_0 : [-1/0,1/0]
RESULT: v0x3bdb500_0 : [-1/0,1/0]
RESULT: v0x3be97d0_0 : [-1/0,1/0]
RESULT: v0x3be9890_0 : [-1/0,1/0]
RESULT: v0x3be9950_0 : [-1/0,1/0]
RESULT: v0x3be9a10_0 : [-1/0,1/0]
RESULT: v0x3be9ad0_0 : [-1/0,1/0]
RESULT: v0x3be9b90_0 : [-1/0,1/0]
RESULT: v0x3be9c50_0 : [-1/0,1/0]
RESULT: v0x3be9d10_0 : [-1/0,1/0]
RESULT: v0x3be9dd0_0 : [-1/0,1/0]
RESULT: v0x3be9e90_0 : [-1/0,1/0]
RESULT: v0x3be9f50_0 : [-1/0,1/0]
RESULT: v0x3be94d0_0 : [-1/0,1/0]
RESULT: v0x3be9290_0 : [-1/0,1/0]
RESULT: v0x3be96f0_0 : [-1/0,1/0]
RESULT: v0x3be91d0_0 : [-1/0,1/0]
RESULT: v0x3be9110_0 : [-1/0,1/0]
