RESULT: v0x431dbc0_0 : [0,2]
RESULT: v0x431d7c0_0 : [0,1]
RESULT: v0x431dcc0_0 : [0,1]
RESULT: v0x431d2c0_0 : [0,2]
RESULT: v0x431c700_0 : [1,2]
RESULT: v0x431d1c0_0 : [0,1]
RESULT: v0x431d8c0_0 : [0,1]
RESULT: v0x431b900_0 : [0,1/0]
RESULT: v0x431d9c0_0 : [-1/0,1/0]
RESULT: v0x431d0c0_0 : [-1/0,1/0]
RESULT: v0x431d6c0_0 : [-1/0,1/0]
RESULT: v0x431ba00_0 : [0,1/0]
RESULT: v0x431ddc0_0 : [0,1/0]
RESULT: v0x431d5c0_0 : [-1/0,1/0]
RESULT: v0x431d4c0_0 : [-1/0,1/0]
RESULT: v0x431d3c0_0 : [0,1]
RESULT: v0x431b800_0 : [0,1/0]
RESULT: v0x431dec0_0 : [-1/0,1/0]
RESULT: v0x431dac0_0 : [-1/0,1/0]
RESULT: v0xac2cc70_0 : [-1/0,1/0]
RESULT: v0x8bba000_0 : [0,0]
RESULT: v0xb14e4c0_0 : [0,0]
RESULT: v0xb1464c0_0 : [-1/0,1/0]
RESULT: v0xab20210_0 : [0,0]
RESULT: v0xad17e20_0 : [-1/0,1/0]
RESULT: v0xb1a6220_0 : [-1/0,1/0]
RESULT: v0xa144b30_0 : [-1/0,1/0]
RESULT: v0xb1c0d80_0 : [-1/0,1/0]
RESULT: v0xad7edf0_0 : [1,1]
