RESULT: v0x54e2ab0_0 : [2,2]
RESULT: v0x9345f10_0 : [1,1]
RESULT: v0x81b3e60_0 : [0,0]
RESULT: v0x431c700_0 : [1,2]
RESULT: v0x7fadde0_0 : [0,0]
RESULT: v0xa0a3ce0_0 : [0,1]
RESULT: v0xa0ce330_0 : [0,1]
RESULT: v0x431b900_0 : [0,1/0]
RESULT: v0xa04b700_0 : [0,2]
RESULT: v0xa0f9ce0_0 : [2,1/0]
RESULT: v0x431ba00_0 : [0,1/0]
RESULT: v0x431b800_0 : [0,1/0]
RESULT: v0x8134880_0 : [50,52]
RESULT: v0x80f1420_0 : [0,1/0]
RESULT: v0xa0f4fe0_0 : [0,2]
RESULT: v0x8043130_0 : [0,2]
RESULT: v0x81a1040_0 : [1,1]
RESULT: v0xa0c9810_0 : [-1/0,1/0]
RESULT: v0x91d8e60_0 : [-1/0,1/0]
RESULT: v0x7fa93c0_0 : [1,1]
RESULT: v0x81a3b80_0 : [0,2]
RESULT: v0x80b5d80_0 : [50,52]
RESULT: v0xa0dc8e0_0 : [0,2]
RESULT: v0xa13a190_0 : [0,0]
RESULT: v0x6bdfb60_0 : [1,1]
RESULT: v0x8195ae0_0 : [0,1]
RESULT: v0x80539d0_0 : [0,1]
RESULT: v0x8156330_0 : [1,2]
RESULT: v0x6f67180_0 : [-1/0,1/0]
RESULT: v0x6f686e0_0 : [0,2]
RESULT: v0x91d9240_0 : [0,1]
RESULT: v0x431e1c0_0 : [-1/0,1/0]
