RESULT: v0x529a070_0 : [-1/0,1/0]
RESULT: v0x5299610_0 : [-1/0,1/0]
RESULT: v0x529ddb0_0 : [-1/0,1/0]
RESULT: v0x5299fb0_0 : [-1/0,1/0]
RESULT: v0x529e9f0_0 : [-1/0,1/0]
RESULT: v0x5299ef0_0 : [-1/0,1/0]
RESULT: v0x529dcb0_0 : [-1/0,1/0]
RESULT: v0x529dcf0_0 : [-1/0,1/0]
RESULT: v0x529aa70_0 : [-1/0,1/0]
RESULT: v0x529b670_0 : [-1/0,1/0]
RESULT: v0x529e9b0_0 : [-1/0,1/0]
RESULT: v0x529d170_0 : [-1/0,1/0]
RESULT: v0x529d0b0_0 : [-1/0,1/0]
RESULT: v0x50bb410_0 : [-1/0,1/0]
RESULT: v0x5291430_0 : [-1/0,1/0]
RESULT: v0x52a1ec0_0 : [-1/0,1/0]
RESULT: v0x5299310_0 : [-1/0,1/0]
RESULT: v0x529a140_0 : [-1/0,1/0]
RESULT: v0x5299550_0 : [-1/0,1/0]
RESULT: v0x5299d70_0 : [-1/0,1/0]
RESULT: v0x52996d0_0 : [-1/0,1/0]
RESULT: v0x5299bf0_0 : [-1/0,1/0]
RESULT: v0x5299cb0_0 : [-1/0,1/0]
RESULT: v0x5299e30_0 : [-1/0,1/0]
RESULT: v0x5299b30_0 : [-1/0,1/0]
