RESULT: v0x58f28c0_0 : [1,1]
RESULT: v0x58f29c0_0 : [-1/0,1/0]
RESULT: v0x58f2ac0_0 : [0,0]
RESULT: v0x58f2bc0_0 : [-1/0,1/0]
RESULT: v0x58f2cc0_0 : [0,0]
RESULT: v0x58f2dc0_0 : [-1/0,1/0]
RESULT: v0x58f2ec0_0 : [-1/0,1/0]
RESULT: v0x58f2fc0_0 : [-1/0,1/0]
RESULT: v0x58f30c0_0 : [0,0]
RESULT: v0x58f31c0_0 : [0,0]
RESULT: v0x58f32c0_0 : [-1/0,1/0]
RESULT: v0x58f33c0_0 : [-1/0,1/0]
RESULT: v0x58f34c0_0 : [-1/0,0]
RESULT: v0x58f35c0_0 : [-1/0,1/0]
RESULT: v0x58f36c0_0 : [0,0]
RESULT: v0x58f37c0_0 : [-1/0,1/0]
RESULT: v0x58f38c0_0 : [-1/0,1/0]
RESULT: v0x58f39c0_0 : [-1/0,1/0]
RESULT: v0x58f3ac0_0 : [0,0]
RESULT: v0x58f3bc0_0 : [-1/0,1/0]
RESULT: v0x58f3cc0_0 : [-1/0,1/0]
