RESULT: v0x3849a90_0 : [-1/0,1/0]
RESULT: v0x3849050_0 : [-1/0,1/0]
RESULT: v0x384a1c0_0 : [-1/0,1/0]
RESULT: v0x3849930_0 : [-1/0,1/0]
RESULT: v0x384b260_0 : [-1/0,1/0]
RESULT: v0x3848d50_0 : [-1/0,1/0]
RESULT: v0x3849870_0 : [-1/0,1/0]
RESULT: v0x384b1a0_0 : [-1/0,1/0]
RESULT: v0x384b320_0 : [-1/0,1/0]
RESULT: v0x384c9e0_0 : [-1/0,1/0]
RESULT: v0x38499f0_0 : [-1/0,1/0]
RESULT: v0x384a3c0_0 : [-1/0,1/0]
RESULT: v0x3606440_0 : [-1/0,1/0]
RESULT: v0x38a0ca0_0 : [-1/0,1/0]
RESULT: v0x384b4a0_0 : [-1/0,1/0]
RESULT: v0x3849110_0 : [-1/0,1/0]
RESULT: v0x3848e10_0 : [-1/0,1/0]
RESULT: v0x3848f90_0 : [-1/0,1/0]
RESULT: v0x3847f10_0 : [-1/0,1/0]
RESULT: v0x3847e50_0 : [-1/0,1/0]
RESULT: v0x3848730_0 : [-1/0,1/0]
RESULT: v0x38484f0_0 : [-1/0,1/0]
RESULT: v0x38487f0_0 : [-1/0,1/0]
RESULT: v0x3872490_0 : [-1/0,1/0]
