RESULT: v0x3f6f890_0 : [-1/0,1/0]
RESULT: v0x3f0d6b0_0 : [-1/0,1/0]
RESULT: v0x3edfde0_0 : [-1/0,1/0]
RESULT: v0x3bad560_0 : [-1/0,1/0]
RESULT: v0x3baeec0_0 : [-1/0,1/0]
RESULT: v0x3e77ca0_0 : [-1/0,1/0]
RESULT: v0x3e8a800_0 : [-1/0,1/0]
RESULT: v0x3e996e0_0 : [-1/0,1/0]
RESULT: v0x3f7c220_0 : [-1/0,1/0]
RESULT: v0x3e8d960_0 : [-1/0,1/0]
RESULT: v0x3e8a680_0 : [-1/0,1/0]
RESULT: v0x3bbc180_0 : [-1/0,1/0]
RESULT: v0x3bb2bd0_0 : [-1/0,1/0]
RESULT: v0x3ddb0a0_0 : [1,1]
RESULT: v0x3f7b860_0 : [-1/0,1/0]
RESULT: v0x3f7d490_0 : [-1/0,1/0]
RESULT: v0x3e56f70_0 : [-1/0,1/0]
RESULT: v0x3e675e0_0 : [-1/0,1/0]
RESULT: v0x3e649a0_0 : [-1/0,1/0]
RESULT: v0x3e8b7e0_0 : [-1/0,1/0]
RESULT: v0x3bcb5e0_0 : [-1/0,1/0]
RESULT: v0x3baf880_0 : [-1/0,1/0]
RESULT: v0x3bad3e0_0 : [-1/0,1/0]
RESULT: v0x3bb4680_0 : [-1/0,1/0]
RESULT: v0x3e67460_0 : [-1/0,1/0]
RESULT: v0x3eb8910_0 : [-1/0,1/0]
RESULT: v0x3f0e9d0_0 : [-1/0,1/0]
RESULT: v0x3f2c2b0_0 : [-1/0,1/0]
RESULT: v0x3f0ac00_0 : [-1/0,1/0]
RESULT: v0x3f06c60_0 : [2,2]
