RESULT: v0x44e4310_0 : [-1/0,1/0]
RESULT: v0x44e4110_0 : [-1/0,1/0]
RESULT: v0x44e4510_0 : [-1/0,1/0]
RESULT: v0x44e4210_0 : [-1/0,1/0]
RESULT: v0x44e4410_0 : [-1/0,1/0]
RESULT: v0x61f8af0_1 : [3,3]
RESULT: v0x61ea4e0_1 : [-150,490]
RESULT: v0x6452750_1 : [0,1]
RESULT: v0x6452c50_1 : [0,1]
RESULT: v0x6453070_1 : [0,1]
RESULT: v0x64534b0_1 : [0,1]
RESULT: v0x6453990_1 : [0,1]
RESULT: v0x6453fb0_1 : [0,1]
RESULT: v0x61edd70_1 : [0,1]
RESULT: v0x6137250_1 : [-1/0,1]
RESULT: v0x5fd40a0_1 : [-1/0,1/0]
RESULT: v0x611f1f0_1 : [0,1]
RESULT: v0x614dd70_1 : [0,1]
RESULT: v0x616de00_1 : [0,1]
RESULT: v0x6145e30_1 : [0,1]
RESULT: v0x6119bf0_1 : [0,1]
