RESULT: v0x4ec28c0_0 : [0,1]
RESULT: v0x4ec86d0_0 : [0,1]
RESULT: v0x4ec8c50_0 : [0,1]
RESULT: v0x4308580_0 : [0,1]
RESULT: v0x40da920_0 : [0,1]
RESULT: v0x440d040_0 : [0,1]
RESULT: v0x430d650_0 : [0,1]
RESULT: v0x5362450_0 : [0,1]
RESULT: v0x536fb00_0 : [0,1]
RESULT: v0x53620c0_0 : [1,1]
RESULT: v0x5360560_0 : [-1/0,1/0]
RESULT: v0x536ba50_0 : [-1/0,1/0]
RESULT: v0x535de20_0 : [0,2]
RESULT: v0x5362800_0 : [0,2]
RESULT: v0x5360780_0 : [0,2]
RESULT: v0x535de60_0 : [0,2]
RESULT: v0x535c160_0 : [0,2]
RESULT: v0x5362b40_0 : [0,2]
RESULT: v0x5361260_0 : [0,2]
RESULT: v0x535bdc0_0 : [0,2]
RESULT: v0x5358d70_0 : [0,2]
RESULT: v0x535bcc0_0 : [2,2]
