RESULT: v0x55a0190_0 : [-1/0,1/0]
RESULT: v0x50caf60_0 : [-1/0,1/0]
RESULT: v0x538ab50_0 : [-1/0,1/0]
RESULT: v0x58df820_0 : [-1/0,1/0]
RESULT: v0x64b00a0_0 : [-1/0,1/0]
RESULT: v0x6558800_0 : [-1/0,1/0]
RESULT: v0x73a2680_0 : [1,1]
RESULT: v0x4e8eda0_0 : [67,1/0]
RESULT: v0x6cb26c0_0 : [27,1/0]
RESULT: v0x4e8eea0_0 : [0,1]
RESULT: v0x4e8efa0_0 : [0,1]
RESULT: v0x4e8f0a0_0 : [-1/0,1/0]
RESULT: v0x4e8f1a0_0 : [-1/0,1/0]
RESULT: v0x4e8f2a0_0 : [-1/0,1/0]
RESULT: v0x4e8f3a0_0 : [-1/0,1/0]
RESULT: v0x4e8f4a0_0 : [-1/0,1/0]
RESULT: v0xa86d710_0 : [-1/0,1/0]
RESULT: v0x4e8f5a0_0 : [-1/0,1/0]
RESULT: v0xbd647c0_0 : [-1/0,1/0]
RESULT: v0x4e8f6a0_0 : [-1/0,1/0]
RESULT: v0x7377700_0 : [-1/0,1/0]
RESULT: v0x4e8f7a0_0 : [-1/0,1/0]
RESULT: v0x4e8f8a0_0 : [-1/0,1/0]
RESULT: v0x4e8f9a0_0 : [-1/0,1/0]
RESULT: v0x4e8faa0_0 : [-1/0,1/0]
RESULT: v0x5b01c50_0 : [-1/0,1/0]
RESULT: v0xacd3bb0_0 : [-1/0,1/0]
RESULT: v0x6078c60_0 : [-1/0,1/0]
RESULT: v0x51556f0_0 : [-1/0,10]
RESULT: v0x7315070_0 : [-1/0,1/0]
RESULT: v0x4e90da0_0 : [-1/0,1/0]
