RESULT: v0x34bbe10_0 : [-1/0,1/0]
RESULT: v0x34bbd50_0 : [-1/0,1/0]
RESULT: v0x3433a10_0 : [-1/0,1/0]
RESULT: v0x34bb9b0_0 : [-1/0,1/0]
RESULT: v0x34bba50_0 : [-1/0,1/0]
RESULT: v0x34bc050_0 : [-1/0,1/0]
RESULT: v0x34bc110_0 : [-1/0,1/0]
RESULT: v0x3464220_0 : [-1/0,1/0]
RESULT: v0x34bc1d0_0 : [-1/0,1/0]
RESULT: v0x34bc290_0 : [-1/0,1/0]
RESULT: v0x34bc350_0 : [-1/0,1/0]
RESULT: v0x34bc410_0 : [-1/0,1/0]
RESULT: v0x34bc4d0_0 : [-1/0,1/0]
RESULT: v0x34bc590_0 : [-1/0,1/0]
RESULT: v0x34bc650_0 : [-1/0,1/0]
RESULT: v0x34bc710_0 : [-1/0,1/0]
RESULT: v0x34bc7d0_0 : [-1/0,1/0]
RESULT: v0x34bc890_0 : [-1/0,1/0]
RESULT: v0x34bc950_0 : [-1/0,1/0]
RESULT: v0x34bbed0_0 : [-1/0,1/0]
RESULT: v0x34bbc90_0 : [-1/0,1/0]
RESULT: v0x34bbbd0_0 : [-1/0,1/0]
RESULT: v0x34bc090_0 : [-1/0,1/0]
RESULT: v0x34bbb10_0 : [-1/0,1/0]
