RESULT: v0x5155540_0 : [0,1]
RESULT: v0x5155600_0 : [0,1]
RESULT: v0x557e7f0_0 : [0,1]
RESULT: v0x557e9f0_0 : [0,1]
RESULT: v0x557ebf0_0 : [0,1]
RESULT: v0x557edf0_0 : [0,1]
RESULT: v0x566a610_0 : [0,1]
RESULT: v0x566a810_0 : [0,1]
RESULT: v0x566aa10_0 : [0,1]
RESULT: v0x566ac10_0 : [0,1]
RESULT: v0x44dabf0_0 : [1,1]
RESULT: v0x44dadf0_0 : [-1/0,1/0]
RESULT: v0x44daff0_0 : [-1/0,1/0]
RESULT: v0x44db1f0_0 : [0,2]
RESULT: v0x4bfd9c0_0 : [0,2]
RESULT: v0x4bfdbc0_0 : [0,2]
RESULT: v0x4bfddc0_0 : [0,2]
RESULT: v0x4bfdfc0_0 : [0,2]
RESULT: v0x51422f0_0 : [0,2]
RESULT: v0x51424d0_0 : [0,2]
RESULT: v0x51426d0_0 : [0,2]
RESULT: v0x51428d0_0 : [0,2]
RESULT: v0x5142ad0_0 : [0,2]
RESULT: v0x4bef1e0_0 : [2,2]
