RESULT: v0x5756c50_0 : [-1/0,1/0]
RESULT: v0x5756e50_0 : [-1/0,1/0]
RESULT: v0x5757b50_0 : [789,789]
RESULT: v0x5756b50_0 : [-1/0,1/0]
RESULT: v0x5756d50_0 : [-1/0,1/0]
RESULT: v0x5756a50_0 : [-1/0,1/0]
RESULT: v0x5c7f770_1 : [4,4]
RESULT: v0x5b960f0_1 : [0,1]
RESULT: v0x5c76170_1 : [0,1]
RESULT: v0x5bbc430_1 : [0,1]
RESULT: v0x5bc99f0_1 : [0,1]
RESULT: v0x5bba8b0_1 : [0,1]
RESULT: v0x5c47c30_1 : [0,1]
RESULT: v0x59f2df0_1 : [0,1]
RESULT: v0x5c64e70_1 : [0,1]
RESULT: v0x59f96f0_1 : [0,1]
RESULT: v0x5bc49f0_1 : [0,1]
RESULT: v0x5cb42b0_1 : [0,1]
RESULT: v0x5cb44f0_1 : [0,2]
RESULT: v0x5cb18b0_1 : [0,3]
RESULT: v0x5cb3230_1 : [0,1]
RESULT: v0x5cb2e50_1 : [123,777]
RESULT: v0x5cb3270_1 : [0,666]
RESULT: v0x5cb30b0_1 : [0,2]
RESULT: v0x5cb35f0_1 : [0,1]
RESULT: v0x5c2fef0_1 : [0,2]
RESULT: v0x5bca2b0_1 : [0,456]
RESULT: v0x5c0ecf0_1 : [0,123]
RESULT: v0x5c187f0_1 : [0,456]
RESULT: v0x5c2b3f0_1 : [0,3]
RESULT: v0x5c91fb0_1 : [0,1]
