RESULT: v0x3b67080_1 : [-1/0,11]
RESULT: v0x3b679f0_1 : [-1/0,1/0]
RESULT: v0x3b67c70_1 : [0,1]
RESULT: v0x3b67ef0_1 : [-1/0,1/0]
RESULT: v0x3b68170_1 : [-1/0,1/0]
RESULT: v0x3b683f0_1 : [-1/0,1/0]
RESULT: v0x3b68670_1 : [-1/0,1/0]
RESULT: v0x3935390_1 : [-1/0,1/0]
RESULT: v0x394d9b0_1 : [-1/0,1/0]
RESULT: v0x393b670_1 : [-1/0,1/0]
RESULT: v0x3b689b0_1 : [-1/0,1/0]
RESULT: v0x3b68c30_1 : [-1/0,1/0]
RESULT: v0x3b68eb0_1 : [-1/0,1/0]
RESULT: v0x3b691f0_1 : [-1/0,1/0]
RESULT: v0x3b69470_1 : [-1/0,1/0]
RESULT: v0x3b696f0_1 : [-1/0,1/0]
