RESULT: v0x7413fb0_0 : [-1/0,1/0]
RESULT: v0xac37940_0 : [-1/0,1/0]
RESULT: v0x9463650_0 : [-1/0,1/0]
RESULT: v0x9463610_0 : [-1/0,1/0]
RESULT: v0x5327e60_0 : [27,1/0]
RESULT: v0x13d01410_0 : [-1/0,1/0]
RESULT: v0xe0f50f0_0 : [-1/0,1/0]
RESULT: v0x5b394c0_0 : [0,0]
RESULT: v0x11ce0f10_0 : [-1/0,1/0]
RESULT: v0x732d8c0_0 : [-1/0,1/0]
RESULT: v0x7332e00_0 : [-1/0,1/0]
RESULT: v0x3fa3330_0 : [67,1/0]
RESULT: v0x3fa3430_0 : [-1/0,1/0]
RESULT: v0x3fa3530_0 : [-1/0,1/0]
RESULT: v0x3fa3630_0 : [-1/0,1/0]
RESULT: v0x3fa3730_0 : [-1/0,1/0]
RESULT: v0x3fa3830_0 : [0,1]
RESULT: v0x3fa3930_0 : [-1/0,1/0]
RESULT: v0x3fa3a30_0 : [-1/0,1/0]
RESULT: v0x3fa3b30_0 : [-1/0,1/0]
RESULT: v0x3fa3c30_0 : [-1/0,1/0]
RESULT: v0x3fa3d30_0 : [-1/0,1/0]
RESULT: v0x3fa3e30_0 : [-1/0,1/0]
RESULT: v0x3fa3f30_0 : [-1/0,1/0]
RESULT: v0x4022900_0 : [-1/0,1/0]
RESULT: v0x7036930_0 : [0,0]
RESULT: v0x732d860_0 : [-1/0,10]
RESULT: v0x732d7e0_0 : [-1/0,1/0]
RESULT: v0x68ed850_0 : [-1/0,1/0]
RESULT: v0x3fa4230_0 : [-1/0,1/0]
