RESULT: v0xa693680_0 : [-1/0,1/0]
RESULT: v0x8439730_0 : [-1/0,1/0]
RESULT: v0x6077af0_0 : [-1/0,1/0]
RESULT: v0x138b3570_0 : [0,1]
RESULT: v0x11c10f60_0 : [67,1/0]
RESULT: v0x11c10d40_0 : [-1/0,1/0]
RESULT: v0xdd46ba0_0 : [-1/0,1/0]
RESULT: v0x11a3df70_0 : [0,0]
RESULT: v0x984caa0_0 : [-1/0,1/0]
RESULT: v0xdd46be0_0 : [-1/0,1/0]
RESULT: v0xee22260_0 : [-1/0,1/0]
RESULT: v0x3fa3330_0 : [67,1/0]
RESULT: v0x3fa3430_0 : [-1/0,1/0]
RESULT: v0x3fa3530_0 : [-1/0,1/0]
RESULT: v0x3fa3630_0 : [-1/0,1/0]
RESULT: v0x3fa3730_0 : [-1/0,1/0]
RESULT: v0x3fa3830_0 : [0,1]
RESULT: v0x3fa3930_0 : [-1/0,1/0]
RESULT: v0x3fa3a30_0 : [-1/0,1/0]
RESULT: v0x3fa3b30_0 : [0,0]
RESULT: v0x3fa3c30_0 : [-1/0,1/0]
RESULT: v0x3fa3d30_0 : [-1/0,1/0]
RESULT: v0x3fa3e30_0 : [-1/0,1/0]
RESULT: v0x3fa3f30_0 : [-1/0,1/0]
RESULT: v0x138b34b0_0 : [-1/0,1/0]
RESULT: v0x83552d0_0 : [0,0]
RESULT: v0x11a3dff0_0 : [-1/0,10]
RESULT: v0x10e7a6a0_0 : [-1/0,1/0]
RESULT: v0xec34e90_0 : [-1/0,1/0]
RESULT: v0x3fa4230_0 : [-1/0,1/0]
