RESULT: v0x38949a0_1 : [-1/0,11]
RESULT: v0x3895310_1 : [-1/0,1/0]
RESULT: v0x3895590_1 : [-1/0,1/0]
RESULT: v0x3895810_1 : [-1/0,1/0]
RESULT: v0x3895a90_1 : [-1/0,1/0]
RESULT: v0x3895d10_1 : [-1/0,1/0]
RESULT: v0x3895f90_1 : [0,1]
RESULT: v0x3af44c0_1 : [-1/0,1/0]
RESULT: v0x388ce80_1 : [-1/0,1/0]
RESULT: v0x3896150_1 : [-1/0,1/0]
RESULT: v0x38963d0_1 : [-1/0,1/0]
RESULT: v0x3896650_1 : [-1/0,1/0]
RESULT: v0x38968d0_1 : [-1/0,1/0]
RESULT: v0x3896c10_1 : [-1/0,1/0]
RESULT: v0x3896e90_1 : [-1/0,1/0]
RESULT: v0x3897110_1 : [-1/0,1/0]
