RESULT: v0x6203b10_0 : [0,0]
RESULT: v0x654fd20_0 : [1,2]
RESULT: v0x509f020_0 : [1,2]
RESULT: v0x63f4590_0 : [0,1]
RESULT: v0x638b780_0 : [0,6]
RESULT: v0x6403070_0 : [0,1]
RESULT: v0x6264aa0_0 : [-1/0,1/0]
RESULT: v0x5630010_0 : [0,1]
RESULT: v0x6392750_0 : [0,1]
RESULT: v0x638dc50_0 : [0,51]
RESULT: v0x6271390_0 : [0,1]
RESULT: v0x654d8a0_0 : [0,1]
RESULT: v0x63fad50_0 : [1,1]
RESULT: v0x626e430_0 : [0,1]
RESULT: v0x6391c90_0 : [0,1]
RESULT: v0x509e220_0 : [0,50]
RESULT: v0x509e320_0 : [0,51]
RESULT: v0x639c3c0_0 : [-1/0,1/0]
RESULT: v0x509f320_0 : [-1/0,1/0]
RESULT: v0x50a79f0_0 : [0,6]
RESULT: v0x50a7af0_0 : [0,1]
RESULT: v0x50a7bf0_0 : [1,2]
RESULT: v0x50a7cf0_0 : [0,1]
RESULT: v0x50a7df0_0 : [0,1]
RESULT: v0x50a7ef0_0 : [0,51]
RESULT: v0x50a7ff0_0 : [0,1]
RESULT: v0x50a80f0_0 : [0,1]
RESULT: v0x50a81f0_0 : [0,1]
RESULT: v0x50a82f0_0 : [0,1]
RESULT: v0x50a83f0_0 : [-1/0,1/0]
RESULT: v0x50a84f0_0 : [0,0]
RESULT: v0x50a85f0_0 : [1,1]
RESULT: v0x50a86f0_0 : [0,1]
RESULT: v0x50a87f0_0 : [-1/0,1/0]
RESULT: v0x509f620_0 : [-1/0,1/0]
RESULT: v0x50a89f0_0 : [-1/0,1/0]
RESULT: v0x6873f20_0 : [-1/0,1/0]
RESULT: v0x6874080_0 : [0,50]
RESULT: v0x6874280_0 : [0,51]
RESULT: v0x6874480_0 : [0,2]
RESULT: v0x6874680_0 : [0,1]
RESULT: v0x6874880_0 : [1,1]
RESULT: v0x6874a80_0 : [-1/0,1/0]
RESULT: v0x50a88f0_0 : [-1/0,1/0]
