RESULT: v0x4787c60_0 : [-1/0,1/0]
RESULT: v0x45fe1b0_0 : [-1/0,1/0]
RESULT: v0x41884e0_0 : [-1/0,1/0]
RESULT: v0x426f6c0_0 : [-1/0,1/0]
RESULT: v0x4293fb0_0 : [27,1/0]
RESULT: v0x44fbe30_0 : [-1/0,1/0]
RESULT: v0x4503e70_0 : [-1/0,1/0]
RESULT: v0x64f2690_0 : [1,1]
RESULT: v0x4670600_0 : [-1/0,1/0]
RESULT: v0x6397c90_0 : [-1/0,1/0]
RESULT: v0x5951910_0 : [-1/0,1/0]
RESULT: v0x3fa3330_0 : [67,1/0]
RESULT: v0x3fa3430_0 : [-1/0,1/0]
RESULT: v0x3fa3530_0 : [-1/0,1/0]
RESULT: v0x3fa3630_0 : [-1/0,1/0]
RESULT: v0x3fa3730_0 : [-1/0,1/0]
RESULT: v0x3fa3830_0 : [0,1]
RESULT: v0x3fa3930_0 : [-1/0,1/0]
RESULT: v0x3fa3a30_0 : [-1/0,1/0]
RESULT: v0x3fa3b30_0 : [-1/0,1/0]
RESULT: v0x3fa3c30_0 : [-1/0,1/0]
RESULT: v0x3fa3d30_0 : [-1/0,1/0]
RESULT: v0x3fa3e30_0 : [-1/0,1/0]
RESULT: v0x3fa3f30_0 : [-1/0,1/0]
RESULT: v0xabda520_0 : [-1/0,1/0]
RESULT: v0x643dac0_0 : [-1/0,1/0]
RESULT: v0xa38f750_0 : [-1/0,10]
RESULT: v0x624ed10_0 : [-1/0,1/0]
RESULT: v0x41883c0_0 : [-1/0,1/0]
RESULT: v0x3fa5230_0 : [-1/0,1/0]
