RESULT: v0x46c5d20_0 : [-1/0,1/0]
RESULT: v0x3a94260_0 : [-1/0,1/0]
RESULT: v0x396cf60_0 : [-1/0,1/0]
RESULT: v0x469adf0_0 : [-1/0,1/0]
RESULT: v0x4776ca0_0 : [27,1/0]
RESULT: v0x3b5aa90_0 : [-1/0,1/0]
RESULT: v0x3cb03c0_0 : [-1/0,1/0]
RESULT: v0x4626cf0_0 : [-1/0,1/0]
RESULT: v0x3f669e0_0 : [1,1]
RESULT: v0x4eaa4b0_0 : [-1/0,1/0]
RESULT: v0x4ea6090_0 : [-1/0,1/0]
RESULT: v0x391f010_0 : [-1/0,1/0]
RESULT: v0x391f110_0 : [-1/0,1/0]
RESULT: v0x391f210_0 : [-1/0,1/0]
RESULT: v0x391f310_0 : [-1/0,1/0]
RESULT: v0x391f410_0 : [67,1/0]
RESULT: v0x391f510_0 : [0,1]
RESULT: v0x391f610_0 : [0,1]
RESULT: v0x391f710_0 : [-1/0,1/0]
RESULT: v0x391f810_0 : [-1/0,1/0]
RESULT: v0x391f910_0 : [-1/0,1/0]
RESULT: v0x391fa10_0 : [-1/0,1/0]
RESULT: v0x391fb10_0 : [-1/0,1/0]
RESULT: v0x391fc10_0 : [-1/0,1/0]
RESULT: v0x391fd10_0 : [-1/0,1/0]
RESULT: v0x4717dd0_0 : [-1/0,1/0]
RESULT: v0x4f030f0_0 : [-1/0,1/0]
RESULT: v0x4063000_0 : [-1/0,1/0]
RESULT: v0x4625e10_0 : [-1/0,10]
RESULT: v0x40a5e80_0 : [-1/0,1/0]
RESULT: v0x3921010_0 : [-1/0,1/0]
