RESULT: v0x5dbb8b0_0 : [-1/0,1/0]
RESULT: v0x9dad020_0 : [-1/0,1/0]
RESULT: v0x6548600_0 : [-1/0,1/0]
RESULT: v0x9d94f00_0 : [-1/0,1/0]
RESULT: v0x9dda440_0 : [67,1/0]
RESULT: v0x9dad4a0_0 : [-1/0,1/0]
RESULT: v0x9d78020_0 : [-1/0,1/0]
RESULT: v0x711a430_0 : [0,0]
RESULT: v0x9d78060_0 : [-1/0,1/0]
RESULT: v0x11d8d9e0_0 : [-1/0,1/0]
RESULT: v0x9dad460_0 : [-1/0,1/0]
RESULT: v0x3f94330_0 : [67,1/0]
RESULT: v0x3f94430_0 : [0,1]
RESULT: v0x3f94530_0 : [-1/0,1/0]
RESULT: v0x3f94630_0 : [-1/0,1/0]
RESULT: v0x3f94730_0 : [-1/0,1/0]
RESULT: v0x3f94830_0 : [-1/0,1/0]
RESULT: v0x3f94930_0 : [0,1]
RESULT: v0x3f94a30_0 : [-1/0,1/0]
RESULT: v0x3f94b30_0 : [-1/0,1/0]
RESULT: v0x3f94c30_0 : [0,0]
RESULT: v0x3f94d30_0 : [0,0]
RESULT: v0x3f94e30_0 : [-1/0,1/0]
RESULT: v0x3f94f30_0 : [-1/0,1/0]
RESULT: v0x3f95030_0 : [-1/0,1/0]
RESULT: v0x9d78400_0 : [-1/0,1/0]
RESULT: v0x9d62be0_0 : [-1/0,1/0]
RESULT: v0x11bbeec0_0 : [0,0]
RESULT: v0x9dd3370_0 : [-1/0,10]
RESULT: v0x9d62b60_0 : [-1/0,1/0]
RESULT: v0x3f95330_0 : [-1/0,1/0]
