RESULT: v0x4d550b0_0 : [0,1]
RESULT: v0x4d563b0_0 : [0,0]
RESULT: v0x4d482c0_0 : [1,1]
RESULT: v0x4d463a0_0 : [3,3]
RESULT: v0x4d467a0_0 : [-1073741637,0]
RESULT: v0x4d466a0_0 : [-1073741637,0]
RESULT: v0x4d49ec0_0 : [1,6]
RESULT: v0x4d49bc0_0 : [-1/0,1/0]
RESULT: v0x4d4a0c0_0 : [-1073741637,259]
RESULT: v0x4d49cc0_0 : [0,259]
RESULT: v0x4d487c0_0 : [-1/0,24]
RESULT: v0x4d461a0_0 : [0,1/0]
RESULT: v0x4d56fb0_0 : [-1/0,1/0]
RESULT: v0x4d564b0_0 : [1,1]
RESULT: v0x4d485c0_0 : [0,0]
RESULT: v0x4d5e5b0_0 : [184,184]
RESULT: v0x4d5e8b0_0 : [24,24]
RESULT: v0x4d5ebb0_0 : [48,48]
RESULT: v0x4d5f0b0_0 : [-1/0,1/0]
RESULT: v0x4d5f2b0_0 : [0,1]
RESULT: v0x4d5efb0_0 : [1,1/0]
RESULT: v0x4d5dab0_0 : [0,1/0]
RESULT: v0x4d5edb0_0 : [0,0]
RESULT: v0x4d5eeb0_0 : [0,1/0]
RESULT: v0x4d5ffb0_0 : [-1/0,1/0]
RESULT: v0x4d60ab0_0 : [0,1]
RESULT: v0x4d464a0_0 : [-1/0,1/0]
RESULT: v0x8f45a60_0 : [1,1]
RESULT: v0x90c8580_0 : [0,1]
