RESULT: v0x3865a50_1 : [3,3]
RESULT: v0x3865990_1 : [0,1]
RESULT: v0x38658d0_1 : [0,1]
RESULT: v0x372ca50_1 : [0,1]
RESULT: v0x3978db0_1 : [0,1]
RESULT: v0x3978d10_1 : [0,1]
RESULT: v0x3978cd0_1 : [0,1]
RESULT: v0x3978870_1 : [0,1]
RESULT: v0x3865f90_1 : [0,1]
RESULT: v0x3866050_1 : [0,1]
RESULT: v0x372fc00_1 : [0,1]
RESULT: v0x3866290_1 : [123,777]
RESULT: v0x3866350_1 : [0,666]
RESULT: v0x3866410_1 : [0,2]
RESULT: v0x384fa30_1 : [0,1]
RESULT: v0x3852150_1 : [0,2]
RESULT: v0x38252f0_1 : [0,456]
RESULT: v0x3852d00_1 : [0,123]
RESULT: v0x3856f80_1 : [0,456]
RESULT: v0x385b310_1 : [0,3]
RESULT: v0x3856ef0_1 : [0,1]
RESULT: v0x386f160_1 : [0,1]
