RESULT: v0x4f50ab0_0 : [2,2]
RESULT: v0x523a410_0 : [0,0]
RESULT: v0x53595f0_0 : [0,1]
RESULT: v0x53265a0_0 : [0,1]
RESULT: v0x5229a20_0 : [0,1]
RESULT: v0x5356830_0 : [0,1]
RESULT: v0x40ca390_0 : [0,1]
RESULT: v0x5470470_0 : [40,120]
RESULT: v0x41bbd80_0 : [0,1]
RESULT: v0x51d8920_0 : [1,1]
RESULT: v0x546a530_0 : [1,1]
RESULT: v0x532b420_0 : [1,1]
RESULT: v0x53be480_0 : [1,1]
RESULT: v0x536f2b0_0 : [1,1]
RESULT: v0x51b1430_0 : [4,4]
RESULT: v0x390cd30_0 : [80,120]
RESULT: v0x390ce30_0 : [0,1]
RESULT: v0x390cf30_0 : [1,1]
RESULT: v0x390d030_0 : [0,1]
RESULT: v0x390d130_0 : [0,1]
RESULT: v0x390d230_0 : [1,1]
RESULT: v0x390d330_0 : [0,1]
RESULT: v0x390d430_0 : [3,4]
RESULT: v0x390d530_0 : [0,1]
RESULT: v0x390d630_0 : [1,1]
RESULT: v0x390d730_0 : [1,1]
RESULT: v0x390d830_0 : [0,1]
RESULT: v0x390d930_0 : [0,1]
RESULT: v0x390da30_0 : [1,1]
RESULT: v0x5400ca0_0 : [2,3]
RESULT: v0x390ed30_0 : [4,5]
