RESULT: v0x4cd9ca0_1 : [3,3]
RESULT: v0x4e42110_1 : [0,1]
RESULT: v0x4e42350_1 : [0,1]
RESULT: v0x4e42590_1 : [0,1]
RESULT: v0x4c65dd0_1 : [0,1]
RESULT: v0x4c5a430_1 : [0,1]
RESULT: v0x4cc8180_1 : [0,1]
RESULT: v0x4ccd1e0_1 : [0,1]
RESULT: v0x4c71b40_1 : [0,1]
RESULT: v0x4c3ac50_1 : [0,1]
RESULT: v0x4cd5280_1 : [0,1]
RESULT: v0x4db9870_1 : [0,1]
RESULT: v0x4c65a70_1 : [0,1]
RESULT: v0x4cc76e0_1 : [0,2]
RESULT: v0x4c68230_1 : [0,3]
RESULT: v0x4cca1c0_1 : [0,1]
RESULT: v0x4cd17a0_1 : [123,777]
RESULT: v0x4ce0360_1 : [0,666]
RESULT: v0x4ce2e40_1 : [0,2]
RESULT: v0x4c6a200_1 : [0,1]
RESULT: v0x4ce9410_1 : [0,2]
RESULT: v0x4cd72c0_1 : [0,456]
RESULT: v0x4cde8a0_1 : [0,123]
RESULT: v0x4f369e0_1 : [0,456]
RESULT: v0x4f6e140_1 : [0,3]
