RESULT: v0x5164600_1 : [3,3]
RESULT: v0x5164760_1 : [0,1]
RESULT: v0x51648e0_1 : [0,1]
RESULT: v0x5164b20_1 : [0,1]
RESULT: v0x50fbfb0_1 : [0,1]
RESULT: v0x50fbe30_1 : [0,1]
RESULT: v0x50fbcb0_1 : [0,1]
RESULT: v0x50fba70_1 : [0,1]
RESULT: v0x4fcc760_1 : [0,1]
RESULT: v0x4fcc820_1 : [0,1]
RESULT: v0x4e8c0a0_1 : [0,1]
RESULT: v0x4fcca60_1 : [0,2]
RESULT: v0x4fccb20_1 : [0,3]
RESULT: v0x4fbfbd0_1 : [123,777]
RESULT: v0x4fbfc90_1 : [0,666]
RESULT: v0x4fbfd50_1 : [0,2]
RESULT: v0x4fb6030_1 : [0,1]
RESULT: v0x4fb8df0_1 : [0,2]
RESULT: v0x4f8dd40_1 : [0,456]
RESULT: v0x4f8e270_1 : [0,123]
RESULT: v0x4fbdc50_1 : [0,456]
RESULT: v0x4fc1c00_1 : [0,3]
RESULT: v0x4fbdbc0_1 : [0,1]
RESULT: v0x4fd0af0_1 : [0,1]
