RESULT: v0x3a388c0_0 : [0,1/0]
RESULT: v0x6a01610_1 : [0,1]
RESULT: v0x65152e0_1 : [0,1]
RESULT: v0x6517da0_1 : [0,1]
RESULT: v0x60f0c40_1 : [0,1]
RESULT: v0x64c1ac0_1 : [0,1]
RESULT: v0x60ef720_1 : [0,1]
RESULT: v0x60fc6c0_1 : [0,1]
RESULT: v0x67d0260_1 : [0,1]
RESULT: v0x67c8c80_1 : [0,1]
RESULT: v0x6e06cb0_1 : [0,1]
RESULT: v0x5832d30_1 : [-1/0,2]
RESULT: v0x4da97b0_1 : [-1/0,2]
RESULT: v0x60e8830_1 : [-1/0,2]
RESULT: v0x689e9c0_1 : [-1/0,2]
RESULT: v0x6df7d20_1 : [-1/0,2]
RESULT: v0x60b5530_1 : [-1/0,2]
RESULT: v0x604b1b0_1 : [-1/0,2]
RESULT: v0x5acef10_1 : [-1/0,2]
RESULT: v0x67d4860_1 : [0,2]
RESULT: v0x60b3030_1 : [0,2]
RESULT: v0x5bbe4e0_1 : [0,2]
