RESULT: v0x3f49620_1 : [4,4]
RESULT: v0x3d56f70_1 : [0,1]
RESULT: v0x3f1e000_1 : [0,1]
RESULT: v0x3ea4640_1 : [0,1]
RESULT: v0x3eafc00_1 : [0,1]
RESULT: v0x3f602e0_1 : [0,1]
RESULT: v0x3eab1a0_1 : [0,1]
RESULT: v0x3f2ebc0_1 : [0,1]
RESULT: v0x3f75900_1 : [0,1]
RESULT: v0x3ed9350_1 : [0,1]
RESULT: v0x3f4f7a0_1 : [123,777]
RESULT: v0x3f5ad60_1 : [0,666]
RESULT: v0x3ee13a0_1 : [0,2]
RESULT: v0x3f1cb20_1 : [0,1]
RESULT: v0x3ed2870_1 : [0,2]
RESULT: v0x3f6d8c0_1 : [0,456]
RESULT: v0x3ef1440_1 : [0,123]
RESULT: v0x3f2a100_1 : [0,456]
RESULT: v0x3f64320_1 : [0,3]
RESULT: v0x3e97b20_1 : [0,1]
RESULT: v0x3ef6940_1 : [0,1]
