RESULT: v0x4c90eb0_0 : [0,1]
RESULT: v0x4c91050_0 : [0,1]
RESULT: v0x4c91250_0 : [0,1]
RESULT: v0x4c91450_0 : [0,1]
RESULT: v0x4c91650_0 : [0,1]
RESULT: v0x3e43270_0 : [0,1]
RESULT: v0x3e43470_0 : [0,1]
RESULT: v0x3e43670_0 : [0,1]
RESULT: v0x3e43870_0 : [0,1]
RESULT: v0x4c92450_0 : [0,1]
RESULT: v0x4c92650_0 : [1,1]
RESULT: v0x4c92850_0 : [0,2]
RESULT: v0x4c92a50_0 : [0,2]
RESULT: v0x4c92c50_0 : [0,2]
RESULT: v0x4c92e50_0 : [0,2]
RESULT: v0x4c93050_0 : [0,2]
RESULT: v0x4c93250_0 : [0,2]
RESULT: v0x4c93450_0 : [0,2]
RESULT: v0x4c93650_0 : [0,2]
RESULT: v0x4c93850_0 : [0,2]
RESULT: v0x4c93a50_0 : [0,2]
RESULT: v0x4c93c50_0 : [2,2]
