RESULT: v0x4d8fc50_0 : [3,10]
RESULT: v0x4d995e0_0 : [0,1]
RESULT: v0x49553d0_0 : [0,1]
RESULT: v0x5720590_0 : [40,120]
RESULT: v0x427f470_0 : [0,1]
RESULT: v0x48fdaa0_0 : [0,1]
RESULT: v0x5720d90_0 : [0,1]
RESULT: v0x4d9b730_0 : [1,1]
RESULT: v0x55aac50_0 : [1,1]
RESULT: v0x56145e0_0 : [1,1]
RESULT: v0x5661c90_0 : [1,1]
RESULT: v0x4954810_0 : [0,0]
RESULT: v0x4201b90_0 : [80,120]
RESULT: v0x4201c90_0 : [0,1]
RESULT: v0x4201d90_0 : [0,1]
RESULT: v0x4201e90_0 : [0,1]
RESULT: v0x4201f90_0 : [0,1]
RESULT: v0x4202090_0 : [0,1]
RESULT: v0x4202190_0 : [-1/0,1/0]
RESULT: v0x4202290_0 : [1,1]
RESULT: v0x4202390_0 : [1,1]
RESULT: v0x4202490_0 : [0,1]
RESULT: v0x4202590_0 : [0,1]
RESULT: v0x4202690_0 : [1,1]
RESULT: v0x4d90630_0 : [-1/0,1/0]
RESULT: v0x5aa0a20_0 : [0,0]
RESULT: v0x4202990_0 : [-1/0,1/0]
