RESULT: v0x3a388c0_0 : [0,1/0]
RESULT: v0x5878e10_1 : [0,1]
RESULT: v0x6040d40_1 : [0,1]
RESULT: v0x6892e30_1 : [0,1]
RESULT: v0x4db5650_1 : [0,1]
RESULT: v0x6893d30_1 : [0,1]
RESULT: v0x6893730_1 : [0,1]
RESULT: v0x6894610_1 : [0,1]
RESULT: v0x688f120_1 : [0,1]
RESULT: v0x4ed3700_1 : [0,1]
RESULT: v0x58f1fd0_1 : [0,1]
RESULT: v0x4e75d70_1 : [-1/0,2]
RESULT: v0x63bc380_1 : [-1/0,2]
RESULT: v0x68908c0_1 : [-1/0,2]
RESULT: v0x688ffe0_1 : [-1/0,2]
RESULT: v0x6a940b0_1 : [-1/0,2]
RESULT: v0x5cf01b0_1 : [-1/0,2]
RESULT: v0x6a971b0_1 : [-1/0,2]
RESULT: v0x6a95450_1 : [-1/0,2]
RESULT: v0x688dba0_1 : [0,2]
RESULT: v0x3d3cb60_1 : [0,2]
RESULT: v0x6a99f40_1 : [0,2]
