RESULT: v0x5148a40_0 : [-1/0,1/0]
RESULT: v0x5148ca0_0 : [-1/0,1/0]
RESULT: v0x5148e20_0 : [-1/0,1/0]
RESULT: v0x51493a0_0 : [-1/0,1/0]
RESULT: v0x5148be0_0 : [-1/0,1/0]
RESULT: v0x5148640_0 : [-1/0,1/0]
RESULT: v0x51487e0_0 : [-1/0,1/0]
RESULT: v0x5147c60_0 : [-1/0,1/0]
RESULT: v0x5149200_0 : [-1/0,1/0]
RESULT: v0x3e37530_0 : [-1/0,1/0]
RESULT: v0x5148700_0 : [-1/0,1/0]
RESULT: v0x5148f20_0 : [-1/0,1/0]
RESULT: v0x5147e20_0 : [-1/0,1/0]
RESULT: v0x5149360_0 : [-1/0,1/0]
RESULT: v0x515a520_0 : [-1/0,1/0]
RESULT: v0x5148d40_0 : [-1/0,1/0]
RESULT: v0x5148b20_0 : [-1/0,1/0]
RESULT: v0x51488c0_0 : [-1/0,1/0]
RESULT: v0x5148980_0 : [-1/0,1/0]
RESULT: v0x5149180_0 : [-1/0,1/0]
RESULT: v0x514a150_0 : [-1/0,1/0]
RESULT: v0x516a6d0_0 : [-1/0,1/0]
RESULT: v0x812a810_0 : [-1/0,1/0]
RESULT: v0x8f19a50_0 : [-1/0,1/0]
RESULT: v0x514f650_0 : [-1/0,1/0]
RESULT: v0x5148580_0 : [-1/0,1/0]
