RESULT: v0x4c41f90_1 : [3,3]
RESULT: v0x4c20f60_1 : [0,1]
RESULT: v0x4c515b0_1 : [0,1]
RESULT: v0x4c3f930_1 : [0,1]
RESULT: v0x4d2c830_1 : [0,1]
RESULT: v0x4d2c6b0_1 : [0,1]
RESULT: v0x4d2c5f0_1 : [0,1]
RESULT: v0x4d2c2f0_1 : [0,1]
RESULT: v0x4c3f1c0_1 : [0,1]
RESULT: v0x4c3f280_1 : [0,1]
RESULT: v0x4c3f340_1 : [0,1]
RESULT: v0x4c3f400_1 : [0,1]
RESULT: v0x4c3f4c0_1 : [123,777]
RESULT: v0x4c21770_1 : [0,666]
RESULT: v0x4c2b180_1 : [0,2]
RESULT: v0x4bfe770_1 : [0,1]
RESULT: v0x4c2be10_1 : [0,2]
RESULT: v0x4c2fcd0_1 : [0,456]
RESULT: v0x4c33eb0_1 : [0,123]
RESULT: v0x4c2fc40_1 : [0,456]
RESULT: v0x4c47fb0_1 : [0,3]
