RESULT: v0x8a515c0_0 : [-1/0,1/0]
RESULT: v0x4b6b8f0_0 : [-1/0,1/0]
RESULT: v0x977e560_0 : [-1/0,1/0]
RESULT: v0x400eda0_0 : [-1/0,1/0]
RESULT: v0x8a51580_0 : [67,1/0]
RESULT: v0x13825740_0 : [-1/0,1/0]
RESULT: v0x143accc0_0 : [-1/0,1/0]
RESULT: v0x8df6e10_0 : [0,0]
RESULT: v0x429c260_0 : [-1/0,1/0]
RESULT: v0x480c310_0 : [-1/0,1/0]
RESULT: v0xab6b3c0_0 : [-1/0,1/0]
RESULT: v0x3f94330_0 : [67,1/0]
RESULT: v0x3f94430_0 : [0,1]
RESULT: v0x3f94530_0 : [-1/0,1/0]
RESULT: v0x3f94630_0 : [-1/0,1/0]
RESULT: v0x3f94730_0 : [-1/0,1/0]
RESULT: v0x3f94830_0 : [-1/0,1/0]
RESULT: v0x3f94930_0 : [0,1]
RESULT: v0x3f94a30_0 : [-1/0,1/0]
RESULT: v0x3f94b30_0 : [-1/0,1/0]
RESULT: v0x3f94c30_0 : [0,0]
RESULT: v0x3f94d30_0 : [0,0]
RESULT: v0x3f94e30_0 : [-1/0,1/0]
RESULT: v0x3f94f30_0 : [-1/0,1/0]
RESULT: v0x3f95030_0 : [-1/0,1/0]
RESULT: v0x143acd00_0 : [-1/0,1/0]
RESULT: v0xf14bb10_0 : [-1/0,1/0]
RESULT: v0x40e4b20_0 : [0,0]
RESULT: v0xb0d8250_0 : [-1/0,10]
RESULT: v0x701cb20_0 : [-1/0,1/0]
RESULT: v0x3f95330_0 : [-1/0,1/0]
