RESULT: v0x3d30420_0 : [1,1]
RESULT: v0x3d1b280_0 : [0,0]
RESULT: v0x3d27660_0 : [40,40]
RESULT: v0x3d18880_0 : [0,0]
RESULT: v0x3d17b40_0 : [0,0]
RESULT: v0x3d1b340_0 : [1,1]
RESULT: v0x3d1a500_0 : [1,1]
RESULT: v0x3d19b60_0 : [1,1]
RESULT: v0x3d199c0_0 : [1,1]
RESULT: v0x3d19740_0 : [0,0]
RESULT: v0x3d18bc0_0 : [0,0]
RESULT: v0x3d18a00_0 : [1,1]
RESULT: v0x3d18020_0 : [0,0]
RESULT: v0x3d17660_0 : [1,1]
RESULT: v0x390cd30_0 : [80,80]
RESULT: v0x390ce30_0 : [0,0]
RESULT: v0x390cf30_0 : [1,1]
RESULT: v0x390d030_0 : [0,0]
RESULT: v0x390d130_0 : [0,0]
RESULT: v0x390d230_0 : [1,1]
RESULT: v0x390d330_0 : [0,0]
RESULT: v0x390d430_0 : [4,4]
RESULT: v0x390d530_0 : [1,1]
RESULT: v0x390d630_0 : [1,1]
RESULT: v0x390d730_0 : [1,1]
RESULT: v0x390d830_0 : [1,1]
RESULT: v0x390d930_0 : [0,0]
RESULT: v0x390da30_0 : [1,1]
RESULT: v0x3d18d60_0 : [4,4]
RESULT: v0x3f16af0_0 : [0,0]
RESULT: v0x390dd30_0 : [5,5]
