RESULT: v0x4c3f7c0_0 : [1,1/0]
RESULT: v0x4db9d80_0 : [0,1]
RESULT: v0x4d7c000_0 : [0,1]
RESULT: v0x4ddb760_0 : [0,1]
RESULT: v0x4e166e0_0 : [0,1]
RESULT: v0x4e22ac0_0 : [123,777]
RESULT: v0x4db2b40_0 : [0,1]
RESULT: v0x4dbc6c0_0 : [0,456]
RESULT: v0x4d19710_0 : [0,1]
RESULT: v0x4c72b80_0 : [0,2]
RESULT: v0x4db20a0_0 : [0,1]
RESULT: v0x4e22020_0 : [0,666]
RESULT: v0x4dc8960_0 : [0,1]
RESULT: v0x4df2660_0 : [0,456]
RESULT: v0x4b09eb0_0 : [0,2]
RESULT: v0x4e21a00_0 : [0,1]
RESULT: v0x4e2a9f0_0 : [0,123]
RESULT: v0x4c86540_0 : [0,1]
RESULT: v0x4c81740_0 : [0,1]
RESULT: v0x4db3600_0 : [1,1]
RESULT: v0x4c4e2f0_0 : [3,3]
RESULT: v0x4af1f70_0 : [-1/0,1/0]
RESULT: v0x4af1c70_0 : [0,456]
RESULT: v0x4af2d70_0 : [-1/0,1/0]
RESULT: v0x4af2e70_0 : [0,456]
RESULT: v0x4af2f70_0 : [0,1]
RESULT: v0x4af1e70_0 : [0,1]
