RESULT: v0x3973800_0 : [0,1/0]
RESULT: v0x3973700_0 : [-1/0,1/0]
RESULT: v0x3961e00_0 : [1,1]
RESULT: v0x3962400_0 : [0,0]
RESULT: v0x3971c00_0 : [0,1]
RESULT: v0x3962700_0 : [0,1]
RESULT: v0x3971800_0 : [0,1]
RESULT: v0x3971f00_0 : [0,1]
RESULT: v0x3971d00_0 : [-1/0,1]
RESULT: v0x3971700_0 : [0,1]
RESULT: v0x3972300_0 : [0,1]
RESULT: v0x3971a00_0 : [0,1]
RESULT: v0x3962600_0 : [1,4]
RESULT: v0x3971e00_0 : [-1/0,1/0]
RESULT: v0x3971b00_0 : [80,120]
RESULT: v0x3972200_0 : [0,1]
RESULT: v0x3972100_0 : [0,1]
RESULT: v0x3972000_0 : [1,1]
RESULT: v0x3971900_0 : [0,1]
RESULT: v0x3972400_0 : [0,1]
RESULT: v0x3961f00_0 : [0,1]
RESULT: v0x3962300_0 : [40,120]
RESULT: v0x3962a00_0 : [0,1]
RESULT: v0x3962200_0 : [0,1]
RESULT: v0x3962800_0 : [0,1]
RESULT: v0x3962b00_0 : [0,1]
RESULT: v0x3962000_0 : [1,1]
RESULT: v0x3962c00_0 : [1,1]
RESULT: v0x3962900_0 : [1,1]
RESULT: v0x3962500_0 : [1,1]
RESULT: v0x3962100_0 : [1,1]
RESULT: v0x5320f60_0 : [0,0]
