RESULT: v0x414e920_0 : [-1/0,1/0]
RESULT: v0x414eaa0_0 : [-1/0,1/0]
RESULT: v0x3e42a50_0 : [-1/0,1/0]
RESULT: v0x3e43270_0 : [-1/0,1/0]
RESULT: v0x3e433f0_0 : [-1/0,1/0]
RESULT: v0x414a4f0_0 : [-1/0,1/0]
RESULT: v0x414e9e0_0 : [-1/0,1/0]
RESULT: v0x3e43330_0 : [-1/0,1/0]
RESULT: v0x414f3f0_0 : [-1/0,1/0]
RESULT: v0x414f630_0 : [-1/0,1/0]
RESULT: v0x41766b0_0 : [-1/0,1/0]
RESULT: v0x3d315b0_0 : [-1/0,1/0]
RESULT: v0x3e42990_0 : [-1/0,1/0]
RESULT: v0x3e434b0_0 : [-1/0,1/0]
RESULT: v0x3e428d0_0 : [-1/0,1/0]
RESULT: v0x3e42810_0 : [-1/0,1/0]
RESULT: v0x3e42690_0 : [-1/0,1/0]
RESULT: v0x414b410_0 : [-1/0,1/0]
RESULT: v0x414b350_0 : [-1/0,1/0]
RESULT: v0x414b590_0 : [-1/0,1/0]
RESULT: v0x3e41db0_0 : [-1/0,1/0]
RESULT: v0x3e42510_0 : [-1/0,1/0]
RESULT: v0x3e425d0_0 : [-1/0,1/0]
RESULT: v0x414f570_0 : [-1/0,1/0]
