RESULT: v0x5d916e0_0 : [0,1]
RESULT: v0x5d918a0_0 : [0,1]
RESULT: v0x5d91aa0_0 : [0,1]
RESULT: v0x5d91ca0_0 : [0,1]
RESULT: v0x5d91ea0_0 : [0,1]
RESULT: v0x5d920a0_0 : [0,1]
RESULT: v0x5d922a0_0 : [0,1]
RESULT: v0x5d924a0_0 : [0,1]
RESULT: v0x5d926a0_0 : [0,1]
RESULT: v0x5d928a0_0 : [0,1]
RESULT: v0x5d92aa0_0 : [0,1]
RESULT: v0x5d92ca0_0 : [0,1]
RESULT: v0x5d92ea0_0 : [1,1]
RESULT: v0x5d930a0_0 : [-1/0,1/0]
RESULT: v0x5d932a0_0 : [-1/0,1/0]
RESULT: v0x5d934a0_0 : [0,2]
RESULT: v0x5d936a0_0 : [0,2]
RESULT: v0x5d938a0_0 : [0,2]
RESULT: v0x5d93aa0_0 : [0,2]
RESULT: v0x5d93ca0_0 : [0,2]
RESULT: v0x5d93ea0_0 : [0,2]
RESULT: v0x5d940a0_0 : [0,2]
RESULT: v0x5d942a0_0 : [0,2]
RESULT: v0x5d944a0_0 : [0,2]
RESULT: v0x5d946a0_0 : [0,2]
RESULT: v0x5d948a0_0 : [0,2]
RESULT: v0x5d94aa0_0 : [0,2]
RESULT: v0x5d94ca0_0 : [2,2]
