RESULT: v0x6081e50_0 : [-1/0,1/0]
RESULT: v0x5a4c6a0_0 : [-1/0,1/0]
RESULT: v0x5a570a0_0 : [-1/0,1/0]
RESULT: v0x5186de0_0 : [-1/0,1/0]
RESULT: v0x459d4a0_0 : [-1/0,1/0]
RESULT: v0x4252e00_0 : [-1/0,1/0]
RESULT: v0x91d83a0_0 : [0,0]
RESULT: v0x40faaa0_0 : [67,1/0]
RESULT: v0x516ed50_0 : [27,1/0]
RESULT: v0x40faba0_0 : [0,1]
RESULT: v0x40faca0_0 : [0,1]
RESULT: v0x40fada0_0 : [-1/0,1/0]
RESULT: v0x40faea0_0 : [-1/0,1/0]
RESULT: v0x40fafa0_0 : [-1/0,1/0]
RESULT: v0x40fb0a0_0 : [-1/0,1/0]
RESULT: v0x40fb1a0_0 : [-1/0,1/0]
RESULT: v0x5e89cf0_0 : [-1/0,1/0]
RESULT: v0x40fb2a0_0 : [-1/0,1/0]
RESULT: v0x9d3f5b0_0 : [-1/0,1/0]
RESULT: v0x40fb3a0_0 : [-1/0,1/0]
RESULT: v0x6681ca0_0 : [-1/0,1/0]
RESULT: v0x40fb4a0_0 : [-1/0,1/0]
RESULT: v0x40fb5a0_0 : [-1/0,1/0]
RESULT: v0x40fb6a0_0 : [-1/0,1/0]
RESULT: v0x40fb7a0_0 : [-1/0,1/0]
RESULT: v0x5359c40_0 : [-1/0,1/0]
RESULT: v0x8224570_0 : [-1/0,1/0]
RESULT: v0x443aab0_0 : [0,0]
RESULT: v0x571c4f0_0 : [-1/0,10]
RESULT: v0x9ecdcd0_0 : [-1/0,1/0]
RESULT: v0x40fbaa0_0 : [-1/0,1/0]
