RESULT: v0x3a388c0_0 : [0,1/0]
RESULT: v0x4c55fd0_1 : [0,1]
RESULT: v0x47afa10_1 : [0,1]
RESULT: v0x47aa810_1 : [0,1]
RESULT: v0x47047b0_1 : [0,1]
RESULT: v0x42bea30_1 : [0,1]
RESULT: v0x3ceeb50_1 : [0,1]
RESULT: v0x3cb57d0_1 : [0,1]
RESULT: v0x4edb140_1 : [0,1]
RESULT: v0x4b29190_1 : [0,1]
RESULT: v0x42d2fe0_1 : [0,1]
RESULT: v0x4706810_1 : [-1/0,2]
RESULT: v0x3cb58a0_1 : [-1/0,2]
RESULT: v0x470ba10_1 : [-1/0,2]
RESULT: v0x3bb0700_1 : [-1/0,2]
RESULT: v0x3cb23b0_1 : [-1/0,2]
RESULT: v0x4c627d0_1 : [-1/0,2]
RESULT: v0x4c7fdb0_1 : [-1/0,2]
RESULT: v0x46ff0f0_1 : [-1/0,2]
RESULT: v0x4593570_1 : [0,2]
RESULT: v0x4edfd90_1 : [0,2]
RESULT: v0x3cc4860_1 : [0,2]
