RESULT: v0x484bf40_1 : [3,3]
RESULT: v0x484be80_1 : [0,1]
RESULT: v0x484bdc0_1 : [0,1]
RESULT: v0x4713040_1 : [0,1]
RESULT: v0x495f580_1 : [0,1]
RESULT: v0x495f4c0_1 : [0,1]
RESULT: v0x495f440_1 : [0,1]
RESULT: v0x495f040_1 : [0,1]
RESULT: v0x484c480_1 : [0,1]
RESULT: v0x484c540_1 : [0,1]
RESULT: v0x47161f0_1 : [0,1]
RESULT: v0x484c780_1 : [123,777]
RESULT: v0x484c840_1 : [0,666]
RESULT: v0x484c900_1 : [0,2]
RESULT: v0x4835f10_1 : [0,1]
RESULT: v0x48385f0_1 : [0,2]
RESULT: v0x4835b60_1 : [0,456]
RESULT: v0x46f8a50_1 : [0,123]
RESULT: v0x483d470_1 : [0,456]
RESULT: v0x48417c0_1 : [0,3]
RESULT: v0x483d3e0_1 : [0,1]
RESULT: v0x4855610_1 : [0,1]
