RESULT: v0x6483ae0_0 : [-1/0,1/0]
RESULT: v0x408cb00_0 : [-1/0,1/0]
RESULT: v0x624f6b0_0 : [-1/0,1/0]
RESULT: v0x6f9bc70_0 : [-1/0,1/0]
RESULT: v0x648a7a0_0 : [27,1/0]
RESULT: v0x63a9450_0 : [-1/0,1/0]
RESULT: v0x63c5020_0 : [-1/0,1/0]
RESULT: v0x400eb20_0 : [0,0]
RESULT: v0x6197360_0 : [-1/0,1/0]
RESULT: v0x408c740_0 : [-1/0,1/0]
RESULT: v0x6204b50_0 : [-1/0,1/0]
RESULT: v0x3fa3330_0 : [67,1/0]
RESULT: v0x3fa3430_0 : [-1/0,1/0]
RESULT: v0x3fa3530_0 : [-1/0,1/0]
RESULT: v0x3fa3630_0 : [-1/0,1/0]
RESULT: v0x3fa3730_0 : [-1/0,1/0]
RESULT: v0x3fa3830_0 : [0,1]
RESULT: v0x3fa3930_0 : [-1/0,1/0]
RESULT: v0x3fa3a30_0 : [-1/0,1/0]
RESULT: v0x3fa3b30_0 : [-1/0,1/0]
RESULT: v0x3fa3c30_0 : [-1/0,1/0]
RESULT: v0x3fa3d30_0 : [-1/0,1/0]
RESULT: v0x3fa3e30_0 : [-1/0,1/0]
RESULT: v0x3fa3f30_0 : [-1/0,1/0]
RESULT: v0x63ba570_0 : [-1/0,1/0]
RESULT: v0x4026910_0 : [0,0]
RESULT: v0x627d8b0_0 : [-1/0,10]
RESULT: v0x63ea5d0_0 : [-1/0,1/0]
RESULT: v0x63ba3f0_0 : [-1/0,1/0]
RESULT: v0x3fa4230_0 : [-1/0,1/0]
