RESULT: v0x372ba80_0 : [1,1/0]
RESULT: v0x39fb740_0 : [0,1]
RESULT: v0x3863a10_0 : [0,1]
RESULT: v0x385e090_0 : [123,777]
RESULT: v0x39f6c30_0 : [0,1]
RESULT: v0x38645d0_0 : [0,1]
RESULT: v0x384f2c0_0 : [0,2]
RESULT: v0x3a949d0_0 : [0,1]
RESULT: v0x3865190_0 : [0,456]
RESULT: v0x3a50d30_0 : [0,1]
RESULT: v0x3a48ed0_0 : [0,666]
RESULT: v0x3a504f0_0 : [0,1]
RESULT: v0x3a0d5b0_0 : [0,2]
RESULT: v0x3a8a790_0 : [0,456]
RESULT: v0x3a90f90_0 : [0,1]
RESULT: v0x39f4220_0 : [0,1]
RESULT: v0x3948760_0 : [0,1]
RESULT: v0x3a54db0_0 : [0,123]
RESULT: v0x3a924f0_0 : [0,1]
RESULT: v0x3877700_0 : [0,3]
RESULT: v0x3a40e10_0 : [1,1]
RESULT: v0x38686c0_0 : [1,1]
RESULT: v0x3714c90_0 : [-1/0,1/0]
RESULT: v0x3714d90_0 : [0,456]
RESULT: v0x3714790_0 : [-1/0,1/0]
RESULT: v0x3714490_0 : [0,456]
RESULT: v0x3714690_0 : [0,1]
