RESULT: v0x3816d40_0 : [-1/0,1/0]
RESULT: v0x3816c80_0 : [-1/0,1/0]
RESULT: v0x3816ec0_0 : [-1/0,1/0]
RESULT: v0x3816f80_0 : [-1/0,1/0]
RESULT: v0x37a6920_0 : [-1/0,1/0]
RESULT: v0x3816980_0 : [-1/0,1/0]
RESULT: v0x38168c0_0 : [-1/0,1/0]
RESULT: v0x3816800_0 : [-1/0,1/0]
RESULT: v0x37d5330_0 : [-1/0,1/0]
RESULT: v0x3817100_0 : [-1/0,1/0]
RESULT: v0x38171c0_0 : [-1/0,1/0]
RESULT: v0x3817280_0 : [-1/0,1/0]
RESULT: v0x3817340_0 : [-1/0,1/0]
RESULT: v0x3817620_0 : [-1/0,1/0]
RESULT: v0x38175e0_0 : [-1/0,1/0]
RESULT: v0x3817660_0 : [-1/0,1/0]
RESULT: v0x3817400_0 : [-1/0,1/0]
RESULT: v0x3817700_0 : [-1/0,1/0]
RESULT: v0x38177e0_0 : [-1/0,1/0]
RESULT: v0x3817880_0 : [-1/0,1/0]
RESULT: v0x3817040_0 : [-1/0,1/0]
RESULT: v0x3816bc0_0 : [-1/0,1/0]
RESULT: v0x3816e00_0 : [-1/0,1/0]
RESULT: v0x3816b00_0 : [-1/0,1/0]
RESULT: v0x3816a40_0 : [-1/0,1/0]
