RESULT: v0x3d64c40_0 : [-1/0,1/0]
RESULT: v0x3e8b890_0 : [-1/0,1/0]
RESULT: v0x3e8b9d0_0 : [-1/0,1/0]
RESULT: v0x3e8c150_0 : [-1/0,1/0]
RESULT: v0x3e8c010_0 : [-1/0,1/0]
RESULT: v0x3e8bed0_0 : [-1/0,1/0]
RESULT: v0x3e8b610_0 : [-1/0,1/0]
RESULT: v0x3e8b4d0_0 : [-1/0,1/0]
RESULT: v0x3e8c290_0 : [-1/0,1/0]
RESULT: v0x3d68140_0 : [-1/0,1/0]
RESULT: v0x3e869d0_0 : [-1/0,1/0]
RESULT: v0x3e8b250_0 : [-1/0,1/0]
RESULT: v0x3e8b110_0 : [-1/0,1/0]
RESULT: v0x3e8afd0_0 : [-1/0,1/0]
RESULT: v0x3e8ae90_0 : [-1/0,1/0]
RESULT: v0x3e8ad50_0 : [-1/0,1/0]
RESULT: v0x3e8ac10_0 : [-1/0,1/0]
RESULT: v0x3e8aad0_0 : [-1/0,1/0]
RESULT: v0x405c270_0 : [-1/0,1/0]
RESULT: v0x3e80210_0 : [-1/0,1/0]
RESULT: v0x40677b0_0 : [-1/0,1/0]
RESULT: v0x40c10f0_0 : [-1/0,1/0]
RESULT: v0x3d68040_0 : [0,1]
RESULT: v0x3e8b390_0 : [-1/0,1/0]
RESULT: v0x3e8bb10_0 : [-1/0,1/0]
RESULT: v0x3e8b750_0 : [-1/0,1/0]
RESULT: v0x3e8bc50_0 : [-1/0,1/0]
RESULT: v0x3e8bd90_0 : [-1/0,1/0]
