RESULT: v0x7594c80_0 : [-1/0,1/0]
RESULT: v0xb1e54a0_0 : [-1/0,1/0]
RESULT: v0x7c42c30_0 : [-1/0,1/0]
RESULT: v0x745ed10_0 : [0,1]
RESULT: v0x6acb540_0 : [67,1/0]
RESULT: v0x5e1e570_0 : [-1/0,1/0]
RESULT: v0x4b96ae0_0 : [-1/0,1/0]
RESULT: v0x4b96a60_0 : [-1/0,1/0]
RESULT: v0x745ecd0_0 : [0,0]
RESULT: v0x7897a00_0 : [-1/0,1/0]
RESULT: v0x6acb220_0 : [-1/0,1/0]
RESULT: v0x478d2d0_0 : [67,1/0]
RESULT: v0x478d3d0_0 : [0,1]
RESULT: v0x478d4d0_0 : [-1/0,1/0]
RESULT: v0x478d5d0_0 : [-1/0,1/0]
RESULT: v0x478d6d0_0 : [-1/0,1/0]
RESULT: v0x478d7d0_0 : [-1/0,1/0]
RESULT: v0x478d8d0_0 : [0,1]
RESULT: v0x478d9d0_0 : [-1/0,1/0]
RESULT: v0x478dad0_0 : [-1/0,1/0]
RESULT: v0x478dbd0_0 : [0,0]
RESULT: v0x478dcd0_0 : [-1/0,1/0]
RESULT: v0x478ddd0_0 : [-1/0,1/0]
RESULT: v0x478ded0_0 : [-1/0,1/0]
RESULT: v0x478dfd0_0 : [-1/0,1/0]
RESULT: v0x4b96d40_0 : [-1/0,1/0]
RESULT: v0xb0469d0_0 : [-1/0,1/0]
RESULT: v0x6bdd3f0_0 : [0,0]
RESULT: v0x7289810_0 : [-1/0,10]
RESULT: v0xb0467b0_0 : [-1/0,1/0]
RESULT: v0x478e2d0_0 : [-1/0,1/0]
