RESULT: v0xb0afc20_0 : [-1/0,1/0]
RESULT: v0x67e82c0_0 : [-1/0,1/0]
RESULT: v0xaf49cb0_0 : [-1/0,1/0]
RESULT: v0x722b0f0_0 : [-1/0,1/0]
RESULT: v0x9da5cf0_0 : [27,1/0]
RESULT: v0x6d58a30_0 : [-1/0,1/0]
RESULT: v0x74158a0_0 : [-1/0,1/0]
RESULT: v0x67e8280_0 : [1,1]
RESULT: v0x4705410_0 : [-1/0,1/0]
RESULT: v0x524f520_0 : [-1/0,1/0]
RESULT: v0x8824670_0 : [-1/0,1/0]
RESULT: v0x3fa3330_0 : [67,1/0]
RESULT: v0x3fa3430_0 : [-1/0,1/0]
RESULT: v0x3fa3530_0 : [-1/0,1/0]
RESULT: v0x3fa3630_0 : [-1/0,1/0]
RESULT: v0x3fa3730_0 : [-1/0,1/0]
RESULT: v0x3fa3830_0 : [0,1]
RESULT: v0x3fa3930_0 : [-1/0,1/0]
RESULT: v0x3fa3a30_0 : [-1/0,1/0]
RESULT: v0x3fa3b30_0 : [-1/0,1/0]
RESULT: v0x3fa3c30_0 : [-1/0,1/0]
RESULT: v0x3fa3d30_0 : [-1/0,1/0]
RESULT: v0x3fa3e30_0 : [-1/0,1/0]
RESULT: v0x3fa3f30_0 : [-1/0,1/0]
RESULT: v0xa398040_0 : [-1/0,1/0]
RESULT: v0xf3b36d0_0 : [-1/0,1/0]
RESULT: v0x88245f0_0 : [-1/0,10]
RESULT: v0x1341d930_0 : [-1/0,1/0]
RESULT: v0x722b070_0 : [-1/0,1/0]
RESULT: v0x3fa5230_0 : [-1/0,1/0]
