RESULT: v0xaf59610_0 : [-1/0,1/0]
RESULT: v0x16b85fd0_0 : [-1/0,1/0]
RESULT: v0x7c354a0_0 : [-1/0,1/0]
RESULT: v0x4023cf0_0 : [-1/0,1/0]
RESULT: v0x5fcf470_0 : [67,1/0]
RESULT: v0x839b150_0 : [-1/0,1/0]
RESULT: v0x9366650_0 : [-1/0,1/0]
RESULT: v0x6e44050_0 : [0,0]
RESULT: v0x1248bdd0_0 : [-1/0,1/0]
RESULT: v0x98484e0_0 : [-1/0,1/0]
RESULT: v0xaf59590_0 : [-1/0,1/0]
RESULT: v0x3fa3330_0 : [67,1/0]
RESULT: v0x3fa3430_0 : [-1/0,1/0]
RESULT: v0x3fa3530_0 : [-1/0,1/0]
RESULT: v0x3fa3630_0 : [-1/0,1/0]
RESULT: v0x3fa3730_0 : [-1/0,1/0]
RESULT: v0x3fa3830_0 : [0,1]
RESULT: v0x3fa3930_0 : [-1/0,1/0]
RESULT: v0x3fa3a30_0 : [-1/0,1/0]
RESULT: v0x3fa3b30_0 : [0,0]
RESULT: v0x3fa3c30_0 : [0,0]
RESULT: v0x3fa3d30_0 : [-1/0,1/0]
RESULT: v0x3fa3e30_0 : [-1/0,1/0]
RESULT: v0x3fa3f30_0 : [-1/0,1/0]
RESULT: v0x11a61370_0 : [-1/0,1/0]
RESULT: v0x126be980_0 : [0,0]
RESULT: v0x3cddf80_0 : [-1/0,10]
RESULT: v0x4686ab0_0 : [-1/0,1/0]
RESULT: v0x1248be50_0 : [-1/0,1/0]
RESULT: v0x3fa4230_0 : [-1/0,1/0]
