RESULT: v0x509c490_0 : [1,1/0]
RESULT: v0x524d250_0 : [0,1]
RESULT: v0x52c9f30_0 : [0,1]
RESULT: v0x52a9050_0 : [123,777]
RESULT: v0x50997f0_0 : [0,1]
RESULT: v0x516b9b0_0 : [0,1]
RESULT: v0x5283350_0 : [0,2]
RESULT: v0x5254d40_0 : [0,3]
RESULT: v0x5088110_0 : [0,1]
RESULT: v0x5166ce0_0 : [0,1]
RESULT: v0x5169430_0 : [0,1]
RESULT: v0x503fcb0_0 : [0,666]
RESULT: v0x516c7f0_0 : [0,2]
RESULT: v0x52a5250_0 : [0,456]
RESULT: v0x50b89d0_0 : [0,1]
RESULT: v0x513c3b0_0 : [0,1]
RESULT: v0x51c2880_0 : [0,1]
RESULT: v0x5222eb0_0 : [0,3]
RESULT: v0x52adf30_0 : [0,2]
RESULT: v0x51f0180_0 : [0,456]
RESULT: v0x51d9bb0_0 : [0,1]
RESULT: v0x516eb00_0 : [0,1]
RESULT: v0x526c850_0 : [0,123]
RESULT: v0x503c1d0_0 : [0,1]
