RESULT: v0x3ca85f0_1 : [3,3]
RESULT: v0x3bf70c0_1 : [0,1]
RESULT: v0x3bfaf10_1 : [0,1]
RESULT: v0x3bfefa0_1 : [0,1]
RESULT: v0x3c0eff0_1 : [0,1]
RESULT: v0x3c6bac0_1 : [0,1]
RESULT: v0x3c4bdc0_1 : [0,1]
RESULT: v0x3c45220_1 : [0,1]
RESULT: v0x3bfcc40_1 : [0,1]
RESULT: v0x3c54ca0_1 : [0,1]
RESULT: v0x3c69d60_1 : [0,1]
RESULT: v0x3c88530_1 : [0,1]
RESULT: v0x3c50960_1 : [0,1]
RESULT: v0x3bc84d0_1 : [0,2]
RESULT: v0x3bfa310_1 : [0,3]
RESULT: v0x3c599e0_1 : [0,1]
RESULT: v0x3c4d3a0_1 : [123,777]
RESULT: v0x3c6d5e0_1 : [0,666]
RESULT: v0x3c63520_1 : [0,2]
RESULT: v0x3ad5d70_1 : [0,1]
RESULT: v0x3c57ec0_1 : [0,2]
RESULT: v0x3bf52e0_1 : [0,456]
RESULT: v0x3db4b60_1 : [0,123]
RESULT: v0x3d396e0_1 : [0,456]
