RESULT: v0x3f947e0_1 : [-1/0,11]
RESULT: v0x454eb20_1 : [-1/0,1/0]
RESULT: v0x4472740_1 : [-1/0,1/0]
RESULT: v0x3f478b0_1 : [-1/0,1/0]
RESULT: v0x44b12c0_1 : [-1/0,1/0]
RESULT: v0x3b04810_1 : [-1/0,1/0]
RESULT: v0x3b06c70_1 : [0,1]
RESULT: v0x3b296c0_1 : [-1/0,1/0]
RESULT: v0x3cf8bd0_1 : [-1/0,1/0]
RESULT: v0x3bc4470_1 : [-1/0,1/0]
RESULT: v0x3d46520_1 : [-1/0,1/0]
RESULT: v0x4432e90_1 : [-1/0,1/0]
RESULT: v0x3b16710_1 : [-1/0,1/0]
RESULT: v0x3e55280_1 : [-1/0,1/0]
RESULT: v0x3e55420_1 : [-1/0,1/0]
RESULT: v0x3b16790_1 : [-1/0,1/0]
