RESULT: v0x5526b70_0 : [-1/0,1/0]
RESULT: v0x554cac0_0 : [-1/0,1/0]
RESULT: v0x5526870_0 : [-1/0,1/0]
RESULT: v0x5526cf0_0 : [-1/0,1/0]
RESULT: v0x5527cd0_0 : [-1/0,1/0]
RESULT: v0x55270d0_0 : [-1/0,1/0]
RESULT: v0x55261b0_0 : [-1/0,1/0]
RESULT: v0x55266f0_0 : [-1/0,1/0]
RESULT: v0x55267b0_0 : [-1/0,1/0]
RESULT: v0x5527d90_0 : [-1/0,1/0]
RESULT: v0x5527910_0 : [-1/0,1/0]
RESULT: v0x5565830_0 : [-1/0,1/0]
RESULT: v0x5526c30_0 : [-1/0,1/0]
RESULT: v0x5525c70_0 : [-1/0,1/0]
RESULT: v0x5525bb0_0 : [-1/0,1/0]
RESULT: v0x55258b0_0 : [-1/0,1/0]
RESULT: v0x552e490_0 : [-1/0,1/0]
RESULT: v0x4d4baf0_0 : [-1/0,1/0]
RESULT: v0x4d4bab0_0 : [-1/0,1/0]
RESULT: v0x4eb6120_0 : [-1/0,1/0]
RESULT: v0x4eb6080_0 : [-1/0,1/0]
RESULT: v0x552d560_0 : [-1/0,1/0]
RESULT: v0x5523f40_0 : [-1/0,1/0]
RESULT: v0x5527830_0 : [-1/0,1/0]
