RESULT: v0x60cd790_0 : [1,1]
RESULT: v0x612c890_0 : [3,10]
RESULT: v0x62a1180_0 : [0,1]
RESULT: v0x4f8f520_0 : [0,1]
RESULT: v0x630be40_0 : [0,1]
RESULT: v0x63a41a0_0 : [40,120]
RESULT: v0x62c1370_0 : [0,1]
RESULT: v0x61c8f20_0 : [0,0]
RESULT: v0x488f270_0 : [0,1]
RESULT: v0x610a7e0_0 : [0,1]
RESULT: v0x6306080_0 : [1,1]
RESULT: v0x62d5660_0 : [1,1]
RESULT: v0x62bfe30_0 : [1,1]
RESULT: v0x62887b0_0 : [0,0]
RESULT: v0x6325660_0 : [-1/0,1/0]
RESULT: v0x47b41d0_0 : [80,120]
RESULT: v0x47b42d0_0 : [0,1]
RESULT: v0x47b43d0_0 : [0,1]
RESULT: v0x47b44d0_0 : [-1/0,1/0]
RESULT: v0x47b45d0_0 : [0,1]
RESULT: v0x47b46d0_0 : [1,1]
RESULT: v0x47b47d0_0 : [1,1]
RESULT: v0x47b48d0_0 : [0,1]
RESULT: v0x47b49d0_0 : [0,1]
RESULT: v0x47b4ad0_0 : [1,1]
RESULT: v0x47b4bd0_0 : [0,1]
RESULT: v0x47b4cd0_0 : [0,1]
RESULT: v0x47b4dd0_0 : [0,1]
RESULT: v0x47b4ed0_0 : [0,1]
RESULT: v0x689b630_0 : [0,0]
RESULT: v0x47b51d0_0 : [-1/0,1/0]
