RESULT: v0x390cf30_0 : [1,1]
RESULT: v0x390dd30_0 : [1,3]
RESULT: v0x390d530_0 : [0,1]
RESULT: v0x390da30_0 : [0,1]
RESULT: v0x390ce30_0 : [0,0]
RESULT: v0x390d230_0 : [1,1]
RESULT: v0x38fdf30_0 : [0,1]
RESULT: v0x390d930_0 : [0,1]
RESULT: v0x38fdd30_0 : [0,0]
RESULT: v0x38fde30_0 : [-1/0,1/0]
RESULT: v0x38fe030_0 : [0,1]
RESULT: v0x390d030_0 : [0,1]
RESULT: v0x390cd30_0 : [80,160]
RESULT: v0x390d430_0 : [-1/0,1/0]
RESULT: v0x390d630_0 : [0,1]
RESULT: v0x390d830_0 : [0,1]
RESULT: v0x390d130_0 : [0,1]
RESULT: v0x390d730_0 : [0,1]
RESULT: v0x38fd630_0 : [3,10]
RESULT: v0x38fda30_0 : [0,1]
RESULT: v0x38fdb30_0 : [0,1]
RESULT: v0x38fd730_0 : [40,80]
RESULT: v0x38fe330_0 : [0,1]
RESULT: v0x38fe230_0 : [0,1]
RESULT: v0x38fd830_0 : [0,0]
RESULT: v0x38fd930_0 : [1,1]
RESULT: v0x38fe430_0 : [1,1]
RESULT: v0x38fe130_0 : [1,1]
RESULT: v0x38fdc30_0 : [1,1]
RESULT: v0x390d330_0 : [-1/0,1/0]
RESULT: v0x60305b0_1 : [2,2]
