RESULT: v0x3c24640_1 : [3,3]
RESULT: v0x3da60e0_1 : [0,1]
RESULT: v0x3da6320_1 : [0,1]
RESULT: v0x3da6560_1 : [0,1]
RESULT: v0x3bc1d80_1 : [0,1]
RESULT: v0x3bc95c0_1 : [0,1]
RESULT: v0x3a98fb0_1 : [0,1]
RESULT: v0x3bcdb70_1 : [0,1]
RESULT: v0x3c46430_1 : [0,1]
RESULT: v0x3b96d20_1 : [0,1]
RESULT: v0x3c36dc0_1 : [0,1]
RESULT: v0x3c34da0_1 : [0,1]
RESULT: v0x3aa60b0_1 : [0,1]
RESULT: v0x3c47450_1 : [0,2]
RESULT: v0x3bc41f0_1 : [0,3]
RESULT: v0x3c251e0_1 : [0,1]
RESULT: v0x3c2c7c0_1 : [123,777]
RESULT: v0x3c1bbe0_1 : [0,666]
RESULT: v0x3c31d80_1 : [0,2]
RESULT: v0x3bc62d0_1 : [0,1]
RESULT: v0x3bc6b10_1 : [0,2]
RESULT: v0x3c26760_1 : [0,456]
RESULT: v0x3c1a680_1 : [0,123]
RESULT: v0x3e7e380_1 : [0,456]
RESULT: v0x3e662a0_1 : [0,3]
