RESULT: v0x6b16000_0 : [-1/0,1/0]
RESULT: v0x61769c0_0 : [-1/0,1/0]
RESULT: v0x6ab7300_0 : [-1/0,1/0]
RESULT: v0x5f00a90_0 : [-1/0,1/0]
RESULT: v0x8a1c880_0 : [-1/0,1/0]
RESULT: v0x5d5d880_0 : [-1/0,1/0]
RESULT: v0x71f73e0_0 : [1,1]
RESULT: v0x516fe90_0 : [67,1/0]
RESULT: v0x6bb4680_0 : [27,1/0]
RESULT: v0x516ff90_0 : [0,1]
RESULT: v0x5170090_0 : [-1/0,1/0]
RESULT: v0x5170190_0 : [-1/0,1/0]
RESULT: v0x5170290_0 : [-1/0,1/0]
RESULT: v0x5170390_0 : [-1/0,1/0]
RESULT: v0x5ef7fd0_0 : [-1/0,1/0]
RESULT: v0x5170490_0 : [-1/0,1/0]
RESULT: v0x5d65680_0 : [-1/0,1/0]
RESULT: v0x5170590_0 : [-1/0,1/0]
RESULT: v0x6bc9030_0 : [-1/0,1/0]
RESULT: v0x5170690_0 : [-1/0,1/0]
RESULT: v0x5170790_0 : [-1/0,1/0]
RESULT: v0x5170890_0 : [-1/0,1/0]
RESULT: v0x5170990_0 : [-1/0,1/0]
RESULT: v0x6bc54b0_0 : [-1/0,1/0]
RESULT: v0x862c940_0 : [-1/0,1/0]
RESULT: v0x86a5fe0_0 : [-1/0,10]
RESULT: v0x5171c90_0 : [-1/0,1/0]
