RESULT: v0x4148890_1 : [4,4]
RESULT: v0x4196190_1 : [0,1]
RESULT: v0x41b9830_1 : [0,1]
RESULT: v0x410e750_1 : [0,1]
RESULT: v0x41a7790_1 : [0,1]
RESULT: v0x4172b70_1 : [0,1]
RESULT: v0x4159530_1 : [0,1]
RESULT: v0x4133e80_1 : [0,1]
RESULT: v0x41b5890_1 : [0,1]
RESULT: v0x41cc410_1 : [0,1]
RESULT: v0x410a7b0_1 : [123,777]
RESULT: v0x4139ec0_1 : [0,666]
RESULT: v0x418cc70_1 : [0,2]
RESULT: v0x4106790_1 : [0,1]
RESULT: v0x41720d0_1 : [0,2]
RESULT: v0x41e6510_1 : [0,456]
RESULT: v0x418ac70_1 : [0,123]
RESULT: v0x41635b0_1 : [0,456]
RESULT: v0x416d610_1 : [0,3]
RESULT: v0x4182b90_1 : [0,1]
RESULT: v0x41981b0_1 : [0,1]
