RESULT: v0x594f690_0 : [-1/0,1/0]
RESULT: v0x594fb90_0 : [-1/0,1/0]
RESULT: v0x5950790_0 : [789,789]
RESULT: v0x594f790_0 : [-1/0,1/0]
RESULT: v0x594f990_0 : [-1/0,1/0]
RESULT: v0x594f890_0 : [-1/0,1/0]
RESULT: v0x5e06ea0_1 : [2,2]
RESULT: v0x5e088e0_1 : [0,1]
RESULT: v0x5db36e0_1 : [0,1]
RESULT: v0x5e0dde0_1 : [0,1]
RESULT: v0x5e11120_1 : [0,1]
RESULT: v0x5e100e0_1 : [0,1]
RESULT: v0x5e10220_1 : [0,1]
RESULT: v0x5e0f0a0_1 : [0,1]
RESULT: v0x5e0fe60_1 : [0,1]
RESULT: v0x5e0f460_1 : [0,1]
RESULT: v0x5e0faa0_1 : [0,1]
RESULT: v0x5e0fbe0_1 : [0,1]
RESULT: v0x5e0f6e0_1 : [0,1]
RESULT: v0x5e0f820_1 : [0,2]
RESULT: v0x5e145a0_1 : [0,3]
RESULT: v0x5e0e560_1 : [0,1]
RESULT: v0x5e14320_1 : [123,777]
RESULT: v0x5e140a0_1 : [0,666]
RESULT: v0x5e136a0_1 : [0,2]
RESULT: v0x5e13e20_1 : [0,1]
RESULT: v0x5e2b160_1 : [0,2]
RESULT: v0x5e2b2a0_1 : [0,456]
RESULT: v0x5e2a260_1 : [0,123]
RESULT: v0x5e29360_1 : [0,456]
RESULT: v0x5e2f120_1 : [0,3]
