RESULT: v0x52cc160_0 : [-1/0,1/0]
RESULT: v0x52cc0a0_0 : [-1/0,1/0]
RESULT: v0x52cc400_0 : [-1/0,1/0]
RESULT: v0x52cc480_0 : [-1/0,1/0]
RESULT: v0x52cbda0_0 : [-1/0,1/0]
RESULT: v0x52cbd00_0 : [-1/0,1/0]
RESULT: v0x52a0570_0 : [-1/0,1/0]
RESULT: v0x5314b40_0 : [-1/0,1/0]
RESULT: v0x52cc520_0 : [-1/0,1/0]
RESULT: v0x52cc5e0_0 : [-1/0,1/0]
RESULT: v0x52cc6a0_0 : [-1/0,1/0]
RESULT: v0x52cc760_0 : [-1/0,1/0]
RESULT: v0x52cc820_0 : [-1/0,1/0]
RESULT: v0x52cc8e0_0 : [-1/0,1/0]
RESULT: v0x52cc9a0_0 : [-1/0,1/0]
RESULT: v0x52cca60_0 : [-1/0,1/0]
RESULT: v0x52ccb20_0 : [-1/0,1/0]
RESULT: v0x52ccbe0_0 : [-1/0,1/0]
RESULT: v0x52ccca0_0 : [-1/0,1/0]
RESULT: v0x52cc220_0 : [-1/0,1/0]
RESULT: v0x52cbfe0_0 : [-1/0,1/0]
RESULT: v0x52cc440_0 : [-1/0,1/0]
RESULT: v0x52cbf20_0 : [-1/0,1/0]
RESULT: v0x52cbe60_0 : [-1/0,1/0]
