RESULT: v0x36b20e0_0 : [0,1]
RESULT: v0x36b33e0_0 : [0,0]
RESULT: v0x36a52f0_0 : [1,1]
RESULT: v0x36a33d0_0 : [3,3]
RESULT: v0x36a37d0_0 : [-1073741637,0]
RESULT: v0x36a36d0_0 : [-1073741637,0]
RESULT: v0x36a6ef0_0 : [1,6]
RESULT: v0x36a6bf0_0 : [-1/0,1/0]
RESULT: v0x36a70f0_0 : [-1073741637,259]
RESULT: v0x36a6cf0_0 : [0,259]
RESULT: v0x36a57f0_0 : [-1/0,24]
RESULT: v0x36a31d0_0 : [0,1/0]
RESULT: v0x36b3fe0_0 : [-1/0,1/0]
RESULT: v0x36b34e0_0 : [-1/0,1/0]
RESULT: v0x36a55f0_0 : [0,0]
RESULT: v0x36a34d0_0 : [-1/0,1/0]
RESULT: v0x36baae0_0 : [-1/0,1/0]
RESULT: v0x7413260_0 : [0,0]
RESULT: v0x7413360_0 : [0,0]
RESULT: v0x36bb1e0_0 : [-1/0,1/0]
RESULT: v0x36babe0_0 : [-1/0,1/0]
RESULT: v0x36bb4e0_0 : [-1/0,1/0]
RESULT: v0x36bb3e0_0 : [-1/0,1/0]
RESULT: v0x36bb5e0_0 : [184,184]
RESULT: v0x36bb7e0_0 : [-1/0,1/0]
RESULT: v0x36bb6e0_0 : [-1/0,1/0]
RESULT: v0x36bb8e0_0 : [24,24]
RESULT: v0x36bbae0_0 : [-1/0,1/0]
RESULT: v0x36bb9e0_0 : [-1/0,1/0]
RESULT: v0x36bbbe0_0 : [48,48]
