RESULT: v0x3ad8ad0_0 : [1,1/0]
RESULT: v0x3ba1280_0 : [0,1]
RESULT: v0x39af760_0 : [0,1]
RESULT: v0x3bd2640_0 : [123,777]
RESULT: v0x3ac9810_0 : [0,1]
RESULT: v0x3ba3a60_0 : [0,1]
RESULT: v0x3bd3de0_0 : [0,2]
RESULT: v0x3c35480_0 : [0,3]
RESULT: v0x3b3e040_0 : [0,1]
RESULT: v0x3ad2fc0_0 : [0,1]
RESULT: v0x3b4c410_0 : [0,1]
RESULT: v0x3ad3950_0 : [0,666]
RESULT: v0x3ac8df0_0 : [0,2]
RESULT: v0x39ed1c0_0 : [0,456]
RESULT: v0x3a31a10_0 : [0,1]
RESULT: v0x39f4de0_0 : [0,1]
RESULT: v0x39a78a0_0 : [0,1]
RESULT: v0x3bf3d40_0 : [3,3]
RESULT: v0x3ad2940_0 : [0,2]
RESULT: v0x3bf53c0_0 : [0,456]
RESULT: v0x3b3e080_0 : [0,1]
RESULT: v0x3adade0_0 : [1,1]
RESULT: v0x3ad4730_0 : [0,123]
RESULT: v0x3bfbee0_0 : [0,1]
