RESULT: v0x63f0700_0 : [-1/0,1/0]
RESULT: v0x6e01730_0 : [-1/0,1/0]
RESULT: v0x53c96d0_0 : [-1/0,1/0]
RESULT: v0x51a8a10_0 : [-1/0,1/0]
RESULT: v0x6276a60_0 : [-1/0,1/0]
RESULT: v0x5d58a50_0 : [-1/0,1/0]
RESULT: v0x61f8ff0_0 : [1,1]
RESULT: v0x516fe90_0 : [67,1/0]
RESULT: v0x639c8f0_0 : [27,1/0]
RESULT: v0x516ff90_0 : [0,1]
RESULT: v0x5170090_0 : [-1/0,1/0]
RESULT: v0x5170190_0 : [-1/0,1/0]
RESULT: v0x5170290_0 : [-1/0,1/0]
RESULT: v0x5170390_0 : [-1/0,1/0]
RESULT: v0x61a4660_0 : [-1/0,1/0]
RESULT: v0x5170490_0 : [-1/0,1/0]
RESULT: v0x61b7900_0 : [-1/0,1/0]
RESULT: v0x5170590_0 : [-1/0,1/0]
RESULT: v0x6179400_0 : [-1/0,1/0]
RESULT: v0x5170690_0 : [-1/0,1/0]
RESULT: v0x5170790_0 : [-1/0,1/0]
RESULT: v0x5170890_0 : [-1/0,1/0]
RESULT: v0x5170990_0 : [-1/0,1/0]
RESULT: v0x5273490_0 : [-1/0,1/0]
RESULT: v0x5f00220_0 : [-1/0,1/0]
RESULT: v0x6131a20_0 : [-1/0,10]
RESULT: v0x5171c90_0 : [-1/0,1/0]
