RESULT: v0x4703690_0 : [-1/0,1/0]
RESULT: v0x46a1910_0 : [-1/0,1/0]
RESULT: v0x38451d0_0 : [0,1]
RESULT: v0x428b8a0_0 : [-1/0,1/0]
RESULT: v0x3fce9e0_0 : [27,1/0]
RESULT: v0x46a1450_0 : [-1/0,1/0]
RESULT: v0x3845210_0 : [-1/0,1/0]
RESULT: v0x415ae20_0 : [0,0]
RESULT: v0x403d6f0_0 : [-1/0,1/0]
RESULT: v0x44d0980_0 : [-1/0,1/0]
RESULT: v0x4703890_0 : [-1/0,1/0]
RESULT: v0x3fa3330_0 : [67,1/0]
RESULT: v0x3fa3430_0 : [-1/0,1/0]
RESULT: v0x3fa3530_0 : [-1/0,1/0]
RESULT: v0x3fa3630_0 : [-1/0,1/0]
RESULT: v0x3fa3730_0 : [-1/0,1/0]
RESULT: v0x3fa3830_0 : [0,1]
RESULT: v0x3fa3930_0 : [-1/0,1/0]
RESULT: v0x3fa3a30_0 : [-1/0,1/0]
RESULT: v0x3fa3b30_0 : [-1/0,1/0]
RESULT: v0x3fa3c30_0 : [0,0]
RESULT: v0x3fa3d30_0 : [-1/0,1/0]
RESULT: v0x3fa3e30_0 : [-1/0,1/0]
RESULT: v0x3fa3f30_0 : [-1/0,1/0]
RESULT: v0x44c98b0_0 : [-1/0,1/0]
RESULT: v0x4648be0_0 : [0,0]
RESULT: v0x40e1e10_0 : [-1/0,10]
RESULT: v0x44c9930_0 : [-1/0,1/0]
RESULT: v0x40940d0_0 : [-1/0,1/0]
RESULT: v0x3fa4230_0 : [-1/0,1/0]
