RESULT: v0x395b000_0 : [-1/0,1/0]
RESULT: v0x395b100_0 : [-1/0,1/0]
RESULT: v0x395b200_0 : [-1/0,1/0]
RESULT: v0x3e12220_0 : [-1/0,1/0]
RESULT: v0x3acf6e0_0 : [-1/0,1/0]
RESULT: v0x3bad4e0_0 : [-1/0,1/0]
RESULT: v0x395b600_0 : [-1/0,1/0]
RESULT: v0x395b700_0 : [-1/0,1/0]
RESULT: v0x395b800_0 : [-1/0,1/0]
RESULT: v0x3db5c10_0 : [-1/0,1/0]
RESULT: v0x3d65fa0_0 : [-1/0,1/0]
RESULT: v0x395bc00_0 : [-1/0,1/0]
RESULT: v0x395bd00_0 : [-1/0,1/0]
RESULT: v0x395be00_0 : [-1/0,1/0]
RESULT: v0x3e04260_0 : [-1/0,1/0]
RESULT: v0x3b40b90_0 : [-1/0,1/0]
RESULT: v0x395c200_0 : [-1/0,1/0]
RESULT: v0x395c300_0 : [-1/0,1/0]
RESULT: v0x395c400_0 : [-1/0,1/0]
RESULT: v0x3af6660_0 : [-1/0,1/0]
RESULT: v0x3ae6430_0 : [-1/0,1/0]
RESULT: v0x395c800_0 : [-1/0,1/0]
RESULT: v0x395c900_0 : [-1/0,1/0]
RESULT: v0x395ca00_0 : [-1/0,1/0]
RESULT: v0x3ae0890_0 : [-1/0,1/0]
RESULT: v0x3da7510_0 : [-1/0,1/0]
RESULT: v0x395ce00_0 : [-1/0,1/0]
RESULT: v0x3959a30_0 : [-1/0,1/0]
RESULT: v0x3959b30_0 : [-1/0,1/0]
RESULT: v0x3b2b490_0 : [-1/0,1/0]
RESULT: v0x3b947f0_0 : [-1/0,1/0]
RESULT: v0x395d7f0_0 : [-1/0,1/0]
RESULT: v0x395d8f0_0 : [-1/0,1/0]
RESULT: v0x395d9f0_0 : [-1/0,1/0]
RESULT: v0x3af9b10_0 : [-1/0,1/0]
RESULT: v0x3b6e940_0 : [-1/0,1/0]
RESULT: v0x395ddf0_0 : [-1/0,1/0]
RESULT: v0x395def0_0 : [-1/0,1/0]
RESULT: v0x395dff0_0 : [-1/0,1/0]
RESULT: v0x3da3640_0 : [-1/0,1/0]
RESULT: v0x3b9ebe0_0 : [-1/0,1/0]
RESULT: v0x395e3f0_0 : [-1/0,1/0]
RESULT: v0x395e4f0_0 : [-1/0,1/0]
RESULT: v0x395e5f0_0 : [-1/0,1/0]
RESULT: v0x3b94ff0_0 : [-1/0,1/0]
RESULT: v0x3b372e0_0 : [-1/0,1/0]
RESULT: v0x395e9f0_0 : [-1/0,1/0]
RESULT: v0x395eaf0_0 : [-1/0,1/0]
RESULT: v0x395ebf0_0 : [-1/0,1/0]
RESULT: v0x3ba2d90_0 : [-1/0,1/0]
RESULT: v0x3b8f480_0 : [-1/0,1/0]
RESULT: v0x395eff0_0 : [-1/0,1/0]
RESULT: v0x395f0f0_0 : [-1/0,1/0]
RESULT: v0x395f1f0_0 : [-1/0,1/0]
RESULT: v0x3e06bc0_0 : [-1/0,1/0]
RESULT: v0x3aaa490_0 : [-1/0,1/0]
RESULT: v0x395f5f0_0 : [-1/0,1/0]
RESULT: v0x395f6f0_0 : [-1/0,1/0]
RESULT: v0x395f7f0_0 : [-1/0,1/0]
RESULT: v0x3d6d210_0 : [-1/0,1/0]
RESULT: v0x3e1fcd0_0 : [-1/0,1/0]
RESULT: v0x395faf0_0 : [-1/0,1/0]
RESULT: v0x395fbf0_0 : [-1/0,1/0]
RESULT: v0x395fcf0_0 : [0,0]
RESULT: v0x3b8b1a0_0 : [-1/0,1/0]
RESULT: v0x3ba2d10_0 : [-1/0,1/0]
RESULT: v0x395fdf0_0 : [-1/0,1/0]
