RESULT: v0x4d95060_1 : [4,4]
RESULT: v0x4d35860_1 : [0,1]
RESULT: v0x4d644c0_1 : [0,1]
RESULT: v0x4cc7f10_1 : [0,1]
RESULT: v0x4d1acc0_1 : [0,1]
RESULT: v0x4d14d00_1 : [0,1]
RESULT: v0x4d65aa0_1 : [0,1]
RESULT: v0x4ce15d0_1 : [0,1]
RESULT: v0x4d34380_1 : [0,1]
RESULT: v0x4d48440_1 : [0,1]
RESULT: v0x4d16d20_1 : [123,777]
RESULT: v0x4d82660_1 : [0,666]
RESULT: v0x4d75b40_1 : [0,2]
RESULT: v0x4ca6910_1 : [0,1]
RESULT: v0x4d0ece0_1 : [0,2]
RESULT: v0x4d32380_1 : [0,456]
RESULT: v0x4d18d40_1 : [0,123]
RESULT: v0x4d84680_1 : [0,456]
RESULT: v0x4cf1680_1 : [0,3]
RESULT: v0x4ceab00_1 : [0,1]
RESULT: v0x4d01680_1 : [0,1]
