RESULT: v0x49f2e10_0 : [0,0]
RESULT: v0x4cca300_1 : [0,1]
RESULT: v0x4cc91e0_1 : [0,1]
RESULT: v0x4cca9a0_1 : [0,1]
RESULT: v0x4cc9c40_1 : [0,1]
RESULT: v0x4c59e00_1 : [0,1]
RESULT: v0x4c8cb00_1 : [0,1]
RESULT: v0x4c8a660_1 : [0,1]
RESULT: v0x4c59640_1 : [0,1]
RESULT: v0x4c92ac0_1 : [0,1]
RESULT: v0x4c914f0_1 : [0,1]
RESULT: v0x4c911b0_1 : [0,1]
RESULT: v0x4c9e850_1 : [0,1]
RESULT: v0x4c9dbd0_1 : [-1/0,1/0]
RESULT: v0x4ca6bf0_1 : [-1/0,1/0]
RESULT: v0x4cad000_1 : [0,2]
RESULT: v0x4cb29f0_1 : [0,2]
RESULT: v0x4cc7e80_1 : [0,2]
RESULT: v0x4cc7a00_1 : [0,2]
RESULT: v0x4cc1750_1 : [0,2]
RESULT: v0x4cc65a0_1 : [0,2]
RESULT: v0x4cce1a0_1 : [0,2]
RESULT: v0x4ccd720_1 : [0,2]
RESULT: v0x4b50aa0_1 : [0,2]
RESULT: v0x4ccca50_1 : [0,2]
RESULT: v0x4ccbeb0_1 : [0,2]
RESULT: v0x4cc59e0_1 : [0,2]
RESULT: v0x4cdb680_1 : [0,0]
