RESULT: v0x3a388c0_0 : [0,1/0]
RESULT: v0x60a8a00_1 : [0,1]
RESULT: v0x6c1aef0_1 : [0,1]
RESULT: v0x6c19dd0_1 : [0,1]
RESULT: v0x5709b70_1 : [0,1]
RESULT: v0x6c16810_1 : [0,1]
RESULT: v0x6df7f60_1 : [0,1]
RESULT: v0x6c113e0_1 : [0,1]
RESULT: v0x57092d0_1 : [0,1]
RESULT: v0x651cd00_1 : [0,1]
RESULT: v0x654baa0_1 : [0,1]
RESULT: v0x6c216d0_1 : [-1/0,2]
RESULT: v0x6c1bfd0_1 : [-1/0,2]
RESULT: v0x68bf470_1 : [-1/0,2]
RESULT: v0x5700c70_1 : [-1/0,2]
RESULT: v0x6ef5730_1 : [-1/0,2]
RESULT: v0x6c0f340_1 : [-1/0,2]
RESULT: v0x5744900_1 : [-1/0,2]
RESULT: v0x576a340_1 : [-1/0,2]
RESULT: v0x6c1b670_1 : [0,2]
RESULT: v0x5808b50_1 : [0,2]
RESULT: v0x6555180_1 : [0,2]
