RESULT: v0x4822d40_0 : [-1/0,1/0]
RESULT: v0x5398b60_0 : [-1/0,1/0]
RESULT: v0x4381880_0 : [0,1]
RESULT: v0x5398840_0 : [-1/0,1/0]
RESULT: v0x5085760_0 : [27,1/0]
RESULT: v0x4f2bc30_0 : [-1/0,1/0]
RESULT: v0x4469ad0_0 : [-1/0,1/0]
RESULT: v0x4564540_0 : [-1/0,1/0]
RESULT: v0x52f8090_0 : [0,0]
RESULT: v0x4811ba0_0 : [-1/0,1/0]
RESULT: v0x5336160_0 : [-1/0,1/0]
RESULT: v0x4285070_0 : [67,1/0]
RESULT: v0x4285170_0 : [-1/0,1/0]
RESULT: v0x4285270_0 : [-1/0,1/0]
RESULT: v0x4285370_0 : [-1/0,1/0]
RESULT: v0x4285470_0 : [-1/0,1/0]
RESULT: v0x4285570_0 : [0,1]
RESULT: v0x4285670_0 : [-1/0,1/0]
RESULT: v0x4285770_0 : [-1/0,1/0]
RESULT: v0x4285870_0 : [0,0]
RESULT: v0x4285970_0 : [-1/0,1/0]
RESULT: v0x4285a70_0 : [-1/0,1/0]
RESULT: v0x4285b70_0 : [-1/0,1/0]
RESULT: v0x44740a0_0 : [-1/0,1/0]
RESULT: v0x4f9dcf0_0 : [0,0]
RESULT: v0x44f4ab0_0 : [-1/0,10]
RESULT: v0x4285e70_0 : [-1/0,1/0]
