RESULT: v0x46e4080_0 : [-1/0,1/0]
RESULT: v0x4641de0_0 : [-1/0,1/0]
RESULT: v0x46e3de0_0 : [-1/0,1/0]
RESULT: v0x465b430_0 : [0,1]
RESULT: v0x465aa10_0 : [67,1/0]
RESULT: v0x465c8d0_0 : [-1/0,1/0]
RESULT: v0x465a7f0_0 : [-1/0,1/0]
RESULT: v0x4659d70_0 : [0,0]
RESULT: v0x4132360_0 : [-1/0,1/0]
RESULT: v0x4131a60_0 : [-1/0,1/0]
RESULT: v0x46e3860_0 : [-1/0,1/0]
RESULT: v0x3fa3330_0 : [67,1/0]
RESULT: v0x3fa3430_0 : [-1/0,1/0]
RESULT: v0x3fa3530_0 : [-1/0,1/0]
RESULT: v0x3fa3630_0 : [-1/0,1/0]
RESULT: v0x3fa3730_0 : [-1/0,1/0]
RESULT: v0x3fa3830_0 : [0,1]
RESULT: v0x3fa3930_0 : [-1/0,1/0]
RESULT: v0x3fa3a30_0 : [-1/0,1/0]
RESULT: v0x3fa3b30_0 : [0,0]
RESULT: v0x3fa3c30_0 : [-1/0,1/0]
RESULT: v0x3fa3d30_0 : [-1/0,1/0]
RESULT: v0x3fa3e30_0 : [-1/0,1/0]
RESULT: v0x3fa3f30_0 : [-1/0,1/0]
RESULT: v0x465cef0_0 : [-1/0,1/0]
RESULT: v0x44a7530_0 : [0,0]
RESULT: v0x46e5320_0 : [-1/0,10]
RESULT: v0x41334c0_0 : [-1/0,1/0]
RESULT: v0x4133560_0 : [-1/0,1/0]
RESULT: v0x3fa4230_0 : [-1/0,1/0]
