RESULT: v0x5450a40_0 : [1,1]
RESULT: v0x5565090_0 : [0,2]
RESULT: v0x515e9b0_0 : [0,2]
RESULT: v0x48bb9e0_0 : [1,1]
RESULT: v0x5cb74e0_0 : [-1/0,2]
RESULT: v0x519b0d0_0 : [1,1]
RESULT: v0x5cb91a0_0 : [-1/0,2]
RESULT: v0x5445400_0 : [1,1]
RESULT: v0x4a8ed80_0 : [-1/0,2]
RESULT: v0x5bd8620_0 : [1,1]
RESULT: v0x519b3d0_0 : [-1/0,2]
RESULT: v0x57574f0_0 : [1,1]
RESULT: v0x599d9e0_0 : [0,1]
RESULT: v0x51a0630_0 : [0,2]
RESULT: v0x48be100_0 : [1,1]
RESULT: v0x48be200_0 : [0,2]
RESULT: v0x48bca40_0 : [-1/0,2]
RESULT: v0x48be7d0_0 : [1,1]
RESULT: v0x48be8d0_0 : [-1/0,2]
RESULT: v0x48be9d0_0 : [-1/0,2]
RESULT: v0x48bedd0_0 : [1,1]
RESULT: v0x48beed0_0 : [-1/0,2]
RESULT: v0x48befd0_0 : [-1/0,2]
RESULT: v0x48bf3d0_0 : [1,1]
RESULT: v0x48bf4d0_0 : [-1/0,2]
RESULT: v0x48bf5d0_0 : [-1/0,2]
RESULT: v0x48bf9d0_0 : [1,1]
RESULT: v0x48bfad0_0 : [-1/0,2]
RESULT: v0x48bfbd0_0 : [0,2]
RESULT: v0x48be3a0_0 : [1,1]
RESULT: v0x48be4a0_0 : [0,2]
RESULT: v0x48c0220_0 : [0,0]
RESULT: v0x48c0320_0 : [-1/0,1/0]
