RESULT: v0x44efdc0_0 : [-1/0,1/0]
RESULT: v0x415d3d0_0 : [-1/0,1/0]
RESULT: v0x43bb2f0_0 : [-1/0,1/0]
RESULT: v0x44eef40_0 : [-1/0,1/0]
RESULT: v0x44d6900_0 : [-1/0,1/0]
RESULT: v0x441f700_0 : [-1/0,1/0]
RESULT: v0x4388330_0 : [1,1]
RESULT: v0x40faaa0_0 : [67,1/0]
RESULT: v0x4323950_0 : [27,1/0]
RESULT: v0x40faba0_0 : [0,1]
RESULT: v0x40faca0_0 : [0,1]
RESULT: v0x40fada0_0 : [-1/0,1/0]
RESULT: v0x40faea0_0 : [-1/0,1/0]
RESULT: v0x40fafa0_0 : [-1/0,1/0]
RESULT: v0x40fb0a0_0 : [-1/0,1/0]
RESULT: v0x40fb1a0_0 : [-1/0,1/0]
RESULT: v0x4347140_0 : [-1/0,1/0]
RESULT: v0x40fb2a0_0 : [-1/0,1/0]
RESULT: v0x44a7d00_0 : [-1/0,1/0]
RESULT: v0x40fb3a0_0 : [-1/0,1/0]
RESULT: v0x4347d30_0 : [-1/0,1/0]
RESULT: v0x40fb4a0_0 : [-1/0,1/0]
RESULT: v0x40fb5a0_0 : [-1/0,1/0]
RESULT: v0x40fb6a0_0 : [-1/0,1/0]
RESULT: v0x40fb7a0_0 : [-1/0,1/0]
RESULT: v0x43c0650_0 : [-1/0,1/0]
RESULT: v0x4216b40_0 : [-1/0,1/0]
RESULT: v0x4529c90_0 : [-1/0,1/0]
RESULT: v0x44f14f0_0 : [-1/0,10]
RESULT: v0x44a6f00_0 : [-1/0,1/0]
RESULT: v0x40fcaa0_0 : [-1/0,1/0]
