RESULT: v0x126cbe40_0 : [-1/0,1/0]
RESULT: v0x7458190_0 : [-1/0,1/0]
RESULT: v0xdacd990_0 : [-1/0,1/0]
RESULT: v0xa51d410_0 : [-1/0,1/0]
RESULT: v0x8b11f10_0 : [27,1/0]
RESULT: v0x3fe7440_0 : [-1/0,1/0]
RESULT: v0x448e870_0 : [-1/0,1/0]
RESULT: v0x5195120_0 : [1,1]
RESULT: v0x143438b0_0 : [-1/0,1/0]
RESULT: v0x8b11c00_0 : [-1/0,1/0]
RESULT: v0xdacd7d0_0 : [-1/0,1/0]
RESULT: v0x3fa3330_0 : [67,1/0]
RESULT: v0x3fa3430_0 : [-1/0,1/0]
RESULT: v0x3fa3530_0 : [-1/0,1/0]
RESULT: v0x3fa3630_0 : [-1/0,1/0]
RESULT: v0x3fa3730_0 : [-1/0,1/0]
RESULT: v0x3fa3830_0 : [0,1]
RESULT: v0x3fa3930_0 : [-1/0,1/0]
RESULT: v0x3fa3a30_0 : [-1/0,1/0]
RESULT: v0x3fa3b30_0 : [-1/0,1/0]
RESULT: v0x3fa3c30_0 : [-1/0,1/0]
RESULT: v0x3fa3d30_0 : [-1/0,1/0]
RESULT: v0x3fa3e30_0 : [-1/0,1/0]
RESULT: v0x3fa3f30_0 : [-1/0,1/0]
RESULT: v0x11d113b0_0 : [-1/0,1/0]
RESULT: v0x48b9e60_0 : [-1/0,1/0]
RESULT: v0x11cd9560_0 : [-1/0,10]
RESULT: v0xaf59280_0 : [-1/0,1/0]
RESULT: v0x5305830_0 : [-1/0,1/0]
RESULT: v0x3fa5230_0 : [-1/0,1/0]
