RESULT: v0xad46440_0 : [1,1]
RESULT: v0xa5b5720_0 : [-1/0,1/0]
RESULT: v0x50cf030_0 : [-1/0,1/0]
RESULT: v0x89a7c90_0 : [-1/0,1/0]
RESULT: v0xdc2c940_0 : [-1/0,1/0]
RESULT: v0x5929530_0 : [27,1/0]
RESULT: v0x792f200_0 : [-1/0,1/0]
RESULT: v0xb075fe0_0 : [-1/0,1/0]
RESULT: v0xa5b56a0_0 : [-1/0,1/0]
RESULT: v0xaf90fb0_0 : [-1/0,1/0]
RESULT: v0x8467a20_0 : [-1/0,1/0]
RESULT: v0x478d2d0_0 : [67,1/0]
RESULT: v0x478d3d0_0 : [0,1]
RESULT: v0x478d4d0_0 : [-1/0,1/0]
RESULT: v0x478d5d0_0 : [-1/0,1/0]
RESULT: v0x478d6d0_0 : [-1/0,1/0]
RESULT: v0x478d7d0_0 : [-1/0,1/0]
RESULT: v0x478d8d0_0 : [0,1]
RESULT: v0x478d9d0_0 : [-1/0,1/0]
RESULT: v0x478dad0_0 : [-1/0,1/0]
RESULT: v0x478dbd0_0 : [-1/0,1/0]
RESULT: v0x478dcd0_0 : [-1/0,1/0]
RESULT: v0x478ddd0_0 : [-1/0,1/0]
RESULT: v0x478ded0_0 : [-1/0,1/0]
RESULT: v0x478dfd0_0 : [-1/0,1/0]
RESULT: v0xadb3f00_0 : [-1/0,1/0]
RESULT: v0xbdf69f0_0 : [-1/0,1/0]
RESULT: v0xafa3450_0 : [-1/0,1/0]
RESULT: v0xaf90f70_0 : [-1/0,10]
RESULT: v0xb076020_0 : [-1/0,1/0]
RESULT: v0x478f2d0_0 : [-1/0,1/0]
