RESULT: v0x3c085f0_1 : [3,3]
RESULT: v0x3aa3a00_1 : [0,1]
RESULT: v0x3bf5160_1 : [0,1]
RESULT: v0x3ab9210_1 : [0,1]
RESULT: v0x3b372f0_1 : [0,1]
RESULT: v0x3b38350_1 : [0,1]
RESULT: v0x398b950_1 : [0,1]
RESULT: v0x3c07b70_1 : [0,1]
RESULT: v0x3b37ed0_1 : [0,1]
RESULT: v0x3b37f90_1 : [0,1]
RESULT: v0x3b37d50_1 : [0,1]
RESULT: v0x398b1d0_1 : [0,1]
RESULT: v0x3c079f0_1 : [0,1]
RESULT: v0x3b378d0_1 : [0,2]
RESULT: v0x3b37990_1 : [0,3]
RESULT: v0x3c07950_1 : [123,777]
RESULT: v0x3c07910_1 : [0,666]
RESULT: v0x3b37450_1 : [0,2]
RESULT: v0x3b37390_1 : [0,1]
RESULT: v0x3b370b0_1 : [0,2]
RESULT: v0x3b36ff0_1 : [0,456]
RESULT: v0x3bd7410_1 : [0,123]
RESULT: v0x3bd7350_1 : [0,456]
RESULT: v0x3bd7110_1 : [0,3]
