RESULT: v0x431af50_0 : [1,1/0]
RESULT: v0x4723ce0_0 : [0,1]
RESULT: v0x4728800_0 : [0,1]
RESULT: v0x453e0d0_0 : [0,1]
RESULT: v0x4395bb0_0 : [0,1]
RESULT: v0x4716740_0 : [0,1]
RESULT: v0x47086b0_0 : [0,1]
RESULT: v0x471f220_0 : [0,1]
RESULT: v0x4715ca0_0 : [0,1]
RESULT: v0x47310c0_0 : [0,1]
RESULT: v0x4574b40_0 : [1,1]
RESULT: v0x472d2c0_0 : [0,1]
RESULT: v0x42e0d70_0 : [1,1]
RESULT: v0x4303960_0 : [123,777]
RESULT: v0x4371b10_0 : [0,666]
RESULT: v0x43fa080_0 : [0,2]
RESULT: v0x4536c70_0 : [0,1]
RESULT: v0x438fd70_0 : [0,456]
RESULT: v0x42f6da0_0 : [0,123]
RESULT: v0x41b8ad0_0 : [-1/0,1/0]
RESULT: v0x41b8bd0_0 : [0,456]
RESULT: v0x41b85d0_0 : [-1/0,1/0]
RESULT: v0x41b82d0_0 : [0,456]
RESULT: v0x41b84d0_0 : [0,1]
