RESULT: v0xb0bac40_0 : [-1/0,1/0]
RESULT: v0x10e7b220_0 : [-1/0,1/0]
RESULT: v0x636f390_0 : [-1/0,1/0]
RESULT: v0x621ef30_0 : [-1/0,1/0]
RESULT: v0x9782b50_0 : [27,1/0]
RESULT: v0x636f630_0 : [-1/0,1/0]
RESULT: v0x5a60640_0 : [-1/0,1/0]
RESULT: v0x11dd3610_0 : [1,1]
RESULT: v0xb1e8970_0 : [-1/0,1/0]
RESULT: v0xb20b830_0 : [-1/0,1/0]
RESULT: v0x41253d0_0 : [-1/0,1/0]
RESULT: v0x3f94330_0 : [67,1/0]
RESULT: v0x3f94430_0 : [0,1]
RESULT: v0x3f94530_0 : [-1/0,1/0]
RESULT: v0x3f94630_0 : [-1/0,1/0]
RESULT: v0x3f94730_0 : [-1/0,1/0]
RESULT: v0x3f94830_0 : [-1/0,1/0]
RESULT: v0x3f94930_0 : [0,1]
RESULT: v0x3f94a30_0 : [-1/0,1/0]
RESULT: v0x3f94b30_0 : [-1/0,1/0]
RESULT: v0x3f94c30_0 : [-1/0,1/0]
RESULT: v0x3f94d30_0 : [-1/0,1/0]
RESULT: v0x3f94e30_0 : [-1/0,1/0]
RESULT: v0x3f94f30_0 : [-1/0,1/0]
RESULT: v0x3f95030_0 : [-1/0,1/0]
RESULT: v0xb310a60_0 : [-1/0,1/0]
RESULT: v0xb20b070_0 : [-1/0,1/0]
RESULT: v0x10816410_0 : [-1/0,1/0]
RESULT: v0x41bd6c0_0 : [-1/0,10]
RESULT: v0x11cc39c0_0 : [-1/0,1/0]
RESULT: v0x3f96330_0 : [-1/0,1/0]
