RESULT: v0x40caf80_0 : [2,1/0]
RESULT: v0x42beb10_0 : [0,1]
RESULT: v0x40bc9f0_0 : [0,1]
RESULT: v0x4113640_0 : [123,123]
RESULT: v0x42c15d0_0 : [0,0]
RESULT: v0x420bc40_0 : [0,1]
RESULT: v0x4288fb0_0 : [0,2]
RESULT: v0x42c8ab0_0 : [0,456]
RESULT: v0x427aff0_0 : [0,1]
RESULT: v0x421d770_0 : [0,1]
RESULT: v0x42ef490_0 : [0,666]
RESULT: v0x3fa3310_0 : [0,1]
RESULT: v0x4161c80_0 : [0,1]
RESULT: v0x42c2050_0 : [0,1]
RESULT: v0x4290090_0 : [123,123]
RESULT: v0x4120860_0 : [1,1]
RESULT: v0x42d2790_0 : [1,1]
RESULT: v0x429f650_0 : [0,456]
RESULT: v0x42a7f70_0 : [0,2]
RESULT: v0x427db90_0 : [0,1]
RESULT: v0x411d5a0_0 : [0,1]
RESULT: v0x41e9b30_0 : [0,3]
RESULT: v0x3f7e6a0_0 : [-1/0,1/0]
RESULT: v0x3f7e3a0_0 : [0,456]
RESULT: v0x3f7e5a0_0 : [0,1]
