RESULT: v0x5606160_1 : [-1/0,11]
RESULT: v0x5606520_1 : [-1/0,1/0]
RESULT: v0x56067a0_1 : [-1/0,1/0]
RESULT: v0x5606a20_1 : [-1/0,1/0]
RESULT: v0x5606ca0_1 : [-1/0,1/0]
RESULT: v0x5606f20_1 : [-1/0,1/0]
RESULT: v0x56071a0_1 : [-1/0,1/0]
RESULT: v0x5607420_1 : [-1/0,1/0]
RESULT: v0x56076a0_1 : [-1/0,1/0]
RESULT: v0x5607920_1 : [-1/0,1/0]
RESULT: v0x5607ba0_1 : [-1/0,1/0]
RESULT: v0x5607e20_1 : [-1/0,1/0]
