RESULT: v0x4cb8650_0 : [-1/0,1/0]
RESULT: v0x4cb8590_0 : [-1/0,1/0]
RESULT: v0x4cb8890_0 : [-1/0,1/0]
RESULT: v0x4cb8950_0 : [-1/0,1/0]
RESULT: v0x4cb8290_0 : [-1/0,1/0]
RESULT: v0x4cb81f0_0 : [-1/0,1/0]
RESULT: v0x4c31150_0 : [-1/0,1/0]
RESULT: v0x4c60ad0_0 : [-1/0,1/0]
RESULT: v0x4cb8a10_0 : [-1/0,1/0]
RESULT: v0x4cb8ad0_0 : [-1/0,1/0]
RESULT: v0x4cb8b90_0 : [-1/0,1/0]
RESULT: v0x4cb8c50_0 : [-1/0,1/0]
RESULT: v0x4cb8d10_0 : [-1/0,1/0]
RESULT: v0x4cb8dd0_0 : [-1/0,1/0]
RESULT: v0x4cb8e90_0 : [-1/0,1/0]
RESULT: v0x4cb8f50_0 : [-1/0,1/0]
RESULT: v0x4cb9010_0 : [-1/0,1/0]
RESULT: v0x4cb90d0_0 : [-1/0,1/0]
RESULT: v0x4cb9190_0 : [-1/0,1/0]
RESULT: v0x4cb8710_0 : [-1/0,1/0]
RESULT: v0x4cb84d0_0 : [-1/0,1/0]
RESULT: v0x4cb88d0_0 : [-1/0,1/0]
RESULT: v0x4cb8410_0 : [-1/0,1/0]
RESULT: v0x4cb8350_0 : [-1/0,1/0]
