RESULT: v0x44e4510_0 : [-1/0,1/0]
RESULT: v0x44e4310_0 : [-1/0,1/0]
RESULT: v0x44e4410_0 : [-1/0,1/0]
RESULT: v0x44e4210_0 : [-1/0,1/0]
RESULT: v0x44e4110_0 : [-1/0,1/0]
RESULT: v0x471f360_1 : [1,1]
RESULT: v0x471e6e0_1 : [0,150]
RESULT: v0x471b620_1 : [0,0]
RESULT: v0x471bda0_1 : [0,0]
RESULT: v0x471bb20_1 : [1,1]
RESULT: v0x471c3e0_1 : [0,0]
RESULT: v0x471aae0_1 : [1,1]
RESULT: v0x46107b0_1 : [1,1]
RESULT: v0x4610f30_1 : [0,0]
RESULT: v0x4610df0_1 : [1,1]
RESULT: v0x4611570_1 : [1,1]
RESULT: v0x4611a70_1 : [1,1]
RESULT: v0x46120b0_1 : [0,0]
RESULT: v0x4611e30_1 : [1,1]
RESULT: v0x46125b0_1 : [0,0]
RESULT: v0x4612470_1 : [1,1]
