RESULT: v0x4aa6eb0_0 : [2,1/0]
RESULT: v0x4a6f9e0_0 : [0,1]
RESULT: v0x4abdf30_0 : [0,1]
RESULT: v0x4bbf1d0_0 : [123,777]
RESULT: v0x4c13da0_0 : [0,1]
RESULT: v0x4bb9030_0 : [0,1]
RESULT: v0x4ca0da0_0 : [0,2]
RESULT: v0x4a72930_0 : [0,456]
RESULT: v0x4c21460_0 : [0,1]
RESULT: v0x4bb3280_0 : [0,1]
RESULT: v0x4bc3310_0 : [0,666]
RESULT: v0x4936e10_0 : [0,1]
RESULT: v0x4bc4810_0 : [0,1]
RESULT: v0x4c35fe0_0 : [0,1]
RESULT: v0x4aa4170_0 : [0,123]
RESULT: v0x4c11e20_0 : [0,1]
RESULT: v0x4c46c60_0 : [0,1]
RESULT: v0x4af7160_0 : [456,456]
RESULT: v0x4c1df00_0 : [2,2]
RESULT: v0x4c2e4e0_0 : [1,1]
RESULT: v0x4a536b0_0 : [0,1]
RESULT: v0x4931d10_0 : [0,3]
RESULT: v0x4914250_0 : [-1/0,1/0]
RESULT: v0x4913f50_0 : [456,456]
RESULT: v0x4915450_0 : [0,0]
RESULT: v0x4915550_0 : [0,456]
RESULT: v0x4915650_0 : [0,1]
RESULT: v0x4915a50_0 : [0,2]
RESULT: v0x4915b50_0 : [0,1]
RESULT: v0x4915c50_0 : [0,1]
RESULT: v0x4915d50_0 : [1,2]
RESULT: v0x4917350_0 : [0,0]
RESULT: v0x4917450_0 : [123,777]
RESULT: v0x4917550_0 : [0,0]
RESULT: v0x4917650_0 : [1,1]
RESULT: v0x4917750_0 : [2,2]
RESULT: v0x4917850_0 : [1,1]
RESULT: v0x4917950_0 : [1,3]
RESULT: v0x4917a50_0 : [1,3]
RESULT: v0x4918450_0 : [0,0]
RESULT: v0x4918550_0 : [0,456]
RESULT: v0x4918650_0 : [0,0]
RESULT: v0x4918750_0 : [0,0]
RESULT: v0x4918850_0 : [2,2]
RESULT: v0x4918950_0 : [2,2]
RESULT: v0x4918a50_0 : [0,0]
RESULT: v0x4914150_0 : [0,0]
