RESULT: v0x5369210_1 : [3,3]
RESULT: v0x52417b0_1 : [0,1]
RESULT: v0x53696b0_1 : [0,1]
RESULT: v0x52419f0_1 : [0,1]
RESULT: v0x52a5cd0_1 : [0,1]
RESULT: v0x52a5e30_1 : [0,1]
RESULT: v0x52a5b50_1 : [0,1]
RESULT: v0x52a5a90_1 : [0,1]
RESULT: v0x52a5850_1 : [0,1]
RESULT: v0x52a5790_1 : [0,1]
RESULT: v0x52a5550_1 : [0,1]
RESULT: v0x52a5490_1 : [0,2]
RESULT: v0x52a5250_1 : [0,3]
RESULT: v0x52a5190_1 : [0,1]
RESULT: v0x52a4f50_1 : [123,777]
RESULT: v0x52a4e90_1 : [0,666]
RESULT: v0x52a4c50_1 : [0,2]
RESULT: v0x52cd0a0_1 : [0,1]
RESULT: v0x52a4920_1 : [0,2]
RESULT: v0x52a4860_1 : [0,456]
RESULT: v0x52a4620_1 : [0,123]
RESULT: v0x52a4560_1 : [0,456]
RESULT: v0x52a4b60_1 : [0,3]
RESULT: v0x5369a70_1 : [0,1]
RESULT: v0x52cd1a0_1 : [0,1]
