RESULT: v0x45941f0_0 : [0,1]
RESULT: v0x4594390_0 : [0,1]
RESULT: v0x4594590_0 : [0,1]
RESULT: v0x4594790_0 : [0,1]
RESULT: v0x4594990_0 : [0,1]
RESULT: v0x3ced8b0_0 : [0,1]
RESULT: v0x3cedab0_0 : [0,1]
RESULT: v0x3cedcb0_0 : [0,1]
RESULT: v0x3cedeb0_0 : [0,1]
RESULT: v0x4595790_0 : [0,1]
RESULT: v0x4595970_0 : [1,1]
RESULT: v0x4595b70_0 : [0,2]
RESULT: v0x4595d70_0 : [0,2]
RESULT: v0x4595f70_0 : [0,2]
RESULT: v0x4596170_0 : [0,2]
RESULT: v0x4596370_0 : [0,2]
RESULT: v0x4596570_0 : [0,2]
RESULT: v0x4596770_0 : [0,2]
RESULT: v0x4596970_0 : [0,2]
RESULT: v0x4596b70_0 : [0,2]
RESULT: v0x4596d70_0 : [0,2]
RESULT: v0x4596f70_0 : [2,2]
