RESULT: v0x89f90e0_0 : [-1/0,1/0]
RESULT: v0xe062e10_0 : [-1/0,1/0]
RESULT: v0x16356b50_0 : [-1/0,1/0]
RESULT: v0x4066d00_0 : [-1/0,1/0]
RESULT: v0x42b1d10_0 : [27,1/0]
RESULT: v0xbdeae50_0 : [-1/0,1/0]
RESULT: v0x41bce20_0 : [-1/0,1/0]
RESULT: v0xe062dd0_0 : [1,1]
RESULT: v0x464f140_0 : [-1/0,1/0]
RESULT: v0xa3cbb80_0 : [-1/0,1/0]
RESULT: v0x71ef1f0_0 : [-1/0,1/0]
RESULT: v0x3f94330_0 : [67,1/0]
RESULT: v0x3f94430_0 : [0,1]
RESULT: v0x3f94530_0 : [-1/0,1/0]
RESULT: v0x3f94630_0 : [-1/0,1/0]
RESULT: v0x3f94730_0 : [-1/0,1/0]
RESULT: v0x3f94830_0 : [-1/0,1/0]
RESULT: v0x3f94930_0 : [0,1]
RESULT: v0x3f94a30_0 : [-1/0,1/0]
RESULT: v0x3f94b30_0 : [-1/0,1/0]
RESULT: v0x3f94c30_0 : [-1/0,1/0]
RESULT: v0x3f94d30_0 : [-1/0,1/0]
RESULT: v0x3f94e30_0 : [-1/0,1/0]
RESULT: v0x3f94f30_0 : [-1/0,1/0]
RESULT: v0x3f95030_0 : [-1/0,1/0]
RESULT: v0xb3b0270_0 : [-1/0,1/0]
RESULT: v0x60462a0_0 : [-1/0,1/0]
RESULT: v0x13302060_0 : [-1/0,1/0]
RESULT: v0x5301f10_0 : [-1/0,10]
RESULT: v0x5274480_0 : [-1/0,1/0]
RESULT: v0x3f96330_0 : [-1/0,1/0]
