RESULT: v0x4080ce0_0 : [-1/0,1/0]
RESULT: v0x43709e0_0 : [-1/0,1/0]
RESULT: v0x4370b20_0 : [-1/0,1/0]
RESULT: v0x43712a0_0 : [-1/0,1/0]
RESULT: v0x4371160_0 : [-1/0,1/0]
RESULT: v0x4371020_0 : [-1/0,1/0]
RESULT: v0x4370760_0 : [-1/0,1/0]
RESULT: v0x4370620_0 : [-1/0,1/0]
RESULT: v0x40b28e0_0 : [-1/0,1/0]
RESULT: v0x40b29e0_0 : [1,1]
RESULT: v0x40b2ae0_0 : [-1/0,1/0]
RESULT: v0x40b2be0_0 : [-1/0,1/0]
RESULT: v0x40b2ce0_0 : [0,1]
RESULT: v0x40b2de0_0 : [-1/0,1/0]
RESULT: v0x40b2ee0_0 : [0,1]
RESULT: v0x43713e0_0 : [-1/0,1/0]
RESULT: v0x40841e0_0 : [-1/0,1/0]
RESULT: v0x40b32e0_0 : [-1/0,1/0]
RESULT: v0x40b33e0_0 : [0,0]
RESULT: v0x40b34e0_0 : [-1/0,1/0]
RESULT: v0x40b35e0_0 : [0,0]
RESULT: v0x436bda0_0 : [-1/0,1/0]
RESULT: v0x4371660_0 : [-1/0,1/0]
RESULT: v0x4371520_0 : [-1/0,1/0]
RESULT: v0x43703a0_0 : [-1/0,1/0]
RESULT: v0x4370260_0 : [-1/0,1/0]
RESULT: v0x4370120_0 : [-1/0,1/0]
RESULT: v0x436ffe0_0 : [-1/0,1/0]
RESULT: v0x436fea0_0 : [-1/0,1/0]
RESULT: v0x433c1e0_0 : [-1/0,1/0]
RESULT: v0x43655e0_0 : [-1/0,1/0]
RESULT: v0x4347720_0 : [-1/0,1/0]
RESULT: v0x4183980_0 : [-1/0,1/0]
RESULT: v0x40840e0_0 : [0,1]
RESULT: v0x43704e0_0 : [-1/0,1/0]
RESULT: v0x4370c60_0 : [-1/0,1/0]
RESULT: v0x43708a0_0 : [-1/0,1/0]
RESULT: v0x4370da0_0 : [-1/0,1/0]
RESULT: v0x4370ee0_0 : [-1/0,1/0]
