RESULT: v0x4d59d90_1 : [3,3]
RESULT: v0x4ca9e70_1 : [0,1]
RESULT: v0x4cadcc0_1 : [0,1]
RESULT: v0x4cb1d50_1 : [0,1]
RESULT: v0x4cc1da0_1 : [0,1]
RESULT: v0x4d04470_1 : [0,1]
RESULT: v0x4d15050_1 : [0,1]
RESULT: v0x4ca3260_1 : [0,1]
RESULT: v0x4ca71f0_1 : [0,1]
RESULT: v0x4ca9170_1 : [0,1]
RESULT: v0x4b8abd0_1 : [0,1]
RESULT: v0x4d62080_1 : [0,1]
RESULT: v0x4d13b70_1 : [0,1]
RESULT: v0x4cb2f10_1 : [0,2]
RESULT: v0x4ca4350_1 : [0,3]
RESULT: v0x4d0e030_1 : [0,1]
RESULT: v0x4cb49b0_1 : [123,777]
RESULT: v0x4cf93f0_1 : [0,666]
RESULT: v0x4cb2970_1 : [0,2]
RESULT: v0x4d20bf0_1 : [0,1]
RESULT: v0x4caee50_1 : [0,2]
RESULT: v0x4cad980_1 : [0,456]
RESULT: v0x4e679e0_1 : [0,123]
RESULT: v0x4dec4a0_1 : [0,456]
