RESULT: v0x50ec3b0_0 : [0,1]
RESULT: v0x5171130_0 : [0,1]
RESULT: v0x5134790_0 : [0,1]
RESULT: v0x62c9460_0 : [0,1]
RESULT: v0x62bbe80_0 : [0,1]
RESULT: v0x5ebce80_0 : [0,1]
RESULT: v0x623aee0_0 : [0,1]
RESULT: v0x5eae400_0 : [0,1]
RESULT: v0x62df9c0_0 : [0,1]
RESULT: v0x62ded40_0 : [0,1]
RESULT: v0x5108360_0 : [0,1]
RESULT: v0x50ec190_0 : [0,1]
RESULT: v0x5e774e0_0 : [0,1]
RESULT: v0x576b480_0 : [1,1]
RESULT: v0x5cd1c90_0 : [-1/0,1/0]
RESULT: v0x6ab6930_0 : [-1/0,1/0]
RESULT: v0x50fe450_0 : [0,2]
RESULT: v0x51310d0_0 : [0,2]
RESULT: v0x514c710_0 : [0,2]
RESULT: v0x51446d0_0 : [0,2]
RESULT: v0x50f47b0_0 : [0,2]
RESULT: v0x516bb50_0 : [0,2]
RESULT: v0x51743d0_0 : [0,2]
RESULT: v0x5ebb780_0 : [0,2]
RESULT: v0x5167970_0 : [0,2]
RESULT: v0x6258350_0 : [0,2]
RESULT: v0x62c9760_0 : [0,2]
RESULT: v0x5173b50_0 : [0,2]
RESULT: v0x5e98280_0 : [0,2]
RESULT: v0x62babe0_0 : [2,2]
