RESULT: v0x44bc8f0_0 : [1,2]
RESULT: v0x44bbc90_0 : [0,54]
RESULT: v0x44bb8f0_0 : [0,51]
RESULT: v0x44bb9f0_0 : [0,52]
RESULT: v0x44bbb90_0 : [0,53]
RESULT: v0x44bb7f0_0 : [0,50]
RESULT: v0x44bcbf0_0 : [-1/0,1/0]
RESULT: v0x97e47d0_0 : [-1/0,1/0]
RESULT: v0x97e48d0_0 : [-1/0,1/0]
RESULT: v0x97e49d0_0 : [-1/0,1/0]
RESULT: v0x97e4ad0_0 : [0,1]
RESULT: v0x97e4bd0_0 : [0,1/0]
RESULT: v0x97dba20_0 : [0,1/0]
RESULT: v0x97dbb20_0 : [-1/0,1/0]
RESULT: v0x97dbc20_0 : [-1/0,1/0]
RESULT: v0x97dbd20_0 : [-1/0,1/0]
RESULT: v0x97e5470_0 : [-1/0,1/0]
RESULT: v0x97e5570_0 : [-1/0,1/0]
RESULT: v0x97e5670_0 : [-1/0,1/0]
RESULT: v0x97e5770_0 : [-1/0,1/0]
RESULT: v0x97e5870_0 : [-1/0,1/0]
RESULT: v0x97e5970_0 : [-1/0,1/0]
