RESULT: v0x5244650_0 : [-1/0,1/0]
RESULT: v0x5244850_0 : [-1/0,1/0]
RESULT: v0x5245550_0 : [789,789]
RESULT: v0x5244450_0 : [-1/0,1/0]
RESULT: v0x5244750_0 : [-1/0,1/0]
RESULT: v0x5244550_0 : [-1/0,1/0]
RESULT: v0x5695930_1 : [2,2]
RESULT: v0x56952f0_1 : [0,1]
RESULT: v0x56965b0_1 : [0,1]
RESULT: v0x5695070_1 : [0,1]
RESULT: v0x56961f0_1 : [0,1]
RESULT: v0x5695e30_1 : [0,1]
RESULT: v0x569d770_1 : [0,1]
RESULT: v0x569e530_1 : [0,1]
RESULT: v0x569e170_1 : [0,1]
RESULT: v0x569cd70_1 : [0,1]
RESULT: v0x569d9f0_1 : [0,1]
RESULT: v0x569c730_1 : [0,1]
RESULT: v0x569c870_1 : [0,2]
RESULT: v0x569c9b0_1 : [0,3]
RESULT: v0x56a2130_1 : [0,1]
RESULT: v0x569b5b0_1 : [123,777]
RESULT: v0x56a19b0_1 : [0,666]
RESULT: v0x56a1370_1 : [0,2]
RESULT: v0x5663930_1 : [0,1]
RESULT: v0x56a0830_1 : [0,2]
RESULT: v0x56b7670_1 : [0,456]
RESULT: v0x56b77b0_1 : [0,123]
RESULT: v0x56b6ef0_1 : [0,456]
RESULT: v0x56b6b30_1 : [0,3]
RESULT: v0x56bb4f0_1 : [0,1]
