RESULT: v0x432d830_0 : [-1/0,1/0]
RESULT: v0x75989d0_0 : [-1/0,1/0]
RESULT: v0x5a77b60_0 : [-1/0,1/0]
RESULT: v0x7c7c910_0 : [0,1]
RESULT: v0xa3a4a40_0 : [67,1/0]
RESULT: v0x4602fe0_0 : [-1/0,1/0]
RESULT: v0x40b4bf0_0 : [-1/0,1/0]
RESULT: v0x7c7c9d0_0 : [0,0]
RESULT: v0x40b4b50_0 : [-1/0,1/0]
RESULT: v0xdd63360_0 : [-1/0,1/0]
RESULT: v0x711f450_0 : [-1/0,1/0]
RESULT: v0x3f94330_0 : [67,1/0]
RESULT: v0x3f94430_0 : [0,1]
RESULT: v0x3f94530_0 : [-1/0,1/0]
RESULT: v0x3f94630_0 : [-1/0,1/0]
RESULT: v0x3f94730_0 : [-1/0,1/0]
RESULT: v0x3f94830_0 : [-1/0,1/0]
RESULT: v0x3f94930_0 : [0,1]
RESULT: v0x3f94a30_0 : [-1/0,1/0]
RESULT: v0x3f94b30_0 : [-1/0,1/0]
RESULT: v0x3f94c30_0 : [0,0]
RESULT: v0x3f94d30_0 : [-1/0,1/0]
RESULT: v0x3f94e30_0 : [-1/0,1/0]
RESULT: v0x3f94f30_0 : [-1/0,1/0]
RESULT: v0x3f95030_0 : [-1/0,1/0]
RESULT: v0x756a2c0_0 : [-1/0,1/0]
RESULT: v0x433db30_0 : [-1/0,1/0]
RESULT: v0x5a649c0_0 : [0,0]
RESULT: v0x6128420_0 : [-1/0,10]
RESULT: v0xff49e80_0 : [-1/0,1/0]
RESULT: v0x3f95330_0 : [-1/0,1/0]
