RESULT: v0x4205690_0 : [-1/0,1/0]
RESULT: v0x41f9a90_0 : [3,10]
RESULT: v0x4201f90_0 : [0,1]
RESULT: v0x4201c90_0 : [0,1]
RESULT: v0x41fa290_0 : [0,1]
RESULT: v0x4202290_0 : [0,1]
RESULT: v0x41fa090_0 : [0,0]
RESULT: v0x4202690_0 : [0,1]
RESULT: v0x4202390_0 : [0,1]
RESULT: v0x4202590_0 : [0,1]
RESULT: v0x4201b90_0 : [80,200]
RESULT: v0x41fa190_0 : [-1/0,1/0]
RESULT: v0x4202990_0 : [-1/0,1/0]
RESULT: v0x4202190_0 : [-1/0,1/0]
RESULT: v0x4201d90_0 : [0,1]
RESULT: v0x4202490_0 : [0,1]
RESULT: v0x4201e90_0 : [0,1]
RESULT: v0x41f9e90_0 : [0,1]
RESULT: v0x41fa490_0 : [0,1]
RESULT: v0x41f9b90_0 : [40,120]
RESULT: v0x41fa590_0 : [0,1]
RESULT: v0x41f9d90_0 : [0,1]
RESULT: v0x41f9c90_0 : [1,1]
RESULT: v0x41fa690_0 : [1,1]
RESULT: v0x41fa390_0 : [1,1]
RESULT: v0x41f9f90_0 : [1,1]
RESULT: v0x79e6d80_0 : [-1/0,1/0]
