RESULT: v0x49c2730_0 : [0,1]
RESULT: v0x4ea8090_1 : [0,1]
RESULT: v0x4c747e0_1 : [0,1]
RESULT: v0x5e76e40_1 : [0,1]
RESULT: v0x6713d00_1 : [0,1]
RESULT: v0x4c67d70_1 : [0,1]
RESULT: v0x6723950_1 : [0,1]
RESULT: v0x4c692f0_1 : [0,1]
RESULT: v0x5e473c0_1 : [0,1]
RESULT: v0x4c89410_1 : [0,1]
RESULT: v0x5e46310_1 : [0,1]
RESULT: v0x4ec3890_1 : [0,1]
RESULT: v0x6711190_1 : [-1/0,1/0]
RESULT: v0x4c6b7b0_1 : [-1/0,1/0]
RESULT: v0x5a690c0_1 : [0,2]
RESULT: v0x61937b0_1 : [0,2]
RESULT: v0x554ac50_1 : [0,2]
RESULT: v0x5a692a0_1 : [0,2]
RESULT: v0x553c2b0_1 : [0,2]
RESULT: v0x5a580f0_1 : [0,2]
RESULT: v0x5a58950_1 : [0,2]
RESULT: v0x5e4f370_1 : [0,2]
RESULT: v0x673cd00_1 : [0,2]
RESULT: v0x5e4eed0_1 : [0,2]
RESULT: v0x4c72990_1 : [0,2]
RESULT: v0x4c6fb20_1 : [0,2]
