RESULT: v0x38c8310_1 : [3,3]
RESULT: v0x38c8250_1 : [0,1]
RESULT: v0x38c8190_1 : [0,1]
RESULT: v0x378f020_1 : [0,1]
RESULT: v0x39db950_1 : [0,1]
RESULT: v0x39db890_1 : [0,1]
RESULT: v0x39db810_1 : [0,1]
RESULT: v0x39db410_1 : [0,1]
RESULT: v0x38c8850_1 : [0,1]
RESULT: v0x38c8910_1 : [0,1]
RESULT: v0x37921d0_1 : [0,1]
RESULT: v0x38c8b50_1 : [123,777]
RESULT: v0x38c8c10_1 : [0,666]
RESULT: v0x38c8cd0_1 : [0,2]
RESULT: v0x38b26d0_1 : [0,1]
RESULT: v0x38b4db0_1 : [0,2]
RESULT: v0x38aab00_1 : [0,456]
RESULT: v0x38b5a40_1 : [0,123]
RESULT: v0x38b9860_1 : [0,456]
RESULT: v0x38bdbd0_1 : [0,3]
RESULT: v0x38b97d0_1 : [0,1]
RESULT: v0x38d1a50_1 : [0,1]
