RESULT: v0x4b99170_0 : [2,1/0]
RESULT: v0x4d8f7d0_0 : [0,1]
RESULT: v0x4e19e70_0 : [123,777]
RESULT: v0x4bf8d20_0 : [0,1]
RESULT: v0x4d96a90_0 : [0,1]
RESULT: v0x4e9c2d0_0 : [0,2]
RESULT: v0x4e1b270_0 : [0,3]
RESULT: v0x4da78c0_0 : [0,1]
RESULT: v0x4c33ac0_0 : [0,1]
RESULT: v0x4e4ecd0_0 : [0,666]
RESULT: v0x4c38060_0 : [0,1]
RESULT: v0x4eac170_0 : [0,1]
RESULT: v0x4ea0d30_0 : [0,2]
RESULT: v0x4be9f70_0 : [0,456]
RESULT: v0x4c792b0_0 : [0,1]
RESULT: v0x4dfe580_0 : [0,123]
RESULT: v0x4be9970_0 : [0,1]
RESULT: v0x4c491a0_0 : [0,1]
RESULT: v0x4e73f30_0 : [0,3]
RESULT: v0x4e89050_0 : [0,1]
RESULT: v0x4eab910_0 : [0,1]
RESULT: v0x4dad140_0 : [0,1]
RESULT: v0x4e5c910_0 : [0,1]
RESULT: v0x4d8eed0_0 : [0,2]
RESULT: v0x4e48150_0 : [0,456]
