RESULT: v0x373ee90_0 : [-1/0,1/0]
RESULT: v0x373edd0_0 : [-1/0,1/0]
RESULT: v0x373f010_0 : [-1/0,1/0]
RESULT: v0x373f0d0_0 : [-1/0,1/0]
RESULT: v0x36ce9e0_0 : [-1/0,1/0]
RESULT: v0x373ead0_0 : [-1/0,1/0]
RESULT: v0x373ea10_0 : [-1/0,1/0]
RESULT: v0x373e950_0 : [-1/0,1/0]
RESULT: v0x36fd210_0 : [-1/0,1/0]
RESULT: v0x373f250_0 : [-1/0,1/0]
RESULT: v0x373f310_0 : [-1/0,1/0]
RESULT: v0x373f3d0_0 : [-1/0,1/0]
RESULT: v0x373f490_0 : [-1/0,1/0]
RESULT: v0x373f770_0 : [-1/0,1/0]
RESULT: v0x373f730_0 : [-1/0,1/0]
RESULT: v0x373f7b0_0 : [-1/0,1/0]
RESULT: v0x373f550_0 : [-1/0,1/0]
RESULT: v0x373f850_0 : [-1/0,1/0]
RESULT: v0x373f930_0 : [-1/0,1/0]
RESULT: v0x373f9d0_0 : [-1/0,1/0]
RESULT: v0x373f190_0 : [-1/0,1/0]
RESULT: v0x373ed10_0 : [-1/0,1/0]
RESULT: v0x373ef50_0 : [-1/0,1/0]
RESULT: v0x373ec50_0 : [-1/0,1/0]
RESULT: v0x373eb90_0 : [-1/0,1/0]
