RESULT: v0x3f89760_1 : [4,4]
RESULT: v0x3cd5e50_1 : [0,1]
RESULT: v0x3d0c050_1 : [0,1]
RESULT: v0x3f889c0_1 : [0,1]
RESULT: v0x3cf1c50_1 : [0,1]
RESULT: v0x3c90370_1 : [0,1]
RESULT: v0x3d4f510_1 : [0,1]
RESULT: v0x3f87820_1 : [0,1]
RESULT: v0x3d54cb0_1 : [0,1]
RESULT: v0x3ccc7d0_1 : [0,1]
RESULT: v0x3d778d0_1 : [0,1]
RESULT: v0x3c99040_1 : [0,1]
RESULT: v0x3b2bed0_1 : [0,1]
RESULT: v0x3b34f70_1 : [0,2]
RESULT: v0x3b293d0_1 : [0,3]
RESULT: v0x3b3ba70_1 : [0,1]
RESULT: v0x3b3bfb0_1 : [123,777]
RESULT: v0x3b2c930_1 : [0,666]
RESULT: v0x399f6d0_1 : [0,2]
RESULT: v0x3b202b0_1 : [0,1]
RESULT: v0x3a943f0_1 : [0,2]
RESULT: v0x3c89370_1 : [0,456]
RESULT: v0x3c0df30_1 : [0,123]
RESULT: v0x3a94d60_1 : [0,456]
