RESULT: v0x5a42810_0 : [4,10]
RESULT: v0x6041410_0 : [1,1]
RESULT: v0x603ba30_0 : [1,1]
RESULT: v0x8d0f800_0 : [1,1]
RESULT: v0xa2fbc50_0 : [80,200]
RESULT: v0x8a0ed00_0 : [0,1]
RESULT: v0xa2a8860_0 : [0,1]
RESULT: v0x5ef9630_0 : [0,1]
RESULT: v0x9f144b0_0 : [0,1]
RESULT: v0xa275c40_0 : [0,0]
RESULT: v0xa3335f0_0 : [1,1]
RESULT: v0x60653d0_0 : [0,1]
RESULT: v0x6043110_0 : [0,0]
RESULT: v0x4201b90_0 : [80,200]
RESULT: v0x4201c90_0 : [1,1]
RESULT: v0x4201d90_0 : [0,0]
RESULT: v0x4201e90_0 : [0,1]
RESULT: v0x4201f90_0 : [1,1]
RESULT: v0x4202090_0 : [0,0]
RESULT: v0x4202190_0 : [0,1]
RESULT: v0x4202290_0 : [1,1]
RESULT: v0x4202390_0 : [0,0]
RESULT: v0x4202490_0 : [0,1]
RESULT: v0x4202590_0 : [0,1]
RESULT: v0x4202690_0 : [0,1]
RESULT: v0x8abdcd0_0 : [0,0]
RESULT: v0x4202990_0 : [1,2]
