RESULT: v0x3cea120_0 : [-1/0,1/0]
RESULT: v0x39c5450_0 : [-1/0,1/0]
RESULT: v0x3b05450_0 : [-1/0,1/0]
RESULT: v0x39dbdd0_0 : [-1/0,1/0]
RESULT: v0x3a5c940_0 : [67,1/0]
RESULT: v0x39c28e0_0 : [-1/0,1/0]
RESULT: v0x3a88480_0 : [-1/0,1/0]
RESULT: v0x39dbd10_0 : [-1/0,1/0]
RESULT: v0x3a141c0_0 : [0,0]
RESULT: v0x3a50860_0 : [-1/0,1/0]
RESULT: v0x39f4b80_0 : [-1/0,1/0]
RESULT: v0x391f010_0 : [-1/0,1/0]
RESULT: v0x391f110_0 : [-1/0,1/0]
RESULT: v0x391f210_0 : [-1/0,1/0]
RESULT: v0x391f310_0 : [-1/0,1/0]
RESULT: v0x391f410_0 : [67,1/0]
RESULT: v0x391f510_0 : [0,1]
RESULT: v0x391f610_0 : [0,1]
RESULT: v0x391f710_0 : [-1/0,1/0]
RESULT: v0x391f810_0 : [-1/0,1/0]
RESULT: v0x391f910_0 : [0,0]
RESULT: v0x391fa10_0 : [0,0]
RESULT: v0x391fb10_0 : [-1/0,1/0]
RESULT: v0x391fc10_0 : [-1/0,1/0]
RESULT: v0x391fd10_0 : [-1/0,1/0]
RESULT: v0x3d1b4e0_0 : [-1/0,1/0]
RESULT: v0x3c50c70_0 : [-1/0,1/0]
RESULT: v0x3b4e4d0_0 : [0,0]
RESULT: v0x3cded40_0 : [-1/0,10]
RESULT: v0x3be4ca0_0 : [-1/0,1/0]
RESULT: v0x3920010_0 : [-1/0,1/0]
