RESULT: v0x531f3d0_0 : [-1/0,1/0]
RESULT: v0x531f7b0_0 : [-1/0,1/0]
RESULT: v0x531f6f0_0 : [-1/0,1/0]
RESULT: v0x4904690_0 : [-1/0,1/0]
RESULT: v0x531f490_0 : [-1/0,1/0]
RESULT: v0x531e710_0 : [-1/0,1/0]
RESULT: v0x531fe70_0 : [-1/0,1/0]
RESULT: v0x531e8d0_0 : [-1/0,1/0]
RESULT: v0x531f210_0 : [-1/0,1/0]
RESULT: v0x531f630_0 : [-1/0,1/0]
RESULT: v0x4080ce0_0 : [-1/0,1/0]
RESULT: v0x531e2f0_0 : [-1/0,1/0]
RESULT: v0x531e650_0 : [-1/0,1/0]
RESULT: v0x531feb0_0 : [-1/0,1/0]
RESULT: v0x40b28e0_0 : [-1/0,1/0]
RESULT: v0x40b29e0_0 : [1,1]
RESULT: v0x40b2ae0_0 : [-1/0,1/0]
RESULT: v0x40b2be0_0 : [-1/0,1/0]
RESULT: v0x40b2ce0_0 : [0,1]
RESULT: v0x40b2de0_0 : [-1/0,1/0]
RESULT: v0x40b2ee0_0 : [0,1]
RESULT: v0x40841e0_0 : [-1/0,1/0]
RESULT: v0x40b32e0_0 : [-1/0,1/0]
RESULT: v0x40b33e0_0 : [0,0]
RESULT: v0x40b34e0_0 : [-1/0,1/0]
RESULT: v0x40b35e0_0 : [0,0]
RESULT: v0x5328890_0 : [-1/0,1/0]
RESULT: v0x531b4e0_0 : [-1/0,1/0]
RESULT: v0x4905290_0 : [-1/0,1/0]
RESULT: v0x531f850_0 : [-1/0,1/0]
RESULT: v0x531f930_0 : [-1/0,1/0]
RESULT: v0x531fa30_0 : [-1/0,1/0]
RESULT: v0x531fdb0_0 : [-1/0,1/0]
RESULT: v0x531ff70_0 : [-1/0,1/0]
RESULT: v0x534f6e0_0 : [-1/0,1/0]
RESULT: v0x532ee20_0 : [-1/0,1/0]
RESULT: v0x7ea5fd0_0 : [-1/0,1/0]
RESULT: v0x897fad0_0 : [-1/0,1/0]
RESULT: v0x40840e0_0 : [0,1]
