RESULT: v0x5387ad0_0 : [2,1/0]
RESULT: v0x55c6310_0 : [0,1]
RESULT: v0x557cc30_0 : [0,1]
RESULT: v0x55cb830_0 : [123,777]
RESULT: v0x55fdc50_0 : [0,1]
RESULT: v0x55cfb50_0 : [0,1]
RESULT: v0x5595710_0 : [0,2]
RESULT: v0x55900b0_0 : [0,3]
RESULT: v0x54a42f0_0 : [0,1]
RESULT: v0x54af080_0 : [0,0]
RESULT: v0x55a7870_0 : [0,0]
RESULT: v0x54b1a10_0 : [456,456]
RESULT: v0x553b420_0 : [0,2]
RESULT: v0x55fbb30_0 : [0,456]
RESULT: v0x5347850_0 : [0,1]
RESULT: v0x5592470_0 : [0,1]
RESULT: v0x5577830_0 : [1,1]
RESULT: v0x5345eb0_0 : [3,3]
RESULT: v0x55c48b0_0 : [2,2]
RESULT: v0x5388490_0 : [456,456]
RESULT: v0x5522090_0 : [0,1]
RESULT: v0x54b6ea0_0 : [1,1]
RESULT: v0x55bbb50_0 : [0,123]
RESULT: v0x53c3e30_0 : [0,1]
