RESULT: v0x4b6bc90_0 : [1,1/0]
RESULT: v0x4b5ee60_0 : [0,1]
RESULT: v0x4eeba50_0 : [0,1]
RESULT: v0x4eefa70_0 : [0,1]
RESULT: v0x4f0f0b0_0 : [0,1]
RESULT: v0x4f387b0_0 : [0,1]
RESULT: v0x4d25450_0 : [0,1]
RESULT: v0x4edef00_0 : [0,1]
RESULT: v0x4b5e3e0_0 : [0,1]
RESULT: v0x4f00eb0_0 : [0,1]
RESULT: v0x4d08700_0 : [0,1]
RESULT: v0x4d249b0_0 : [0,1]
RESULT: v0x4efe8d0_0 : [0,1]
RESULT: v0x4efd370_0 : [123,777]
RESULT: v0x4b9bbe0_0 : [0,666]
RESULT: v0x4ee1000_0 : [0,2]
RESULT: v0x4ac4a30_0 : [0,1]
RESULT: v0x4d4acd0_0 : [0,456]
RESULT: v0x4eef210_0 : [0,123]
RESULT: v0x498dd20_0 : [-1/0,1/0]
RESULT: v0x498da20_0 : [0,456]
RESULT: v0x498dc20_0 : [0,1]
