RESULT: v0x59218f0_0 : [-1/0,1/0]
RESULT: v0x591fd20_0 : [-1/0,1/0]
RESULT: v0x591d7e0_0 : [-1/0,1/0]
RESULT: v0x5921830_0 : [-1/0,1/0]
RESULT: v0x59241c0_0 : [-1/0,1/0]
RESULT: v0x59217b0_0 : [-1/0,1/0]
RESULT: v0x591fd60_0 : [-1/0,1/0]
RESULT: v0x5922ff0_0 : [-1/0,1/0]
RESULT: v0x5946ba0_0 : [-1/0,1/0]
RESULT: v0x59514c0_0 : [-1/0,1/0]
RESULT: v0x5579ea0_0 : [-1/0,1/0]
RESULT: v0x591d6e0_0 : [-1/0,1/0]
RESULT: v0x591fe20_0 : [-1/0,1/0]
RESULT: v0x591e3e0_0 : [-1/0,1/0]
RESULT: v0x591cc60_0 : [-1/0,1/0]
RESULT: v0x591ca80_0 : [-1/0,1/0]
RESULT: v0x5918230_0 : [-1/0,1/0]
RESULT: v0x59180b0_0 : [-1/0,1/0]
RESULT: v0x591ba30_0 : [-1/0,1/0]
RESULT: v0x591b970_0 : [-1/0,1/0]
RESULT: v0x591bd80_0 : [-1/0,1/0]
RESULT: v0x591bc70_0 : [-1/0,1/0]
RESULT: v0x59228b0_0 : [-1/0,1/0]
RESULT: v0x5922a30_0 : [-1/0,1/0]
