RESULT: v0x3e4a030_0 : [1,2]
RESULT: v0x3e49230_0 : [0,52]
RESULT: v0x3e49130_0 : [0,51]
RESULT: v0x3e493d0_0 : [0,53]
RESULT: v0x3e49030_0 : [0,50]
RESULT: v0x3e4a330_0 : [-1/0,1/0]
RESULT: v0x7f1c570_0 : [-1/0,1/0]
RESULT: v0x7f1c670_0 : [-1/0,1/0]
RESULT: v0x7f1c770_0 : [-1/0,1/0]
RESULT: v0x7f1c870_0 : [0,1]
RESULT: v0x7f1c970_0 : [0,1/0]
RESULT: v0x7f1ca70_0 : [0,53]
RESULT: v0x7f138c0_0 : [-1/0,1/0]
RESULT: v0x7f139c0_0 : [-1/0,1/0]
RESULT: v0x7f13ac0_0 : [-1/0,1/0]
RESULT: v0x7f13bc0_0 : [-1/0,1/0]
RESULT: v0x7f1d310_0 : [-1/0,1/0]
RESULT: v0x7f1d410_0 : [-1/0,1/0]
RESULT: v0x7f1d510_0 : [-1/0,1/0]
RESULT: v0x7f1d610_0 : [-1/0,3]
RESULT: v0x7f1d710_0 : [-1/0,1/0]
