RESULT: v0x35e64a0_1 : [-1/0,1/0]
RESULT: v0x3552b40_1 : [-1/0,1/0]
RESULT: v0x3570ce0_1 : [-1/0,1/0]
RESULT: v0x3540fe0_1 : [-1/0,1/0]
RESULT: v0x356e890_1 : [-1/0,1/0]
RESULT: v0x343f670_1 : [-1/0,1/0]
RESULT: v0x354dfd0_1 : [-1/0,1/0]
RESULT: v0x358b290_1 : [-1/0,1/0]
RESULT: v0x3592a10_1 : [-1/0,1/0]
RESULT: v0x343db10_1 : [-1/0,1/0]
RESULT: v0x35751b0_1 : [-1/0,1/0]
RESULT: v0x355ddc0_1 : [-1/0,1/0]
RESULT: v0x355df20_1 : [-1/0,1/0]
RESULT: v0x358b1d0_1 : [-1/0,1/0]
RESULT: v0x37cfd00_1 : [-1/0,1/0]
RESULT: v0x35b7420_1 : [-1/0,1/0]
RESULT: v0x35b9e90_1 : [-1/0,1/0]
RESULT: v0x35f52c0_1 : [-1/0,1/0]
RESULT: v0x39b94b0_1 : [-1/0,1/0]
RESULT: v0x38f8f90_1 : [-1/0,1/0]
RESULT: v0x37cfac0_1 : [-1/0,1/0]
RESULT: v0x359ac10_1 : [-1/0,1/0]
RESULT: v0x37cfa40_1 : [-1/0,1/0]
RESULT: v0x3543ac0_1 : [-1/0,1/0]
RESULT: v0x35dcab0_1 : [-1/0,1/0]
RESULT: v0x3639190_1 : [-1/0,1/0]
RESULT: v0x35dca30_1 : [-1/0,1/0]
RESULT: v0x38fbab0_1 : [-1/0,1/0]
RESULT: v0x3580320_1 : [-1/0,1/0]
