RESULT: v0x4551180_0 : [0,0]
RESULT: v0x481b2f0_1 : [0,1]
RESULT: v0x481b590_1 : [0,1]
RESULT: v0x48119d0_1 : [0,1]
RESULT: v0x4815030_1 : [0,1]
RESULT: v0x47ff5d0_1 : [0,1]
RESULT: v0x4800370_1 : [0,1]
RESULT: v0x4803ad0_1 : [0,1]
RESULT: v0x47f8ba0_1 : [0,1]
RESULT: v0x47f8ec0_1 : [0,1]
RESULT: v0x47ee5d0_1 : [0,1]
RESULT: v0x47e6d70_1 : [0,1]
RESULT: v0x47e7650_1 : [0,1]
RESULT: v0x47c8920_1 : [0,2]
RESULT: v0x47e0100_1 : [0,2]
RESULT: v0x47c92b0_1 : [0,2]
RESULT: v0x47d4fa0_1 : [0,2]
RESULT: v0x47cfad0_1 : [0,2]
RESULT: v0x480c1b0_1 : [0,2]
RESULT: v0x480c410_1 : [0,2]
RESULT: v0x47fe500_1 : [0,2]
RESULT: v0x4800090_1 : [0,2]
RESULT: v0x4800710_1 : [0,2]
RESULT: v0x4806340_1 : [0,2]
RESULT: v0x47f9640_1 : [0,2]
RESULT: v0x4811670_1 : [0,0]
