RESULT: v0x6109960_0 : [0,1]
RESULT: v0x6109b40_0 : [1,1]
RESULT: v0x6109d40_0 : [0,1]
RESULT: v0x6109f40_0 : [0,1]
RESULT: v0x610a140_0 : [0,1]
RESULT: v0x610a340_0 : [0,1]
RESULT: v0x610a540_0 : [0,1]
RESULT: v0x610a740_0 : [0,1]
RESULT: v0x610a940_0 : [0,1]
RESULT: v0x610ab40_0 : [0,1]
RESULT: v0x610ad40_0 : [0,1]
RESULT: v0x610af40_0 : [0,1]
RESULT: v0x610b140_0 : [0,1]
RESULT: v0x610b340_0 : [1,1]
RESULT: v0x610b540_0 : [0,2]
RESULT: v0x610b740_0 : [2,2]
RESULT: v0x610b940_0 : [0,2]
RESULT: v0x610bb40_0 : [0,2]
RESULT: v0x610bd40_0 : [0,2]
RESULT: v0x610bf40_0 : [0,2]
RESULT: v0x610c140_0 : [0,2]
RESULT: v0x610c340_0 : [0,2]
RESULT: v0x610c540_0 : [0,2]
RESULT: v0x610c740_0 : [0,2]
RESULT: v0x610c940_0 : [0,2]
RESULT: v0x610cb40_0 : [0,2]
RESULT: v0x610cd40_0 : [0,2]
RESULT: v0x610cf40_0 : [2,2]
