RESULT: v0x951bb20_0 : [2,2]
RESULT: v0x96c6a30_0 : [1,1]
RESULT: v0x9508460_0 : [0,1]
RESULT: v0x8e48640_0 : [0,1]
RESULT: v0x9732e70_0 : [0,1]
RESULT: v0x972d970_0 : [0,1]
RESULT: v0x974b9e0_0 : [0,1]
RESULT: v0x9318840_0 : [40,120]
RESULT: v0x973a3d0_0 : [0,1]
RESULT: v0x92c2510_0 : [0,1]
RESULT: v0x970c290_0 : [0,1]
RESULT: v0x9725870_0 : [0,1]
RESULT: v0x93d2eb0_0 : [0,0]
RESULT: v0x8c820e0_0 : [0,1]
RESULT: v0x93368c0_0 : [-1/0,1/0]
RESULT: v0x3971700_0 : [0,1]
RESULT: v0x3971800_0 : [0,1]
RESULT: v0x3971900_0 : [0,1]
RESULT: v0x3971a00_0 : [0,1]
RESULT: v0x3971b00_0 : [80,120]
RESULT: v0x3971c00_0 : [0,1]
RESULT: v0x3971d00_0 : [0,1]
RESULT: v0x3971e00_0 : [-1/0,1/0]
RESULT: v0x3971f00_0 : [0,1]
RESULT: v0x3972000_0 : [0,1]
RESULT: v0x3972100_0 : [0,1]
RESULT: v0x3972200_0 : [0,1]
RESULT: v0x3972300_0 : [0,1]
RESULT: v0x3972400_0 : [0,1]
RESULT: v0x995ea60_0 : [-1/0,1/0]
RESULT: v0x3973700_0 : [-1/0,1/0]
