RESULT: v0x32d6eb0_0 : [0,1]
RESULT: v0x4188800_1 : [0,1]
RESULT: v0x4191370_1 : [0,1]
RESULT: v0x31aaaf0_1 : [0,1]
RESULT: v0x417ff80_1 : [0,1]
RESULT: v0x442b3a0_1 : [0,1]
RESULT: v0x484cad0_1 : [0,1]
RESULT: v0x484f4c0_1 : [0,1]
RESULT: v0x417b1d0_1 : [0,1]
RESULT: v0x3567640_1 : [0,1]
RESULT: v0x36557b0_1 : [0,1]
RESULT: v0x4182680_1 : [0,1]
RESULT: v0x418ebc0_1 : [0,2]
RESULT: v0x3ed9850_1 : [0,2]
RESULT: v0x418bda0_1 : [0,2]
RESULT: v0x41884c0_1 : [0,2]
RESULT: v0x478ea00_1 : [0,2]
RESULT: v0x418e120_1 : [0,2]
RESULT: v0x3365270_1 : [0,2]
RESULT: v0x4564770_1 : [0,2]
RESULT: v0x416ff30_1 : [0,2]
RESULT: v0x46a5960_1 : [0,2]
RESULT: v0x3eba340_1 : [0,2]
RESULT: v0x478fd10_1 : [0,2]
