RESULT: v0x549d3e0_0 : [-1/0,1/0]
RESULT: v0x84e1410_0 : [-1/0,1/0]
RESULT: v0x527c8d0_0 : [-1/0,1/0]
RESULT: v0x5731e60_0 : [-1/0,1/0]
RESULT: v0x84b5090_0 : [27,1/0]
RESULT: v0xa09d970_0 : [-1/0,1/0]
RESULT: v0x9bb49c0_0 : [-1/0,1/0]
RESULT: v0x626fb00_0 : [-1/0,1/0]
RESULT: v0xa0ec910_0 : [1,1]
RESULT: v0x9cfcde0_0 : [-1/0,1/0]
RESULT: v0x721f680_0 : [-1/0,1/0]
RESULT: v0x4285070_0 : [67,1/0]
RESULT: v0x4285170_0 : [-1/0,1/0]
RESULT: v0x4285270_0 : [-1/0,1/0]
RESULT: v0x4285370_0 : [-1/0,1/0]
RESULT: v0x4285470_0 : [-1/0,1/0]
RESULT: v0x4285570_0 : [0,1]
RESULT: v0x4285670_0 : [-1/0,1/0]
RESULT: v0x4285770_0 : [-1/0,1/0]
RESULT: v0x4285870_0 : [-1/0,1/0]
RESULT: v0x4285970_0 : [-1/0,1/0]
RESULT: v0x4285a70_0 : [-1/0,1/0]
RESULT: v0x4285b70_0 : [-1/0,1/0]
RESULT: v0x7ef1940_0 : [-1/0,1/0]
RESULT: v0x5034280_0 : [-1/0,1/0]
RESULT: v0x5c1dbb0_0 : [-1/0,10]
RESULT: v0x4286e70_0 : [-1/0,1/0]
