RESULT: v0xba0ce40_0 : [-1/0,1/0]
RESULT: v0x4c03b10_0 : [-1/0,1/0]
RESULT: v0x6563ab0_0 : [-1/0,1/0]
RESULT: v0x3967c40_0 : [-1/0,1/0]
RESULT: v0x3b0a550_0 : [27,1/0]
RESULT: v0x39f2280_0 : [-1/0,1/0]
RESULT: v0x51c50b0_0 : [-1/0,1/0]
RESULT: v0x39c2170_0 : [-1/0,1/0]
RESULT: v0x7738b50_0 : [1,1]
RESULT: v0x89cd930_0 : [-1/0,1/0]
RESULT: v0x77179d0_0 : [-1/0,1/0]
RESULT: v0x391f010_0 : [-1/0,1/0]
RESULT: v0x391f110_0 : [-1/0,1/0]
RESULT: v0x391f210_0 : [-1/0,1/0]
RESULT: v0x391f310_0 : [-1/0,1/0]
RESULT: v0x391f410_0 : [67,1/0]
RESULT: v0x391f510_0 : [0,1]
RESULT: v0x391f610_0 : [0,1]
RESULT: v0x391f710_0 : [-1/0,1/0]
RESULT: v0x391f810_0 : [-1/0,1/0]
RESULT: v0x391f910_0 : [-1/0,1/0]
RESULT: v0x391fa10_0 : [-1/0,1/0]
RESULT: v0x391fb10_0 : [-1/0,1/0]
RESULT: v0x391fc10_0 : [-1/0,1/0]
RESULT: v0x391fd10_0 : [-1/0,1/0]
RESULT: v0x8bfbec0_0 : [-1/0,1/0]
RESULT: v0x3e46cf0_0 : [-1/0,1/0]
RESULT: v0x50c6460_0 : [-1/0,1/0]
RESULT: v0x4776810_0 : [-1/0,10]
RESULT: v0x88c4b40_0 : [-1/0,1/0]
RESULT: v0x3921010_0 : [-1/0,1/0]
