RESULT: v0x3eda790_0 : [2,1/0]
RESULT: v0x3eff0b0_0 : [0,1]
RESULT: v0x3ece590_0 : [0,1]
RESULT: v0x3e064e0_0 : [123,123]
RESULT: v0x3f72910_0 : [0,0]
RESULT: v0x3f528f0_0 : [0,1]
RESULT: v0x3e8f500_0 : [0,1]
RESULT: v0x3f4f150_0 : [0,2]
RESULT: v0x3cee5d0_0 : [0,3]
RESULT: v0x3e49ef0_0 : [0,1]
RESULT: v0x3d1eab0_0 : [0,1]
RESULT: v0x3f23170_0 : [0,1]
RESULT: v0x3e7b810_0 : [0,666]
RESULT: v0x3e8a100_0 : [0,1]
RESULT: v0x3ce8ac0_0 : [0,1]
RESULT: v0x3e86200_0 : [0,2]
RESULT: v0x3e96460_0 : [0,456]
RESULT: v0x3e4be90_0 : [0,123]
RESULT: v0x3e09960_0 : [0,456]
RESULT: v0x3e86e40_0 : [0,2]
RESULT: v0x3e81480_0 : [0,1]
RESULT: v0x3d67760_0 : [0,1]
RESULT: v0x3e04750_0 : [0,1]
RESULT: v0x3e8e000_0 : [0,1]
