RESULT: v0x576ee30_0 : [0,1]
RESULT: v0x4d90600_0 : [0,2]
RESULT: v0x5ee8db0_0 : [0,0]
RESULT: v0x3e4a030_0 : [1,2]
RESULT: v0x4e235f0_0 : [0,3]
RESULT: v0x5de4280_0 : [0,1]
RESULT: v0x5f88b10_0 : [0,3]
RESULT: v0x5be57e0_0 : [0,3]
RESULT: v0x5f855b0_0 : [0,0]
RESULT: v0x568c600_0 : [0,53]
RESULT: v0x5f8a150_0 : [0,1/0]
RESULT: v0x5f854f0_0 : [0,0]
RESULT: v0x5f03eb0_0 : [0,1]
RESULT: v0x5f8a2d0_0 : [0,1]
RESULT: v0x5f8a1f0_0 : [0,1]
RESULT: v0x3e49230_0 : [0,52]
RESULT: v0x3e49130_0 : [0,51]
RESULT: v0x3e493d0_0 : [0,0]
RESULT: v0x3e49030_0 : [0,50]
RESULT: v0x5f88a30_0 : [-1/0,1/0]
RESULT: v0x3e4a330_0 : [-1/0,1/0]
RESULT: v0x63bbc80_0 : [1,1]
RESULT: v0x639d0b0_0 : [0,1/0]
RESULT: v0x5f07b50_0 : [50,53]
RESULT: v0x63bc720_0 : [0,3]
RESULT: v0x5bf1e90_0 : [0,0]
RESULT: v0x639c5f0_0 : [1,1]
RESULT: v0x5fa0b80_0 : [0,1]
RESULT: v0x6399070_0 : [0,1]
RESULT: v0x5f0b0b0_0 : [0,3]
RESULT: v0x5bf33e0_0 : [-1/0,1/0]
RESULT: v0x5dca500_0 : [0,2]
RESULT: v0x5eee4f0_0 : [0,1]
RESULT: v0x3e4baf0_0 : [-1/0,1/0]
