RESULT: v0x13d70680_0 : [-1/0,1/0]
RESULT: v0x70329e0_0 : [-1/0,1/0]
RESULT: v0x11cd67d0_0 : [-1/0,1/0]
RESULT: v0x11cd6810_0 : [-1/0,1/0]
RESULT: v0x9be50b0_0 : [27,1/0]
RESULT: v0x9de8c80_0 : [-1/0,1/0]
RESULT: v0x417a550_0 : [-1/0,1/0]
RESULT: v0x6936b00_0 : [0,0]
RESULT: v0x125f8250_0 : [-1/0,1/0]
RESULT: v0x4946610_0 : [-1/0,1/0]
RESULT: v0x4b6c1d0_0 : [-1/0,1/0]
RESULT: v0x3fa3330_0 : [67,1/0]
RESULT: v0x3fa3430_0 : [-1/0,1/0]
RESULT: v0x3fa3530_0 : [-1/0,1/0]
RESULT: v0x3fa3630_0 : [-1/0,1/0]
RESULT: v0x3fa3730_0 : [-1/0,1/0]
RESULT: v0x3fa3830_0 : [0,1]
RESULT: v0x3fa3930_0 : [-1/0,1/0]
RESULT: v0x3fa3a30_0 : [-1/0,1/0]
RESULT: v0x3fa3b30_0 : [-1/0,1/0]
RESULT: v0x3fa3c30_0 : [-1/0,1/0]
RESULT: v0x3fa3d30_0 : [-1/0,1/0]
RESULT: v0x3fa3e30_0 : [-1/0,1/0]
RESULT: v0x3fa3f30_0 : [-1/0,1/0]
RESULT: v0xa32ba20_0 : [-1/0,1/0]
RESULT: v0x13d708a0_0 : [0,0]
RESULT: v0x417a590_0 : [-1/0,10]
RESULT: v0x6936b60_0 : [-1/0,1/0]
RESULT: v0x91a7ff0_0 : [-1/0,1/0]
RESULT: v0x3fa4230_0 : [-1/0,1/0]
