RESULT: v0xb132410_0 : [2,2]
RESULT: v0xb12f070_0 : [1,1]
RESULT: v0xb12c5b0_0 : [0,0]
RESULT: v0xb130ab0_0 : [0,0]
RESULT: v0x431c700_0 : [1,2]
RESULT: v0xb130690_0 : [0,1]
RESULT: v0xb12f4b0_0 : [0,1]
RESULT: v0x431b900_0 : [0,1/0]
RESULT: v0xb12f8f0_0 : [0,2]
RESULT: v0xb130010_0 : [2,1/0]
RESULT: v0xb12ec30_0 : [0,2]
RESULT: v0x431ba00_0 : [0,1/0]
RESULT: v0xb12c9d0_0 : [0,1/0]
RESULT: v0xb12e7f0_0 : [50,52]
RESULT: v0x905bd00_0 : [0,2]
RESULT: v0x8c95240_0 : [1,1]
RESULT: v0x431b800_0 : [0,1/0]
RESULT: v0xb12ce10_0 : [-1/0,1/0]
RESULT: v0xb12fc50_0 : [-1/0,1/0]
RESULT: v0x8c64090_0 : [1,1]
RESULT: v0x8c1b520_0 : [0,2]
RESULT: v0x8c1a540_0 : [50,52]
RESULT: v0x8c1ac40_0 : [0,2]
RESULT: v0x8c60a70_0 : [0,0]
RESULT: v0x8c62db0_0 : [1,1]
RESULT: v0x8c618b0_0 : [0,1]
RESULT: v0xac264b0_0 : [0,1]
RESULT: v0x8cc4450_0 : [1,2]
RESULT: v0xac25a30_0 : [-1/0,1/0]
RESULT: v0x8cc5030_0 : [0,2]
RESULT: v0x8c30e00_0 : [0,1]
RESULT: v0x431e1c0_0 : [-1/0,1/0]
