RESULT: v0x4ec6ed0_0 : [2,1/0]
RESULT: v0x4bdfd30_0 : [0,1]
RESULT: v0x4e9f710_0 : [0,1]
RESULT: v0x4eb1570_0 : [0,1]
RESULT: v0x4ca16b0_0 : [1,1]
RESULT: v0x4b6c340_0 : [0,1]
RESULT: v0x4eaa170_0 : [0,1]
RESULT: v0x4ecb7f0_0 : [0,1]
RESULT: v0x4b6cc40_0 : [0,1]
RESULT: v0x4ea6a50_0 : [1,1]
RESULT: v0x4b698f0_0 : [2,2]
RESULT: v0x4ebb5b0_0 : [3,3]
RESULT: v0x4ec3bf0_0 : [123,777]
RESULT: v0x4d297b0_0 : [0,666]
RESULT: v0x4ecce70_0 : [2,2]
RESULT: v0x4ec5950_0 : [456,456]
RESULT: v0x4b1f7e0_0 : [0,1]
RESULT: v0x4ec5a70_0 : [0,1]
RESULT: v0x4ec2590_0 : [1,1]
RESULT: v0x499cc90_0 : [789,789]
RESULT: v0x499d090_0 : [-1/0,1/0]
RESULT: v0x499d190_0 : [0,0]
RESULT: v0x499c990_0 : [-1/0,1/0]
RESULT: v0x499c690_0 : [0,0]
RESULT: v0x499c890_0 : [1,1]
RESULT: v0x499d490_0 : [456,456]
RESULT: v0x499d690_0 : [1,1]
RESULT: v0x499d790_0 : [456,456]
