RESULT: v0x3abb6a0_1 : [-1/0,11]
RESULT: v0x3abc010_1 : [-1/0,1/0]
RESULT: v0x3abc290_1 : [0,1]
RESULT: v0x3abc510_1 : [-1/0,1/0]
RESULT: v0x3abc830_1 : [-1/0,1/0]
RESULT: v0x3abcab0_1 : [-1/0,1/0]
RESULT: v0x3abcd30_1 : [-1/0,1/0]
RESULT: v0x3ab5c90_1 : [-1/0,1/0]
RESULT: v0x3abd010_1 : [-1/0,1/0]
RESULT: v0x3abd290_1 : [-1/0,1/0]
RESULT: v0x3abd510_1 : [-1/0,1/0]
RESULT: v0x3abd790_1 : [-1/0,1/0]
RESULT: v0x3abda10_1 : [-1/0,1/0]
RESULT: v0x3abdd50_1 : [-1/0,1/0]
RESULT: v0x3abdfd0_1 : [-1/0,1/0]
RESULT: v0x3abe250_1 : [-1/0,1/0]
