RESULT: v0x3c7f2f0_0 : [2,1/0]
RESULT: v0x3b35560_0 : [123,123]
RESULT: v0x3990280_0 : [0,0]
RESULT: v0x3b5c3d0_0 : [0,1]
RESULT: v0x3b5c290_0 : [0,2]
RESULT: v0x3b5c190_0 : [0,3]
RESULT: v0x3c68730_0 : [0,1]
RESULT: v0x3c22f50_0 : [0,1]
RESULT: v0x3b5c850_0 : [0,1]
RESULT: v0x3bf4d70_0 : [0,666]
RESULT: v0x3b5c6d0_0 : [0,1]
RESULT: v0x3b5c150_0 : [0,1]
RESULT: v0x3996dd0_0 : [0,1]
RESULT: v0x3b5c110_0 : [0,1]
RESULT: v0x3bea5b0_0 : [0,456]
RESULT: v0x39d66b0_0 : [0,2]
RESULT: v0x3b5ca90_0 : [0,1]
RESULT: v0x3b5a470_0 : [0,1]
RESULT: v0x3c5a250_0 : [0,123]
RESULT: v0x3bb9970_0 : [0,1]
RESULT: v0x3bb7610_0 : [0,1]
RESULT: v0x3c24030_0 : [0,3]
RESULT: v0x39e5270_0 : [0,456]
RESULT: v0x3b5c550_0 : [0,1]
RESULT: v0x385bb00_0 : [0,2]
