RESULT: v0xafcd7d0_0 : [-1/0,1/0]
RESULT: v0x13ecee50_0 : [-1/0,1/0]
RESULT: v0x5edf260_0 : [0,1]
RESULT: v0x4b6bad0_0 : [-1/0,1/0]
RESULT: v0x4b6bb90_0 : [27,1/0]
RESULT: v0x1047c740_0 : [-1/0,1/0]
RESULT: v0x11d80e30_0 : [-1/0,1/0]
RESULT: v0x4b6bb10_0 : [0,0]
RESULT: v0xf1290a0_0 : [-1/0,1/0]
RESULT: v0x8b3f810_0 : [-1/0,1/0]
RESULT: v0x1047c780_0 : [-1/0,1/0]
RESULT: v0x3f94330_0 : [67,1/0]
RESULT: v0x3f94430_0 : [0,1]
RESULT: v0x3f94530_0 : [-1/0,1/0]
RESULT: v0x3f94630_0 : [-1/0,1/0]
RESULT: v0x3f94730_0 : [-1/0,1/0]
RESULT: v0x3f94830_0 : [-1/0,1/0]
RESULT: v0x3f94930_0 : [0,1]
RESULT: v0x3f94a30_0 : [-1/0,1/0]
RESULT: v0x3f94b30_0 : [-1/0,1/0]
RESULT: v0x3f94c30_0 : [-1/0,1/0]
RESULT: v0x3f94d30_0 : [0,0]
RESULT: v0x3f94e30_0 : [-1/0,1/0]
RESULT: v0x3f94f30_0 : [-1/0,1/0]
RESULT: v0x3f95030_0 : [-1/0,1/0]
RESULT: v0x70ff9d0_0 : [-1/0,1/0]
RESULT: v0x10742400_0 : [-1/0,1/0]
RESULT: v0x60bd540_0 : [0,0]
RESULT: v0x43694d0_0 : [-1/0,10]
RESULT: v0x1442f580_0 : [-1/0,1/0]
RESULT: v0x3f95330_0 : [-1/0,1/0]
