RESULT: v0x3e588c0_0 : [1,1/0]
RESULT: v0x3c51ee0_0 : [0,1]
RESULT: v0x3bc87f0_0 : [0,1]
RESULT: v0x3df7e80_0 : [123,777]
RESULT: v0x3df9da0_0 : [0,1]
RESULT: v0x3e5ac40_0 : [0,1]
RESULT: v0x3dffa60_0 : [0,1]
RESULT: v0x3dfcfa0_0 : [0,2]
RESULT: v0x3c14600_0 : [0,3]
RESULT: v0x3e53fa0_0 : [0,1]
RESULT: v0x3dbbb60_0 : [0,1]
RESULT: v0x3e400e0_0 : [0,1]
RESULT: v0x3d3c0e0_0 : [0,666]
RESULT: v0x3d36da0_0 : [0,1]
RESULT: v0x3dbcf80_0 : [0,1]
RESULT: v0x3d3c4a0_0 : [0,2]
RESULT: v0x3dc24f0_0 : [0,456]
RESULT: v0x3dfbe00_0 : [0,123]
RESULT: v0x3e073c0_0 : [0,456]
RESULT: v0x3bfa430_0 : [0,2]
RESULT: v0x3e1f0e0_0 : [0,1]
RESULT: v0x3bca400_0 : [0,1]
RESULT: v0x3d3d370_0 : [0,1]
RESULT: v0x3dfc560_0 : [0,1]
