RESULT: v0x3df22a0_0 : [-1/0,1/0]
RESULT: v0x3a7af10_0 : [-1/0,1/0]
RESULT: v0x8e8def0_0 : [-1/0,1/0]
RESULT: v0x40e2f20_0 : [-1/0,1/0]
RESULT: v0x8062fb0_0 : [67,1/0]
RESULT: v0x42f9400_0 : [-1/0,1/0]
RESULT: v0x41630b0_0 : [-1/0,1/0]
RESULT: v0x4157990_0 : [-1/0,1/0]
RESULT: v0x90e4fa0_0 : [0,0]
RESULT: v0x3d5a7e0_0 : [-1/0,1/0]
RESULT: v0x5360370_0 : [-1/0,1/0]
RESULT: v0x391f010_0 : [-1/0,1/0]
RESULT: v0x391f110_0 : [-1/0,1/0]
RESULT: v0x391f210_0 : [-1/0,1/0]
RESULT: v0x391f310_0 : [-1/0,1/0]
RESULT: v0x391f410_0 : [67,1/0]
RESULT: v0x391f510_0 : [0,1]
RESULT: v0x391f610_0 : [0,1]
RESULT: v0x391f710_0 : [-1/0,1/0]
RESULT: v0x391f810_0 : [-1/0,1/0]
RESULT: v0x391f910_0 : [0,0]
RESULT: v0x391fa10_0 : [0,0]
RESULT: v0x391fb10_0 : [-1/0,1/0]
RESULT: v0x391fc10_0 : [-1/0,1/0]
RESULT: v0x391fd10_0 : [-1/0,1/0]
RESULT: v0x94549d0_0 : [-1/0,1/0]
RESULT: v0x78723d0_0 : [-1/0,1/0]
RESULT: v0x6a1f8b0_0 : [0,0]
RESULT: v0x9191cc0_0 : [-1/0,10]
RESULT: v0x459f630_0 : [-1/0,1/0]
RESULT: v0x3920010_0 : [-1/0,1/0]
