RESULT: v0x3e2d970_0 : [0,1]
RESULT: v0x56680a0_0 : [-1/0,1/0]
RESULT: v0x9e17670_0 : [-1/0,1/0]
RESULT: v0x7cdf1a0_0 : [-1/0,1/0]
RESULT: v0x584b470_0 : [-1/0,1/0]
RESULT: v0x763e1d0_0 : [-1/0,1/0]
RESULT: v0x4a69a90_0 : [0,0]
RESULT: v0x40faaa0_0 : [67,1/0]
RESULT: v0x93829e0_0 : [27,1/0]
RESULT: v0x40faba0_0 : [0,1]
RESULT: v0x40faca0_0 : [0,1]
RESULT: v0x40fada0_0 : [-1/0,1/0]
RESULT: v0x40faea0_0 : [-1/0,1/0]
RESULT: v0x40fafa0_0 : [-1/0,1/0]
RESULT: v0x40fb0a0_0 : [0,0]
RESULT: v0x40fb1a0_0 : [-1/0,1/0]
RESULT: v0x4a3fb90_0 : [-1/0,1/0]
RESULT: v0x40fb2a0_0 : [-1/0,1/0]
RESULT: v0x69b2cb0_0 : [-1/0,1/0]
RESULT: v0x40fb3a0_0 : [-1/0,1/0]
RESULT: v0x8fda330_0 : [-1/0,1/0]
RESULT: v0x40fb4a0_0 : [-1/0,1/0]
RESULT: v0x40fb5a0_0 : [-1/0,1/0]
RESULT: v0x40fb6a0_0 : [-1/0,1/0]
RESULT: v0x40fb7a0_0 : [-1/0,1/0]
RESULT: v0x4385f00_0 : [-1/0,1/0]
RESULT: v0x9c4f220_0 : [-1/0,1/0]
RESULT: v0x64d8550_0 : [0,0]
RESULT: v0x8b6a7c0_0 : [-1/0,10]
RESULT: v0x4a548d0_0 : [-1/0,1/0]
RESULT: v0x40fbaa0_0 : [-1/0,1/0]
