RESULT: v0x386f7a0_0 : [0,1]
RESULT: v0x4ea2540_1 : [0,1]
RESULT: v0x4367650_1 : [0,1]
RESULT: v0x3af8370_1 : [0,1]
RESULT: v0x3adbfb0_1 : [0,1]
RESULT: v0x5155540_1 : [0,1]
RESULT: v0x4388b00_1 : [0,1]
RESULT: v0x3d21400_1 : [0,1]
RESULT: v0x3aff060_1 : [0,1]
RESULT: v0x44dadf0_1 : [0,1]
RESULT: v0x566ac10_1 : [0,1]
RESULT: v0x3b1e080_1 : [-1/0,1/0]
RESULT: v0x3d1e380_1 : [-1/0,1/0]
RESULT: v0x509fb40_1 : [0,2]
RESULT: v0x509cda0_1 : [0,2]
RESULT: v0x4ebb390_1 : [0,2]
RESULT: v0x4bf3e10_1 : [0,2]
RESULT: v0x4eae680_1 : [0,2]
RESULT: v0x3b015b0_1 : [0,2]
RESULT: v0x4e9a360_1 : [0,2]
RESULT: v0x4eb3c40_1 : [0,2]
RESULT: v0x3ae4650_1 : [0,2]
RESULT: v0x3d14b50_1 : [0,2]
RESULT: v0x3cc59f0_1 : [0,2]
