RESULT: v0x4eb4040_0 : [0,1]
RESULT: v0x4eb4200_0 : [0,1]
RESULT: v0x4eb4400_0 : [0,1]
RESULT: v0x4eb4600_0 : [0,1]
RESULT: v0x4eb4800_0 : [0,1]
RESULT: v0x4eb4a00_0 : [0,1]
RESULT: v0x4eb4c00_0 : [0,1]
RESULT: v0x4eb4e00_0 : [0,1]
RESULT: v0x4eb5000_0 : [0,1]
RESULT: v0x4eb5200_0 : [1,1]
RESULT: v0x4eb5400_0 : [-1/0,1/0]
RESULT: v0x4eb5600_0 : [-1/0,1/0]
RESULT: v0x4e33900_0 : [0,2]
RESULT: v0x4e33b00_0 : [0,2]
RESULT: v0x4e33d00_0 : [0,2]
RESULT: v0x4e33f00_0 : [0,2]
RESULT: v0x4eb6400_0 : [0,2]
RESULT: v0x4eb6600_0 : [0,2]
RESULT: v0x4eb6800_0 : [0,2]
RESULT: v0x4eb6a00_0 : [0,2]
RESULT: v0x4eb6c00_0 : [0,2]
RESULT: v0x4eb6e00_0 : [2,2]
