RESULT: v0xa2db770_0 : [4,10]
RESULT: v0x6ba4000_0 : [0,0]
RESULT: v0xa239720_0 : [0,1]
RESULT: v0xa28cac0_0 : [1,1]
RESULT: v0x66021c0_0 : [80,120]
RESULT: v0x8d41130_0 : [0,1]
RESULT: v0x602d2a0_0 : [0,1]
RESULT: v0x5b4cfe0_0 : [0,1]
RESULT: v0xa254ee0_0 : [0,1]
RESULT: v0x8d579e0_0 : [0,0]
RESULT: v0xa235960_0 : [1,1]
RESULT: v0xa310ed0_0 : [0,0]
RESULT: v0x6042930_0 : [0,0]
RESULT: v0x4201b90_0 : [80,120]
RESULT: v0x4201c90_0 : [1,1]
RESULT: v0x4201d90_0 : [0,0]
RESULT: v0x4201e90_0 : [0,1]
RESULT: v0x4201f90_0 : [1,1]
RESULT: v0x4202090_0 : [1,1]
RESULT: v0x4202190_0 : [1,2]
RESULT: v0x4202290_0 : [0,0]
RESULT: v0x4202390_0 : [0,0]
RESULT: v0x4202490_0 : [0,1]
RESULT: v0x4202590_0 : [0,1]
RESULT: v0x4202690_0 : [0,1]
RESULT: v0x8d30f80_0 : [0,0]
RESULT: v0x4202990_0 : [2,3]
