RESULT: v0x5157330_0 : [-1/0,1/0]
RESULT: v0x5157270_0 : [-1/0,1/0]
RESULT: v0x5156df0_0 : [-1/0,1/0]
RESULT: v0x5156eb0_0 : [-1/0,1/0]
RESULT: v0x5156f70_0 : [-1/0,1/0]
RESULT: v0x51574b0_0 : [-1/0,1/0]
RESULT: v0x5157570_0 : [-1/0,1/0]
RESULT: v0x50cfe30_0 : [-1/0,1/0]
RESULT: v0x50eafc0_0 : [-1/0,1/0]
RESULT: v0x51576f0_0 : [-1/0,1/0]
RESULT: v0x51577b0_0 : [-1/0,1/0]
RESULT: v0x5157870_0 : [-1/0,1/0]
RESULT: v0x5157930_0 : [-1/0,1/0]
RESULT: v0x5157bb0_0 : [-1/0,1/0]
RESULT: v0x5157b70_0 : [-1/0,1/0]
RESULT: v0x5157c30_0 : [-1/0,1/0]
RESULT: v0x51579f0_0 : [-1/0,1/0]
RESULT: v0x5157cf0_0 : [-1/0,1/0]
RESULT: v0x5157dd0_0 : [-1/0,1/0]
RESULT: v0x5157e70_0 : [-1/0,1/0]
RESULT: v0x5157630_0 : [-1/0,1/0]
RESULT: v0x51571b0_0 : [-1/0,1/0]
RESULT: v0x51570f0_0 : [-1/0,1/0]
RESULT: v0x51573f0_0 : [-1/0,1/0]
RESULT: v0x5157030_0 : [-1/0,1/0]
