RESULT: v0x3715af0_1 : [3,3]
RESULT: v0x35ff280_1 : [0,1]
RESULT: v0x36030d0_1 : [0,1]
RESULT: v0x3607160_1 : [0,1]
RESULT: v0x36171b0_1 : [0,1]
RESULT: v0x3663520_1 : [0,1]
RESULT: v0x3665aa0_1 : [0,1]
RESULT: v0x34db850_1 : [0,1]
RESULT: v0x35ffd00_1 : [0,1]
RESULT: v0x364ecc0_1 : [0,1]
RESULT: v0x3667300_1 : [0,1]
RESULT: v0x36be460_1 : [0,1]
RESULT: v0x36716c0_1 : [0,1]
RESULT: v0x34e4490_1 : [0,2]
RESULT: v0x36539e0_1 : [0,3]
RESULT: v0x3607f00_1 : [0,1]
RESULT: v0x36594e0_1 : [123,777]
RESULT: v0x34d3dd0_1 : [0,666]
RESULT: v0x3651980_1 : [0,2]
RESULT: v0x3669060_1 : [0,1]
RESULT: v0x36018d0_1 : [0,2]
RESULT: v0x34d3370_1 : [0,456]
RESULT: v0x37bcfa0_1 : [0,123]
RESULT: v0x3741a80_1 : [0,456]
