RESULT: v0x4e72230_1 : [4,4]
RESULT: v0x4ec9010_1 : [0,1]
RESULT: v0x4f27380_1 : [0,1]
RESULT: v0x4eaf6e0_1 : [0,1]
RESULT: v0x4eacc20_1 : [0,1]
RESULT: v0x4f3bc00_1 : [0,1]
RESULT: v0x4f37be0_1 : [0,1]
RESULT: v0x4ed9170_1 : [0,1]
RESULT: v0x4efd120_1 : [0,1]
RESULT: v0x4f066e0_1 : [0,1]
RESULT: v0x4f006c0_1 : [0,1]
RESULT: v0x4f35da0_1 : [0,1]
RESULT: v0x4cb2f10_1 : [0,1]
RESULT: v0x4ca4350_1 : [0,2]
RESULT: v0x4d0e030_1 : [0,3]
RESULT: v0x4cb49b0_1 : [0,1]
RESULT: v0x4cf93f0_1 : [123,777]
RESULT: v0x4cb2970_1 : [0,666]
RESULT: v0x4d20bf0_1 : [0,2]
RESULT: v0x4caee50_1 : [0,1]
RESULT: v0x4cad980_1 : [0,2]
RESULT: v0x4e679e0_1 : [0,456]
RESULT: v0x4dec4a0_1 : [0,123]
RESULT: v0x4c7cf10_1 : [0,456]
