RESULT: v0x6018300_0 : [-1/0,1/0]
RESULT: v0x63e51e0_0 : [-1/0,1/0]
RESULT: v0x5320e50_0 : [-1/0,1/0]
RESULT: v0x6aa33a0_0 : [0,1]
RESULT: v0x6018280_0 : [67,1/0]
RESULT: v0x106f4f50_0 : [-1/0,1/0]
RESULT: v0x5324e20_0 : [-1/0,1/0]
RESULT: v0x6aa33e0_0 : [0,0]
RESULT: v0x5324e60_0 : [-1/0,1/0]
RESULT: v0x702f2d0_0 : [-1/0,1/0]
RESULT: v0x106f4f10_0 : [-1/0,1/0]
RESULT: v0x3f94330_0 : [67,1/0]
RESULT: v0x3f94430_0 : [0,1]
RESULT: v0x3f94530_0 : [-1/0,1/0]
RESULT: v0x3f94630_0 : [-1/0,1/0]
RESULT: v0x3f94730_0 : [-1/0,1/0]
RESULT: v0x3f94830_0 : [-1/0,1/0]
RESULT: v0x3f94930_0 : [0,1]
RESULT: v0x3f94a30_0 : [-1/0,1/0]
RESULT: v0x3f94b30_0 : [-1/0,1/0]
RESULT: v0x3f94c30_0 : [0,0]
RESULT: v0x3f94d30_0 : [-1/0,1/0]
RESULT: v0x3f94e30_0 : [-1/0,1/0]
RESULT: v0x3f94f30_0 : [-1/0,1/0]
RESULT: v0x3f95030_0 : [-1/0,1/0]
RESULT: v0x10eb8a60_0 : [-1/0,1/0]
RESULT: v0x525f330_0 : [-1/0,1/0]
RESULT: v0x9fadb70_0 : [0,0]
RESULT: v0xdc0c4b0_0 : [-1/0,10]
RESULT: v0x702cf00_0 : [-1/0,1/0]
RESULT: v0x3f95330_0 : [-1/0,1/0]
