RESULT: v0x3f50b70_0 : [0,0]
RESULT: v0x4204e60_1 : [0,1]
RESULT: v0x442b100_1 : [1,1]
RESULT: v0x45d1e90_1 : [0,1]
RESULT: v0x422dc10_1 : [0,1]
RESULT: v0x4218410_1 : [0,1]
RESULT: v0x43e5af0_1 : [0,1]
RESULT: v0x422b250_1 : [0,1]
RESULT: v0x44543c0_1 : [0,1]
RESULT: v0x4432fc0_1 : [0,1]
RESULT: v0x422e6f0_1 : [0,1]
RESULT: v0x448e540_1 : [0,1]
RESULT: v0x448d980_1 : [0,1]
RESULT: v0x45db160_1 : [0,1]
RESULT: v0x4233fb0_1 : [0,1]
RESULT: v0x45da230_1 : [0,2]
RESULT: v0x45a65a0_1 : [2,2]
RESULT: v0x4498be0_1 : [0,2]
RESULT: v0x4628a60_1 : [0,2]
RESULT: v0x46208c0_1 : [0,2]
RESULT: v0x4212a30_1 : [0,2]
RESULT: v0x46176e0_1 : [0,2]
RESULT: v0x4495d30_1 : [0,2]
RESULT: v0x461cd40_1 : [0,2]
RESULT: v0x461ba20_1 : [0,2]
RESULT: v0x46101c0_1 : [0,2]
RESULT: v0x4611080_1 : [0,2]
RESULT: v0x4611b80_1 : [0,2]
RESULT: v0x45da0b0_1 : [0,2]
