RESULT: v0x3b3e040_1 : [3,3]
RESULT: v0x3b3e1a0_1 : [0,1]
RESULT: v0x3b3e320_1 : [0,1]
RESULT: v0x3b3e560_1 : [0,1]
RESULT: v0x3ad5950_1 : [0,1]
RESULT: v0x3ad57d0_1 : [0,1]
RESULT: v0x3ad5650_1 : [0,1]
RESULT: v0x3ad5410_1 : [0,1]
RESULT: v0x39a5ed0_1 : [0,1]
RESULT: v0x39a5f90_1 : [0,1]
RESULT: v0x3866b00_1 : [0,1]
RESULT: v0x39a61d0_1 : [0,2]
RESULT: v0x39a6290_1 : [0,3]
RESULT: v0x3999180_1 : [123,777]
RESULT: v0x3999240_1 : [0,666]
RESULT: v0x3999300_1 : [0,2]
RESULT: v0x398f7f0_1 : [0,1]
RESULT: v0x3992590_1 : [0,2]
RESULT: v0x395e0e0_1 : [0,456]
RESULT: v0x395e630_1 : [0,123]
RESULT: v0x39972e0_1 : [0,456]
RESULT: v0x399b270_1 : [0,3]
RESULT: v0x3997250_1 : [0,1]
RESULT: v0x39aa300_1 : [0,1]
