RESULT: v0x42de350_0 : [0,1]
RESULT: v0x45a2620_1 : [0,1]
RESULT: v0x45a3200_1 : [0,1]
RESULT: v0x47fb210_1 : [0,1]
RESULT: v0x45ca660_1 : [0,1]
RESULT: v0x45bdb60_1 : [0,1]
RESULT: v0x4568410_1 : [0,1]
RESULT: v0x457e970_1 : [0,1]
RESULT: v0x4545a10_1 : [0,1]
RESULT: v0x47c8880_1 : [0,1]
RESULT: v0x459a560_1 : [0,1]
RESULT: v0x4f7ead0_1 : [0,1]
RESULT: v0x47c2520_1 : [0,1]
RESULT: v0x45c2c80_1 : [-1/0,1/0]
RESULT: v0x45b8c70_1 : [-1/0,1/0]
RESULT: v0x545f9f0_1 : [0,2]
RESULT: v0x45af6b0_1 : [0,2]
RESULT: v0x47c7880_1 : [0,2]
RESULT: v0x45a3080_1 : [0,2]
RESULT: v0x4a000e0_1 : [0,2]
RESULT: v0x4f76e00_1 : [0,2]
RESULT: v0x5da0110_1 : [0,2]
RESULT: v0x47c7760_1 : [0,2]
RESULT: v0x5a38e90_1 : [0,2]
RESULT: v0x45ab670_1 : [0,2]
RESULT: v0x4592340_1 : [0,2]
RESULT: v0x5532e80_1 : [0,2]
RESULT: v0x45bd6e0_1 : [0,2]
