RESULT: v0x4325bd0_0 : [0,0]
RESULT: v0x431dbc0_0 : [0,2]
RESULT: v0x431d7c0_0 : [0,1]
RESULT: v0x431dcc0_0 : [0,1]
RESULT: v0x431d2c0_0 : [0,2]
RESULT: v0x43257d0_0 : [0,0]
RESULT: v0x43251d0_0 : [0,1]
RESULT: v0x43252d0_0 : [1,2]
RESULT: v0x431c700_0 : [1,1]
RESULT: v0x4325cd0_0 : [1,1]
RESULT: v0x43258d0_0 : [0,1]
RESULT: v0x43250d0_0 : [-1/0,6]
RESULT: v0x43259d0_0 : [0,2]
RESULT: v0x43256d0_0 : [0,2]
RESULT: v0x431d1c0_0 : [0,1]
RESULT: v0x431d8c0_0 : [0,1]
RESULT: v0x431b900_0 : [0,1/0]
RESULT: v0x431d9c0_0 : [0,2]
RESULT: v0x431d0c0_0 : [-1/0,6]
RESULT: v0x431ba00_0 : [0,1/0]
RESULT: v0x431b800_0 : [0,50]
RESULT: v0x4325ed0_0 : [-1/0,1/0]
RESULT: v0x431dec0_0 : [-1/0,1/0]
RESULT: v0x4325dd0_0 : [0,1/0]
RESULT: v0x431ddc0_0 : [0,1/0]
RESULT: v0x431d6c0_0 : [0,2]
RESULT: v0x43254d0_0 : [0,2]
RESULT: v0x43255d0_0 : [0,1/0]
RESULT: v0x43253d0_0 : [0,1]
RESULT: v0x431d5c0_0 : [0,1/0]
RESULT: v0x431d4c0_0 : [0,2]
RESULT: v0x431d3c0_0 : [0,1]
RESULT: v0x4325ad0_0 : [-1/0,1/0]
RESULT: v0x431dac0_0 : [-1/0,1/0]
RESULT: v0x8188fc0_1 : [-1/0,1/0]
RESULT: v0xa08c4c0_1 : [0,50]
RESULT: v0x80664b0_1 : [0,1/0]
RESULT: v0x8138fa0_1 : [0,1/0]
RESULT: v0x8020f40_1 : [0,1]
RESULT: v0xa086f60_1 : [1,1]
RESULT: v0x81a8fc0_1 : [0,0]
RESULT: v0xa0544a0_1 : [-1/0,1/0]
