RESULT: v0x3e4a030_0 : [1,2]
RESULT: v0x3e49230_0 : [0,52]
RESULT: v0x3e49030_0 : [0,50]
RESULT: v0x3e493d0_0 : [0,53]
RESULT: v0x3e49130_0 : [0,51]
RESULT: v0x3e4a330_0 : [-1/0,1/0]
RESULT: v0x5e95e90_0 : [-1/0,1/0]
RESULT: v0x7ebbf40_0 : [-1/0,1/0]
RESULT: v0x7e08e10_0 : [-1/0,1/0]
RESULT: v0x5cd4380_0 : [0,1]
RESULT: v0x7dd2160_0 : [0,1/0]
RESULT: v0x7ec3f80_0 : [0,53]
RESULT: v0x7ed0aa0_0 : [-1/0,1/0]
RESULT: v0x5e96930_0 : [-1/0,1/0]
RESULT: v0x7f4c470_0 : [-1/0,1/0]
RESULT: v0x57178b0_0 : [-1/0,1/0]
RESULT: v0x496b960_0 : [-1/0,1/0]
RESULT: v0x5cd4e20_0 : [-1/0,1/0]
RESULT: v0x7dba070_0 : [-1/0,1/0]
RESULT: v0x56ecc70_0 : [-1/0,3]
RESULT: v0x7e67160_0 : [-1/0,1/0]
