RESULT: v0x514c450_0 : [0,1]
RESULT: v0x68ac080_1 : [0,1]
RESULT: v0x6521fb0_1 : [0,1]
RESULT: v0x6529430_1 : [0,1]
RESULT: v0x59d95a0_1 : [0,1]
RESULT: v0x65349f0_1 : [0,1]
RESULT: v0x65289b0_1 : [0,1]
RESULT: v0x53db310_1 : [0,1]
RESULT: v0x652ff30_1 : [0,1]
RESULT: v0x5ad1c90_1 : [0,1]
RESULT: v0x6528790_1 : [0,1]
RESULT: v0x68a2820_1 : [0,1]
RESULT: v0x5a1d650_1 : [0,1]
RESULT: v0x6738560_1 : [0,1]
RESULT: v0x6731a80_1 : [0,2]
RESULT: v0x65913b0_1 : [0,2]
RESULT: v0x652c550_1 : [0,2]
RESULT: v0x56c1f00_1 : [0,2]
RESULT: v0x6561c20_1 : [0,2]
RESULT: v0x651e350_1 : [0,2]
RESULT: v0x5a2e1b0_1 : [0,2]
RESULT: v0x569f5d0_1 : [0,2]
RESULT: v0x652f250_1 : [0,2]
RESULT: v0x5ae47b0_1 : [0,2]
RESULT: v0x6740640_1 : [0,2]
RESULT: v0x53e6750_1 : [0,2]
RESULT: v0x53f5d20_1 : [0,2]
RESULT: v0x6521690_1 : [0,2]
