RESULT: v0x402bce0_1 : [3,3]
RESULT: v0x3f04310_1 : [0,1]
RESULT: v0x402c180_1 : [0,1]
RESULT: v0x3f04550_1 : [0,1]
RESULT: v0x3f68720_1 : [0,1]
RESULT: v0x3f68880_1 : [0,1]
RESULT: v0x3f685a0_1 : [0,1]
RESULT: v0x3f684e0_1 : [0,1]
RESULT: v0x3f682a0_1 : [0,1]
RESULT: v0x3f681e0_1 : [0,1]
RESULT: v0x3f67fa0_1 : [0,1]
RESULT: v0x3f67ee0_1 : [0,2]
RESULT: v0x3f67ca0_1 : [0,3]
RESULT: v0x3f67be0_1 : [0,1]
RESULT: v0x3f679a0_1 : [123,777]
RESULT: v0x3f678e0_1 : [0,666]
RESULT: v0x3f676a0_1 : [0,2]
RESULT: v0x3f8f830_1 : [0,1]
RESULT: v0x3f67370_1 : [0,2]
RESULT: v0x3f672b0_1 : [0,456]
RESULT: v0x3f67070_1 : [0,123]
RESULT: v0x3f66fb0_1 : [0,456]
RESULT: v0x3f675b0_1 : [0,3]
RESULT: v0x402c540_1 : [0,1]
RESULT: v0x3f8f930_1 : [0,1]
