RESULT: v0x53c8a60_0 : [0,1/0]
RESULT: v0x50205b0_0 : [0,1]
RESULT: v0x53cc820_0 : [0,1]
RESULT: v0x4f8cb30_0 : [0,1]
RESULT: v0x4f7dfc0_0 : [0,1]
RESULT: v0x51cd570_0 : [0,1]
RESULT: v0x51c8a90_0 : [0,1]
RESULT: v0x522d8e0_0 : [0,1]
RESULT: v0x53bc780_0 : [0,1]
RESULT: v0x53b9aa0_0 : [0,1]
RESULT: v0x53c65c0_0 : [0,1]
RESULT: v0x5091f50_0 : [0,1]
RESULT: v0x53cb560_0 : [0,1]
RESULT: v0x53b09c0_0 : [123,777]
RESULT: v0x53c2820_0 : [0,666]
RESULT: v0x51c4b50_0 : [0,2]
RESULT: v0x51e2220_0 : [0,1]
RESULT: v0x520e420_0 : [0,456]
RESULT: v0x51f83c0_0 : [0,123]
RESULT: v0x4e4e3e0_0 : [-1/0,1/0]
RESULT: v0x4e4e4e0_0 : [0,456]
RESULT: v0x4e4dce0_0 : [-1/0,1/0]
RESULT: v0x4e4d9e0_0 : [0,456]
RESULT: v0x4e4dbe0_0 : [0,1]
RESULT: v0x4e4e8e0_0 : [0,123]
