RESULT: v0x3ad0cc0_1 : [3,3]
RESULT: v0x39a9110_1 : [0,1]
RESULT: v0x3ad1160_1 : [0,1]
RESULT: v0x39a9350_1 : [0,1]
RESULT: v0x3a307b0_1 : [0,1]
RESULT: v0x3a30910_1 : [0,1]
RESULT: v0x3a30630_1 : [0,1]
RESULT: v0x3a30570_1 : [0,1]
RESULT: v0x3a30330_1 : [0,1]
RESULT: v0x3a30270_1 : [0,1]
RESULT: v0x3a30030_1 : [0,1]
RESULT: v0x3a2ff70_1 : [0,2]
RESULT: v0x3a2fd30_1 : [0,3]
RESULT: v0x3a2fc70_1 : [0,1]
RESULT: v0x3a2fa30_1 : [123,777]
RESULT: v0x3a2f970_1 : [0,666]
RESULT: v0x3a2f730_1 : [0,2]
RESULT: v0x3a44510_1 : [0,1]
RESULT: v0x3a44f10_1 : [0,2]
RESULT: v0x3a44e50_1 : [0,456]
RESULT: v0x3a44c10_1 : [0,123]
RESULT: v0x3a44b50_1 : [0,456]
RESULT: v0x3a45150_1 : [0,3]
RESULT: v0x3ad1520_1 : [0,1]
RESULT: v0x3a44610_1 : [0,1]
