RESULT: v0x38a7840_0 : [-1/0,1/0]
RESULT: v0x38a7780_0 : [-1/0,1/0]
RESULT: v0x3836bc0_0 : [-1/0,1/0]
RESULT: v0x38a73e0_0 : [-1/0,1/0]
RESULT: v0x38a7480_0 : [-1/0,1/0]
RESULT: v0x38a7ae0_0 : [-1/0,1/0]
RESULT: v0x38189b0_0 : [-1/0,1/0]
RESULT: v0x3818ab0_0 : [-1/0,1/0]
RESULT: v0x3818bb0_0 : [-1/0,1/0]
RESULT: v0x3818cb0_0 : [1,2]
RESULT: v0x38a7b60_0 : [-1/0,1/0]
RESULT: v0x3818db0_0 : [-1/0,1/0]
RESULT: v0x3818eb0_0 : [1,1]
RESULT: v0x38193b0_0 : [0,0]
RESULT: v0x38194b0_0 : [-1/0,1/0]
RESULT: v0x38195b0_0 : [0,0]
RESULT: v0x38687d0_0 : [-1/0,1/0]
RESULT: v0x38a7c00_0 : [-1/0,1/0]
RESULT: v0x38a7cc0_0 : [-1/0,1/0]
RESULT: v0x38a7d80_0 : [-1/0,1/0]
RESULT: v0x38a7e40_0 : [-1/0,1/0]
RESULT: v0x38a7f00_0 : [-1/0,1/0]
RESULT: v0x38a7fc0_0 : [-1/0,1/0]
RESULT: v0x38a8080_0 : [-1/0,1/0]
RESULT: v0x38a8140_0 : [-1/0,1/0]
RESULT: v0x38a8200_0 : [-1/0,1/0]
RESULT: v0x38a82c0_0 : [-1/0,1/0]
RESULT: v0x38a8380_0 : [-1/0,1/0]
RESULT: v0x38a7900_0 : [-1/0,1/0]
RESULT: v0x38a76c0_0 : [-1/0,1/0]
RESULT: v0x38a7600_0 : [-1/0,1/0]
RESULT: v0x38a7b20_0 : [-1/0,1/0]
RESULT: v0x38a7540_0 : [-1/0,1/0]
