RESULT: v0x54af0b0_0 : [-1/0,1/0]
RESULT: v0x574acd0_0 : [-1/0,1/0]
RESULT: v0x57510e0_0 : [-1/0,1/0]
RESULT: v0x54a04a0_0 : [-1/0,1/0]
RESULT: v0x551edc0_0 : [27,1/0]
RESULT: v0x574bc10_0 : [-1/0,1/0]
RESULT: v0x57526e0_0 : [-1/0,1/0]
RESULT: v0x5633950_0 : [-1/0,1/0]
RESULT: v0x54d9610_0 : [1,1]
RESULT: v0x55fd050_0 : [-1/0,1/0]
RESULT: v0x548dbc0_0 : [-1/0,1/0]
RESULT: v0x5452340_0 : [-1/0,1/0]
RESULT: v0x5452440_0 : [-1/0,1/0]
RESULT: v0x5452540_0 : [-1/0,1/0]
RESULT: v0x5452640_0 : [-1/0,1/0]
RESULT: v0x5452740_0 : [67,1/0]
RESULT: v0x5452840_0 : [0,1]
RESULT: v0x5452940_0 : [-1/0,1/0]
RESULT: v0x5452a40_0 : [-1/0,1/0]
RESULT: v0x5452b40_0 : [-1/0,1/0]
RESULT: v0x5452c40_0 : [-1/0,1/0]
RESULT: v0x5452d40_0 : [-1/0,1/0]
RESULT: v0x5452e40_0 : [-1/0,1/0]
RESULT: v0x5624da0_0 : [-1/0,1/0]
RESULT: v0x5522e40_0 : [-1/0,1/0]
RESULT: v0x560bab0_0 : [-1/0,10]
RESULT: v0x5454140_0 : [-1/0,1/0]
