RESULT: v0x4dc3b50_0 : [-1/0,1/0]
RESULT: v0x4cfbec0_0 : [0,0]
RESULT: v0x4cfcb00_0 : [-1/0,1/0]
RESULT: v0x4cfae20_0 : [-1/0,1/0]
RESULT: v0x4cfb040_0 : [-1/0,1/0]
RESULT: v0x4d020e0_0 : [-1/0,1/0]
RESULT: v0x4d01da0_0 : [-1/0,1/0]
RESULT: v0x4d01d20_0 : [-1/0,1/0]
RESULT: v0x49df990_0 : [2,2]
RESULT: v0x49dfa90_0 : [0,1]
RESULT: v0x49dfb90_0 : [-1/0,1/0]
RESULT: v0x49dfc90_0 : [2,2]
RESULT: v0x49dfd90_0 : [1,1]
RESULT: v0x4cfca40_0 : [-1/0,1/0]
RESULT: v0x49e0290_0 : [0,0]
RESULT: v0x49e0390_0 : [-1/0,1/0]
RESULT: v0x49e0490_0 : [0,0]
RESULT: v0x4aa5e60_0 : [-1/0,1/0]
RESULT: v0x4cfc8e0_0 : [-1/0,1/0]
RESULT: v0x4cfafc0_0 : [-1/0,1/0]
RESULT: v0x4cfa140_0 : [-1/0,1/0]
RESULT: v0x4cfa2a0_0 : [-1/0,1/0]
RESULT: v0x4d65db0_0 : [-1/0,1/0]
RESULT: v0x4bc8120_0 : [-1/0,1/0]
RESULT: v0x4b8dec0_0 : [-1/0,1/0]
RESULT: v0x4b8de80_0 : [-1/0,1/0]
RESULT: v0x4cfa340_0 : [-1/0,1/0]
RESULT: v0x4cfa400_0 : [-1/0,1/0]
RESULT: v0x4d6ecb0_0 : [-1/0,1/0]
RESULT: v0x4cfcbc0_0 : [-1/0,1/0]
RESULT: v0x4cfca80_0 : [-1/0,1/0]
RESULT: v0x4cfd840_0 : [-1/0,1/0]
