RESULT: v0x10911e80_0 : [-1/0,1/0]
RESULT: v0x86bba80_0 : [-1/0,1/0]
RESULT: v0xb1e8a10_0 : [-1/0,1/0]
RESULT: v0xfaed5f0_0 : [-1/0,1/0]
RESULT: v0x10911ec0_0 : [67,1/0]
RESULT: v0x11d0f4d0_0 : [-1/0,1/0]
RESULT: v0x65bb2a0_0 : [-1/0,1/0]
RESULT: v0xa510f90_0 : [0,0]
RESULT: v0x65bb200_0 : [-1/0,1/0]
RESULT: v0x114dc790_0 : [-1/0,1/0]
RESULT: v0xa3cb820_0 : [-1/0,1/0]
RESULT: v0x3f94330_0 : [67,1/0]
RESULT: v0x3f94430_0 : [0,1]
RESULT: v0x3f94530_0 : [-1/0,1/0]
RESULT: v0x3f94630_0 : [-1/0,1/0]
RESULT: v0x3f94730_0 : [-1/0,1/0]
RESULT: v0x3f94830_0 : [-1/0,1/0]
RESULT: v0x3f94930_0 : [0,1]
RESULT: v0x3f94a30_0 : [-1/0,1/0]
RESULT: v0x3f94b30_0 : [-1/0,1/0]
RESULT: v0x3f94c30_0 : [0,0]
RESULT: v0x3f94d30_0 : [0,0]
RESULT: v0x3f94e30_0 : [-1/0,1/0]
RESULT: v0x3f94f30_0 : [-1/0,1/0]
RESULT: v0x3f95030_0 : [-1/0,1/0]
RESULT: v0x15c1c1b0_0 : [-1/0,1/0]
RESULT: v0x10dd38a0_0 : [-1/0,1/0]
RESULT: v0x45e1c90_0 : [0,0]
RESULT: v0xb1e89d0_0 : [-1/0,10]
RESULT: v0x8f17cc0_0 : [-1/0,1/0]
RESULT: v0x3f95330_0 : [-1/0,1/0]
