RESULT: v0x4ac4090_0 : [-1/0,1/0]
RESULT: v0x4ac3fd0_0 : [-1/0,1/0]
RESULT: v0x4a3bc00_0 : [-1/0,1/0]
RESULT: v0x4ac3c30_0 : [-1/0,1/0]
RESULT: v0x4ac3cd0_0 : [-1/0,1/0]
RESULT: v0x4ac42d0_0 : [-1/0,1/0]
RESULT: v0x4ac4390_0 : [-1/0,1/0]
RESULT: v0x4a6c320_0 : [-1/0,1/0]
RESULT: v0x4ac4450_0 : [-1/0,1/0]
RESULT: v0x4ac4510_0 : [-1/0,1/0]
RESULT: v0x4ac45d0_0 : [-1/0,1/0]
RESULT: v0x4ac4690_0 : [-1/0,1/0]
RESULT: v0x4ac4750_0 : [-1/0,1/0]
RESULT: v0x4ac4810_0 : [-1/0,1/0]
RESULT: v0x4ac48d0_0 : [-1/0,1/0]
RESULT: v0x4ac4990_0 : [-1/0,1/0]
RESULT: v0x4ac4a50_0 : [-1/0,1/0]
RESULT: v0x4ac4b10_0 : [-1/0,1/0]
RESULT: v0x4ac4bd0_0 : [-1/0,1/0]
RESULT: v0x4ac4150_0 : [-1/0,1/0]
RESULT: v0x4ac3f10_0 : [-1/0,1/0]
RESULT: v0x4ac3e50_0 : [-1/0,1/0]
RESULT: v0x4ac4310_0 : [-1/0,1/0]
RESULT: v0x4ac3d90_0 : [-1/0,1/0]
