RESULT: v0x11c10b70_0 : [-1/0,1/0]
RESULT: v0xaeed660_0 : [-1/0,1/0]
RESULT: v0xabe77b0_0 : [-1/0,1/0]
RESULT: v0x16267c70_0 : [-1/0,1/0]
RESULT: v0x40c91c0_0 : [27,1/0]
RESULT: v0x7c69c20_0 : [-1/0,1/0]
RESULT: v0x7c69b80_0 : [-1/0,1/0]
RESULT: v0x10077050_0 : [0,0]
RESULT: v0x10be3290_0 : [-1/0,1/0]
RESULT: v0xaeed4a0_0 : [-1/0,1/0]
RESULT: v0xaeed520_0 : [-1/0,1/0]
RESULT: v0x3f94330_0 : [67,1/0]
RESULT: v0x3f94430_0 : [0,1]
RESULT: v0x3f94530_0 : [-1/0,1/0]
RESULT: v0x3f94630_0 : [-1/0,1/0]
RESULT: v0x3f94730_0 : [-1/0,1/0]
RESULT: v0x3f94830_0 : [-1/0,1/0]
RESULT: v0x3f94930_0 : [0,1]
RESULT: v0x3f94a30_0 : [-1/0,1/0]
RESULT: v0x3f94b30_0 : [-1/0,1/0]
RESULT: v0x3f94c30_0 : [-1/0,1/0]
RESULT: v0x3f94d30_0 : [-1/0,1/0]
RESULT: v0x3f94e30_0 : [-1/0,1/0]
RESULT: v0x3f94f30_0 : [-1/0,1/0]
RESULT: v0x3f95030_0 : [-1/0,1/0]
RESULT: v0x16db47c0_0 : [-1/0,1/0]
RESULT: v0x69aefd0_0 : [-1/0,1/0]
RESULT: v0x41229b0_0 : [0,0]
RESULT: v0x8c896f0_0 : [-1/0,10]
RESULT: v0x65c2870_0 : [-1/0,1/0]
RESULT: v0x3f95330_0 : [-1/0,1/0]
