RESULT: v0x43ee050_1 : [4,4]
RESULT: v0x4465a10_1 : [0,1]
RESULT: v0x4344f80_1 : [0,1]
RESULT: v0x43fd330_1 : [0,1]
RESULT: v0x43738e0_1 : [0,1]
RESULT: v0x43f6850_1 : [0,1]
RESULT: v0x4658930_1 : [0,1]
RESULT: v0x440f6f0_1 : [0,1]
RESULT: v0x4373c00_1 : [0,1]
RESULT: v0x43650d0_1 : [0,1]
RESULT: v0x44483d0_1 : [0,1]
RESULT: v0x445a270_1 : [0,1]
RESULT: v0x4411fd0_1 : [0,1]
RESULT: v0x43b31b0_1 : [0,2]
RESULT: v0x42f9a50_1 : [0,3]
RESULT: v0x42f9a10_1 : [123,777]
RESULT: v0x4229010_1 : [0,666]
RESULT: v0x4228f50_1 : [0,2]
RESULT: v0x4228c70_1 : [0,1]
RESULT: v0x4228bb0_1 : [0,2]
RESULT: v0x4228970_1 : [0,456]
RESULT: v0x42288b0_1 : [0,123]
RESULT: v0x4228670_1 : [0,456]
RESULT: v0x422a210_1 : [0,3]
