RESULT: v0x79d1fe0_0 : [3,10]
RESULT: v0x7c38a80_0 : [0,1]
RESULT: v0x7a1cc90_0 : [0,1]
RESULT: v0x7c38920_0 : [0,1]
RESULT: v0x7c59fa0_0 : [40,120]
RESULT: v0x7c59640_0 : [0,1]
RESULT: v0x7c5ec40_0 : [0,1]
RESULT: v0x7c59ee0_0 : [1,1]
RESULT: v0x7a1c7f0_0 : [1,1]
RESULT: v0x7c389e0_0 : [1,1]
RESULT: v0x7c446e0_0 : [1,1]
RESULT: v0x79c58a0_0 : [1,1]
RESULT: v0x4201b90_0 : [80,120]
RESULT: v0x4201c90_0 : [0,1]
RESULT: v0x4201d90_0 : [0,1]
RESULT: v0x4201e90_0 : [0,1]
RESULT: v0x4201f90_0 : [0,1]
RESULT: v0x4202090_0 : [0,1]
RESULT: v0x4202190_0 : [-1/0,1/0]
RESULT: v0x4202290_0 : [1,1]
RESULT: v0x4202390_0 : [0,1]
RESULT: v0x4202490_0 : [0,1]
RESULT: v0x4202590_0 : [0,1]
RESULT: v0x4202690_0 : [0,1]
RESULT: v0x7c38b00_0 : [-1/0,1/0]
RESULT: v0x79fafb0_0 : [-1/0,1/0]
RESULT: v0x4203990_0 : [-1/0,1/0]
