RESULT: v0x45b87a0_0 : [2,1/0]
RESULT: v0x44fbdc0_0 : [0,1]
RESULT: v0x4934ff0_0 : [0,1]
RESULT: v0x476ea10_0 : [0,1]
RESULT: v0x4947b10_0 : [0,1]
RESULT: v0x461b300_0 : [0,1]
RESULT: v0x459e3c0_0 : [0,1]
RESULT: v0x4763430_0 : [0,1]
RESULT: v0x49445d0_0 : [0,1]
RESULT: v0x491a2b0_0 : [1,1]
RESULT: v0x49338f0_0 : [1,1]
RESULT: v0x4752900_0 : [0,1]
RESULT: v0x491c790_0 : [1,1]
RESULT: v0x493d370_0 : [123,777]
RESULT: v0x450a980_0 : [0,0]
RESULT: v0x4605300_0 : [0,2]
RESULT: v0x476c070_0 : [0,1]
RESULT: v0x49210d0_0 : [0,456]
RESULT: v0x49291b0_0 : [0,123]
RESULT: v0x43c5330_0 : [0,123]
RESULT: v0x43c5830_0 : [123,777]
