RESULT: v0x412e940_1 : [-1/0,11]
RESULT: v0x412ed00_1 : [-1/0,1/0]
RESULT: v0x412ef80_1 : [-1/0,1/0]
RESULT: v0x412f200_1 : [-1/0,1/0]
RESULT: v0x412f480_1 : [-1/0,1/0]
RESULT: v0x412f700_1 : [-1/0,1/0]
RESULT: v0x412f980_1 : [-1/0,1/0]
RESULT: v0x412fc00_1 : [-1/0,1/0]
RESULT: v0x412fe80_1 : [-1/0,1/0]
RESULT: v0x4130100_1 : [-1/0,1/0]
RESULT: v0x4130380_1 : [-1/0,1/0]
RESULT: v0x4130600_1 : [-1/0,1/0]
RESULT: v0x4130880_1 : [-1/0,1/0]
RESULT: v0x4130b00_1 : [-1/0,1/0]
RESULT: v0x4130d80_1 : [-1/0,1/0]
RESULT: v0x4131000_1 : [-1/0,1/0]
