RESULT: v0x3f1ea30_1 : [-1/0,1/0]
RESULT: v0x3c686e0_1 : [-1/0,1/0]
RESULT: v0x3e3da70_1 : [-1/0,1/0]
RESULT: v0x3e37370_1 : [-1/0,1/0]
RESULT: v0x3e37510_1 : [-1/0,1/0]
RESULT: v0x3e36f90_1 : [-1/0,1/0]
RESULT: v0x3e370f0_1 : [-1/0,1/0]
RESULT: v0x3e36c50_1 : [-1/0,1/0]
RESULT: v0x3e36d10_1 : [-1/0,1/0]
RESULT: v0x3e35ec0_1 : [-1/0,1/0]
RESULT: v0x3e35e40_1 : [-1/0,1/0]
RESULT: v0x3e351c0_1 : [-1/0,1/0]
RESULT: v0x3e34ee0_1 : [-1/0,1/0]
RESULT: v0x3e35080_1 : [-1/0,1/0]
RESULT: v0x3e34280_1 : [-1/0,1/0]
RESULT: v0x3e34300_1 : [-1/0,1/0]
RESULT: v0x3e2dec0_1 : [-1/0,1/0]
RESULT: v0x3e2dc00_1 : [-1/0,1/0]
RESULT: v0x3e2dda0_1 : [-1/0,1/0]
RESULT: v0x3e2d820_1 : [-1/0,1/0]
RESULT: v0x3e2d980_1 : [-1/0,1/0]
RESULT: v0x3e2d4e0_1 : [-1/0,1/0]
RESULT: v0x3e2d5a0_1 : [-1/0,1/0]
RESULT: v0x3e2c960_1 : [-1/0,1/0]
RESULT: v0x3e2c920_1 : [-1/0,1/0]
RESULT: v0x3c6fe10_1 : [-1/0,1/0]
RESULT: v0x3c6fb30_1 : [-1/0,1/0]
