RESULT: v0x3b3df10_0 : [2,1/0]
RESULT: v0x3d354b0_0 : [0,1]
RESULT: v0x3d1f630_0 : [0,1]
RESULT: v0x3c80df0_0 : [123,777]
RESULT: v0x3acf820_0 : [0,1]
RESULT: v0x3d07e50_0 : [0,1]
RESULT: v0x3d07c10_0 : [0,1]
RESULT: v0x3d71ff0_0 : [0,2]
RESULT: v0x3ae8590_0 : [0,3]
RESULT: v0x3d0b270_0 : [0,1]
RESULT: v0x3d7e190_0 : [0,0]
RESULT: v0x3d11590_0 : [0,0]
RESULT: v0x3ad3ed0_0 : [456,456]
RESULT: v0x3d009b0_0 : [1,1]
RESULT: v0x3ad9f30_0 : [1,1]
RESULT: v0x3cda830_0 : [0,2]
RESULT: v0x3d21e90_0 : [0,456]
RESULT: v0x3c923b0_0 : [0,0]
RESULT: v0x3c0e470_0 : [456,456]
RESULT: v0x3d14350_0 : [2,2]
RESULT: v0x3d59f10_0 : [1,1]
RESULT: v0x3d075b0_0 : [0,0]
RESULT: v0x3d52a50_0 : [0,0]
RESULT: v0x3d6caf0_0 : [0,1]
