RESULT: v0x51d9b70_1 : [3,3]
RESULT: v0x51d9cd0_1 : [0,1]
RESULT: v0x51d9e50_1 : [0,1]
RESULT: v0x51da090_1 : [0,1]
RESULT: v0x5169670_1 : [0,1]
RESULT: v0x51694f0_1 : [0,1]
RESULT: v0x5169370_1 : [0,1]
RESULT: v0x5169130_1 : [0,1]
RESULT: v0x5039d40_1 : [0,1]
RESULT: v0x5039e00_1 : [0,1]
RESULT: v0x4efad90_1 : [0,1]
RESULT: v0x503a040_1 : [0,2]
RESULT: v0x503a100_1 : [0,3]
RESULT: v0x502cff0_1 : [123,777]
RESULT: v0x502d0b0_1 : [0,666]
RESULT: v0x502d170_1 : [0,2]
RESULT: v0x5023700_1 : [0,1]
RESULT: v0x5026480_1 : [0,2]
RESULT: v0x4ffa370_1 : [0,456]
RESULT: v0x4ffa860_1 : [0,123]
RESULT: v0x502b150_1 : [0,456]
RESULT: v0x502f0e0_1 : [0,3]
RESULT: v0x502b0c0_1 : [0,1]
RESULT: v0x503e170_1 : [0,1]
