RESULT: v0x3c06bf0_1 : [3,3]
RESULT: v0x3af02b0_1 : [0,1]
RESULT: v0x3af4100_1 : [0,1]
RESULT: v0x3af8190_1 : [0,1]
RESULT: v0x3b081e0_1 : [0,1]
RESULT: v0x3af6f90_1 : [0,1]
RESULT: v0x3b5e710_1 : [0,1]
RESULT: v0x3b5fc10_1 : [0,1]
RESULT: v0x3b504f0_1 : [0,1]
RESULT: v0x3af9350_1 : [0,1]
RESULT: v0x3b4e370_1 : [0,1]
RESULT: v0x3ba8680_1 : [0,1]
RESULT: v0x3b642d0_1 : [0,1]
RESULT: v0x3b5a210_1 : [0,2]
RESULT: v0x3af1510_1 : [0,3]
RESULT: v0x3ae2940_1 : [0,1]
RESULT: v0x3af5530_1 : [123,777]
RESULT: v0x39cda50_1 : [0,666]
RESULT: v0x3b45590_1 : [0,2]
RESULT: v0x3af9530_1 : [0,1]
RESULT: v0x3aec990_1 : [0,2]
RESULT: v0x3ad7e20_1 : [0,456]
RESULT: v0x3ca5f70_1 : [0,123]
RESULT: v0x3c32a20_1 : [0,456]
