RESULT: v0x4353670_1 : [-1/0,2]
RESULT: v0x432fc30_1 : [-1/0,1/0]
RESULT: v0x43534f0_1 : [0,1]
RESULT: v0x4353070_1 : [-1/0,1/0]
RESULT: v0x432f410_1 : [-1/0,1/0]
RESULT: v0x4352fb0_1 : [-1/0,1/0]
RESULT: v0x4352e30_1 : [-1/0,1/0]
RESULT: v0x432f050_1 : [-1/0,1/0]
RESULT: v0x432ef90_1 : [-1/0,1/0]
RESULT: v0x4352bf0_1 : [-1/0,1/0]
RESULT: v0x4352a90_1 : [-1/0,1/0]
RESULT: v0x43447f0_1 : [-1/0,1/0]
RESULT: v0x4352a50_1 : [-1/0,1/0]
RESULT: v0x4352830_1 : [0,1/0]
RESULT: v0x432e5d0_1 : [-1/0,1/0]
RESULT: v0x432e510_1 : [-1/0,1/0]
