RESULT: v0x470d8c0_0 : [-1/0,1/0]
RESULT: v0x5254b70_0 : [-1/0,1/0]
RESULT: v0x69ea690_0 : [-1/0,1/0]
RESULT: v0x9065770_0 : [-1/0,1/0]
RESULT: v0x4218720_0 : [-1/0,1/0]
RESULT: v0x7246810_0 : [-1/0,1/0]
RESULT: v0x65a09f0_0 : [1,1]
RESULT: v0x40faaa0_0 : [67,1/0]
RESULT: v0x490e140_0 : [27,1/0]
RESULT: v0x40faba0_0 : [0,1]
RESULT: v0x40faca0_0 : [0,1]
RESULT: v0x40fada0_0 : [-1/0,1/0]
RESULT: v0x40faea0_0 : [-1/0,1/0]
RESULT: v0x40fafa0_0 : [-1/0,1/0]
RESULT: v0x40fb0a0_0 : [-1/0,1/0]
RESULT: v0x40fb1a0_0 : [-1/0,1/0]
RESULT: v0x695eb20_0 : [-1/0,1/0]
RESULT: v0x40fb2a0_0 : [-1/0,1/0]
RESULT: v0x49ea8f0_0 : [-1/0,1/0]
RESULT: v0x40fb3a0_0 : [-1/0,1/0]
RESULT: v0x693d8d0_0 : [-1/0,1/0]
RESULT: v0x40fb4a0_0 : [-1/0,1/0]
RESULT: v0x40fb5a0_0 : [-1/0,1/0]
RESULT: v0x40fb6a0_0 : [-1/0,1/0]
RESULT: v0x40fb7a0_0 : [-1/0,1/0]
RESULT: v0x571e420_0 : [-1/0,1/0]
RESULT: v0x42c1230_0 : [-1/0,1/0]
RESULT: v0x425e340_0 : [-1/0,1/0]
RESULT: v0x5424e60_0 : [-1/0,10]
RESULT: v0x5947410_0 : [-1/0,1/0]
RESULT: v0x40fcaa0_0 : [-1/0,1/0]
