RESULT: v0x4e85d60_1 : [-1/0,1/0]
RESULT: v0x4e86120_1 : [-1/0,1/0]
RESULT: v0x4e863a0_1 : [-1/0,1/0]
RESULT: v0x4e86620_1 : [-1/0,11]
RESULT: v0x4e868a0_1 : [-1/0,1/0]
RESULT: v0x4e86b20_1 : [-1/0,1/0]
RESULT: v0x4e86da0_1 : [-1/0,1/0]
RESULT: v0x4e87020_1 : [-1/0,1/0]
RESULT: v0x4e872a0_1 : [-1/0,1/0]
RESULT: v0x4e87520_1 : [-1/0,1/0]
