RESULT: v0x37c3410_0 : [-1/0,1/0]
RESULT: v0x37c3f50_0 : [-1/0,1/0]
RESULT: v0x37c4450_0 : [-1/0,1/0]
RESULT: v0x37c4530_0 : [-1/0,1/0]
RESULT: v0x37c1250_0 : [-1/0,1/0]
RESULT: v0x37c2c90_0 : [-1/0,1/0]
RESULT: v0x37c2c10_0 : [-1/0,1/0]
RESULT: v0x37c3330_0 : [-1/0,1/0]
RESULT: v0x35c2f60_0 : [-1/0,1/0]
RESULT: v0x37c4a70_0 : [-1/0,1/0]
RESULT: v0x37c56c0_0 : [-1/0,1/0]
RESULT: v0x37c5620_0 : [-1/0,1/0]
RESULT: v0x34f9770_0 : [-1/0,1/0]
RESULT: v0x37bf850_0 : [-1/0,1/0]
RESULT: v0x37c2d50_0 : [-1/0,1/0]
RESULT: v0x37beb50_0 : [-1/0,1/0]
RESULT: v0x37bec10_0 : [-1/0,1/0]
RESULT: v0x37beb10_0 : [-1/0,1/0]
RESULT: v0x37bf810_0 : [-1/0,1/0]
RESULT: v0x37bcd20_0 : [-1/0,1/0]
RESULT: v0x37bcc60_0 : [-1/0,1/0]
RESULT: v0x37b9a60_0 : [-1/0,1/0]
RESULT: v0x37b9b20_0 : [-1/0,1/0]
RESULT: v0x37be0d0_0 : [-1/0,1/0]
