RESULT: v0x42fd480_0 : [-1/0,1/0]
RESULT: v0x42fb5e0_0 : [-1/0,1/0]
RESULT: v0x42fb540_0 : [-1/0,1/0]
RESULT: v0x42fbf50_0 : [-1/0,1/0]
RESULT: v0x431b390_0 : [-1/0,1/0]
RESULT: v0x42fc170_0 : [-1/0,1/0]
RESULT: v0x42fbff0_0 : [-1/0,1/0]
RESULT: v0x42fc230_0 : [-1/0,1/0]
RESULT: v0x42fc0b0_0 : [-1/0,1/0]
RESULT: v0x42fc2f0_0 : [-1/0,1/0]
RESULT: v0x42fcf60_0 : [-1/0,1/0]
RESULT: v0x42fcf20_0 : [-1/0,1/0]
RESULT: v0x433f560_0 : [-1/0,1/0]
RESULT: v0x432e220_0 : [-1/0,1/0]
RESULT: v0x42fd180_0 : [-1/0,1/0]
RESULT: v0x42fb500_0 : [-1/0,1/0]
RESULT: v0x42fb460_0 : [-1/0,1/0]
RESULT: v0x42fb2e0_0 : [-1/0,1/0]
RESULT: v0x42fa240_0 : [-1/0,1/0]
RESULT: v0x42fa000_0 : [-1/0,1/0]
RESULT: v0x42fa540_0 : [-1/0,1/0]
RESULT: v0x42fa480_0 : [-1/0,1/0]
RESULT: v0x42fb220_0 : [-1/0,1/0]
RESULT: v0x42fb160_0 : [-1/0,1/0]
