RESULT: v0x514c450_0 : [0,1]
RESULT: v0x53fbc60_1 : [0,1]
RESULT: v0x65511a0_1 : [0,1]
RESULT: v0x654a170_1 : [0,1]
RESULT: v0x679e670_1 : [0,1]
RESULT: v0x56424b0_1 : [0,1]
RESULT: v0x68aa680_1 : [0,1]
RESULT: v0x6de1630_1 : [0,1]
RESULT: v0x51f6a20_1 : [0,1]
RESULT: v0x6527ab0_1 : [0,1]
RESULT: v0x6523bf0_1 : [0,1]
RESULT: v0x6ea9850_1 : [0,1]
RESULT: v0x5650730_1 : [0,1]
RESULT: v0x5ad25f0_1 : [0,1]
RESULT: v0x56445f0_1 : [0,2]
RESULT: v0x68a5be0_1 : [0,2]
RESULT: v0x678fcf0_1 : [0,2]
RESULT: v0x709b360_1 : [0,2]
RESULT: v0x6e7bee0_1 : [0,2]
RESULT: v0x6069470_1 : [0,2]
RESULT: v0x5421310_1 : [0,2]
RESULT: v0x6739080_1 : [0,2]
RESULT: v0x6585e00_1 : [0,2]
RESULT: v0x68abc40_1 : [0,2]
RESULT: v0x673e4a0_1 : [0,2]
RESULT: v0x6741a00_1 : [0,2]
RESULT: v0x709efe0_1 : [0,2]
RESULT: v0x55d5aa0_1 : [0,2]
