RESULT: v0x4208f70_0 : [0,1]
RESULT: v0x42e9a70_0 : [0,1]
RESULT: v0x42c61f0_0 : [-1/0,1/0]
RESULT: v0x42fa670_0 : [-1/0,1/0]
RESULT: v0x4291530_0 : [-1/0,1/0]
RESULT: v0x4529610_0 : [-1/0,1/0]
RESULT: v0x439a280_0 : [0,0]
RESULT: v0x40faaa0_0 : [67,1/0]
RESULT: v0x421bd10_0 : [67,1/0]
RESULT: v0x40faba0_0 : [0,1]
RESULT: v0x40faca0_0 : [0,1]
RESULT: v0x40fada0_0 : [-1/0,1/0]
RESULT: v0x40faea0_0 : [-1/0,1/0]
RESULT: v0x40fafa0_0 : [0,0]
RESULT: v0x40fb0a0_0 : [0,0]
RESULT: v0x40fb1a0_0 : [-1/0,1/0]
RESULT: v0x41bb7c0_0 : [-1/0,1/0]
RESULT: v0x40fb2a0_0 : [-1/0,1/0]
RESULT: v0x4168650_0 : [-1/0,1/0]
RESULT: v0x40fb3a0_0 : [-1/0,1/0]
RESULT: v0x4350740_0 : [-1/0,1/0]
RESULT: v0x40fb4a0_0 : [-1/0,1/0]
RESULT: v0x40fb5a0_0 : [-1/0,1/0]
RESULT: v0x40fb6a0_0 : [-1/0,1/0]
RESULT: v0x40fb7a0_0 : [-1/0,1/0]
RESULT: v0x43259b0_0 : [-1/0,1/0]
RESULT: v0x4136ef0_0 : [-1/0,1/0]
RESULT: v0x42a1f80_0 : [0,0]
RESULT: v0x43a4dd0_0 : [-1/0,10]
RESULT: v0x430c170_0 : [-1/0,1/0]
RESULT: v0x40fbaa0_0 : [-1/0,1/0]
