RESULT: v0x3c61640_0 : [-1/0,1/0]
RESULT: v0x3e38820_0 : [-1/0,1/0]
RESULT: v0x3e385a0_0 : [-1/0,1/0]
RESULT: v0x3e37e20_0 : [-1/0,1/0]
RESULT: v0x3e37f60_0 : [-1/0,1/0]
RESULT: v0x3e380a0_0 : [-1/0,1/0]
RESULT: v0x3e38960_0 : [-1/0,1/0]
RESULT: v0x3e38aa0_0 : [-1/0,1/0]
RESULT: v0x3e38460_0 : [-1/0,1/0]
RESULT: v0x3e37ce0_0 : [-1/0,1/0]
RESULT: v0x3e4d820_0 : [-1/0,1/0]
RESULT: v0x3e38d20_0 : [-1/0,1/0]
RESULT: v0x3e38e60_0 : [-1/0,1/0]
RESULT: v0x3e38fa0_0 : [-1/0,1/0]
RESULT: v0x3e390e0_0 : [-1/0,1/0]
RESULT: v0x3e39220_0 : [-1/0,1/0]
RESULT: v0x3e39360_0 : [-1/0,1/0]
RESULT: v0x3e394a0_0 : [-1/0,1/0]
RESULT: v0x3e395e0_0 : [-1/0,1/0]
RESULT: v0x3e399a0_0 : [-1/0,1/0]
RESULT: v0x3e39860_0 : [-1/0,1/0]
RESULT: v0x3db6790_0 : [-1/0,1/0]
RESULT: v0x3e38be0_0 : [-1/0,1/0]
RESULT: v0x3e386e0_0 : [-1/0,1/0]
RESULT: v0x3e38320_0 : [-1/0,1/0]
RESULT: v0x3e381e0_0 : [-1/0,1/0]
