RESULT: v0x5d85e30_0 : [0,2]
RESULT: v0x3e4a030_0 : [1,2]
RESULT: v0x6c1e6f0_0 : [0,0]
RESULT: v0x5ba02a0_0 : [0,3]
RESULT: v0x6d672f0_0 : [0,1]
RESULT: v0x6e18410_0 : [0,3]
RESULT: v0x5d86390_0 : [0,0]
RESULT: v0x5e0eeb0_0 : [0,1/0]
RESULT: v0x5dec2c0_0 : [0,1/0]
RESULT: v0x5e26f90_0 : [0,53]
RESULT: v0x59a5970_0 : [0,0]
RESULT: v0x452dc50_0 : [0,1]
RESULT: v0x5e30ff0_0 : [0,1]
RESULT: v0x5d86410_0 : [0,1]
RESULT: v0x6f8a6d0_0 : [0,1]
RESULT: v0x3e49230_0 : [0,52]
RESULT: v0x3e49030_0 : [0,50]
RESULT: v0x3e493d0_0 : [0,0]
RESULT: v0x3e49130_0 : [0,51]
RESULT: v0x5d85eb0_0 : [-1/0,1/0]
RESULT: v0x3e4a330_0 : [-1/0,1/0]
RESULT: v0x6e19040_0 : [1,1]
RESULT: v0x5e2e6b0_0 : [0,1/0]
RESULT: v0x629a530_0 : [50,53]
RESULT: v0x5adbd10_0 : [0,1/0]
RESULT: v0x6f65c50_0 : [0,0]
RESULT: v0x5e1e610_0 : [1,1]
RESULT: v0x5c92250_0 : [0,1]
RESULT: v0x5dfc4d0_0 : [0,1]
RESULT: v0x591a200_0 : [0,3]
RESULT: v0x6298510_0 : [-1/0,1/0]
RESULT: v0x5e250f0_0 : [0,2]
RESULT: v0x5d41350_0 : [0,1]
RESULT: v0x3e4baf0_0 : [-1/0,1/0]
