RESULT: v0x3f3ceb0_0 : [-1/0,1/0]
RESULT: v0x3f3ce30_0 : [-1/0,1/0]
RESULT: v0x3f3c890_0 : [-1/0,1/0]
RESULT: v0x3f3c950_0 : [-1/0,1/0]
RESULT: v0x3f3ca10_0 : [-1/0,1/0]
RESULT: v0x3f3cc50_0 : [-1/0,1/0]
RESULT: v0x3f3cf50_0 : [-1/0,1/0]
RESULT: v0x3f3c7d0_0 : [-1/0,1/0]
RESULT: v0x3eec490_0 : [-1/0,1/0]
RESULT: v0x3ecde90_0 : [-1/0,1/0]
RESULT: v0x3f3c730_0 : [-1/0,1/0]
RESULT: v0x3f3d0d0_0 : [-1/0,1/0]
RESULT: v0x3f3d190_0 : [-1/0,1/0]
RESULT: v0x3f3d250_0 : [-1/0,1/0]
RESULT: v0x3f3d310_0 : [-1/0,1/0]
RESULT: v0x3f3d3d0_0 : [-1/0,1/0]
RESULT: v0x3f3d490_0 : [-1/0,1/0]
RESULT: v0x3f3d550_0 : [-1/0,1/0]
RESULT: v0x3f3d610_0 : [-1/0,1/0]
RESULT: v0x3f3d6d0_0 : [-1/0,1/0]
RESULT: v0x3f3d010_0 : [-1/0,1/0]
RESULT: v0x3f3ce70_0 : [-1/0,1/0]
RESULT: v0x3f3cb90_0 : [-1/0,1/0]
RESULT: v0x3f3cad0_0 : [-1/0,1/0]
