RESULT: v0x5bc8620_0 : [0,1]
RESULT: v0x5bc87a0_0 : [0,1]
RESULT: v0x5bc89a0_0 : [0,1]
RESULT: v0x5bc8ba0_0 : [0,1]
RESULT: v0x5bc8da0_0 : [0,1]
RESULT: v0x5bc8fa0_0 : [0,1]
RESULT: v0x5bc91a0_0 : [0,1]
RESULT: v0x5bc93a0_0 : [0,1]
RESULT: v0x5bc95a0_0 : [0,1]
RESULT: v0x5bc97a0_0 : [0,1]
RESULT: v0x5bc99a0_0 : [0,1]
RESULT: v0x5bc9ba0_0 : [0,1]
RESULT: v0x5bc9da0_0 : [1,1]
RESULT: v0x5bc9fa0_0 : [-1/0,1/0]
RESULT: v0x5bca1a0_0 : [-1/0,1/0]
RESULT: v0x5c0a320_0 : [0,2]
RESULT: v0x5c0a520_0 : [0,2]
RESULT: v0x5c0a720_0 : [0,2]
RESULT: v0x5c0a920_0 : [0,2]
RESULT: v0x5c0ab20_0 : [0,2]
RESULT: v0x5c0ad20_0 : [0,2]
RESULT: v0x5c0af20_0 : [0,2]
RESULT: v0x5c0b120_0 : [0,2]
RESULT: v0x5c0b320_0 : [0,2]
RESULT: v0x5c0b520_0 : [0,2]
RESULT: v0x5c0b720_0 : [0,2]
RESULT: v0x5c0b920_0 : [0,2]
RESULT: v0x5c0bb20_0 : [2,2]
