RESULT: v0x4badf80_0 : [2,1/0]
RESULT: v0x4e7c980_0 : [0,1]
RESULT: v0x4d24de0_0 : [0,1]
RESULT: v0x4ed1c70_0 : [123,777]
RESULT: v0x4df44e0_0 : [0,1]
RESULT: v0x4d2b7e0_0 : [0,1]
RESULT: v0x4ccad40_0 : [0,2]
RESULT: v0x4f13150_0 : [0,1]
RESULT: v0x4eea410_0 : [0,456]
RESULT: v0x4d29220_0 : [0,1]
RESULT: v0x4cf94b0_0 : [0,0]
RESULT: v0x4edf850_0 : [1,1]
RESULT: v0x4ed92d0_0 : [0,2]
RESULT: v0x4dfb0d0_0 : [0,456]
RESULT: v0x4e98a30_0 : [0,1]
RESULT: v0x4ecef10_0 : [0,1]
RESULT: v0x4e9a390_0 : [0,1]
RESULT: v0x4ec03b0_0 : [0,123]
RESULT: v0x4efb870_0 : [0,1]
RESULT: v0x4ec9b10_0 : [0,3]
RESULT: v0x4efd9f0_0 : [0,1]
RESULT: v0x4e69fb0_0 : [0,1]
RESULT: v0x4b973e0_0 : [0,1]
RESULT: v0x4b977e0_0 : [0,2]
RESULT: v0x4b978e0_0 : [0,1]
RESULT: v0x4b979e0_0 : [0,1]
RESULT: v0x4b97ae0_0 : [1,2]
RESULT: v0x4b98ce0_0 : [0,0]
RESULT: v0x4b98de0_0 : [123,777]
RESULT: v0x4b98ee0_0 : [0,0]
RESULT: v0x4b98fe0_0 : [2,2]
RESULT: v0x4b990e0_0 : [1,1]
RESULT: v0x4b991e0_0 : [1,3]
RESULT: v0x4b992e0_0 : [2,2]
RESULT: v0x4b993e0_0 : [2,2]
RESULT: v0x4b994e0_0 : [0,0]
RESULT: v0x4b971e0_0 : [0,123]
