RESULT: v0x3a92cd0_1 : [-1/0,1/0]
RESULT: v0x39d5b60_1 : [-1/0,1/0]
RESULT: v0x39fbcd0_1 : [-1/0,1/0]
RESULT: v0x3a12030_1 : [-1/0,1/0]
RESULT: v0x38bffa0_1 : [-1/0,1/0]
RESULT: v0x39d1cc0_1 : [-1/0,1/0]
RESULT: v0x39c99a0_1 : [-1/0,1/0]
RESULT: v0x39c4260_1 : [-1/0,1/0]
RESULT: v0x38b5020_1 : [-1/0,1/0]
RESULT: v0x39f8270_1 : [-1/0,1/0]
RESULT: v0x39d9d80_1 : [-1/0,1/0]
RESULT: v0x39eae90_1 : [-1/0,1/0]
RESULT: v0x39be970_1 : [-1/0,1/0]
RESULT: v0x39e8780_1 : [-1/0,1/0]
RESULT: v0x39db740_1 : [-1/0,1/0]
RESULT: v0x3a0c290_1 : [-1/0,1/0]
RESULT: v0x39db360_1 : [-1/0,1/0]
RESULT: v0x38bdee0_1 : [-1/0,1/0]
RESULT: v0x39d0e60_1 : [-1/0,1/0]
RESULT: v0x39d4aa0_1 : [-1/0,1/0]
RESULT: v0x39f2150_1 : [-1/0,1/0]
RESULT: v0x39f87b0_1 : [-1/0,1/0]
RESULT: v0x38bd2e0_1 : [-1/0,1/0]
RESULT: v0x39f7c90_1 : [-1/0,1/0]
RESULT: v0x39ed770_1 : [-1/0,1/0]
RESULT: v0x39e6ba0_1 : [-1/0,1/0]
RESULT: v0x39f56f0_1 : [-1/0,1/0]
RESULT: v0x39c8d40_1 : [-1/0,1/0]
RESULT: v0x39c5760_1 : [-1/0,1/0]
