RESULT: v0x5767600_0 : [0,1]
RESULT: v0x57677a0_0 : [0,1]
RESULT: v0x57679a0_0 : [0,1]
RESULT: v0x5767ba0_0 : [0,1]
RESULT: v0x5767da0_0 : [0,1]
RESULT: v0x5767fa0_0 : [0,1]
RESULT: v0x57681a0_0 : [0,1]
RESULT: v0x57683a0_0 : [0,1]
RESULT: v0x57685a0_0 : [0,1]
RESULT: v0x57687a0_0 : [0,1]
RESULT: v0x57689a0_0 : [0,1]
RESULT: v0x5768ba0_0 : [0,1]
RESULT: v0x5768da0_0 : [1,1]
RESULT: v0x5768fa0_0 : [0,2]
RESULT: v0x57691a0_0 : [0,2]
RESULT: v0x57693a0_0 : [0,2]
RESULT: v0x57695a0_0 : [0,2]
RESULT: v0x57697a0_0 : [0,2]
RESULT: v0x57699a0_0 : [0,2]
RESULT: v0x5769ba0_0 : [0,2]
RESULT: v0x5769da0_0 : [0,2]
RESULT: v0x5769fa0_0 : [0,2]
RESULT: v0x576a1a0_0 : [0,2]
RESULT: v0x576a3a0_0 : [0,2]
RESULT: v0x576a5a0_0 : [0,2]
RESULT: v0x576a7a0_0 : [2,2]
