RESULT: v0x4582350_0 : [0,0]
RESULT: v0x4850d50_1 : [0,1]
RESULT: v0x4855950_1 : [0,1]
RESULT: v0x4848a70_1 : [0,1]
RESULT: v0x4835470_1 : [0,1]
RESULT: v0x48347b0_1 : [0,1]
RESULT: v0x4835070_1 : [0,1]
RESULT: v0x48298f0_1 : [0,1]
RESULT: v0x480d030_1 : [0,1]
RESULT: v0x4827a40_1 : [0,1]
RESULT: v0x4827e00_1 : [0,1]
RESULT: v0x482d990_1 : [0,1]
RESULT: v0x480d6f0_1 : [0,1]
RESULT: v0x480d8b0_1 : [-1/0,1/0]
RESULT: v0x480e660_1 : [-1/0,1/0]
RESULT: v0x47e3030_1 : [0,2]
RESULT: v0x485ed00_1 : [0,2]
RESULT: v0x48517e0_1 : [0,2]
RESULT: v0x4851f70_1 : [0,2]
RESULT: v0x483d7a0_1 : [0,2]
RESULT: v0x483da20_1 : [0,2]
RESULT: v0x4843ea0_1 : [0,2]
RESULT: v0x482fb70_1 : [0,2]
RESULT: v0x4822930_1 : [0,2]
RESULT: v0x46e62e0_1 : [0,2]
RESULT: v0x46e5da0_1 : [0,2]
RESULT: v0x4871620_1 : [0,2]
RESULT: v0x4871860_1 : [0,0]
