RESULT: v0x51a4000_0 : [2,2]
RESULT: v0x4e31750_0 : [0,1]
RESULT: v0x3f90780_0 : [0,1]
RESULT: v0x4dfa8b0_0 : [40,120]
RESULT: v0x51c9f80_0 : [0,0]
RESULT: v0x4e301d0_0 : [1,1]
RESULT: v0x4e15280_0 : [1,1]
RESULT: v0x4e17650_0 : [0,1]
RESULT: v0x4dfc0b0_0 : [0,1]
RESULT: v0x51b2200_0 : [1,1]
RESULT: v0x3f8ca60_0 : [0,1]
RESULT: v0x51b47e0_0 : [1,1]
RESULT: v0x51bd8e0_0 : [-1/0,1/0]
RESULT: v0x3f531e0_0 : [0,1]
RESULT: v0x3f532e0_0 : [0,1]
RESULT: v0x3f533e0_0 : [0,1]
RESULT: v0x3f534e0_0 : [0,1]
RESULT: v0x3f535e0_0 : [80,120]
RESULT: v0x3f536e0_0 : [0,1]
RESULT: v0x3f537e0_0 : [-1/0,1/0]
RESULT: v0x3f538e0_0 : [1,1]
RESULT: v0x3f539e0_0 : [1,1]
RESULT: v0x3f53ae0_0 : [0,1]
RESULT: v0x3f53be0_0 : [0,1]
RESULT: v0x3f53ce0_0 : [1,1]
RESULT: v0x59b2f60_0 : [0,0]
RESULT: v0x3f53fe0_0 : [-1/0,1/0]
