RESULT: v0x45e2370_0 : [0,1]
RESULT: v0x45e24f0_0 : [0,1]
RESULT: v0x40dfea0_0 : [0,1]
RESULT: v0x40e00a0_0 : [0,1]
RESULT: v0x40e02a0_0 : [0,1]
RESULT: v0x40e04a0_0 : [0,1]
RESULT: v0x40e06a0_0 : [0,1]
RESULT: v0x40e08a0_0 : [0,1]
RESULT: v0x40e0aa0_0 : [0,1]
RESULT: v0x40e0ca0_0 : [0,1]
RESULT: v0x3f6f480_0 : [0,1]
RESULT: v0x3f6f680_0 : [0,1]
RESULT: v0x3f6f880_0 : [0,1]
RESULT: v0x3f6fa80_0 : [1,1]
RESULT: v0x3f6fc80_0 : [-1/0,1/0]
RESULT: v0x3f6fe80_0 : [-1/0,1/0]
RESULT: v0x3f70080_0 : [0,2]
RESULT: v0x3f70280_0 : [0,2]
RESULT: v0x38460d0_0 : [0,2]
RESULT: v0x38462d0_0 : [0,2]
RESULT: v0x38464d0_0 : [0,2]
RESULT: v0x38466d0_0 : [0,2]
RESULT: v0x38468d0_0 : [0,2]
RESULT: v0x3846ad0_0 : [0,2]
RESULT: v0x3846cd0_0 : [0,2]
RESULT: v0x3846ed0_0 : [0,2]
RESULT: v0x3f74820_0 : [0,2]
RESULT: v0x3f74a20_0 : [0,2]
RESULT: v0x3f74c20_0 : [0,2]
RESULT: v0x3f74e20_0 : [2,2]
