RESULT: v0x97a6710_0 : [-1/0,1/0]
RESULT: v0x9f559e0_0 : [0,1]
RESULT: v0x9060590_0 : [-1/0,1/0]
RESULT: v0x8d83330_0 : [-1/0,1/0]
RESULT: v0x4dd7ae0_0 : [-1/0,1/0]
RESULT: v0x48385f0_0 : [-1/0,1/0]
RESULT: v0x5cdf330_0 : [0,0]
RESULT: v0x40faaa0_0 : [67,1/0]
RESULT: v0x60b3ff0_0 : [67,1/0]
RESULT: v0x40faba0_0 : [0,1]
RESULT: v0x40faca0_0 : [0,1]
RESULT: v0x40fada0_0 : [-1/0,1/0]
RESULT: v0x40faea0_0 : [-1/0,1/0]
RESULT: v0x40fafa0_0 : [0,0]
RESULT: v0x40fb0a0_0 : [-1/0,1/0]
RESULT: v0x40fb1a0_0 : [-1/0,1/0]
RESULT: v0x4f61880_0 : [-1/0,1/0]
RESULT: v0x40fb2a0_0 : [-1/0,1/0]
RESULT: v0x447db80_0 : [-1/0,1/0]
RESULT: v0x40fb3a0_0 : [-1/0,1/0]
RESULT: v0x4f0e890_0 : [-1/0,1/0]
RESULT: v0x40fb4a0_0 : [-1/0,1/0]
RESULT: v0x40fb5a0_0 : [-1/0,1/0]
RESULT: v0x40fb6a0_0 : [-1/0,1/0]
RESULT: v0x40fb7a0_0 : [-1/0,1/0]
RESULT: v0x7cdb230_0 : [-1/0,1/0]
RESULT: v0x42e03d0_0 : [-1/0,1/0]
RESULT: v0x5cdab40_0 : [0,0]
RESULT: v0x4a17a70_0 : [-1/0,10]
RESULT: v0x4301cb0_0 : [-1/0,1/0]
RESULT: v0x40fbaa0_0 : [-1/0,1/0]
