RESULT: v0x4582350_0 : [0,0]
RESULT: v0x47e3590_1 : [0,1]
RESULT: v0x481d120_1 : [0,1]
RESULT: v0x481ef60_1 : [0,1]
RESULT: v0x45a1de0_1 : [0,1]
RESULT: v0x4a8f540_1 : [0,1]
RESULT: v0x4a8b100_1 : [0,1]
RESULT: v0x4a9e590_1 : [0,1]
RESULT: v0x4a9e4d0_1 : [0,1]
RESULT: v0x4a965c0_1 : [0,1]
RESULT: v0x4a8b300_1 : [0,1]
RESULT: v0x4a8f5c0_1 : [0,1]
RESULT: v0x4a8fe20_1 : [0,1]
RESULT: v0x4822160_1 : [-1/0,1/0]
RESULT: v0x481f920_1 : [-1/0,1/0]
RESULT: v0x48246d0_1 : [0,2]
RESULT: v0x48239a0_1 : [0,2]
RESULT: v0x47e42c0_1 : [0,2]
RESULT: v0x47e4bc0_1 : [0,2]
RESULT: v0x46dbc30_1 : [0,2]
RESULT: v0x483e0a0_1 : [0,2]
RESULT: v0x483e800_1 : [0,2]
RESULT: v0x483cd00_1 : [0,2]
RESULT: v0x4852b50_1 : [0,2]
RESULT: v0x48692a0_1 : [0,2]
RESULT: v0x4864a80_1 : [0,2]
RESULT: v0x4862260_1 : [0,2]
RESULT: v0x4873de0_1 : [0,0]
