RESULT: v0x3eb2c20_0 : [0,1]
RESULT: v0x3eb2dc0_0 : [0,1]
RESULT: v0x3eb2fc0_0 : [0,1]
RESULT: v0x3eb31c0_0 : [0,1]
RESULT: v0x3eb33c0_0 : [0,1]
RESULT: v0x3eb35c0_0 : [0,1]
RESULT: v0x3eb37c0_0 : [0,1]
RESULT: v0x3eb39c0_0 : [0,1]
RESULT: v0x3eb3bc0_0 : [0,1]
RESULT: v0x3eb3dc0_0 : [0,1]
RESULT: v0x3eb3fc0_0 : [0,1]
RESULT: v0x3eb41c0_0 : [1,1]
RESULT: v0x3eb43c0_0 : [0,2]
RESULT: v0x3eb45c0_0 : [0,2]
RESULT: v0x3eb47c0_0 : [0,2]
RESULT: v0x3eb49c0_0 : [0,2]
RESULT: v0x3eb4bc0_0 : [0,2]
RESULT: v0x3eb4dc0_0 : [0,2]
RESULT: v0x3eb4fc0_0 : [0,2]
RESULT: v0x3eb51c0_0 : [0,2]
RESULT: v0x3eb53c0_0 : [0,2]
RESULT: v0x3eb55c0_0 : [0,2]
RESULT: v0x3eb57c0_0 : [0,2]
RESULT: v0x3eb59c0_0 : [2,2]
