RESULT: v0xa236c00_0 : [4,10]
RESULT: v0x60610f0_0 : [0,1]
RESULT: v0x60777d0_0 : [0,0]
RESULT: v0x8e2ffb0_0 : [1,1]
RESULT: v0xa236a80_0 : [80,200]
RESULT: v0x6052f70_0 : [0,1]
RESULT: v0xa2c1d50_0 : [0,1]
RESULT: v0xa2c1ad0_0 : [0,1]
RESULT: v0xa2f5c30_0 : [1,1]
RESULT: v0xa26df00_0 : [0,0]
RESULT: v0x6052d10_0 : [1,1]
RESULT: v0x5e2e280_0 : [1,1]
RESULT: v0x603d630_0 : [0,0]
RESULT: v0x4201b90_0 : [80,200]
RESULT: v0x4201c90_0 : [1,1]
RESULT: v0x4201d90_0 : [0,0]
RESULT: v0x4201e90_0 : [0,1]
RESULT: v0x4201f90_0 : [1,1]
RESULT: v0x4202090_0 : [0,1]
RESULT: v0x4202190_0 : [0,1]
RESULT: v0x4202290_0 : [0,0]
RESULT: v0x4202390_0 : [1,1]
RESULT: v0x4202490_0 : [0,1]
RESULT: v0x4202590_0 : [0,1]
RESULT: v0x4202690_0 : [1,1]
RESULT: v0xa261600_0 : [0,0]
RESULT: v0x4202990_0 : [1,2]
