RESULT: v0x58206a0_0 : [3,10]
RESULT: v0x5012b00_0 : [0,1]
RESULT: v0x45562a0_0 : [0,1]
RESULT: v0x414cc40_0 : [40,120]
RESULT: v0x57ab480_0 : [0,1]
RESULT: v0x58c3de0_0 : [0,1]
RESULT: v0x5835cc0_0 : [0,1]
RESULT: v0x57efdf0_0 : [1,1]
RESULT: v0x4482c60_0 : [1,1]
RESULT: v0x59399b0_0 : [1,1]
RESULT: v0x4b1ea00_0 : [1,1]
RESULT: v0x583d440_0 : [0,0]
RESULT: v0x44496e0_0 : [80,120]
RESULT: v0x44497e0_0 : [0,1]
RESULT: v0x44498e0_0 : [-1/0,1/0]
RESULT: v0x44499e0_0 : [1,1]
RESULT: v0x4449ae0_0 : [1,1]
RESULT: v0x4449be0_0 : [0,1]
RESULT: v0x4449ce0_0 : [0,1]
RESULT: v0x4449de0_0 : [1,1]
RESULT: v0x4449ee0_0 : [0,1]
RESULT: v0x4449fe0_0 : [0,1]
RESULT: v0x444a0e0_0 : [0,1]
RESULT: v0x444a1e0_0 : [0,1]
RESULT: v0x4fdfa00_0 : [-1/0,1/0]
RESULT: v0x4bf98f0_0 : [0,0]
RESULT: v0x444a4e0_0 : [-1/0,1/0]
