RESULT: v0x4531a00_0 : [1,1/0]
RESULT: v0x4780cb0_0 : [0,1]
RESULT: v0x4769260_0 : [123,777]
RESULT: v0x4704bd0_0 : [0,1]
RESULT: v0x4549070_0 : [0,1]
RESULT: v0x4777e50_0 : [0,2]
RESULT: v0x47c7770_0 : [0,3]
RESULT: v0x47fc4b0_0 : [0,1]
RESULT: v0x453e990_0 : [0,1]
RESULT: v0x4a5ce70_0 : [0,666]
RESULT: v0x4599010_0 : [0,1]
RESULT: v0x4a5d190_0 : [0,1]
RESULT: v0x458efb0_0 : [0,2]
RESULT: v0x47de4b0_0 : [0,456]
RESULT: v0x47c2b10_0 : [0,1]
RESULT: v0x4779770_0 : [0,123]
RESULT: v0x454edc0_0 : [0,1]
RESULT: v0x459c5b0_0 : [0,1]
RESULT: v0x468ac90_0 : [3,3]
RESULT: v0x47c62d0_0 : [1,1]
RESULT: v0x477ce90_0 : [0,1]
RESULT: v0x47a76f0_0 : [0,1]
RESULT: v0x4688d10_0 : [0,1]
RESULT: v0x4715c20_0 : [0,2]
RESULT: v0x4592530_0 : [0,456]
