RESULT: v0x57a7360_0 : [-1/0,1/0]
RESULT: v0x57a73a0_0 : [-1/0,1/0]
RESULT: v0x57a66a0_0 : [-1/0,1/0]
RESULT: v0x53491b0_0 : [-1/0,1/0]
RESULT: v0x57a88e0_0 : [-1/0,1/0]
RESULT: v0x57a9ee0_0 : [-1/0,1/0]
RESULT: v0x57a6760_0 : [-1/0,1/0]
RESULT: v0x57a88a0_0 : [-1/0,1/0]
RESULT: v0x57a9e20_0 : [-1/0,1/0]
RESULT: v0x52bd7c0_0 : [-1/0,1/0]
RESULT: v0x5814b00_0 : [-1/0,1/0]
RESULT: v0x57a7460_0 : [-1/0,1/0]
RESULT: v0x53494b0_0 : [-1/0,1/0]
RESULT: v0x5349030_0 : [-1/0,1/0]
RESULT: v0x53490f0_0 : [-1/0,1/0]
RESULT: v0x5349270_0 : [-1/0,1/0]
RESULT: v0x57a2550_0 : [-1/0,1/0]
RESULT: v0x5348090_0 : [-1/0,1/0]
RESULT: v0x5348810_0 : [-1/0,1/0]
RESULT: v0x5348370_0 : [-1/0,1/0]
RESULT: v0x5348f70_0 : [-1/0,1/0]
RESULT: v0x5348bd0_0 : [-1/0,1/0]
RESULT: v0x57a9500_0 : [-1/0,1/0]
RESULT: v0x57a98c0_0 : [-1/0,1/0]
