RESULT: v0x41580b0_0 : [-1/0,1/0]
RESULT: v0x437f440_0 : [-1/0,1/0]
RESULT: v0x69330f0_0 : [-1/0,1/0]
RESULT: v0x43803a0_0 : [-1/0,1/0]
RESULT: v0xa058ad0_0 : [-1/0,1/0]
RESULT: v0x99fcfb0_0 : [-1/0,1/0]
RESULT: v0x42e4bb0_0 : [1,1]
RESULT: v0x40faaa0_0 : [67,1/0]
RESULT: v0x7192890_0 : [27,1/0]
RESULT: v0x40faba0_0 : [0,1]
RESULT: v0x40faca0_0 : [0,1]
RESULT: v0x40fada0_0 : [-1/0,1/0]
RESULT: v0x40faea0_0 : [-1/0,1/0]
RESULT: v0x40fafa0_0 : [-1/0,1/0]
RESULT: v0x40fb0a0_0 : [-1/0,1/0]
RESULT: v0x40fb1a0_0 : [-1/0,1/0]
RESULT: v0x73a9170_0 : [-1/0,1/0]
RESULT: v0x40fb2a0_0 : [-1/0,1/0]
RESULT: v0x73a4e40_0 : [-1/0,1/0]
RESULT: v0x40fb3a0_0 : [-1/0,1/0]
RESULT: v0x67e9d00_0 : [-1/0,1/0]
RESULT: v0x40fb4a0_0 : [-1/0,1/0]
RESULT: v0x40fb5a0_0 : [-1/0,1/0]
RESULT: v0x40fb6a0_0 : [-1/0,1/0]
RESULT: v0x40fb7a0_0 : [-1/0,1/0]
RESULT: v0x69ee5a0_0 : [-1/0,1/0]
RESULT: v0x78c1e20_0 : [-1/0,1/0]
RESULT: v0x7081190_0 : [-1/0,1/0]
RESULT: v0x4a490e0_0 : [-1/0,10]
RESULT: v0x5389590_0 : [-1/0,1/0]
RESULT: v0x40fcaa0_0 : [-1/0,1/0]
