RESULT: v0x3a3a600_1 : [4,4]
RESULT: v0x3a45120_1 : [0,1]
RESULT: v0x39ed8a0_1 : [0,1]
RESULT: v0x39a8870_1 : [0,1]
RESULT: v0x3a1ecc0_1 : [0,1]
RESULT: v0x39d54c0_1 : [0,1]
RESULT: v0x3973130_1 : [0,1]
RESULT: v0x3a09a60_1 : [0,1]
RESULT: v0x3a6f1c0_1 : [0,1]
RESULT: v0x39d2c20_1 : [0,1]
RESULT: v0x3a2cf80_1 : [0,1]
RESULT: v0x3a2ef20_1 : [0,1]
RESULT: v0x3841890_1 : [0,1]
RESULT: v0x37d25d0_1 : [0,2]
RESULT: v0x382ac10_1 : [0,3]
RESULT: v0x384c3d0_1 : [0,1]
RESULT: v0x3840d90_1 : [123,777]
RESULT: v0x382d170_1 : [0,666]
RESULT: v0x383c7b0_1 : [0,2]
RESULT: v0x3839cd0_1 : [0,1]
RESULT: v0x3843e30_1 : [0,2]
RESULT: v0x3996280_1 : [0,456]
RESULT: v0x391ad20_1 : [0,123]
RESULT: v0x37a91c0_1 : [0,456]
