RESULT: v0x4592b10_0 : [0,1]
RESULT: v0x4592e10_0 : [-1/0,1/0]
RESULT: v0x708c610_0 : [0,0]
RESULT: v0x708b110_0 : [-1/0,1/0]
RESULT: v0x4595ba0_0 : [-1/0,1/0]
RESULT: v0x4592f10_0 : [-1/0,1]
RESULT: v0x4593110_0 : [0,1]
RESULT: v0x45924b0_0 : [0,1]
RESULT: v0x4592c10_0 : [0,1]
RESULT: v0x45926b0_0 : [0,1]
RESULT: v0x45935d0_0 : [0,1]
RESULT: v0x45922b0_0 : [1,1]
RESULT: v0x4592910_0 : [-1/0,1/0]
RESULT: v0x4592110_0 : [-1/0,1/0]
RESULT: v0x4593310_0 : [-1/0,1/0]
RESULT: v0x45951a0_0 : [-1/0,1/0]
RESULT: v0x45952a0_0 : [-1/0,1/0]
RESULT: v0x4595ca0_0 : [-1/0,1/0]
RESULT: v0x4593210_0 : [-1/0,1/0]
RESULT: v0x4595fa0_0 : [-1/0,1/0]
RESULT: v0x45936d0_0 : [-1/0,1/0]
RESULT: v0x4592d10_0 : [-1/0,1/0]
RESULT: v0x45956a0_0 : [-1/0,1/0]
RESULT: v0x56a34e0_0 : [-1/0,1/0]
RESULT: v0x56b0000_0 : [0,1]
RESULT: v0x7087b50_0 : [-1/0,1/0]
RESULT: v0x56a8a60_0 : [0,1]
RESULT: v0x5e164e0_0 : [-1/0,1/0]
RESULT: v0x7083070_0 : [0,1]
RESULT: v0x7054410_0 : [0,1]
RESULT: v0x707a570_0 : [-1/0,1/0]
RESULT: v0x69638c0_0 : [-1/0,1]
RESULT: v0x66023f0_0 : [-1/0,1/0]
RESULT: v0x70885f0_0 : [0,1]
RESULT: v0x56d8c10_0 : [-1/0,1/0]
RESULT: v0x703b870_0 : [0,1]
RESULT: v0x7079ab0_0 : [0,0]
RESULT: v0x704c3b0_0 : [0,0]
RESULT: v0x56b2aa0_0 : [0,0]
RESULT: v0x56cb630_0 : [0,0]
