RESULT: v0x7b53100_0 : [-1/0,1/0]
RESULT: v0x55d0700_0 : [-1/0,1/0]
RESULT: v0x5a6f760_0 : [-1/0,1/0]
RESULT: v0x52c9fc0_0 : [-1/0,1/0]
RESULT: v0x7b53140_0 : [27,1/0]
RESULT: v0x55d06c0_0 : [-1/0,1/0]
RESULT: v0x5aa0b90_0 : [-1/0,1/0]
RESULT: v0x417f040_0 : [0,0]
RESULT: v0x7cf82d0_0 : [-1/0,1/0]
RESULT: v0x5aa0c50_0 : [-1/0,1/0]
RESULT: v0x52ca000_0 : [-1/0,1/0]
RESULT: v0x3fa3330_0 : [67,1/0]
RESULT: v0x3fa3430_0 : [-1/0,1/0]
RESULT: v0x3fa3530_0 : [-1/0,1/0]
RESULT: v0x3fa3630_0 : [-1/0,1/0]
RESULT: v0x3fa3730_0 : [-1/0,1/0]
RESULT: v0x3fa3830_0 : [0,1]
RESULT: v0x3fa3930_0 : [-1/0,1/0]
RESULT: v0x3fa3a30_0 : [-1/0,1/0]
RESULT: v0x3fa3b30_0 : [-1/0,1/0]
RESULT: v0x3fa3c30_0 : [-1/0,1/0]
RESULT: v0x3fa3d30_0 : [-1/0,1/0]
RESULT: v0x3fa3e30_0 : [-1/0,1/0]
RESULT: v0x3fa3f30_0 : [-1/0,1/0]
RESULT: v0x7417670_0 : [-1/0,1/0]
RESULT: v0x7ae60d0_0 : [0,0]
RESULT: v0x5aa0bd0_0 : [-1/0,10]
RESULT: v0x417f000_0 : [-1/0,1/0]
RESULT: v0xb20b990_0 : [-1/0,1/0]
RESULT: v0x3fa4230_0 : [-1/0,1/0]
