RESULT: v0x5244650_0 : [-1/0,1/0]
RESULT: v0x5244850_0 : [-1/0,1/0]
RESULT: v0x5245550_0 : [789,789]
RESULT: v0x5244550_0 : [-1/0,1/0]
RESULT: v0x5244750_0 : [-1/0,1/0]
RESULT: v0x5244450_0 : [-1/0,1/0]
RESULT: v0x56be1f0_1 : [4,4]
RESULT: v0x56862f0_1 : [0,1]
RESULT: v0x57430f0_1 : [0,1]
RESULT: v0x56a0830_1 : [0,1]
RESULT: v0x574f170_1 : [0,1]
RESULT: v0x5720870_1 : [0,1]
RESULT: v0x5726770_1 : [0,1]
RESULT: v0x56c2a70_1 : [0,1]
RESULT: v0x5745f30_1 : [0,1]
RESULT: v0x54ddb30_1 : [0,1]
RESULT: v0x56a8df0_1 : [0,1]
RESULT: v0x57987d0_1 : [0,1]
RESULT: v0x5798a50_1 : [0,2]
RESULT: v0x57974d0_1 : [0,3]
RESULT: v0x5797790_1 : [0,1]
RESULT: v0x57972d0_1 : [123,777]
RESULT: v0x57977d0_1 : [0,666]
RESULT: v0x57975d0_1 : [0,2]
RESULT: v0x5797b10_1 : [0,1]
RESULT: v0x57377f0_1 : [0,2]
RESULT: v0x56c1530_1 : [0,456]
RESULT: v0x569acf0_1 : [0,123]
RESULT: v0x569b1f0_1 : [0,456]
RESULT: v0x54da6b0_1 : [0,3]
RESULT: v0x57763b0_1 : [0,1]
