RESULT: v0x4218650_0 : [-1/0,1/0]
RESULT: v0x422aa30_0 : [-1/0,1/0]
RESULT: v0x422a9d0_0 : [-1/0,1/0]
RESULT: v0x416ab60_0 : [-1/0,1/0]
RESULT: v0x41ff100_0 : [-1/0,1/0]
RESULT: v0x420af30_0 : [-1/0,1/0]
RESULT: v0x420dc30_0 : [-1/0,1/0]
RESULT: v0x41f65c0_0 : [-1/0,1/0]
RESULT: v0x418d780_0 : [-1/0,1/0]
RESULT: v0x4133850_0 : [-1/0,1/0]
RESULT: v0x4133810_0 : [-1/0,1/0]
RESULT: v0x421e770_0 : [-1/0,1/0]
RESULT: v0x41f4c00_0 : [-1/0,1/0]
RESULT: v0x422ca30_0 : [-1/0,1/0]
RESULT: v0x422c9d0_0 : [-1/0,1/0]
RESULT: v0x416bc20_0 : [-1/0,1/0]
RESULT: v0x416b940_0 : [-1/0,1/0]
RESULT: v0x416bcc0_0 : [-1/0,1/0]
RESULT: v0x421f210_0 : [-1/0,1/0]
RESULT: v0x4209bf0_0 : [-1/0,1/0]
RESULT: v0x4209c70_0 : [-1/0,1/0]
RESULT: v0x4209d70_0 : [-1/0,1/0]
RESULT: v0x42058d0_0 : [-1/0,1/0]
RESULT: v0x4207120_0 : [-1/0,1/0]
RESULT: v0x41f2f40_0 : [-1/0,1/0]
RESULT: v0x4219c70_0 : [-1/0,1/0]
RESULT: v0x418e220_0 : [-1/0,1/0]
RESULT: v0x41f5060_0 : [-1/0,1/0]
RESULT: v0x4201b80_0 : [-1/0,1/0]
