RESULT: v0x55113d0_0 : [2,1/0]
RESULT: v0x578e920_0 : [0,1]
RESULT: v0x53c3070_0 : [0,1]
RESULT: v0x5816360_0 : [0,1]
RESULT: v0x550d150_0 : [0,1]
RESULT: v0x5509bd0_0 : [0,1]
RESULT: v0x57ff760_0 : [1,1]
RESULT: v0x5817760_0 : [0,1]
RESULT: v0x51c4fc0_0 : [0,1]
RESULT: v0x559d680_0 : [0,1]
RESULT: v0x578bf00_0 : [0,1]
RESULT: v0x57ea260_0 : [1,1]
RESULT: v0x57ff880_0 : [123,777]
RESULT: v0x55a40a0_0 : [0,666]
RESULT: v0x5780840_0 : [2,2]
RESULT: v0x5796a00_0 : [0,1]
RESULT: v0x56528d0_0 : [456,456]
RESULT: v0x5799320_0 : [0,123]
RESULT: v0x58061c0_0 : [3,3]
RESULT: v0x51a9450_0 : [0,0]
RESULT: v0x51a9550_0 : [0,456]
RESULT: v0x51a8b50_0 : [-1/0,1/0]
RESULT: v0x51a8850_0 : [456,456]
RESULT: v0x51a8a50_0 : [0,0]
RESULT: v0x51a9c50_0 : [1,1]
RESULT: v0x51aa250_0 : [0,456]
RESULT: v0x51aa350_0 : [0,0]
