RESULT: v0x3dccb20_1 : [-1/0,11]
RESULT: v0x400e150_1 : [-1/0,1/0]
RESULT: v0x3f3f1d0_1 : [0,1]
RESULT: v0x3f33a60_1 : [-1/0,1/0]
RESULT: v0x3f3f110_1 : [-1/0,1/0]
RESULT: v0x3e184d0_1 : [-1/0,1/0]
RESULT: v0x3fbff50_1 : [-1/0,1/0]
RESULT: v0x3ae53d0_1 : [-1/0,1/0]
RESULT: v0x3ae56b0_1 : [-1/0,1/0]
RESULT: v0x3fc2840_1 : [-1/0,1/0]
RESULT: v0x3efd960_1 : [-1/0,1/0]
RESULT: v0x3af41b0_1 : [-1/0,1/0]
RESULT: v0x3ad43a0_1 : [-1/0,1/0]
RESULT: v0x3fc0190_1 : [-1/0,1/0]
RESULT: v0x3f20c10_1 : [-1/0,1/0]
RESULT: v0x3af3f20_1 : [-1/0,1/0]
