RESULT: v0x43ed240_1 : [3,3]
RESULT: v0x440a760_1 : [0,1]
RESULT: v0x440f780_1 : [0,1]
RESULT: v0x440c000_1 : [0,1]
RESULT: v0x451d350_1 : [0,1]
RESULT: v0x451d1d0_1 : [0,1]
RESULT: v0x451d050_1 : [0,1]
RESULT: v0x451ce10_1 : [0,1]
RESULT: v0x4408090_1 : [0,1]
RESULT: v0x4408150_1 : [0,1]
RESULT: v0x42cad40_1 : [0,2]
RESULT: v0x4408390_1 : [0,3]
RESULT: v0x4408450_1 : [123,777]
RESULT: v0x4408510_1 : [0,666]
RESULT: v0x44085d0_1 : [0,2]
RESULT: v0x42e3fe0_1 : [0,1]
RESULT: v0x42e6a60_1 : [0,2]
RESULT: v0x42ea2a0_1 : [0,456]
RESULT: v0x42eb060_1 : [0,123]
RESULT: v0x42f20c0_1 : [0,456]
RESULT: v0x43fd4b0_1 : [0,1]
RESULT: v0x43fb150_1 : [0,1]
RESULT: v0x440a2b0_1 : [0,1]
