RESULT: v0x3f50b70_0 : [0,0]
RESULT: v0x4222740_1 : [0,1]
RESULT: v0x42234c0_1 : [1,1]
RESULT: v0x4221ca0_1 : [0,1]
RESULT: v0x4223a00_1 : [0,1]
RESULT: v0x42260d0_1 : [0,1]
RESULT: v0x4225bf0_1 : [0,1]
RESULT: v0x4225e70_1 : [0,1]
RESULT: v0x4227fa0_1 : [0,1]
RESULT: v0x42267e0_1 : [0,1]
RESULT: v0x4226a00_1 : [0,1]
RESULT: v0x4225f30_1 : [0,1]
RESULT: v0x4225cb0_1 : [0,1]
RESULT: v0x4225030_1 : [0,1]
RESULT: v0x4228e60_1 : [0,1]
RESULT: v0x422a470_1 : [0,2]
RESULT: v0x422beb0_1 : [2,2]
RESULT: v0x422b5b0_1 : [0,2]
RESULT: v0x422b4d0_1 : [0,2]
RESULT: v0x422dc50_1 : [0,2]
RESULT: v0x422e0b0_1 : [0,2]
RESULT: v0x4231840_1 : [0,2]
RESULT: v0x4231b80_1 : [0,2]
RESULT: v0x42319c0_1 : [0,2]
RESULT: v0x4230c70_1 : [0,2]
RESULT: v0x4233d70_1 : [0,2]
RESULT: v0x4233e30_1 : [0,2]
RESULT: v0x42337d0_1 : [0,2]
RESULT: v0x42345b0_1 : [0,2]
