RESULT: v0x3c2a080_1 : [-1/0,11]
RESULT: v0x3c2a9f0_1 : [-1/0,1/0]
RESULT: v0x3c2ac70_1 : [0,1]
RESULT: v0x3c2aef0_1 : [-1/0,1/0]
RESULT: v0x3c2b170_1 : [-1/0,1/0]
RESULT: v0x3c2b3f0_1 : [-1/0,1/0]
RESULT: v0x3c2b670_1 : [-1/0,1/0]
RESULT: v0x3c23160_1 : [-1/0,1/0]
RESULT: v0x3a45870_1 : [-1/0,1/0]
RESULT: v0x3c2b8f0_1 : [-1/0,1/0]
RESULT: v0x3c2bb70_1 : [-1/0,1/0]
RESULT: v0x3c2bdf0_1 : [-1/0,1/0]
RESULT: v0x3c2c070_1 : [-1/0,1/0]
RESULT: v0x3c2c3b0_1 : [-1/0,1/0]
RESULT: v0x3c2c630_1 : [-1/0,1/0]
RESULT: v0x3c2c8b0_1 : [-1/0,1/0]
