RESULT: v0x32c07e0_0 : [0,1]
RESULT: v0x4dfe260_1 : [0,1]
RESULT: v0x49ffd30_1 : [0,1]
RESULT: v0x4e02280_1 : [0,1]
RESULT: v0x4225ef0_1 : [0,1]
RESULT: v0x49ebc70_1 : [0,1]
RESULT: v0x4a00810_1 : [0,1]
RESULT: v0x49f3a30_1 : [0,1]
RESULT: v0x4666650_1 : [0,1]
RESULT: v0x4e0a740_1 : [0,1]
RESULT: v0x4e13200_1 : [0,1]
RESULT: v0x49b5ca0_1 : [0,1]
RESULT: v0x4e35020_1 : [0,1]
RESULT: v0x3cd6920_1 : [0,1]
RESULT: v0x4e3d680_1 : [-1/0,1/0]
RESULT: v0x4e05ec0_1 : [-1/0,1/0]
RESULT: v0x49fd3d0_1 : [0,2]
RESULT: v0x4da37d0_1 : [0,2]
RESULT: v0x384c4c0_1 : [0,2]
RESULT: v0x4da1cd0_1 : [0,2]
RESULT: v0x4e10b80_1 : [0,2]
RESULT: v0x4d9bc90_1 : [0,2]
RESULT: v0x4e28140_1 : [0,2]
RESULT: v0x4d83b80_1 : [0,2]
RESULT: v0x4e04020_1 : [0,2]
RESULT: v0x3ca1600_1 : [0,2]
RESULT: v0x4e0c140_1 : [0,2]
RESULT: v0x3c5c340_1 : [0,2]
RESULT: v0x4e26f00_1 : [0,2]
RESULT: v0x4e22ae0_1 : [0,2]
