RESULT: v0x351e5c0_0 : [-1/0,1/0]
RESULT: v0x351e500_0 : [-1/0,1/0]
RESULT: v0x351e740_0 : [-1/0,1/0]
RESULT: v0x351e800_0 : [-1/0,1/0]
RESULT: v0x3497a00_0 : [-1/0,1/0]
RESULT: v0x351e200_0 : [-1/0,1/0]
RESULT: v0x351e140_0 : [-1/0,1/0]
RESULT: v0x351e080_0 : [-1/0,1/0]
RESULT: v0x34c6270_0 : [-1/0,1/0]
RESULT: v0x351e980_0 : [-1/0,1/0]
RESULT: v0x351ea40_0 : [-1/0,1/0]
RESULT: v0x351eb00_0 : [-1/0,1/0]
RESULT: v0x351ebc0_0 : [-1/0,1/0]
RESULT: v0x351ee40_0 : [-1/0,1/0]
RESULT: v0x351ee00_0 : [-1/0,1/0]
RESULT: v0x351eec0_0 : [-1/0,1/0]
RESULT: v0x351ec80_0 : [-1/0,1/0]
RESULT: v0x351ef80_0 : [-1/0,1/0]
RESULT: v0x351f060_0 : [-1/0,1/0]
RESULT: v0x351f100_0 : [-1/0,1/0]
RESULT: v0x351e8c0_0 : [-1/0,1/0]
RESULT: v0x351e440_0 : [-1/0,1/0]
RESULT: v0x351e680_0 : [-1/0,1/0]
RESULT: v0x351e380_0 : [-1/0,1/0]
RESULT: v0x351e2c0_0 : [-1/0,1/0]
