RESULT: v0x3992560_0 : [1,1/0]
RESULT: v0x3b5f800_0 : [0,1]
RESULT: v0x39e14c0_0 : [0,1]
RESULT: v0x3be3290_0 : [123,777]
RESULT: v0x3a8ade0_0 : [0,1]
RESULT: v0x3be9ef0_0 : [0,1]
RESULT: v0x3db57c0_0 : [0,1]
RESULT: v0x3baef90_0 : [0,2]
RESULT: v0x3b8b170_0 : [0,3]
RESULT: v0x3aff730_0 : [0,1]
RESULT: v0x3bc3c30_0 : [0,1]
RESULT: v0x3b13600_0 : [0,1]
RESULT: v0x3b3d690_0 : [0,666]
RESULT: v0x3b69190_0 : [0,1]
RESULT: v0x3b699b0_0 : [0,1]
RESULT: v0x3b7eef0_0 : [0,2]
RESULT: v0x3a828b0_0 : [0,456]
RESULT: v0x3b7af90_0 : [0,123]
RESULT: v0x3bf47f0_0 : [0,456]
RESULT: v0x399b2e0_0 : [0,2]
RESULT: v0x3b11480_0 : [0,1]
RESULT: v0x3b985b0_0 : [0,1]
RESULT: v0x3b9c550_0 : [0,1]
RESULT: v0x3942da0_0 : [0,1]
