RESULT: v0x4b4b770_0 : [1,1/0]
RESULT: v0x4b15b40_0 : [0,1]
RESULT: v0x4b4ef90_0 : [0,1]
RESULT: v0x4d31750_0 : [123,777]
RESULT: v0x4c56d20_0 : [0,1]
RESULT: v0x4ce1050_0 : [0,1]
RESULT: v0x4d151f0_0 : [0,2]
RESULT: v0x4c56c20_0 : [0,456]
RESULT: v0x4cb64b0_0 : [0,1]
RESULT: v0x4c4f310_0 : [0,1]
RESULT: v0x4cbc530_0 : [0,666]
RESULT: v0x4bf2ca0_0 : [0,1]
RESULT: v0x4ce7d30_0 : [0,1]
RESULT: v0x4b13570_0 : [0,1]
RESULT: v0x4afcd30_0 : [0,123]
RESULT: v0x4d30db0_0 : [0,1]
RESULT: v0x4d23710_0 : [0,1]
RESULT: v0x4d07270_0 : [0,456]
RESULT: v0x4b46f70_0 : [0,2]
RESULT: v0x4c56260_0 : [0,1]
RESULT: v0x4bf4200_0 : [1,1]
RESULT: v0x4cf12b0_0 : [3,3]
RESULT: v0x49b49d0_0 : [-1/0,1/0]
RESULT: v0x49b4ad0_0 : [0,456]
RESULT: v0x49b44d0_0 : [-1/0,1/0]
RESULT: v0x49b41d0_0 : [0,456]
RESULT: v0x49b4ed0_0 : [0,2]
RESULT: v0x49b4fd0_0 : [0,1]
RESULT: v0x49b50d0_0 : [0,1]
RESULT: v0x49b51d0_0 : [1,2]
RESULT: v0x49b43d0_0 : [0,1]
