RESULT: v0x3ed80b0_0 : [0,1]
RESULT: v0x3ed8250_0 : [0,1]
RESULT: v0x3ed8450_0 : [0,1]
RESULT: v0x3ed8650_0 : [0,1]
RESULT: v0x3ed8850_0 : [0,1]
RESULT: v0x3ed8a50_0 : [0,1]
RESULT: v0x3ed8c50_0 : [0,1]
RESULT: v0x3ed8e50_0 : [0,1]
RESULT: v0x3ed9050_0 : [0,1]
RESULT: v0x3ed9250_0 : [0,1]
RESULT: v0x3ed9450_0 : [0,1]
RESULT: v0x3ed9650_0 : [1,1]
RESULT: v0x3ed9850_0 : [0,2]
RESULT: v0x3ed9a50_0 : [0,2]
RESULT: v0x3ed9c50_0 : [0,2]
RESULT: v0x3ed9e50_0 : [0,2]
RESULT: v0x3eda050_0 : [0,2]
RESULT: v0x3eda250_0 : [0,2]
RESULT: v0x3eda450_0 : [0,2]
RESULT: v0x3eda650_0 : [0,2]
RESULT: v0x3eda850_0 : [0,2]
RESULT: v0x3edaa50_0 : [0,2]
RESULT: v0x3edac50_0 : [0,2]
RESULT: v0x3edae50_0 : [2,2]
