RESULT: v0x4d50710_0 : [0,0]
RESULT: v0x4d50410_0 : [-1/0,1/0]
RESULT: v0x4d50310_0 : [-1/0,1/0]
RESULT: v0x4d50010_0 : [-1/0,1/0]
RESULT: v0x4d5b350_0 : [-1/0,1/0]
RESULT: v0x4d5b450_0 : [-1/0,1/0]
RESULT: v0x4d5b550_0 : [-1/0,1/0]
RESULT: v0x4d5b750_0 : [-1/0,1/0]
RESULT: v0x4d5b950_0 : [-1/0,1/0]
RESULT: v0x4d4fb10_0 : [-1/0,1/0]
RESULT: v0x4d4f540_0 : [-1/0,1/0]
RESULT: v0x4d69360_0 : [12,12]
RESULT: v0x4db8990_0 : [0,0]
RESULT: v0x4db8c90_0 : [-1/0,1/0]
RESULT: v0x4db8e90_0 : [920,976]
RESULT: v0x4dbce90_0 : [-1/0,1/0]
RESULT: v0x4dbd090_0 : [1024,3072]
RESULT: v0x4dbd390_0 : [-1/0,1/0]
RESULT: v0x4dbd590_0 : [1024,3072]
RESULT: v0x542b5f0_0 : [0,34]
RESULT: v0x4dc4e90_0 : [-1/0,1/0]
RESULT: v0x4dc3590_0 : [-1/0,1/0]
RESULT: v0x54c9950_0 : [0,0]
RESULT: v0x4dbe990_0 : [-34,0]
RESULT: v0x4dbea90_0 : [-34,0]
RESULT: v0x4dbeb90_0 : [0,34]
RESULT: v0x4dbec90_0 : [-1360,0]
RESULT: v0x4dbed90_0 : [-1/0,1/0]
RESULT: v0x4dbf090_0 : [-1/0,1/0]
RESULT: v0x4dbef90_0 : [-1/0,1/0]
RESULT: v0x4dbf290_0 : [0,34]
RESULT: v0x4dbf390_0 : [0,1360]
RESULT: v0x4dbf490_0 : [-1/0,1/0]
RESULT: v0x4dbf790_0 : [-1/0,1/0]
RESULT: v0x4dbc890_0 : [-1/0,1/0]
RESULT: v0x4dbf890_0 : [-1/0,1/0]
RESULT: v0x4dbfc90_0 : [-1/0,1/0]
RESULT: v0x4dbfd90_0 : [-1/0,1/0]
RESULT: v0x4dc0190_0 : [-1/0,1/0]
RESULT: v0x4dc0290_0 : [-1/0,1/0]
RESULT: v0x4dc0690_0 : [-1/0,1/0]
RESULT: v0x4dc0790_0 : [-1/0,1/0]
RESULT: v0x4dc0b90_0 : [-1/0,1/0]
RESULT: v0x4dc0c90_0 : [-1/0,1/0]
RESULT: v0x4dc1190_0 : [-1/0,1/0]
RESULT: v0x4dc1090_0 : [-1/0,1/0]
RESULT: v0x4dc1390_0 : [-1/0,1/0]
RESULT: v0x4dc1f90_0 : [-1/0,1/0]
RESULT: v0x4dc2190_0 : [-1/0,1/0]
RESULT: v0x4dc2090_0 : [-1/0,1/0]
RESULT: v0x4dc2290_0 : [-1/0,1/0]
RESULT: v0x4dc2e90_0 : [-1/0,1/0]
RESULT: v0x4dc2f90_0 : [-1/0,1/0]
RESULT: v0x4dc3190_0 : [-1/0,1/0]
RESULT: v0x4dc3390_0 : [-1/0,1/0]
RESULT: v0x4dc3690_0 : [-1/0,1/0]
RESULT: v0x4dc5090_0 : [-1/0,1/0]
RESULT: v0x4dc7490_0 : [-1/0,1/0]
RESULT: v0x4dc7790_0 : [-1/0,1/0]
RESULT: v0x4dc7a90_0 : [-1/0,1/0]
RESULT: v0x4dc7d90_0 : [-1/0,1/0]
RESULT: v0x4dc8190_0 : [-1/0,1/0]
RESULT: v0x4dc8490_0 : [7,15]
