RESULT: v0x3abeaf0_1 : [4,4]
RESULT: v0x3a17a40_1 : [0,1]
RESULT: v0x3aca0b0_1 : [0,1]
RESULT: v0x3b12ad0_1 : [0,1]
RESULT: v0x3a10c20_1 : [0,1]
RESULT: v0x3ab8790_1 : [0,1]
RESULT: v0x3a92630_1 : [0,1]
RESULT: v0x3a72840_1 : [0,1]
RESULT: v0x3b042f0_1 : [0,1]
RESULT: v0x3a853b0_1 : [0,1]
RESULT: v0x3a88930_1 : [0,1]
RESULT: v0x3a88710_1 : [0,1]
RESULT: v0x3b00b70_1 : [0,1]
RESULT: v0x3a65070_1 : [0,2]
RESULT: v0x399e7e0_1 : [0,3]
RESULT: v0x399e7a0_1 : [123,777]
RESULT: v0x396cb30_1 : [0,666]
RESULT: v0x396ca70_1 : [0,2]
RESULT: v0x396c790_1 : [0,1]
RESULT: v0x37ab3c0_1 : [0,2]
RESULT: v0x37ab180_1 : [0,456]
RESULT: v0x37ab0c0_1 : [0,123]
RESULT: v0x37aae80_1 : [0,456]
RESULT: v0x396dd30_1 : [0,3]
