RESULT: v0x40dbe80_1 : [4,4]
RESULT: v0x3fc3f90_1 : [0,1]
RESULT: v0x416ce60_1 : [0,1]
RESULT: v0x413bad0_1 : [0,1]
RESULT: v0x4172420_1 : [0,1]
RESULT: v0x4163dc0_1 : [0,1]
RESULT: v0x3ea9060_1 : [0,1]
RESULT: v0x415d800_1 : [0,1]
RESULT: v0x415b7e0_1 : [0,1]
RESULT: v0x414b760_1 : [0,1]
RESULT: v0x41724e0_1 : [0,1]
RESULT: v0x4126fa0_1 : [0,1]
RESULT: v0x4159e00_1 : [0,1]
RESULT: v0x413b5f0_1 : [0,2]
RESULT: v0x4165900_1 : [0,3]
RESULT: v0x416d4c0_1 : [123,777]
RESULT: v0x3e77310_1 : [0,2]
RESULT: v0x40df520_1 : [0,1]
RESULT: v0x4164420_1 : [0,2]
RESULT: v0x4094d20_1 : [0,456]
RESULT: v0x40a7150_1 : [0,123]
RESULT: v0x40db400_1 : [0,456]
