RESULT: v0x42232d0_0 : [-1/0,1/0]
RESULT: v0x407d970_0 : [-1/0,1/0]
RESULT: v0x530b750_0 : [-1/0,1/0]
RESULT: v0x4028320_0 : [-1/0,1/0]
RESULT: v0x41ddd10_0 : [27,1/0]
RESULT: v0x530b250_0 : [-1/0,1/0]
RESULT: v0x416daa0_0 : [-1/0,1/0]
RESULT: v0x7170eb0_0 : [0,0]
RESULT: v0x416db40_0 : [-1/0,1/0]
RESULT: v0x52f6290_0 : [-1/0,1/0]
RESULT: v0x7bb8120_0 : [-1/0,1/0]
RESULT: v0x3f94330_0 : [67,1/0]
RESULT: v0x3f94430_0 : [0,1]
RESULT: v0x3f94530_0 : [-1/0,1/0]
RESULT: v0x3f94630_0 : [-1/0,1/0]
RESULT: v0x3f94730_0 : [-1/0,1/0]
RESULT: v0x3f94830_0 : [-1/0,1/0]
RESULT: v0x3f94930_0 : [0,1]
RESULT: v0x3f94a30_0 : [-1/0,1/0]
RESULT: v0x3f94b30_0 : [-1/0,1/0]
RESULT: v0x3f94c30_0 : [-1/0,1/0]
RESULT: v0x3f94d30_0 : [-1/0,1/0]
RESULT: v0x3f94e30_0 : [-1/0,1/0]
RESULT: v0x3f94f30_0 : [-1/0,1/0]
RESULT: v0x3f95030_0 : [-1/0,1/0]
RESULT: v0x7170a30_0 : [-1/0,1/0]
RESULT: v0x64b3ff0_0 : [-1/0,1/0]
RESULT: v0x456efb0_0 : [0,0]
RESULT: v0x4568e10_0 : [-1/0,10]
RESULT: v0x455e750_0 : [-1/0,1/0]
RESULT: v0x3f95330_0 : [-1/0,1/0]
