RESULT: v0x5d65b00_0 : [0,1]
RESULT: v0x5d65cc0_0 : [0,1]
RESULT: v0x5d65ec0_0 : [0,1]
RESULT: v0x5d660c0_0 : [0,1]
RESULT: v0x5d662c0_0 : [0,1]
RESULT: v0x5d664c0_0 : [0,1]
RESULT: v0x5d666c0_0 : [0,1]
RESULT: v0x5d668c0_0 : [0,1]
RESULT: v0x5d66ac0_0 : [0,1]
RESULT: v0x5d66cc0_0 : [0,1]
RESULT: v0x5d66ec0_0 : [0,1]
RESULT: v0x5d670c0_0 : [0,1]
RESULT: v0x5d672c0_0 : [1,1]
RESULT: v0x5d674c0_0 : [-1/0,1/0]
RESULT: v0x5d676c0_0 : [-1/0,1/0]
RESULT: v0x5d678c0_0 : [0,2]
RESULT: v0x5d67ac0_0 : [0,2]
RESULT: v0x5d67cc0_0 : [0,2]
RESULT: v0x5d67ec0_0 : [0,2]
RESULT: v0x5d680c0_0 : [0,2]
RESULT: v0x5d682c0_0 : [0,2]
RESULT: v0x5d684c0_0 : [0,2]
RESULT: v0x5d686c0_0 : [0,2]
RESULT: v0x5d688c0_0 : [0,2]
RESULT: v0x5d68ac0_0 : [0,2]
RESULT: v0x5d68cc0_0 : [0,2]
RESULT: v0x5d68ec0_0 : [0,2]
RESULT: v0x5d690c0_0 : [2,2]
