RESULT: v0x733a690_0 : [0,2]
RESULT: v0x71ed0f0_0 : [1,1]
RESULT: v0x673c7f0_0 : [1,1]
RESULT: v0x611a9e0_0 : [0,2]
RESULT: v0x6133fb0_0 : [0,1/0]
RESULT: v0x4c0dd50_0 : [1,1]
RESULT: v0x56962a0_0 : [-1/0,2]
RESULT: v0x6184fc0_0 : [1,1]
RESULT: v0x61c9f40_0 : [-1/0,2]
RESULT: v0x6fbe010_0 : [1,1]
RESULT: v0x61fae90_0 : [-1/0,2]
RESULT: v0x6114f10_0 : [-1/0,2]
RESULT: v0x6c32bc0_0 : [1,1]
RESULT: v0x67e20c0_0 : [1,1]
RESULT: v0x7389ca0_0 : [-1/0,2]
RESULT: v0x6503650_0 : [0,1]
RESULT: v0x4c10a40_0 : [1,1]
RESULT: v0x4c10b40_0 : [-1/0,2]
RESULT: v0x4c10c40_0 : [-1/0,2]
RESULT: v0x4c11040_0 : [1,1]
RESULT: v0x4c11140_0 : [-1/0,2]
RESULT: v0x4c11240_0 : [-1/0,2]
RESULT: v0x4c11640_0 : [1,1]
RESULT: v0x4c11740_0 : [-1/0,2]
RESULT: v0x4c11840_0 : [-1/0,2]
RESULT: v0x4c11c40_0 : [1,1]
RESULT: v0x4c11d40_0 : [-1/0,2]
RESULT: v0x4c11e40_0 : [-1/0,2]
RESULT: v0x4c12390_0 : [1,1]
RESULT: v0x4c12490_0 : [-1/0,2]
RESULT: v0x4c12590_0 : [0,2]
RESULT: v0x4c12990_0 : [1,1]
RESULT: v0x4c12a90_0 : [0,2]
RESULT: v0x4c12b90_0 : [0,2]
RESULT: v0x4c12e90_0 : [1,1]
RESULT: v0x4c12f90_0 : [0,2]
RESULT: v0x4c13090_0 : [0,0]
RESULT: v0x4c13190_0 : [-1/0,1/0]
