RESULT: v0x4345b40_0 : [2,1/0]
RESULT: v0x4715150_0 : [0,1]
RESULT: v0x46fdb50_0 : [0,1]
RESULT: v0x473bd90_0 : [0,1]
RESULT: v0x42c93f0_0 : [0,1]
RESULT: v0x42d94b0_0 : [0,1]
RESULT: v0x470dbd0_0 : [0,1]
RESULT: v0x454eb80_0 : [0,1]
RESULT: v0x46e8530_0 : [0,0]
RESULT: v0x4712fb0_0 : [0,1]
RESULT: v0x46fd990_0 : [1,1]
RESULT: v0x47126b0_0 : [1,1]
RESULT: v0x46f88b0_0 : [1,1]
RESULT: v0x43e8180_0 : [123,777]
RESULT: v0x4704690_0 : [0,666]
RESULT: v0x42c14a0_0 : [2,2]
RESULT: v0x45396a0_0 : [0,0]
RESULT: v0x4566e10_0 : [456,456]
RESULT: v0x46f87d0_0 : [0,0]
RESULT: v0x418ff10_0 : [0,0]
RESULT: v0x4190010_0 : [0,456]
RESULT: v0x418f610_0 : [-1/0,1/0]
RESULT: v0x418f310_0 : [456,456]
RESULT: v0x418f510_0 : [0,0]
RESULT: v0x4190510_0 : [0,0]
RESULT: v0x4190610_0 : [0,456]
