RESULT: v0x453eca0_1 : [4,4]
RESULT: v0x4546240_1 : [0,1]
RESULT: v0x45e1290_1 : [0,1]
RESULT: v0x45fb0b0_1 : [0,1]
RESULT: v0x45b18b0_1 : [0,1]
RESULT: v0x45f85f0_1 : [0,1]
RESULT: v0x45aadd0_1 : [0,1]
RESULT: v0x45b9c70_1 : [0,1]
RESULT: v0x4582e50_1 : [0,1]
RESULT: v0x44fc980_1 : [0,1]
RESULT: v0x45a1a50_1 : [0,1]
RESULT: v0x4835c80_1 : [0,1]
RESULT: v0x43dbaa0_1 : [0,1]
RESULT: v0x43d64e0_1 : [0,2]
RESULT: v0x437f920_1 : [0,3]
RESULT: v0x4379e00_1 : [0,1]
RESULT: v0x43e3040_1 : [123,777]
RESULT: v0x43dfaa0_1 : [0,666]
RESULT: v0x43ed0c0_1 : [0,2]
RESULT: v0x42578a0_1 : [0,1]
RESULT: v0x43819a0_1 : [0,2]
RESULT: v0x452e750_1 : [0,456]
RESULT: v0x44bb320_1 : [0,123]
RESULT: v0x434a700_1 : [0,456]
