RESULT: v0x3a388c0_0 : [0,1/0]
RESULT: v0x627b330_1 : [0,1]
RESULT: v0x627ddb0_1 : [0,1]
RESULT: v0x64d3d20_1 : [0,1]
RESULT: v0x64d7700_1 : [0,1]
RESULT: v0x64d7d40_1 : [0,1]
RESULT: v0x64d3ca0_1 : [0,1]
RESULT: v0x6277f10_1 : [0,1]
RESULT: v0x64dafa0_1 : [0,1]
RESULT: v0x67c8580_1 : [0,1]
RESULT: v0x67c8380_1 : [0,1]
RESULT: v0x4f010a0_1 : [-1/0,2]
RESULT: v0x60f6280_1 : [-1/0,2]
RESULT: v0x5dfe680_1 : [-1/0,2]
RESULT: v0x60fc980_1 : [-1/0,2]
RESULT: v0x532b570_1 : [-1/0,2]
RESULT: v0x60eaad0_1 : [-1/0,2]
RESULT: v0x3ed9a00_1 : [-1/0,2]
RESULT: v0x68ff3f0_1 : [-1/0,2]
RESULT: v0x67cd9a0_1 : [0,2]
RESULT: v0x5ad31f0_1 : [0,2]
RESULT: v0x60df2b0_1 : [0,2]
