RESULT: v0x8d7d6e0_0 : [4,10]
RESULT: v0x8d700e0_0 : [0,1]
RESULT: v0x8acf8d0_0 : [0,1]
RESULT: v0x8d21600_0 : [0,1]
RESULT: v0x8acf850_0 : [1,1]
RESULT: v0x8d0fc40_0 : [-1/0,1/0]
RESULT: v0x8a0a170_0 : [40,120]
RESULT: v0x8acf7d0_0 : [0,1]
RESULT: v0x8d25aa0_0 : [0,1]
RESULT: v0x85112f0_0 : [0,1]
RESULT: v0x8ae4480_0 : [0,1]
RESULT: v0x8d8fd60_0 : [1,1]
RESULT: v0x8d21380_0 : [0,0]
RESULT: v0x4201b90_0 : [80,120]
RESULT: v0x4201c90_0 : [0,1]
RESULT: v0x4201d90_0 : [0,1]
RESULT: v0x4201e90_0 : [0,1]
RESULT: v0x4201f90_0 : [0,1]
RESULT: v0x4202090_0 : [0,1]
RESULT: v0x4202190_0 : [-1/0,1/0]
RESULT: v0x4202290_0 : [1,1]
RESULT: v0x4202390_0 : [1,1]
RESULT: v0x4202490_0 : [0,1]
RESULT: v0x4202590_0 : [0,1]
RESULT: v0x4202690_0 : [1,1]
RESULT: v0x920efc0_0 : [0,0]
RESULT: v0x4202990_0 : [-1/0,1/0]
