RESULT: v0x3854870_0 : [-1/0,1/0]
RESULT: v0x38547b0_0 : [-1/0,1/0]
RESULT: v0x3854330_0 : [-1/0,1/0]
RESULT: v0x38543f0_0 : [-1/0,1/0]
RESULT: v0x38544b0_0 : [-1/0,1/0]
RESULT: v0x38549f0_0 : [-1/0,1/0]
RESULT: v0x3854ab0_0 : [-1/0,1/0]
RESULT: v0x3854270_0 : [-1/0,1/0]
RESULT: v0x3796fd0_0 : [-1/0,1/0]
RESULT: v0x377cbc0_0 : [-1/0,1/0]
RESULT: v0x38541b0_0 : [-1/0,1/0]
RESULT: v0x3854e50_0 : [-1/0,1/0]
RESULT: v0x3854e10_0 : [-1/0,1/0]
RESULT: v0x3854e90_0 : [-1/0,1/0]
RESULT: v0x3854c30_0 : [-1/0,1/0]
RESULT: v0x3854f30_0 : [-1/0,1/0]
RESULT: v0x3854ff0_0 : [-1/0,1/0]
RESULT: v0x38550b0_0 : [-1/0,1/0]
RESULT: v0x3855190_0 : [-1/0,1/0]
RESULT: v0x3855230_0 : [-1/0,1/0]
RESULT: v0x3854b70_0 : [-1/0,1/0]
RESULT: v0x38546f0_0 : [-1/0,1/0]
RESULT: v0x3854630_0 : [-1/0,1/0]
RESULT: v0x3854930_0 : [-1/0,1/0]
RESULT: v0x3854570_0 : [-1/0,1/0]
