RESULT: v0x521af60_0 : [2,1/0]
RESULT: v0x549d030_0 : [0,1]
RESULT: v0x5503470_0 : [123,777]
RESULT: v0x53e7b50_0 : [0,1]
RESULT: v0x54481d0_0 : [0,1]
RESULT: v0x53fd700_0 : [0,2]
RESULT: v0x54c5af0_0 : [0,3]
RESULT: v0x55026b0_0 : [0,1]
RESULT: v0x5280a80_0 : [0,1]
RESULT: v0x5466e50_0 : [0,666]
RESULT: v0x53655c0_0 : [0,1]
RESULT: v0x54daf10_0 : [0,1]
RESULT: v0x53dd410_0 : [0,2]
RESULT: v0x54d1a70_0 : [0,456]
RESULT: v0x5488310_0 : [0,1]
RESULT: v0x54d0470_0 : [0,123]
RESULT: v0x5238290_0 : [0,1]
RESULT: v0x5227400_0 : [0,1]
RESULT: v0x5372c40_0 : [0,3]
RESULT: v0x53e1910_0 : [0,1]
RESULT: v0x54cfb70_0 : [0,1]
RESULT: v0x57428e0_0 : [0,1]
RESULT: v0x54cf110_0 : [0,1]
RESULT: v0x54ee810_0 : [0,2]
RESULT: v0x53b5bc0_0 : [0,456]
