RESULT: v0x723d4c0_0 : [0,1]
RESULT: v0x71f12b0_0 : [0,1]
RESULT: v0x7237ee0_0 : [3,10]
RESULT: v0x6fc2900_0 : [0,1]
RESULT: v0x71d30f0_0 : [0,1]
RESULT: v0x6df7750_0 : [40,120]
RESULT: v0x74427a0_0 : [0,1]
RESULT: v0x720c860_0 : [1,1]
RESULT: v0x7202520_0 : [1,1]
RESULT: v0x6cb0bd0_0 : [1,1]
RESULT: v0x7457300_0 : [1,1]
RESULT: v0x722d420_0 : [1,1]
RESULT: v0x44496e0_0 : [80,120]
RESULT: v0x44497e0_0 : [0,1]
RESULT: v0x44498e0_0 : [-1/0,1/0]
RESULT: v0x44499e0_0 : [1,1]
RESULT: v0x4449ae0_0 : [0,1]
RESULT: v0x4449be0_0 : [0,1]
RESULT: v0x4449ce0_0 : [0,1]
RESULT: v0x4449de0_0 : [0,1]
RESULT: v0x4449ee0_0 : [0,1]
RESULT: v0x4449fe0_0 : [0,1]
RESULT: v0x444a0e0_0 : [0,1]
RESULT: v0x444a1e0_0 : [0,1]
RESULT: v0x6a072f0_0 : [-1/0,1/0]
RESULT: v0x745ad70_0 : [-1/0,1/0]
RESULT: v0x444b4e0_0 : [-1/0,1/0]
