RESULT: v0x4f44cb0_0 : [-1/0,1/0]
RESULT: v0x4f44bf0_0 : [-1/0,1/0]
RESULT: v0x4f44770_0 : [-1/0,1/0]
RESULT: v0x4f44830_0 : [-1/0,1/0]
RESULT: v0x4f448f0_0 : [-1/0,1/0]
RESULT: v0x4f44e30_0 : [-1/0,1/0]
RESULT: v0x4f44ef0_0 : [-1/0,1/0]
RESULT: v0x4f446b0_0 : [-1/0,1/0]
RESULT: v0x4e887a0_0 : [-1/0,1/0]
RESULT: v0x4e6d340_0 : [-1/0,1/0]
RESULT: v0x4f445f0_0 : [-1/0,1/0]
RESULT: v0x4f45290_0 : [-1/0,1/0]
RESULT: v0x4f45250_0 : [-1/0,1/0]
RESULT: v0x4f452d0_0 : [-1/0,1/0]
RESULT: v0x4f45070_0 : [-1/0,1/0]
RESULT: v0x4f45370_0 : [-1/0,1/0]
RESULT: v0x4f45430_0 : [-1/0,1/0]
RESULT: v0x4f454f0_0 : [-1/0,1/0]
RESULT: v0x4f455d0_0 : [-1/0,1/0]
RESULT: v0x4f45670_0 : [-1/0,1/0]
RESULT: v0x4f44fb0_0 : [-1/0,1/0]
RESULT: v0x4f44b30_0 : [-1/0,1/0]
RESULT: v0x4f44a70_0 : [-1/0,1/0]
RESULT: v0x4f44d70_0 : [-1/0,1/0]
RESULT: v0x4f449b0_0 : [-1/0,1/0]
