RESULT: v0x594f690_0 : [-1/0,1/0]
RESULT: v0x594fb90_0 : [-1/0,1/0]
RESULT: v0x5950790_0 : [789,789]
RESULT: v0x594f890_0 : [-1/0,1/0]
RESULT: v0x594f990_0 : [-1/0,1/0]
RESULT: v0x594f790_0 : [-1/0,1/0]
RESULT: v0x5ed4120_1 : [3,3]
RESULT: v0x5ed43a0_1 : [0,1]
RESULT: v0x5ed4260_1 : [0,1]
RESULT: v0x5ed3ae0_1 : [0,1]
RESULT: v0x5ed6e20_1 : [0,1]
RESULT: v0x5ed53e0_1 : [0,1]
RESULT: v0x5ed9760_1 : [0,1]
RESULT: v0x5edb420_1 : [0,1]
RESULT: v0x5edfb60_1 : [0,1]
RESULT: v0x5edfca0_1 : [0,1]
RESULT: v0x5edf8e0_1 : [0,1]
RESULT: v0x5edcfa0_1 : [0,1]
RESULT: v0x5ebd2e0_1 : [0,1]
RESULT: v0x5e06360_1 : [0,2]
RESULT: v0x5e141e0_1 : [0,3]
RESULT: v0x5eadb60_1 : [0,1]
RESULT: v0x5eb5c20_1 : [123,777]
RESULT: v0x5ec17a0_1 : [0,666]
RESULT: v0x5e53520_1 : [0,2]
RESULT: v0x5e72ce0_1 : [0,1]
RESULT: v0x5e0faa0_1 : [0,2]
RESULT: v0x5e0fbe0_1 : [0,456]
RESULT: v0x5e943e0_1 : [0,123]
RESULT: v0x5e3c320_1 : [0,456]
RESULT: v0x5e9d9e0_1 : [0,3]
