RESULT: v0x47fb990_0 : [2,1/0]
RESULT: v0x479ebe0_0 : [0,1]
RESULT: v0x47b4150_0 : [0,1]
RESULT: v0x481c350_0 : [123,123]
RESULT: v0x4787f70_0 : [0,0]
RESULT: v0x4749d80_0 : [0,1]
RESULT: v0x47427a0_0 : [0,2]
RESULT: v0x4799e90_0 : [0,3]
RESULT: v0x4814eb0_0 : [0,1]
RESULT: v0x46b9c10_0 : [0,1]
RESULT: v0x4811150_0 : [0,1]
RESULT: v0x4581520_0 : [0,666]
RESULT: v0x47f8db0_0 : [0,1]
RESULT: v0x46bfaa0_0 : [0,123]
RESULT: v0x4618520_0 : [0,1]
RESULT: v0x47b4290_0 : [0,1]
RESULT: v0x473bfa0_0 : [0,1]
RESULT: v0x4782930_0 : [0,3]
RESULT: v0x4814fb0_0 : [0,2]
RESULT: v0x46b8670_0 : [0,456]
RESULT: v0x4724b50_0 : [0,1]
RESULT: v0x46c1a30_0 : [0,1]
RESULT: v0x4795ef0_0 : [0,123]
RESULT: v0x4742b20_0 : [0,1]
