RESULT: v0x6590690_0 : [0,1]
RESULT: v0xa2977a0_0 : [-1/0,1/0]
RESULT: v0x45448d0_0 : [-1/0,1/0]
RESULT: v0x4675060_0 : [-1/0,1/0]
RESULT: v0x411b290_0 : [27,1/0]
RESULT: v0x60e6040_0 : [-1/0,1/0]
RESULT: v0x4e1c1a0_0 : [-1/0,1/0]
RESULT: v0x3630c90_0 : [-1/0,1/0]
RESULT: v0x3b3eb90_0 : [0,0]
RESULT: v0x6c9ae70_0 : [-1/0,1/0]
RESULT: v0x9570b10_0 : [-1/0,1/0]
RESULT: v0x391f010_0 : [-1/0,1/0]
RESULT: v0x391f110_0 : [-1/0,1/0]
RESULT: v0x391f210_0 : [-1/0,1/0]
RESULT: v0x391f310_0 : [-1/0,1/0]
RESULT: v0x391f410_0 : [67,1/0]
RESULT: v0x391f510_0 : [0,1]
RESULT: v0x391f610_0 : [0,1]
RESULT: v0x391f710_0 : [-1/0,1/0]
RESULT: v0x391f810_0 : [-1/0,1/0]
RESULT: v0x391f910_0 : [-1/0,1/0]
RESULT: v0x391fa10_0 : [0,0]
RESULT: v0x391fb10_0 : [-1/0,1/0]
RESULT: v0x391fc10_0 : [-1/0,1/0]
RESULT: v0x391fd10_0 : [-1/0,1/0]
RESULT: v0x4033260_0 : [-1/0,1/0]
RESULT: v0x3bdda20_0 : [-1/0,1/0]
RESULT: v0x86d78d0_0 : [0,0]
RESULT: v0x6f64000_0 : [-1/0,10]
RESULT: v0x4ebaaf0_0 : [-1/0,1/0]
RESULT: v0x3920010_0 : [-1/0,1/0]
