RESULT: v0x7e33a60_0 : [0,0]
RESULT: v0x3e4a030_0 : [1,2]
RESULT: v0x7e3f030_0 : [0,2]
RESULT: v0x6f29910_0 : [0,3]
RESULT: v0x7d23b30_0 : [0,1]
RESULT: v0x7e8a840_0 : [0,3]
RESULT: v0x6d69e10_0 : [0,1/0]
RESULT: v0x7e0c3b0_0 : [0,0]
RESULT: v0x5e1ba30_0 : [0,1/0]
RESULT: v0x7d9ffb0_0 : [0,53]
RESULT: v0x7e6bc80_0 : [0,0]
RESULT: v0x7e284a0_0 : [0,1]
RESULT: v0x7da9560_0 : [0,1]
RESULT: v0x7db8b50_0 : [0,1]
RESULT: v0x7e32500_0 : [0,1]
RESULT: v0x3e49230_0 : [0,52]
RESULT: v0x3e49030_0 : [0,50]
RESULT: v0x3e493d0_0 : [0,0]
RESULT: v0x3e49130_0 : [0,51]
RESULT: v0x7dd5700_0 : [-1/0,1/0]
RESULT: v0x3e4a330_0 : [-1/0,1/0]
RESULT: v0x6235600_0 : [1,1]
RESULT: v0x62380c0_0 : [0,1/0]
RESULT: v0x7e30fe0_0 : [50,53]
RESULT: v0x6f2ceb0_0 : [0,1/0]
RESULT: v0x7e812c0_0 : [0,0]
RESULT: v0x7e908a0_0 : [1,1]
RESULT: v0x7f46490_0 : [0,1]
RESULT: v0x7daf5c0_0 : [0,1]
RESULT: v0x5714390_0 : [0,3]
RESULT: v0x7f4cf70_0 : [-1/0,1/0]
RESULT: v0x7dfedf0_0 : [0,2]
RESULT: v0x7df3830_0 : [0,1]
RESULT: v0x3e4baf0_0 : [-1/0,1/0]
