RESULT: v0x39d9fc0_0 : [0,1/0]
RESULT: v0x3ada320_0 : [0,1]
RESULT: v0x398d8e0_0 : [0,1]
RESULT: v0x3b62740_0 : [123,777]
RESULT: v0x3aa9a30_0 : [0,1]
RESULT: v0x3b79240_0 : [0,1]
RESULT: v0x3b3b660_0 : [0,2]
RESULT: v0x3b88ec0_0 : [0,456]
RESULT: v0x3b8ef60_0 : [0,1]
RESULT: v0x3ada240_0 : [0,1]
RESULT: v0x3b511a0_0 : [0,666]
RESULT: v0x398ad40_0 : [0,1]
RESULT: v0x3b74e80_0 : [0,1]
RESULT: v0x3b6eda0_0 : [0,1]
RESULT: v0x3ba5020_0 : [0,123]
RESULT: v0x398f100_0 : [0,1]
RESULT: v0x3b77440_0 : [0,1]
RESULT: v0x3b579c0_0 : [0,456]
RESULT: v0x3b541e0_0 : [0,2]
RESULT: v0x3ae08d0_0 : [0,1]
RESULT: v0x39d7ee0_0 : [0,1]
RESULT: v0x3aaa9f0_0 : [0,3]
RESULT: v0x383b390_0 : [-1/0,1/0]
RESULT: v0x383b490_0 : [0,456]
RESULT: v0x383ac90_0 : [-1/0,1/0]
RESULT: v0x383a990_0 : [0,456]
RESULT: v0x383ab90_0 : [0,1]
RESULT: v0x383b890_0 : [0,123]
