RESULT: v0x32c07e0_0 : [0,1]
RESULT: v0x3c89700_1 : [0,1]
RESULT: v0x37addc0_1 : [0,1]
RESULT: v0x3c3a280_1 : [0,1]
RESULT: v0x4720f30_1 : [0,1]
RESULT: v0x49b21e0_1 : [0,1]
RESULT: v0x4db3060_1 : [0,1]
RESULT: v0x3cc8ba0_1 : [0,1]
RESULT: v0x3c49c60_1 : [0,1]
RESULT: v0x4e0f700_1 : [0,1]
RESULT: v0x47281d0_1 : [0,1]
RESULT: v0x3c4ab20_1 : [0,1]
RESULT: v0x4e0afa0_1 : [0,1]
RESULT: v0x37a8660_1 : [0,1]
RESULT: v0x45b1ea0_1 : [-1/0,1/0]
RESULT: v0x3c9aba0_1 : [-1/0,1/0]
RESULT: v0x4e07340_1 : [0,2]
RESULT: v0x4d9dff0_1 : [0,2]
RESULT: v0x4e2edc0_1 : [0,2]
RESULT: v0x49f8310_1 : [0,2]
RESULT: v0x4d98fd0_1 : [0,2]
RESULT: v0x37ac8e0_1 : [0,2]
RESULT: v0x481aa90_1 : [0,2]
RESULT: v0x4e388a0_1 : [0,2]
RESULT: v0x4a05710_1 : [0,2]
RESULT: v0x49eb650_1 : [0,2]
RESULT: v0x4e37ee0_1 : [0,2]
RESULT: v0x4e1dde0_1 : [0,2]
RESULT: v0x4e1e6e0_1 : [0,2]
RESULT: v0x3bec430_1 : [0,2]
