RESULT: v0x5639970_0 : [-1/0,1/0]
RESULT: v0x9095ef0_0 : [-1/0,1/0]
RESULT: v0x70101b0_0 : [-1/0,1/0]
RESULT: v0x5441da0_0 : [-1/0,1/0]
RESULT: v0x7d7d570_0 : [-1/0,1/0]
RESULT: v0x9950b80_0 : [-1/0,1/0]
RESULT: v0x7005a60_0 : [1,1]
RESULT: v0x40faaa0_0 : [67,1/0]
RESULT: v0x4ac48e0_0 : [27,1/0]
RESULT: v0x40faba0_0 : [0,1]
RESULT: v0x40faca0_0 : [0,1]
RESULT: v0x40fada0_0 : [-1/0,1/0]
RESULT: v0x40faea0_0 : [-1/0,1/0]
RESULT: v0x40fafa0_0 : [-1/0,1/0]
RESULT: v0x40fb0a0_0 : [-1/0,1/0]
RESULT: v0x40fb1a0_0 : [-1/0,1/0]
RESULT: v0x503f920_0 : [-1/0,1/0]
RESULT: v0x40fb2a0_0 : [-1/0,1/0]
RESULT: v0x5441900_0 : [-1/0,1/0]
RESULT: v0x40fb3a0_0 : [-1/0,1/0]
RESULT: v0x9ece8d0_0 : [-1/0,1/0]
RESULT: v0x40fb4a0_0 : [-1/0,1/0]
RESULT: v0x40fb5a0_0 : [-1/0,1/0]
RESULT: v0x40fb6a0_0 : [-1/0,1/0]
RESULT: v0x40fb7a0_0 : [-1/0,1/0]
RESULT: v0x9092b70_0 : [-1/0,1/0]
RESULT: v0x56b7c50_0 : [-1/0,1/0]
RESULT: v0x560d200_0 : [-1/0,1/0]
RESULT: v0x55cf100_0 : [-1/0,10]
RESULT: v0x9176290_0 : [-1/0,1/0]
RESULT: v0x40fcaa0_0 : [-1/0,1/0]
