RESULT: v0x4faf600_0 : [-1/0,1/0]
RESULT: v0x4faf540_0 : [-1/0,1/0]
RESULT: v0x4faf780_0 : [-1/0,1/0]
RESULT: v0x4faf840_0 : [-1/0,1/0]
RESULT: v0x4faf000_0 : [-1/0,1/0]
RESULT: v0x4faf240_0 : [-1/0,1/0]
RESULT: v0x4faf180_0 : [-1/0,1/0]
RESULT: v0x4faf0c0_0 : [-1/0,1/0]
RESULT: v0x4f6f4b0_0 : [-1/0,1/0]
RESULT: v0x4f45e60_0 : [-1/0,1/0]
RESULT: v0x4faef40_0 : [-1/0,1/0]
RESULT: v0x4fafbe0_0 : [-1/0,1/0]
RESULT: v0x4fafba0_0 : [-1/0,1/0]
RESULT: v0x4fafc20_0 : [-1/0,1/0]
RESULT: v0x4faf9c0_0 : [-1/0,1/0]
RESULT: v0x4fafcc0_0 : [-1/0,1/0]
RESULT: v0x4fafd80_0 : [-1/0,1/0]
RESULT: v0x4fafe40_0 : [-1/0,1/0]
RESULT: v0x4faff20_0 : [-1/0,1/0]
RESULT: v0x4faffc0_0 : [-1/0,1/0]
RESULT: v0x4faf900_0 : [-1/0,1/0]
RESULT: v0x4faf480_0 : [-1/0,1/0]
RESULT: v0x4faf6c0_0 : [-1/0,1/0]
RESULT: v0x4faf3c0_0 : [-1/0,1/0]
RESULT: v0x4faf300_0 : [-1/0,1/0]
