RESULT: v0x4406bf0_1 : [4,4]
RESULT: v0x4145250_1 : [0,1]
RESULT: v0x4159310_1 : [0,1]
RESULT: v0x41e9570_1 : [0,1]
RESULT: v0x41d9f90_1 : [0,1]
RESULT: v0x41d8a30_1 : [0,1]
RESULT: v0x4115870_1 : [0,1]
RESULT: v0x4199610_1 : [0,1]
RESULT: v0x41dd710_1 : [0,1]
RESULT: v0x41d4170_1 : [0,1]
RESULT: v0x41929d0_1 : [0,1]
RESULT: v0x415c770_1 : [0,1]
RESULT: v0x3fba8a0_1 : [0,1]
RESULT: v0x3f9a640_1 : [0,2]
RESULT: v0x3e2cb90_1 : [0,3]
RESULT: v0x3fa3160_1 : [0,1]
RESULT: v0x3fbe8a0_1 : [123,777]
RESULT: v0x3fbb860_1 : [0,666]
RESULT: v0x3fb0200_1 : [0,2]
RESULT: v0x3fa6140_1 : [0,1]
RESULT: v0x3fa7200_1 : [0,2]
RESULT: v0x4106440_1 : [0,456]
RESULT: v0x408af30_1 : [0,123]
RESULT: v0x3f3aae0_1 : [0,456]
