RESULT: v0x3f5ed20_1 : [-1/0,2]
RESULT: v0x3f5ec60_1 : [-1/0,1/0]
RESULT: v0x3f5eae0_1 : [0,1]
RESULT: v0x3f5e7e0_1 : [-1/0,1/0]
RESULT: v0x3f5ea20_1 : [-1/0,1/0]
RESULT: v0x3f5e660_1 : [-1/0,1/0]
RESULT: v0x3f09d70_1 : [-1/0,1/0]
RESULT: v0x3f5e3a0_1 : [-1/0,1/0]
RESULT: v0x3f5e220_1 : [-1/0,1/0]
RESULT: v0x3f5ddd0_1 : [-1/0,1/0]
RESULT: v0x3f5dc50_1 : [-1/0,1/0]
RESULT: v0x3f5dad0_1 : [-1/0,1/0]
RESULT: v0x3f5d950_1 : [-1/0,1/0]
RESULT: v0x3f5d7d0_1 : [-1/0,1/0]
RESULT: v0x3f5d650_1 : [-1/0,1/0]
RESULT: v0x3f5d4d0_1 : [-1/0,1/0]
