RESULT: v0x4d482c0_0 : [1,1]
RESULT: v0x4d463a0_0 : [3,3]
RESULT: v0x4d467a0_0 : [-1073741637,0]
RESULT: v0x4d466a0_0 : [-1073741637,0]
RESULT: v0x4d49ec0_0 : [1,6]
RESULT: v0x4d49bc0_0 : [-1/0,1/0]
RESULT: v0x4d4a0c0_0 : [-1073741637,259]
RESULT: v0x4d49cc0_0 : [0,259]
RESULT: v0xa12f800_0 : [0,2]
RESULT: v0x4d487c0_0 : [-1/0,24]
RESULT: v0x4d461a0_0 : [0,1/0]
RESULT: v0x4d550b0_0 : [0,1]
RESULT: v0x4d485c0_0 : [0,0]
RESULT: v0x4d464a0_0 : [-1/0,1/0]
RESULT: v0x4d5dab0_1 : [0,0]
RESULT: v0x4d650b0_0 : [0,0]
RESULT: v0xa3a3e80_0 : [0,0]
RESULT: v0x4d564b0_1 : [1,3]
RESULT: v0x4d56bb0_0 : [-1/0,1/0]
RESULT: v0x4d565b0_0 : [-1/0,1/0]
RESULT: v0x4d56eb0_0 : [-1/0,1/0]
RESULT: v0x4d56db0_0 : [-1/0,1/0]
RESULT: v0x4d56fb0_1 : [-1/0,1/0]
RESULT: v0x4d5e1b0_0 : [-1/0,1/0]
RESULT: v0x4d5dbb0_0 : [-1/0,1/0]
RESULT: v0x4d5e4b0_0 : [-1/0,1/0]
RESULT: v0x4d5e3b0_0 : [-1/0,1/0]
RESULT: v0x4d5e5b0_1 : [-1/0,1/0]
RESULT: v0x4d653b0_0 : [0,0]
RESULT: v0x4d65fb0_0 : [-1/0,1/0]
RESULT: v0x4d65eb0_0 : [-1/0,1/0]
RESULT: v0x4d660b0_0 : [-1/0,1/0]
RESULT: v0x4d667b0_0 : [-1/0,1/0]
RESULT: v0x4d666b0_0 : [-1/0,1/0]
RESULT: v0x4d668b0_0 : [1,1]
RESULT: v0x4d66fb0_0 : [-1/0,1/0]
RESULT: v0x4d66eb0_0 : [-1/0,1/0]
RESULT: v0x4d673b0_0 : [-1/0,1/0]
RESULT: v0x4d67ab0_0 : [-1/0,1/0]
RESULT: v0x4d679b0_0 : [-1/0,1/0]
RESULT: v0x4d67bb0_0 : [1,1]
RESULT: v0x4d67db0_0 : [-1/0,1/0]
RESULT: v0x4d67cb0_0 : [-1/0,1/0]
RESULT: v0x4d67eb0_0 : [-1/0,1/0]
