RESULT: v0x58762d0_0 : [-1/0,1/0]
RESULT: v0x5873ad0_0 : [-1/0,1/0]
RESULT: v0x5876da0_0 : [-1/0,1/0]
RESULT: v0x5873c10_0 : [-1/0,1/0]
RESULT: v0x657afa0_0 : [-1/0,1/0]
RESULT: v0x657b280_0 : [-1/0,1/0]
RESULT: v0x5873bd0_0 : [0,0]
RESULT: v0x40faaa0_0 : [67,1/0]
RESULT: v0x73a4d60_0 : [27,1/0]
RESULT: v0x40faba0_0 : [0,1]
RESULT: v0x40faca0_0 : [0,1]
RESULT: v0x40fada0_0 : [-1/0,1/0]
RESULT: v0x40faea0_0 : [-1/0,1/0]
RESULT: v0x40fafa0_0 : [-1/0,1/0]
RESULT: v0x40fb0a0_0 : [-1/0,1/0]
RESULT: v0x40fb1a0_0 : [-1/0,1/0]
RESULT: v0x5876490_0 : [-1/0,1/0]
RESULT: v0x40fb2a0_0 : [-1/0,1/0]
RESULT: v0x5876210_0 : [-1/0,1/0]
RESULT: v0x40fb3a0_0 : [-1/0,1/0]
RESULT: v0x5876630_0 : [-1/0,1/0]
RESULT: v0x40fb4a0_0 : [-1/0,1/0]
RESULT: v0x40fb5a0_0 : [-1/0,1/0]
RESULT: v0x40fb6a0_0 : [-1/0,1/0]
RESULT: v0x40fb7a0_0 : [-1/0,1/0]
RESULT: v0x73a50a0_0 : [-1/0,1/0]
RESULT: v0x586fd10_0 : [-1/0,1/0]
RESULT: v0x69ba840_0 : [0,0]
RESULT: v0x73a5220_0 : [-1/0,10]
RESULT: v0x73a4e20_0 : [-1/0,1/0]
RESULT: v0x40fbaa0_0 : [-1/0,1/0]
