RESULT: v0x3e91fd0_1 : [3,3]
RESULT: v0x3fa9050_1 : [0,1]
RESULT: v0x3e7e760_1 : [0,1]
RESULT: v0x3e7fa20_1 : [0,1]
RESULT: v0x40a6190_1 : [0,1]
RESULT: v0x4096f00_1 : [0,1]
RESULT: v0x4096fc0_1 : [0,1]
RESULT: v0x40a5f50_1 : [0,1]
RESULT: v0x3e78e40_1 : [0,1]
RESULT: v0x3e79200_1 : [0,1]
RESULT: v0x3e795c0_1 : [0,1]
RESULT: v0x3e79980_1 : [0,1]
RESULT: v0x3e79d40_1 : [0,1]
RESULT: v0x3e7a100_1 : [0,2]
RESULT: v0x3e7a4c0_1 : [0,3]
RESULT: v0x3e75440_1 : [123,777]
RESULT: v0x3e932a0_1 : [0,2]
RESULT: v0x3e93220_1 : [0,1]
RESULT: v0x3fa05c0_1 : [0,2]
RESULT: v0x3fa46a0_1 : [0,456]
RESULT: v0x3fa8690_1 : [0,123]
RESULT: v0x3fbcb30_1 : [0,456]
