RESULT: v0x3e5a780_0 : [0,1]
RESULT: v0x40bf1f0_1 : [0,1]
RESULT: v0x431a4b0_1 : [0,1]
RESULT: v0x43ff130_1 : [0,1]
RESULT: v0x53cd1a0_1 : [0,1]
RESULT: v0x4e70e50_1 : [0,1]
RESULT: v0x40b7290_1 : [0,1]
RESULT: v0x4ebaea0_1 : [0,1]
RESULT: v0x4e38330_1 : [0,1]
RESULT: v0x4418880_1 : [0,1]
RESULT: v0x535bf40_1 : [-1/0,1/0]
RESULT: v0x5360920_1 : [-1/0,1/0]
RESULT: v0x5359c60_1 : [0,2]
RESULT: v0x40b9110_1 : [0,2]
RESULT: v0x4ea0320_1 : [0,2]
RESULT: v0x40be920_1 : [0,2]
RESULT: v0x40fe7c0_1 : [0,2]
RESULT: v0x4ed0130_1 : [0,2]
RESULT: v0x4324030_1 : [0,2]
RESULT: v0x431b150_1 : [0,2]
RESULT: v0x440b330_1 : [0,2]
RESULT: v0x40fedc0_1 : [0,2]
