RESULT: v0x3bd5de0_1 : [-1/0,1/0]
RESULT: v0x3bd6750_1 : [-1/0,1/0]
RESULT: v0x3bd69d0_1 : [-1/0,1/0]
RESULT: v0x3bd6c50_1 : [-1/0,1/0]
RESULT: v0x3bd6f70_1 : [-1/0,1/0]
RESULT: v0x3bd7350_1 : [-1/0,1/0]
RESULT: v0x3bd7490_1 : [-1/0,1/0]
RESULT: v0x3bd71f0_1 : [-1/0,1/0]
RESULT: v0x3bd77b0_1 : [-1/0,1/0]
RESULT: v0x3bd79b0_1 : [-1/0,1/0]
RESULT: v0x3bd7bb0_1 : [-1/0,1/0]
RESULT: v0x3bd7db0_1 : [-1/0,1/0]
RESULT: v0x3bd7fb0_1 : [-1/0,1/0]
RESULT: v0x3bd7550_1 : [-1/0,1/0]
RESULT: v0x3bd83b0_1 : [-1/0,1/0]
RESULT: v0x3bd85b0_1 : [-1/0,1/0]
RESULT: v0x3bd87b0_1 : [-1/0,1/0]
RESULT: v0x3bd89b0_1 : [-1/0,1/0]
RESULT: v0x3bd8bb0_1 : [-1/0,1/0]
RESULT: v0x3bd8db0_1 : [-1/0,1/0]
RESULT: v0x3bd8fb0_1 : [-1/0,1/0]
RESULT: v0x3bd91b0_1 : [-1/0,1/0]
RESULT: v0x3bd93b0_1 : [-1/0,1/0]
RESULT: v0x3bd95b0_1 : [-1/0,1/0]
RESULT: v0x3bd97b0_1 : [-1/0,1/0]
RESULT: v0x3bd80f0_1 : [-1/0,1/0]
RESULT: v0x3bd9c80_1 : [-1/0,1/0]
