RESULT: v0x6854520_0 : [-1/0,1/0]
RESULT: v0x68545c0_0 : [-1/0,1/0]
RESULT: v0x6855060_0 : [-1/0,1/0]
RESULT: v0x68544e0_0 : [-1/0,1/0]
RESULT: v0x6853620_0 : [-1/0,1/0]
RESULT: v0x68554e0_0 : [-1/0,1/0]
RESULT: v0x54cfee0_0 : [-1/0,1/0]
RESULT: v0x6854fa0_0 : [-1/0,1/0]
RESULT: v0x68555a0_0 : [-1/0,1/0]
RESULT: v0x6854080_0 : [-1/0,1/0]
RESULT: v0x6854200_0 : [-1/0,1/0]
RESULT: v0x68542c0_0 : [-1/0,1/0]
RESULT: v0x6866ba0_0 : [-1/0,1/0]
RESULT: v0x6852dc0_0 : [-1/0,1/0]
RESULT: v0x6854740_0 : [-1/0,1/0]
RESULT: v0x6854800_0 : [-1/0,1/0]
RESULT: v0x6854be0_0 : [-1/0,1/0]
RESULT: v0x6854ee0_0 : [-1/0,1/0]
RESULT: v0x6855120_0 : [-1/0,1/0]
RESULT: v0x6855420_0 : [-1/0,1/0]
RESULT: v0x6868e50_0 : [-1/0,1/0]
RESULT: v0x6885010_0 : [-1/0,1/0]
RESULT: v0x67e6340_0 : [-1/0,1/0]
RESULT: v0x6873280_0 : [-1/0,1/0]
RESULT: v0x6854680_0 : [-1/0,1/0]
RESULT: v0x6854440_0 : [-1/0,1/0]
