RESULT: v0x5e38790_0 : [-1/0,1/0]
RESULT: v0x4ae17c0_0 : [-1/0,1/0]
RESULT: v0x75b64c0_0 : [-1/0,1/0]
RESULT: v0x75b6720_0 : [-1/0,1/0]
RESULT: v0x48e0b60_0 : [27,1/0]
RESULT: v0x752a6f0_0 : [-1/0,1/0]
RESULT: v0x7595a60_0 : [-1/0,1/0]
RESULT: v0x7595aa0_0 : [-1/0,1/0]
RESULT: v0x4fde720_0 : [0,0]
RESULT: v0x49e1850_0 : [-1/0,1/0]
RESULT: v0x75caa70_0 : [-1/0,1/0]
RESULT: v0x478d2d0_0 : [67,1/0]
RESULT: v0x478d3d0_0 : [0,1]
RESULT: v0x478d4d0_0 : [-1/0,1/0]
RESULT: v0x478d5d0_0 : [-1/0,1/0]
RESULT: v0x478d6d0_0 : [-1/0,1/0]
RESULT: v0x478d7d0_0 : [-1/0,1/0]
RESULT: v0x478d8d0_0 : [0,1]
RESULT: v0x478d9d0_0 : [-1/0,1/0]
RESULT: v0x478dad0_0 : [-1/0,1/0]
RESULT: v0x478dbd0_0 : [-1/0,1/0]
RESULT: v0x478dcd0_0 : [-1/0,1/0]
RESULT: v0x478ddd0_0 : [-1/0,1/0]
RESULT: v0x478ded0_0 : [-1/0,1/0]
RESULT: v0x478dfd0_0 : [-1/0,1/0]
RESULT: v0x508ac50_0 : [-1/0,1/0]
RESULT: v0x4a477d0_0 : [-1/0,1/0]
RESULT: v0x5183df0_0 : [0,0]
RESULT: v0x5907260_0 : [-1/0,10]
RESULT: v0x4989450_0 : [-1/0,1/0]
RESULT: v0x478e2d0_0 : [-1/0,1/0]
