RESULT: v0x4513460_0 : [-1/0,1/0]
RESULT: v0x42c86a0_0 : [-1/0,1/0]
RESULT: v0x42ea830_0 : [-1/0,1/0]
RESULT: v0x44e07b0_0 : [-1/0,1/0]
RESULT: v0x430c710_0 : [27,1/0]
RESULT: v0x433c720_0 : [-1/0,1/0]
RESULT: v0x44bbe30_0 : [-1/0,1/0]
RESULT: v0x4359c00_0 : [-1/0,1/0]
RESULT: v0x4517cd0_0 : [1,1]
RESULT: v0x42fc510_0 : [-1/0,1/0]
RESULT: v0x43089b0_0 : [-1/0,1/0]
RESULT: v0x4285070_0 : [67,1/0]
RESULT: v0x4285170_0 : [-1/0,1/0]
RESULT: v0x4285270_0 : [-1/0,1/0]
RESULT: v0x4285370_0 : [-1/0,1/0]
RESULT: v0x4285470_0 : [-1/0,1/0]
RESULT: v0x4285570_0 : [0,1]
RESULT: v0x4285670_0 : [-1/0,1/0]
RESULT: v0x4285770_0 : [-1/0,1/0]
RESULT: v0x4285870_0 : [-1/0,1/0]
RESULT: v0x4285970_0 : [-1/0,1/0]
RESULT: v0x4285a70_0 : [-1/0,1/0]
RESULT: v0x4285b70_0 : [-1/0,1/0]
RESULT: v0x42f6d90_0 : [-1/0,1/0]
RESULT: v0x44a4890_0 : [-1/0,1/0]
RESULT: v0x44a4810_0 : [-1/0,10]
RESULT: v0x4286e70_0 : [-1/0,1/0]
