RESULT: v0x9f54d60_0 : [-1/0,1/0]
RESULT: v0x6fcafd0_0 : [0,1]
RESULT: v0x5b15700_0 : [-1/0,1/0]
RESULT: v0x967b010_0 : [-1/0,1/0]
RESULT: v0x96729d0_0 : [-1/0,1/0]
RESULT: v0x5b4a440_0 : [-1/0,1/0]
RESULT: v0x9a6bf90_0 : [0,0]
RESULT: v0x40faaa0_0 : [67,1/0]
RESULT: v0x4edd420_0 : [67,1/0]
RESULT: v0x40faba0_0 : [0,1]
RESULT: v0x40faca0_0 : [0,1]
RESULT: v0x40fada0_0 : [-1/0,1/0]
RESULT: v0x40faea0_0 : [-1/0,1/0]
RESULT: v0x40fafa0_0 : [0,0]
RESULT: v0x40fb0a0_0 : [-1/0,1/0]
RESULT: v0x40fb1a0_0 : [-1/0,1/0]
RESULT: v0x412f060_0 : [-1/0,1/0]
RESULT: v0x40fb2a0_0 : [-1/0,1/0]
RESULT: v0x64d5890_0 : [-1/0,1/0]
RESULT: v0x40fb3a0_0 : [-1/0,1/0]
RESULT: v0x5f29b60_0 : [-1/0,1/0]
RESULT: v0x40fb4a0_0 : [-1/0,1/0]
RESULT: v0x40fb5a0_0 : [-1/0,1/0]
RESULT: v0x40fb6a0_0 : [-1/0,1/0]
RESULT: v0x40fb7a0_0 : [-1/0,1/0]
RESULT: v0x9059570_0 : [-1/0,1/0]
RESULT: v0x412ee80_0 : [-1/0,1/0]
RESULT: v0xbae9190_0 : [0,0]
RESULT: v0x5aa7060_0 : [-1/0,10]
RESULT: v0x58492a0_0 : [-1/0,1/0]
RESULT: v0x40fbaa0_0 : [-1/0,1/0]
