RESULT: v0x3e13ef0_0 : [0,1/0]
RESULT: v0x3e138b0_0 : [0,1]
RESULT: v0x3c3caf0_0 : [0,1]
RESULT: v0x3abd470_0 : [0,1]
RESULT: v0x39b11e0_0 : [0,1]
RESULT: v0x3ad2190_0 : [0,1]
RESULT: v0x3b91a20_0 : [0,1]
RESULT: v0x3d8e460_0 : [0,1]
RESULT: v0x3d8d9e0_0 : [0,1]
RESULT: v0x3ad9d00_0 : [123,777]
RESULT: v0x3b903c0_0 : [0,666]
RESULT: v0x3ce6dc0_0 : [0,2]
RESULT: v0x3b532f0_0 : [0,1]
RESULT: v0x3ab0fb0_0 : [0,456]
RESULT: v0x39bd900_0 : [0,123]
RESULT: v0x3d8e040_0 : [0,1]
RESULT: v0x3c3dd90_0 : [0,1]
RESULT: v0x3bbe4a0_0 : [0,1]
RESULT: v0x3992550_0 : [-1/0,1/0]
RESULT: v0x399a040_0 : [-1/0,1/0]
RESULT: v0x3999d40_0 : [0,456]
RESULT: v0x3999f40_0 : [0,1]
RESULT: v0x3992950_0 : [0,123]
