RESULT: v0x32d6eb0_0 : [0,0]
RESULT: v0x3559900_1 : [0,1]
RESULT: v0x357d8a0_1 : [0,1]
RESULT: v0x357e600_1 : [0,1]
RESULT: v0x357e300_1 : [0,1]
RESULT: v0x3581a30_1 : [0,1]
RESULT: v0x3581310_1 : [0,1]
RESULT: v0x3581230_1 : [0,1]
RESULT: v0x35836d0_1 : [0,1]
RESULT: v0x3582af0_1 : [0,1]
RESULT: v0x3582790_1 : [0,1]
RESULT: v0x353fa20_1 : [0,1]
RESULT: v0x3570130_1 : [0,2]
RESULT: v0x3578870_1 : [0,2]
RESULT: v0x3589900_1 : [0,2]
RESULT: v0x358c110_1 : [0,2]
RESULT: v0x3587cc0_1 : [0,2]
RESULT: v0x358bed0_1 : [0,2]
RESULT: v0x358b8b0_1 : [0,2]
RESULT: v0x358b2b0_1 : [0,2]
RESULT: v0x358acb0_1 : [0,2]
RESULT: v0x358a6b0_1 : [0,2]
RESULT: v0x3588d00_1 : [0,2]
RESULT: v0x3587b40_1 : [0,0]
