RESULT: v0x4592b10_0 : [0,1]
RESULT: v0x4592e10_0 : [-1/0,1/0]
RESULT: v0x4597df0_0 : [0,0]
RESULT: v0x45978f0_0 : [-1/0,1/0]
RESULT: v0x4595ba0_0 : [-1/0,1/0]
RESULT: v0x4592f10_0 : [-1/0,1]
RESULT: v0x4593110_0 : [0,1]
RESULT: v0x45924b0_0 : [0,1]
RESULT: v0x4592c10_0 : [0,1]
RESULT: v0x45926b0_0 : [0,1]
RESULT: v0x45935d0_0 : [0,1]
RESULT: v0x45922b0_0 : [1,1]
RESULT: v0x4592910_0 : [-1/0,1/0]
RESULT: v0x4592110_0 : [-1/0,1/0]
RESULT: v0x4593310_0 : [-1/0,1/0]
RESULT: v0x45951a0_0 : [-1/0,1/0]
RESULT: v0x45952a0_0 : [-1/0,1/0]
RESULT: v0x4595ca0_0 : [-1/0,1/0]
RESULT: v0x4593210_0 : [-1/0,1/0]
RESULT: v0x4595fa0_0 : [-1/0,1/0]
RESULT: v0x45936d0_0 : [-1/0,1/0]
RESULT: v0x4592d10_0 : [-1/0,1/0]
RESULT: v0x45956a0_0 : [-1/0,1/0]
RESULT: v0x45966a0_0 : [-1/0,1/0]
RESULT: v0x4594c70_0 : [-1/0,1/0]
RESULT: v0x4594e70_0 : [-1/0,1/0]
RESULT: v0x73710b0_1 : [-1/0,1/0]
RESULT: v0x5b833b0_1 : [0,1]
RESULT: v0x5b837d0_1 : [-1/0,1/0]
RESULT: v0x5b83c10_1 : [0,1]
RESULT: v0x5b84030_1 : [-1/0,1/0]
RESULT: v0x5b84530_1 : [0,1]
RESULT: v0x5b94ab0_1 : [0,1]
RESULT: v0x5b94bb0_1 : [-1/0,1/0]
RESULT: v0x5b94cb0_1 : [-1/0,1]
RESULT: v0x5b94db0_1 : [-1/0,1/0]
RESULT: v0x5b94eb0_1 : [0,1]
RESULT: v0x5b94fb0_1 : [-1/0,1/0]
RESULT: v0x5b95250_1 : [0,1]
RESULT: v0x5b95670_1 : [0,1]
RESULT: v0x5b84b70_1 : [0,1]
RESULT: v0x5b84f90_1 : [0,1]
RESULT: v0x5b853b0_1 : [0,1]
