RESULT: v0x90f6630_0 : [-1/0,1/0]
RESULT: v0x9be3fb0_0 : [-1/0,1/0]
RESULT: v0x42530c0_0 : [0,1]
RESULT: v0x11cce600_0 : [-1/0,1/0]
RESULT: v0xb21f520_0 : [27,1/0]
RESULT: v0x55d4a80_0 : [-1/0,1/0]
RESULT: v0x5359800_0 : [-1/0,1/0]
RESULT: v0xdf2b270_0 : [0,0]
RESULT: v0x136119e0_0 : [-1/0,1/0]
RESULT: v0xa510b00_0 : [-1/0,1/0]
RESULT: v0x90f6530_0 : [-1/0,1/0]
RESULT: v0x3fa3330_0 : [67,1/0]
RESULT: v0x3fa3430_0 : [-1/0,1/0]
RESULT: v0x3fa3530_0 : [-1/0,1/0]
RESULT: v0x3fa3630_0 : [-1/0,1/0]
RESULT: v0x3fa3730_0 : [-1/0,1/0]
RESULT: v0x3fa3830_0 : [0,1]
RESULT: v0x3fa3930_0 : [-1/0,1/0]
RESULT: v0x3fa3a30_0 : [-1/0,1/0]
RESULT: v0x3fa3b30_0 : [-1/0,1/0]
RESULT: v0x3fa3c30_0 : [0,0]
RESULT: v0x3fa3d30_0 : [-1/0,1/0]
RESULT: v0x3fa3e30_0 : [-1/0,1/0]
RESULT: v0x3fa3f30_0 : [-1/0,1/0]
RESULT: v0x4545660_0 : [-1/0,1/0]
RESULT: v0xeea18f0_0 : [0,0]
RESULT: v0x45c4650_0 : [-1/0,10]
RESULT: v0x93661b0_0 : [-1/0,1/0]
RESULT: v0x13611a60_0 : [-1/0,1/0]
RESULT: v0x3fa4230_0 : [-1/0,1/0]
