RESULT: v0x3d090a0_1 : [3,3]
RESULT: v0x3d092e0_1 : [0,1]
RESULT: v0x3d09460_1 : [0,1]
RESULT: v0x3d096a0_1 : [0,1]
RESULT: v0x3dcfb70_1 : [0,1]
RESULT: v0x3dcf9f0_1 : [0,1]
RESULT: v0x3dcf870_1 : [0,1]
RESULT: v0x3dcf630_1 : [0,1]
RESULT: v0x3cf7a10_1 : [0,1]
RESULT: v0x3cf7ad0_1 : [0,1]
RESULT: v0x3bc5700_1 : [123,777]
RESULT: v0x3cf7d10_1 : [0,666]
RESULT: v0x3cf7dd0_1 : [0,2]
RESULT: v0x3ccbd40_1 : [0,1]
RESULT: v0x3ce4000_1 : [0,2]
RESULT: v0x3cb6650_1 : [0,456]
RESULT: v0x3ce4c30_1 : [0,123]
RESULT: v0x3ce8a20_1 : [0,456]
RESULT: v0x3cecc00_1 : [0,3]
RESULT: v0x3ce8990_1 : [0,1]
RESULT: v0x3d01920_1 : [0,1]
