RESULT: v0x6df9720_0 : [-1/0,1/0]
RESULT: v0x8954b80_0 : [-1/0,1/0]
RESULT: v0xd92ff40_0 : [-1/0,1/0]
RESULT: v0x6af6b00_0 : [-1/0,1/0]
RESULT: v0xd23fe30_0 : [67,1/0]
RESULT: v0x72746f0_0 : [-1/0,1/0]
RESULT: v0xa7adfe0_0 : [-1/0,1/0]
RESULT: v0x53eb130_0 : [-1/0,1/0]
RESULT: v0x6af6ba0_0 : [0,0]
RESULT: v0xb0112c0_0 : [-1/0,1/0]
RESULT: v0x6df9480_0 : [-1/0,1/0]
RESULT: v0x478d2d0_0 : [67,1/0]
RESULT: v0x478d3d0_0 : [0,1]
RESULT: v0x478d4d0_0 : [-1/0,1/0]
RESULT: v0x478d5d0_0 : [-1/0,1/0]
RESULT: v0x478d6d0_0 : [-1/0,1/0]
RESULT: v0x478d7d0_0 : [-1/0,1/0]
RESULT: v0x478d8d0_0 : [0,1]
RESULT: v0x478d9d0_0 : [-1/0,1/0]
RESULT: v0x478dad0_0 : [-1/0,1/0]
RESULT: v0x478dbd0_0 : [0,0]
RESULT: v0x478dcd0_0 : [0,0]
RESULT: v0x478ddd0_0 : [-1/0,1/0]
RESULT: v0x478ded0_0 : [-1/0,1/0]
RESULT: v0x478dfd0_0 : [-1/0,1/0]
RESULT: v0xd92ff80_0 : [-1/0,1/0]
RESULT: v0xf832270_0 : [-1/0,1/0]
RESULT: v0x7c41260_0 : [0,0]
RESULT: v0xb24d3e0_0 : [-1/0,10]
RESULT: v0xf831f90_0 : [-1/0,1/0]
RESULT: v0x478e2d0_0 : [-1/0,1/0]
