RESULT: v0x4d0c290_0 : [0,0]
RESULT: v0x4fee7b0_1 : [0,1]
RESULT: v0x4e5b6f0_1 : [1,1]
RESULT: v0x4ff3c90_1 : [0,1]
RESULT: v0x4ff4810_1 : [0,1]
RESULT: v0x4fe2e10_1 : [0,1]
RESULT: v0x4fe31d0_1 : [0,1]
RESULT: v0x4fe3a70_1 : [0,1]
RESULT: v0x4fd8f50_1 : [0,1]
RESULT: v0x4fd9290_1 : [0,1]
RESULT: v0x4fd1680_1 : [0,1]
RESULT: v0x4fc6c50_1 : [0,1]
RESULT: v0x4fc7af0_1 : [0,1]
RESULT: v0x4fbf990_1 : [0,1]
RESULT: v0x4fbfcf0_1 : [0,2]
RESULT: v0x4fb4a00_1 : [2,2]
RESULT: v0x4fb5480_1 : [0,2]
RESULT: v0x4fae520_1 : [0,2]
RESULT: v0x4f973f0_1 : [0,2]
RESULT: v0x4f9c220_1 : [0,2]
RESULT: v0x4f9d170_1 : [0,2]
RESULT: v0x4fa1fe0_1 : [0,2]
RESULT: v0x4fe5930_1 : [0,2]
RESULT: v0x4feb540_1 : [0,2]
RESULT: v0x4ff0620_1 : [0,2]
RESULT: v0x4ff0b80_1 : [0,2]
RESULT: v0x4ff4690_1 : [0,2]
RESULT: v0x4d2d3c0_1 : [0,0]
