RESULT: v0x42f3c20_0 : [0,1]
RESULT: v0x42f3dc0_0 : [0,1]
RESULT: v0x42f3fc0_0 : [0,1]
RESULT: v0x42f41c0_0 : [0,1]
RESULT: v0x42f43c0_0 : [0,1]
RESULT: v0x42c0180_0 : [0,1]
RESULT: v0x42c0380_0 : [0,1]
RESULT: v0x42c0580_0 : [0,1]
RESULT: v0x42c0780_0 : [0,1]
RESULT: v0x42f51c0_0 : [0,1]
RESULT: v0x42f53a0_0 : [1,1]
RESULT: v0x42f55a0_0 : [0,2]
RESULT: v0x42f57a0_0 : [0,2]
RESULT: v0x42f59a0_0 : [0,2]
RESULT: v0x42f5ba0_0 : [0,2]
RESULT: v0x42f5da0_0 : [0,2]
RESULT: v0x42f5fa0_0 : [0,2]
RESULT: v0x42f61a0_0 : [0,2]
RESULT: v0x42f63a0_0 : [0,2]
RESULT: v0x42f65a0_0 : [0,2]
RESULT: v0x42f67a0_0 : [0,2]
RESULT: v0x42f69a0_0 : [2,2]
