RESULT: v0x5467f90_0 : [-1/0,1/0]
RESULT: v0x5467ef0_0 : [-1/0,1/0]
RESULT: v0xac6cd50_0 : [-1/0,1/0]
RESULT: v0x11c90af0_0 : [-1/0,1/0]
RESULT: v0xe1f10b0_0 : [27,1/0]
RESULT: v0x632fe80_0 : [-1/0,1/0]
RESULT: v0x632fce0_0 : [-1/0,1/0]
RESULT: v0x7338100_0 : [0,0]
RESULT: v0x446d860_0 : [-1/0,1/0]
RESULT: v0x6485820_0 : [-1/0,1/0]
RESULT: v0x6485720_0 : [-1/0,1/0]
RESULT: v0x3f94330_0 : [67,1/0]
RESULT: v0x3f94430_0 : [0,1]
RESULT: v0x3f94530_0 : [-1/0,1/0]
RESULT: v0x3f94630_0 : [-1/0,1/0]
RESULT: v0x3f94730_0 : [-1/0,1/0]
RESULT: v0x3f94830_0 : [-1/0,1/0]
RESULT: v0x3f94930_0 : [0,1]
RESULT: v0x3f94a30_0 : [-1/0,1/0]
RESULT: v0x3f94b30_0 : [-1/0,1/0]
RESULT: v0x3f94c30_0 : [-1/0,1/0]
RESULT: v0x3f94d30_0 : [-1/0,1/0]
RESULT: v0x3f94e30_0 : [-1/0,1/0]
RESULT: v0x3f94f30_0 : [-1/0,1/0]
RESULT: v0x3f95030_0 : [-1/0,1/0]
RESULT: v0x4214bd0_0 : [-1/0,1/0]
RESULT: v0xde4f7c0_0 : [-1/0,1/0]
RESULT: v0x5fe8de0_0 : [0,0]
RESULT: v0x9838ef0_0 : [-1/0,10]
RESULT: v0x7ca2170_0 : [-1/0,1/0]
RESULT: v0x3f95330_0 : [-1/0,1/0]
