RESULT: v0x705fff0_0 : [-1/0,1/0]
RESULT: v0x44adf60_0 : [-1/0,1/0]
RESULT: v0xf1294c0_0 : [-1/0,1/0]
RESULT: v0x11d4b730_0 : [0,1]
RESULT: v0x8b12ec0_0 : [67,1/0]
RESULT: v0x8b12ca0_0 : [-1/0,1/0]
RESULT: v0x4598740_0 : [-1/0,1/0]
RESULT: v0x107d2370_0 : [0,0]
RESULT: v0x7060b70_0 : [-1/0,1/0]
RESULT: v0x4598780_0 : [-1/0,1/0]
RESULT: v0x9da80e0_0 : [-1/0,1/0]
RESULT: v0x3fa3330_0 : [67,1/0]
RESULT: v0x3fa3430_0 : [-1/0,1/0]
RESULT: v0x3fa3530_0 : [-1/0,1/0]
RESULT: v0x3fa3630_0 : [-1/0,1/0]
RESULT: v0x3fa3730_0 : [-1/0,1/0]
RESULT: v0x3fa3830_0 : [0,1]
RESULT: v0x3fa3930_0 : [-1/0,1/0]
RESULT: v0x3fa3a30_0 : [-1/0,1/0]
RESULT: v0x3fa3b30_0 : [0,0]
RESULT: v0x3fa3c30_0 : [-1/0,1/0]
RESULT: v0x3fa3d30_0 : [-1/0,1/0]
RESULT: v0x3fa3e30_0 : [-1/0,1/0]
RESULT: v0x3fa3f30_0 : [-1/0,1/0]
RESULT: v0x11d4b670_0 : [-1/0,1/0]
RESULT: v0x1173bd00_0 : [0,0]
RESULT: v0x107d23f0_0 : [-1/0,10]
RESULT: v0x11ccdf70_0 : [-1/0,1/0]
RESULT: v0x12182130_0 : [-1/0,1/0]
RESULT: v0x3fa4230_0 : [-1/0,1/0]
