RESULT: v0x4f20230_0 : [2,2]
RESULT: v0x4ee9d70_0 : [0,0]
RESULT: v0x4ef89d0_0 : [0,1]
RESULT: v0x4ef6a90_0 : [0,1]
RESULT: v0x4efd200_0 : [0,1]
RESULT: v0x4eee630_0 : [0,1]
RESULT: v0x4eecf50_0 : [40,120]
RESULT: v0x4f1e990_0 : [1,1]
RESULT: v0x413abd0_0 : [1,1]
RESULT: v0x4065500_0 : [0,1]
RESULT: v0x3e58620_0 : [0,1]
RESULT: v0x4ef2e50_0 : [1,1]
RESULT: v0x4ef6b00_0 : [1,1]
RESULT: v0x3e59620_0 : [0,0]
RESULT: v0x470bd50_0 : [4,4]
RESULT: v0x390cd30_0 : [80,120]
RESULT: v0x390ce30_0 : [0,1]
RESULT: v0x390cf30_0 : [1,1]
RESULT: v0x390d030_0 : [0,1]
RESULT: v0x390d130_0 : [0,1]
RESULT: v0x390d230_0 : [1,1]
RESULT: v0x390d330_0 : [0,0]
RESULT: v0x390d430_0 : [3,4]
RESULT: v0x390d530_0 : [0,1]
RESULT: v0x390d630_0 : [1,1]
RESULT: v0x390d730_0 : [1,1]
RESULT: v0x390d830_0 : [0,1]
RESULT: v0x390d930_0 : [0,1]
RESULT: v0x390da30_0 : [1,1]
RESULT: v0x52e6b80_0 : [0,0]
RESULT: v0x390dd30_0 : [4,5]
