RESULT: v0x3a388c0_0 : [0,1/0]
RESULT: v0x63b3540_1 : [0,1]
RESULT: v0x63b8a80_1 : [0,1]
RESULT: v0x5824af0_1 : [0,1]
RESULT: v0x4e7fb30_1 : [0,1]
RESULT: v0x581f0d0_1 : [0,1]
RESULT: v0x456c010_1 : [0,1]
RESULT: v0x4da9ad0_1 : [0,1]
RESULT: v0x4516f10_1 : [0,1]
RESULT: v0x5877850_1 : [0,1]
RESULT: v0x4547b10_1 : [0,1]
RESULT: v0x5814a10_1 : [-1/0,2]
RESULT: v0x4daa090_1 : [-1/0,2]
RESULT: v0x5813150_1 : [-1/0,2]
RESULT: v0x5828770_1 : [-1/0,2]
RESULT: v0x531a300_1 : [-1/0,2]
RESULT: v0x63b5320_1 : [-1/0,2]
RESULT: v0x63b6f80_1 : [-1/0,2]
RESULT: v0x4dac290_1 : [-1/0,2]
RESULT: v0x5832f30_1 : [0,2]
RESULT: v0x58771b0_1 : [0,2]
RESULT: v0x4f099f0_1 : [0,2]
