RESULT: v0x4293d90_0 : [-1/0,1/0]
RESULT: v0x4293d10_0 : [-1/0,1/0]
RESULT: v0x4293b30_0 : [-1/0,1/0]
RESULT: v0x4293e30_0 : [-1/0,1/0]
RESULT: v0x42936b0_0 : [-1/0,1/0]
RESULT: v0x42938f0_0 : [-1/0,1/0]
RESULT: v0x4293830_0 : [-1/0,1/0]
RESULT: v0x4293770_0 : [-1/0,1/0]
RESULT: v0x4254d50_0 : [-1/0,1/0]
RESULT: v0x4223a90_0 : [-1/0,1/0]
RESULT: v0x4293610_0 : [-1/0,1/0]
RESULT: v0x4293fb0_0 : [-1/0,1/0]
RESULT: v0x4294070_0 : [-1/0,1/0]
RESULT: v0x4294130_0 : [-1/0,1/0]
RESULT: v0x42941f0_0 : [-1/0,1/0]
RESULT: v0x42942b0_0 : [-1/0,1/0]
RESULT: v0x4294370_0 : [-1/0,1/0]
RESULT: v0x4294430_0 : [-1/0,1/0]
RESULT: v0x42944f0_0 : [-1/0,1/0]
RESULT: v0x42945b0_0 : [-1/0,1/0]
RESULT: v0x4293ef0_0 : [-1/0,1/0]
RESULT: v0x4293d50_0 : [-1/0,1/0]
RESULT: v0x4293a70_0 : [-1/0,1/0]
RESULT: v0x42939b0_0 : [-1/0,1/0]
