RESULT: v0x3e4a030_0 : [1,2]
RESULT: v0x3e49030_0 : [0,50]
RESULT: v0x3e493d0_0 : [0,53]
RESULT: v0x3e49230_0 : [0,52]
RESULT: v0x3e49130_0 : [0,51]
RESULT: v0x3e4a330_0 : [-1/0,1/0]
RESULT: v0x5f49410_0 : [-1/0,1/0]
RESULT: v0x5f49510_0 : [-1/0,1/0]
RESULT: v0x5f49610_0 : [-1/0,1/0]
RESULT: v0x5f49710_0 : [0,1]
RESULT: v0x5f49810_0 : [0,1/0]
RESULT: v0x5f49910_0 : [0,53]
RESULT: v0x5f40bf0_0 : [-1/0,3]
RESULT: v0x5f40cf0_0 : [-1/0,1/0]
RESULT: v0x5f40df0_0 : [-1/0,1/0]
RESULT: v0x5f40ef0_0 : [-1/0,1/0]
RESULT: v0x5f4a1b0_0 : [-1/0,1/0]
RESULT: v0x5f4a2b0_0 : [-1/0,1/0]
RESULT: v0x5f4a3b0_0 : [-1/0,1/0]
RESULT: v0x5f4a4b0_0 : [-1/0,3]
RESULT: v0x5f92270_0 : [-1/0,1/0]
