RESULT: v0x73b8cc0_0 : [0,1]
RESULT: v0x8f516c0_0 : [-1/0,1/0]
RESULT: v0x9060220_0 : [-1/0,1/0]
RESULT: v0x46deb30_0 : [-1/0,1/0]
RESULT: v0x71691c0_0 : [-1/0,1/0]
RESULT: v0x44341c0_0 : [-1/0,1/0]
RESULT: v0x69a3900_0 : [0,0]
RESULT: v0x40faaa0_0 : [67,1/0]
RESULT: v0x5ba01d0_0 : [27,1/0]
RESULT: v0x40faba0_0 : [0,1]
RESULT: v0x40faca0_0 : [0,1]
RESULT: v0x40fada0_0 : [-1/0,1/0]
RESULT: v0x40faea0_0 : [-1/0,1/0]
RESULT: v0x40fafa0_0 : [-1/0,1/0]
RESULT: v0x40fb0a0_0 : [0,0]
RESULT: v0x40fb1a0_0 : [-1/0,1/0]
RESULT: v0x7a9d2b0_0 : [-1/0,1/0]
RESULT: v0x40fb2a0_0 : [-1/0,1/0]
RESULT: v0x5131a40_0 : [-1/0,1/0]
RESULT: v0x40fb3a0_0 : [-1/0,1/0]
RESULT: v0x63cc0b0_0 : [-1/0,1/0]
RESULT: v0x40fb4a0_0 : [-1/0,1/0]
RESULT: v0x40fb5a0_0 : [-1/0,1/0]
RESULT: v0x40fb6a0_0 : [-1/0,1/0]
RESULT: v0x40fb7a0_0 : [-1/0,1/0]
RESULT: v0x522e540_0 : [-1/0,1/0]
RESULT: v0xa07d680_0 : [-1/0,1/0]
RESULT: v0x9a00990_0 : [0,0]
RESULT: v0x8f02920_0 : [-1/0,10]
RESULT: v0x99b95a0_0 : [-1/0,1/0]
RESULT: v0x40fbaa0_0 : [-1/0,1/0]
