RESULT: v0x6c13300_0 : [0,1]
RESULT: v0x5869e10_0 : [0,1]
RESULT: v0x586dcb0_0 : [0,1]
RESULT: v0x5f71350_0 : [0,1]
RESULT: v0x6f7c8b0_0 : [0,1]
RESULT: v0x4f977d0_0 : [0,1]
RESULT: v0x71a6750_0 : [0,1]
RESULT: v0x5881270_0 : [0,1]
RESULT: v0x4f77170_0 : [0,1]
RESULT: v0x6f7b760_0 : [0,1]
RESULT: v0x5b17d40_0 : [0,1]
RESULT: v0x4f81dc0_0 : [1,1]
RESULT: v0x4f5a720_0 : [-1/0,1/0]
RESULT: v0x5f863b0_0 : [-1/0,1/0]
RESULT: v0x5f6bcc0_0 : [0,2]
RESULT: v0x58d9d50_0 : [0,2]
RESULT: v0x4cf8a00_0 : [0,2]
RESULT: v0x4f66a50_0 : [0,2]
RESULT: v0x51794b0_0 : [0,2]
RESULT: v0x5f63ef0_0 : [0,2]
RESULT: v0x5887f60_0 : [0,2]
RESULT: v0x6f7b650_0 : [0,2]
RESULT: v0x6c0aa80_0 : [0,2]
RESULT: v0x5f46270_0 : [0,2]
RESULT: v0x5aab650_0 : [0,2]
RESULT: v0x70e9d50_0 : [2,2]
