RESULT: v0x4fea4d0_0 : [-1/0,1/0]
RESULT: v0x8028b50_0 : [-1/0,1/0]
RESULT: v0xbd667f0_0 : [-1/0,1/0]
RESULT: v0x51ceec0_0 : [-1/0,1/0]
RESULT: v0x7db28e0_0 : [-1/0,1/0]
RESULT: v0x8037f00_0 : [-1/0,1/0]
RESULT: v0xa75b680_0 : [0,0]
RESULT: v0x4e8eda0_0 : [67,1/0]
RESULT: v0xa75b280_0 : [27,1/0]
RESULT: v0x4e8eea0_0 : [0,1]
RESULT: v0x4e8efa0_0 : [0,1]
RESULT: v0x4e8f0a0_0 : [-1/0,1/0]
RESULT: v0x4e8f1a0_0 : [-1/0,1/0]
RESULT: v0x4e8f2a0_0 : [-1/0,1/0]
RESULT: v0x4e8f3a0_0 : [-1/0,1/0]
RESULT: v0x4e8f4a0_0 : [-1/0,1/0]
RESULT: v0x5fc4590_0 : [-1/0,1/0]
RESULT: v0x4e8f5a0_0 : [-1/0,1/0]
RESULT: v0x805d450_0 : [-1/0,1/0]
RESULT: v0x4e8f6a0_0 : [-1/0,1/0]
RESULT: v0x5fc4970_0 : [-1/0,1/0]
RESULT: v0x4e8f7a0_0 : [-1/0,1/0]
RESULT: v0x4e8f8a0_0 : [-1/0,1/0]
RESULT: v0x4e8f9a0_0 : [-1/0,1/0]
RESULT: v0x4e8faa0_0 : [-1/0,1/0]
RESULT: v0x79d2ac0_0 : [-1/0,1/0]
RESULT: v0x82c12e0_0 : [-1/0,1/0]
RESULT: v0x4fb0490_0 : [0,0]
RESULT: v0x64b0840_0 : [-1/0,10]
RESULT: v0x523eee0_0 : [-1/0,1/0]
RESULT: v0x4e8fda0_0 : [-1/0,1/0]
