RESULT: v0x53fcf50_1 : [3,3]
RESULT: v0x53fd0b0_1 : [0,1]
RESULT: v0x53fd230_1 : [0,1]
RESULT: v0x53fd470_1 : [0,1]
RESULT: v0x5394840_1 : [0,1]
RESULT: v0x53946c0_1 : [0,1]
RESULT: v0x5394540_1 : [0,1]
RESULT: v0x5394300_1 : [0,1]
RESULT: v0x5265040_1 : [0,1]
RESULT: v0x5265100_1 : [0,1]
RESULT: v0x5124890_1 : [0,1]
RESULT: v0x5265340_1 : [0,2]
RESULT: v0x5265400_1 : [0,3]
RESULT: v0x5258960_1 : [123,777]
RESULT: v0x5252960_1 : [0,666]
RESULT: v0x52582f0_1 : [0,2]
RESULT: v0x524e780_1 : [0,1]
RESULT: v0x52515a0_1 : [0,2]
RESULT: v0x5248bc0_1 : [0,456]
RESULT: v0x5249050_1 : [0,123]
RESULT: v0x5256330_1 : [0,456]
RESULT: v0x525a3e0_1 : [0,3]
RESULT: v0x52562a0_1 : [0,1]
RESULT: v0x52692e0_1 : [0,1]
