RESULT: v0x79fc3c0_0 : [-1/0,1/0]
RESULT: v0xae4bb40_0 : [-1/0,1/0]
RESULT: v0x4bb5c80_0 : [-1/0,1/0]
RESULT: v0x79fab20_0 : [-1/0,1/0]
RESULT: v0x6d637e0_0 : [27,1/0]
RESULT: v0x79fabc0_0 : [-1/0,1/0]
RESULT: v0x79f9680_0 : [-1/0,1/0]
RESULT: v0x5507a20_0 : [-1/0,1/0]
RESULT: v0x94652a0_0 : [1,1]
RESULT: v0x6821430_0 : [-1/0,1/0]
RESULT: v0xde22090_0 : [-1/0,1/0]
RESULT: v0x478d2d0_0 : [67,1/0]
RESULT: v0x478d3d0_0 : [0,1]
RESULT: v0x478d4d0_0 : [-1/0,1/0]
RESULT: v0x478d5d0_0 : [-1/0,1/0]
RESULT: v0x478d6d0_0 : [-1/0,1/0]
RESULT: v0x478d7d0_0 : [-1/0,1/0]
RESULT: v0x478d8d0_0 : [0,1]
RESULT: v0x478d9d0_0 : [-1/0,1/0]
RESULT: v0x478dad0_0 : [-1/0,1/0]
RESULT: v0x478dbd0_0 : [-1/0,1/0]
RESULT: v0x478dcd0_0 : [-1/0,1/0]
RESULT: v0x478ddd0_0 : [-1/0,1/0]
RESULT: v0x478ded0_0 : [-1/0,1/0]
RESULT: v0x478dfd0_0 : [-1/0,1/0]
RESULT: v0x5f78890_0 : [-1/0,1/0]
RESULT: v0x68213f0_0 : [-1/0,1/0]
RESULT: v0xf39fd30_0 : [-1/0,1/0]
RESULT: v0xae4d0d0_0 : [-1/0,10]
RESULT: v0x7271c30_0 : [-1/0,1/0]
RESULT: v0x478f2d0_0 : [-1/0,1/0]
