RESULT: v0x44e4510_0 : [-1/0,1/0]
RESULT: v0x44e4310_0 : [-1/0,1/0]
RESULT: v0x44e4210_0 : [-1/0,1/0]
RESULT: v0x44e4410_0 : [-1/0,1/0]
RESULT: v0x44e4110_0 : [-1/0,1/0]
RESULT: v0x4733060_1 : [2,2]
RESULT: v0x47313e0_1 : [-40,300]
RESULT: v0x4731a20_1 : [0,1]
RESULT: v0x4731620_1 : [0,1]
RESULT: v0x47305e0_1 : [0,1]
RESULT: v0x4730360_1 : [0,1]
RESULT: v0x474aee0_1 : [0,1]
RESULT: v0x474ac80_1 : [0,1]
RESULT: v0x4749880_1 : [0,1]
RESULT: v0x4767b20_1 : [0,1]
RESULT: v0x4767220_1 : [-1/0,1/0]
RESULT: v0x476d9e0_1 : [0,1]
RESULT: v0x476e160_1 : [0,1]
RESULT: v0x476cd60_1 : [0,1]
RESULT: v0x476b220_1 : [0,1]
RESULT: v0x477d2a0_1 : [0,1]
