RESULT: v0x3e4a030_0 : [0,0]
RESULT: v0x43678e0_0 : [0,1/0]
RESULT: v0x466e900_0 : [0,53]
RESULT: v0x42deb70_0 : [0,6]
RESULT: v0x46aa980_0 : [0,3]
RESULT: v0x4698e70_0 : [0,3]
RESULT: v0x46785c0_0 : [-1/0,1/0]
RESULT: v0x4691310_0 : [-1/0,1/0]
RESULT: v0x468aaf0_0 : [0,3]
RESULT: v0x4569e40_0 : [0,1]
RESULT: v0x3e49030_0 : [0,0]
RESULT: v0x3e49130_0 : [0,0]
RESULT: v0x3e49230_0 : [0,0]
RESULT: v0x3e493d0_0 : [0,0]
RESULT: v0x3e4a330_0 : [0,0]
RESULT: v0x3e499d0_0 : [0,0]
RESULT: v0x4354b30_0 : [1,2]
RESULT: v0x435a600_0 : [0,1]
RESULT: v0x466d2e0_0 : [0,1]
RESULT: v0x469cbe0_0 : [0,0]
RESULT: v0x4693e50_0 : [0,0]
RESULT: v0x40c56e0_0 : [1,1]
RESULT: v0x3e52a00_0 : [0,6]
RESULT: v0x3e52b00_0 : [0,1]
RESULT: v0x3e52c00_0 : [1,2]
RESULT: v0x3e52d00_0 : [0,1]
RESULT: v0x3e52e00_0 : [0,1/0]
RESULT: v0x3e52f00_0 : [0,53]
RESULT: v0x3e53000_0 : [0,3]
RESULT: v0x3e53100_0 : [0,0]
RESULT: v0x3e53200_0 : [0,1]
RESULT: v0x3e53300_0 : [0,3]
RESULT: v0x3e53400_0 : [-1/0,1/0]
RESULT: v0x3e53500_0 : [0,0]
RESULT: v0x3e53600_0 : [1,1]
RESULT: v0x3e53700_0 : [0,3]
RESULT: v0x3e53800_0 : [-1/0,1/0]
RESULT: v0x3e53a00_0 : [-1/0,1/0]
RESULT: v0x4e0ac50_0 : [-1/0,1/0]
RESULT: v0x4e0adb0_0 : [0,50]
RESULT: v0x4dccff0_0 : [0,51]
RESULT: v0x4dcd1f0_0 : [0,52]
RESULT: v0x4dcd3f0_0 : [0,53]
RESULT: v0x4dcd5f0_0 : [0,2]
RESULT: v0x4e0bbb0_0 : [1,1]
RESULT: v0x4e0bdb0_0 : [1,1]
RESULT: v0x4e0bfb0_0 : [0,0]
RESULT: v0x3e53900_0 : [-1/0,1/0]
