RESULT: v0x4cd0be0_0 : [0,1]
RESULT: v0x4cf8f40_1 : [0,1]
RESULT: v0x4cf9540_1 : [0,1]
RESULT: v0x5a542e0_1 : [0,1]
RESULT: v0x5881310_1 : [0,1]
RESULT: v0x4f6f1b0_1 : [0,1]
RESULT: v0x70be750_1 : [0,1]
RESULT: v0x582f1c0_1 : [0,1]
RESULT: v0x6c0d300_1 : [0,1]
RESULT: v0x5f75e70_1 : [0,1]
RESULT: v0x71a5d30_1 : [0,1]
RESULT: v0x63e5b00_1 : [0,1]
RESULT: v0x4cf9300_1 : [-1/0,1/0]
RESULT: v0x52000f0_1 : [-1/0,1/0]
RESULT: v0x4f71e90_1 : [0,2]
RESULT: v0x5fd10b0_1 : [0,2]
RESULT: v0x5f4e340_1 : [0,2]
RESULT: v0x6c103d0_1 : [0,2]
RESULT: v0x5f5b240_1 : [0,2]
RESULT: v0x4f912a0_1 : [0,2]
RESULT: v0x63400d0_1 : [0,2]
RESULT: v0x51ae150_1 : [0,2]
RESULT: v0x5181d30_1 : [0,2]
RESULT: v0x565ea70_1 : [0,2]
RESULT: v0x4f5f910_1 : [0,2]
RESULT: v0x516cb00_1 : [0,2]
