RESULT: v0x16513c10_0 : [-1/0,1/0]
RESULT: v0x128bf0d0_0 : [-1/0,1/0]
RESULT: v0x138279a0_0 : [-1/0,1/0]
RESULT: v0xaeb1ff0_0 : [-1/0,1/0]
RESULT: v0x9536790_0 : [27,1/0]
RESULT: v0x60b6df0_0 : [-1/0,1/0]
RESULT: v0x471d7a0_0 : [-1/0,1/0]
RESULT: v0x128bf090_0 : [1,1]
RESULT: v0xdeb6fc0_0 : [-1/0,1/0]
RESULT: v0x165139f0_0 : [-1/0,1/0]
RESULT: v0x464efe0_0 : [-1/0,1/0]
RESULT: v0x3f94330_0 : [67,1/0]
RESULT: v0x3f94430_0 : [0,1]
RESULT: v0x3f94530_0 : [-1/0,1/0]
RESULT: v0x3f94630_0 : [-1/0,1/0]
RESULT: v0x3f94730_0 : [-1/0,1/0]
RESULT: v0x3f94830_0 : [-1/0,1/0]
RESULT: v0x3f94930_0 : [0,1]
RESULT: v0x3f94a30_0 : [-1/0,1/0]
RESULT: v0x3f94b30_0 : [-1/0,1/0]
RESULT: v0x3f94c30_0 : [-1/0,1/0]
RESULT: v0x3f94d30_0 : [-1/0,1/0]
RESULT: v0x3f94e30_0 : [-1/0,1/0]
RESULT: v0x3f94f30_0 : [-1/0,1/0]
RESULT: v0x3f95030_0 : [-1/0,1/0]
RESULT: v0x8992cd0_0 : [-1/0,1/0]
RESULT: v0x38450f0_0 : [-1/0,1/0]
RESULT: v0x701f140_0 : [-1/0,1/0]
RESULT: v0x7c6eaf0_0 : [-1/0,10]
RESULT: v0xf497ef0_0 : [-1/0,1/0]
RESULT: v0x3f96330_0 : [-1/0,1/0]
