RESULT: v0x49c2730_0 : [0,1]
RESULT: v0x5576470_1 : [0,1]
RESULT: v0x51c0510_1 : [0,1]
RESULT: v0x5e3f4d0_1 : [0,1]
RESULT: v0x4ae6260_1 : [0,1]
RESULT: v0x5e43c30_1 : [0,1]
RESULT: v0x62f5ca0_1 : [0,1]
RESULT: v0x5577240_1 : [0,1]
RESULT: v0x580a690_1 : [0,1]
RESULT: v0x67128d0_1 : [0,1]
RESULT: v0x6715810_1 : [0,1]
RESULT: v0x5e501d0_1 : [0,1]
RESULT: v0x672b8d0_1 : [-1/0,1/0]
RESULT: v0x5e4fbd0_1 : [-1/0,1/0]
RESULT: v0x4c81fa0_1 : [0,2]
RESULT: v0x5548bc0_1 : [0,2]
RESULT: v0x5e4a310_1 : [0,2]
RESULT: v0x553f630_1 : [0,2]
RESULT: v0x5546580_1 : [0,2]
RESULT: v0x67146a0_1 : [0,2]
RESULT: v0x5544780_1 : [0,2]
RESULT: v0x4c46e90_1 : [0,2]
RESULT: v0x5544900_1 : [0,2]
RESULT: v0x49e13b0_1 : [0,2]
RESULT: v0x5e4a410_1 : [0,2]
RESULT: v0x4b184f0_1 : [0,2]
