RESULT: v0x431d2c0_0 : [0,2]
RESULT: v0x431c700_0 : [1,2]
RESULT: v0x431d4c0_0 : [0,2]
RESULT: v0x431d5c0_0 : [0,52]
RESULT: v0x431d6c0_0 : [0,2]
RESULT: v0x431d0c0_0 : [0,6]
RESULT: v0x431dac0_0 : [-1/0,1/0]
RESULT: v0x431d9c0_0 : [0,2]
RESULT: v0x431ddc0_0 : [0,2]
RESULT: v0x431d3c0_0 : [0,1]
RESULT: v0x431dec0_0 : [-1/0,1/0]
RESULT: v0x431d8c0_0 : [0,1]
RESULT: v0x431d1c0_0 : [0,1]
RESULT: v0x431d7c0_0 : [1,1]
RESULT: v0x431dcc0_0 : [0,1]
RESULT: v0x431dbc0_0 : [2,2]
RESULT: v0x431ba00_0 : [0,52]
RESULT: v0x431b900_0 : [0,51]
RESULT: v0x431b800_0 : [0,50]
RESULT: v0x431ca00_0 : [-1/0,1/0]
RESULT: v0x59ca430_0 : [-1/0,1/0]
RESULT: v0x4f99aa0_0 : [0,0]
RESULT: v0x599e290_0 : [0,0]
RESULT: v0x57bf120_0 : [-1/0,1/0]
RESULT: v0x57cbc40_0 : [0,0]
RESULT: v0x5ad79b0_0 : [-1/0,1/0]
RESULT: v0x5ad7ab0_0 : [-1/0,1/0]
RESULT: v0x5ad7bb0_0 : [-1/0,1/0]
RESULT: v0x5ad7cb0_0 : [-1/0,1/0]
RESULT: v0x5ad7db0_0 : [1,1]
