RESULT: v0x101141a0_0 : [0,0]
RESULT: v0xe1a4930_0 : [1,1]
RESULT: v0x43bbcb0_0 : [0,50]
RESULT: v0x43bc9b0_0 : [1,2]
RESULT: v0x43bccb0_0 : [-1/0,1/0]
RESULT: v0xc3ace30_0 : [0,1]
RESULT: v0xc490620_0 : [1,2]
RESULT: v0xdac8010_0 : [0,1]
RESULT: v0xc857b30_0 : [0,1]
RESULT: v0xd541fa0_0 : [0,6]
RESULT: v0xdac9f50_0 : [-1/0,1/0]
RESULT: v0xd502930_0 : [0,50]
RESULT: v0xc9a3d20_0 : [0,1]
RESULT: v0xcd72e30_0 : [0,0]
RESULT: v0x1011fe30_0 : [0,0]
RESULT: v0xdaccac0_0 : [0,0]
RESULT: v0xca2e150_0 : [0,0]
RESULT: v0xce26510_0 : [-1/0,1/0]
RESULT: v0x43c5380_0 : [0,6]
RESULT: v0x43c5480_0 : [0,1]
RESULT: v0x43c5580_0 : [1,2]
RESULT: v0x43c5680_0 : [0,1]
RESULT: v0x43c5780_0 : [0,0]
RESULT: v0x43c5880_0 : [0,50]
RESULT: v0x43c5980_0 : [0,0]
RESULT: v0x43c5a80_0 : [0,1]
RESULT: v0x43c5b80_0 : [0,1]
RESULT: v0x43c5c80_0 : [0,0]
RESULT: v0x43c5d80_0 : [-1/0,1/0]
RESULT: v0x43c5e80_0 : [0,0]
RESULT: v0x43c5f80_0 : [1,1]
RESULT: v0x43c6080_0 : [0,0]
RESULT: v0x43c6180_0 : [-1/0,1/0]
RESULT: v0x43bcfb0_0 : [-1/0,1/0]
RESULT: v0x43c6380_0 : [-1/0,1/0]
RESULT: v0xcef4380_0 : [-1/0,1/0]
RESULT: v0xdfb5580_0 : [0,50]
RESULT: v0x100e8920_0 : [0,2]
RESULT: v0xcbbb7b0_0 : [0,1]
RESULT: v0xc56a250_0 : [1,1]
RESULT: v0xdaccfc0_0 : [-1/0,1/0]
RESULT: v0x43c6280_0 : [-1/0,1/0]
