RESULT: v0x43c5800_0 : [-1/0,1/0]
RESULT: v0x43c5740_0 : [-1/0,1/0]
RESULT: v0x4355ea0_0 : [-1/0,1/0]
RESULT: v0x43c53a0_0 : [-1/0,1/0]
RESULT: v0x43c5440_0 : [-1/0,1/0]
RESULT: v0x43c5aa0_0 : [-1/0,1/0]
RESULT: v0x43c5b20_0 : [-1/0,1/0]
RESULT: v0x4386550_0 : [-1/0,1/0]
RESULT: v0x43c5bc0_0 : [-1/0,1/0]
RESULT: v0x43c5c80_0 : [-1/0,1/0]
RESULT: v0x43c5d40_0 : [-1/0,1/0]
RESULT: v0x43c5e00_0 : [-1/0,1/0]
RESULT: v0x43c5ec0_0 : [-1/0,1/0]
RESULT: v0x43c5f80_0 : [-1/0,1/0]
RESULT: v0x43c6040_0 : [-1/0,1/0]
RESULT: v0x43c6100_0 : [-1/0,1/0]
RESULT: v0x43c61c0_0 : [-1/0,1/0]
RESULT: v0x43c6280_0 : [-1/0,1/0]
RESULT: v0x43c6340_0 : [-1/0,1/0]
RESULT: v0x43c58c0_0 : [-1/0,1/0]
RESULT: v0x43c5680_0 : [-1/0,1/0]
RESULT: v0x43c55c0_0 : [-1/0,1/0]
RESULT: v0x43c5ae0_0 : [-1/0,1/0]
RESULT: v0x43c5500_0 : [-1/0,1/0]
