RESULT: v0x3430a60_1 : [-1/0,1/0]
RESULT: v0x34313d0_1 : [-1/0,1/0]
RESULT: v0x3431650_1 : [-1/0,1/0]
RESULT: v0x34318d0_1 : [-1/0,1/0]
RESULT: v0x3431bf0_1 : [-1/0,1/0]
RESULT: v0x3431e70_1 : [-1/0,1/0]
RESULT: v0x330a5d0_1 : [-1/0,1/0]
RESULT: v0x3432250_1 : [-1/0,1/0]
RESULT: v0x3432390_1 : [-1/0,1/0]
RESULT: v0x3432590_1 : [-1/0,1/0]
RESULT: v0x3432790_1 : [-1/0,1/0]
RESULT: v0x3432990_1 : [-1/0,1/0]
RESULT: v0x3432b90_1 : [-1/0,1/0]
RESULT: v0x3432130_1 : [-1/0,1/0]
RESULT: v0x3433050_1 : [-1/0,1/0]
RESULT: v0x3433250_1 : [-1/0,1/0]
RESULT: v0x3433450_1 : [-1/0,1/0]
RESULT: v0x3433650_1 : [-1/0,1/0]
RESULT: v0x3433850_1 : [-1/0,1/0]
RESULT: v0x3433a50_1 : [-1/0,1/0]
RESULT: v0x3433c50_1 : [-1/0,1/0]
RESULT: v0x3433e50_1 : [-1/0,1/0]
RESULT: v0x3434050_1 : [-1/0,1/0]
RESULT: v0x3434250_1 : [-1/0,1/0]
RESULT: v0x3434450_1 : [-1/0,1/0]
RESULT: v0x3432d90_1 : [-1/0,1/0]
RESULT: v0x3434920_1 : [-1/0,1/0]
RESULT: v0x3434b20_1 : [-1/0,1/0]
RESULT: v0x3434d20_1 : [-1/0,1/0]
