RESULT: v0x4346260_0 : [-1/0,1/0]
RESULT: v0x43461e0_0 : [-1/0,1/0]
RESULT: v0x4346000_0 : [-1/0,1/0]
RESULT: v0x4346300_0 : [-1/0,1/0]
RESULT: v0x4345b80_0 : [-1/0,1/0]
RESULT: v0x4345dc0_0 : [-1/0,1/0]
RESULT: v0x4345d00_0 : [-1/0,1/0]
RESULT: v0x4345c40_0 : [-1/0,1/0]
RESULT: v0x4314680_0 : [-1/0,1/0]
RESULT: v0x42d9a20_0 : [-1/0,1/0]
RESULT: v0x4345ae0_0 : [-1/0,1/0]
RESULT: v0x4346480_0 : [-1/0,1/0]
RESULT: v0x4346540_0 : [-1/0,1/0]
RESULT: v0x4346600_0 : [-1/0,1/0]
RESULT: v0x43466c0_0 : [-1/0,1/0]
RESULT: v0x4346780_0 : [-1/0,1/0]
RESULT: v0x4346840_0 : [-1/0,1/0]
RESULT: v0x4346900_0 : [-1/0,1/0]
RESULT: v0x43469c0_0 : [-1/0,1/0]
RESULT: v0x4346a80_0 : [-1/0,1/0]
RESULT: v0x43463c0_0 : [-1/0,1/0]
RESULT: v0x4346220_0 : [-1/0,1/0]
RESULT: v0x4345f40_0 : [-1/0,1/0]
RESULT: v0x4345e80_0 : [-1/0,1/0]
