RESULT: v0x32d6eb0_0 : [0,1/0]
RESULT: v0x4f714a0_1 : [0,1]
RESULT: v0x5206200_1 : [0,1]
RESULT: v0x5205680_1 : [0,1]
RESULT: v0x4f76960_1 : [0,1]
RESULT: v0x5202b80_1 : [0,1]
RESULT: v0x35b1910_1 : [0,1]
RESULT: v0x4f75e60_1 : [0,1]
RESULT: v0x520cbc0_1 : [0,1]
RESULT: v0x4f6d380_1 : [0,1]
RESULT: v0x51fc0e0_1 : [0,1/0]
RESULT: v0x449a410_1 : [0,1/0]
RESULT: v0x4f6b340_1 : [-1/0,2]
RESULT: v0x4f7e960_1 : [-1/0,2]
RESULT: v0x4f73e40_1 : [-1/0,2]
RESULT: v0x4f7bea0_1 : [-1/0,2]
RESULT: v0x4fbc170_1 : [-1/0,2]
RESULT: v0x44959b0_1 : [-1/0,2]
RESULT: v0x52082c0_1 : [-1/0,2]
RESULT: v0x5206d60_1 : [0,2]
RESULT: v0x520e320_1 : [0,2]
RESULT: v0x4f76060_1 : [0,2]
RESULT: v0x51fada0_1 : [0,2]
RESULT: v0x49b65b0_1 : [0,2]
