RESULT: v0x5055170_0 : [-1/0,1/0]
RESULT: v0x50553f0_0 : [-1/0,1/0]
RESULT: v0x5054770_0 : [-1/0,1/0]
RESULT: v0x50544f0_0 : [-1/0,1/0]
RESULT: v0x5055670_0 : [-1/0,1/0]
RESULT: v0x50558f0_0 : [-1/0,1/0]
RESULT: v0x5053d70_0 : [0,0]
RESULT: v0x4e8eda0_0 : [67,1/0]
RESULT: v0x5053870_0 : [27,1/0]
RESULT: v0x4e8eea0_0 : [0,1]
RESULT: v0x4e8efa0_0 : [0,1]
RESULT: v0x4e8f0a0_0 : [-1/0,1/0]
RESULT: v0x4e8f1a0_0 : [-1/0,1/0]
RESULT: v0x4e8f2a0_0 : [-1/0,1/0]
RESULT: v0x4e8f3a0_0 : [-1/0,1/0]
RESULT: v0x4e8f4a0_0 : [-1/0,1/0]
RESULT: v0x50549f0_0 : [-1/0,1/0]
RESULT: v0x4e8f5a0_0 : [-1/0,1/0]
RESULT: v0x5054c70_0 : [-1/0,1/0]
RESULT: v0x4e8f6a0_0 : [-1/0,1/0]
RESULT: v0x5054ef0_0 : [-1/0,1/0]
RESULT: v0x4e8f7a0_0 : [-1/0,1/0]
RESULT: v0x4e8f8a0_0 : [-1/0,1/0]
RESULT: v0x4e8f9a0_0 : [-1/0,1/0]
RESULT: v0x4e8faa0_0 : [-1/0,1/0]
RESULT: v0x5053ff0_0 : [-1/0,1/0]
RESULT: v0x5054270_0 : [-1/0,1/0]
RESULT: v0x513aed0_0 : [0,0]
RESULT: v0x50534b0_0 : [-1/0,10]
RESULT: v0x5053af0_0 : [-1/0,1/0]
RESULT: v0x4e8fda0_0 : [-1/0,1/0]
