RESULT: v0x51f54b0_0 : [2,1/0]
RESULT: v0x52db220_0 : [0,1]
RESULT: v0x52f3c80_0 : [0,1]
RESULT: v0x530ca80_0 : [123,777]
RESULT: v0x527f0c0_0 : [0,1]
RESULT: v0x52d7c40_0 : [1,1]
RESULT: v0x50d8f20_0 : [2,2]
RESULT: v0x5281080_0 : [3,3]
RESULT: v0x52d9560_0 : [1,1]
RESULT: v0x51f0020_0 : [0,1]
RESULT: v0x530ea80_0 : [0,666]
RESULT: v0x5275200_0 : [0,1]
RESULT: v0x52d10e0_0 : [0,1]
RESULT: v0x527c7e0_0 : [0,1]
RESULT: v0x52f0940_0 : [0,2]
RESULT: v0x52662e0_0 : [0,456]
RESULT: v0x52a7900_0 : [0,1]
RESULT: v0x5279020_0 : [0,1]
RESULT: v0x52de040_0 : [0,123]
RESULT: v0x4fbddd0_0 : [0,1]
RESULT: v0x5278580_0 : [1,1]
RESULT: v0x511cc90_0 : [2,2]
RESULT: v0x52b9540_0 : [456,456]
RESULT: v0x4f8b470_0 : [789,789]
RESULT: v0x4f8ae70_0 : [0,0]
RESULT: v0x4f8b170_0 : [-1/0,1/0]
RESULT: v0x4f8c070_0 : [-1/0,1/0]
RESULT: v0x4f8c170_0 : [0,0]
RESULT: v0x4f8b070_0 : [1,1]
RESULT: v0x4f8c470_0 : [456,456]
RESULT: v0x4f8c670_0 : [1,1]
RESULT: v0x4f8c770_0 : [456,456]
