RESULT: v0x3cce710_1 : [-1/0,1/0]
RESULT: v0x3ccda50_1 : [-1/0,1/0]
RESULT: v0x3cccf60_1 : [-1/0,1/0]
RESULT: v0x3cccdb0_1 : [-1/0,1/0]
RESULT: v0x3cca870_1 : [-1/0,1/0]
RESULT: v0x3cca7b0_1 : [-1/0,1/0]
RESULT: v0x3cccb70_1 : [-1/0,1/0]
RESULT: v0x3ccc9f0_1 : [-1/0,1/0]
RESULT: v0x3ccb750_1 : [-1/0,1/0]
RESULT: v0x3ccc930_1 : [-1/0,1/0]
RESULT: v0x3ccc7b0_1 : [-1/0,1/0]
RESULT: v0x3cca030_1 : [-1/0,1/0]
RESULT: v0x3cc9f70_1 : [-1/0,1/0]
RESULT: v0x3ccc570_1 : [-1/0,1/0]
RESULT: v0x3ccc3f0_1 : [-1/0,1/0]
RESULT: v0x3ccaf10_1 : [-1/0,1/0]
RESULT: v0x3ccc330_1 : [-1/0,1/0]
RESULT: v0x3ccbe10_1 : [-1/0,1/0]
RESULT: v0x3ccbc90_1 : [-1/0,1/0]
RESULT: v0x3ccbb10_1 : [-1/0,1/0]
RESULT: v0x3ccb990_1 : [-1/0,1/0]
RESULT: v0x3ccb5d0_1 : [-1/0,1/0]
RESULT: v0x3ccb450_1 : [-1/0,1/0]
RESULT: v0x3ccb2d0_1 : [-1/0,1/0]
RESULT: v0x3ccb150_1 : [-1/0,1/0]
RESULT: v0x3ccaab0_1 : [-1/0,1/0]
RESULT: v0x3cca930_1 : [-1/0,1/0]
RESULT: v0x3cca570_1 : [-1/0,1/0]
RESULT: v0x3cc8ed0_1 : [-1/0,1/0]
