RESULT: v0x3345d90_0 : [-1/0,1/0]
RESULT: v0x33b6450_0 : [-1/0,1/0]
RESULT: v0x33b64f0_0 : [-1/0,1/0]
RESULT: v0x33b6b50_0 : [-1/0,1/0]
RESULT: v0x33b6bd0_0 : [-1/0,1/0]
RESULT: v0x33b68b0_0 : [-1/0,1/0]
RESULT: v0x33b67f0_0 : [-1/0,1/0]
RESULT: v0x33a89f0_0 : [-1/0,1/0]
RESULT: v0x33b6c70_0 : [-1/0,1/0]
RESULT: v0x33b6d30_0 : [-1/0,1/0]
RESULT: v0x33b6df0_0 : [-1/0,1/0]
RESULT: v0x33b6eb0_0 : [-1/0,1/0]
RESULT: v0x33b6f70_0 : [-1/0,1/0]
RESULT: v0x33b7030_0 : [-1/0,1/0]
RESULT: v0x33b70f0_0 : [-1/0,1/0]
RESULT: v0x33b71b0_0 : [-1/0,1/0]
RESULT: v0x33b7270_0 : [-1/0,1/0]
RESULT: v0x33b7330_0 : [-1/0,1/0]
RESULT: v0x33b73f0_0 : [-1/0,1/0]
RESULT: v0x33b6970_0 : [-1/0,1/0]
RESULT: v0x33b6670_0 : [-1/0,1/0]
RESULT: v0x33b6730_0 : [-1/0,1/0]
RESULT: v0x33b6b90_0 : [-1/0,1/0]
RESULT: v0x33b65b0_0 : [-1/0,1/0]
