RESULT: v0x3ffa8e0_1 : [-1/0,11]
RESULT: v0x3ffb250_1 : [-1/0,1/0]
RESULT: v0x3ffb4d0_1 : [0,1]
RESULT: v0x3ffb750_1 : [-1/0,1/0]
RESULT: v0x3ffb9d0_1 : [-1/0,1/0]
RESULT: v0x3ffbc50_1 : [-1/0,1/0]
RESULT: v0x3ffbed0_1 : [-1/0,1/0]
RESULT: v0x3ff39c0_1 : [-1/0,1/0]
RESULT: v0x3e12c80_1 : [-1/0,1/0]
RESULT: v0x3ffc150_1 : [-1/0,1/0]
RESULT: v0x3ffc3d0_1 : [-1/0,1/0]
RESULT: v0x3ffc650_1 : [-1/0,1/0]
RESULT: v0x3ffc8d0_1 : [-1/0,1/0]
RESULT: v0x3ffcc10_1 : [-1/0,1/0]
RESULT: v0x3ffce90_1 : [-1/0,1/0]
RESULT: v0x3ffd110_1 : [-1/0,1/0]
