RESULT: v0x39e42a0_0 : [1,1/0]
RESULT: v0x383e3b0_0 : [0,1]
RESULT: v0x39aaa60_0 : [0,1]
RESULT: v0x39aa640_0 : [0,1]
RESULT: v0x39eb540_0 : [0,1]
RESULT: v0x381fc60_0 : [123,777]
RESULT: v0x39e3300_0 : [0,1]
RESULT: v0x39b77e0_0 : [0,456]
RESULT: v0x39f58c0_0 : [0,1]
RESULT: v0x39a3e00_0 : [0,2]
RESULT: v0x39f2900_0 : [0,1]
RESULT: v0x3831870_0 : [0,666]
RESULT: v0x3a5fb60_0 : [0,1]
RESULT: v0x3a17560_0 : [0,456]
RESULT: v0x39b7760_0 : [0,2]
RESULT: v0x3a049a0_0 : [0,1]
RESULT: v0x38dc330_0 : [0,123]
RESULT: v0x36fe7e0_0 : [0,1]
RESULT: v0x383deb0_0 : [0,1]
RESULT: v0x39c5200_0 : [0,1]
RESULT: v0x3838860_0 : [0,3]
RESULT: v0x36e6bb0_0 : [-1/0,1/0]
RESULT: v0x36e68b0_0 : [0,456]
RESULT: v0x36e6ab0_0 : [0,1]
