RESULT: v0x423aee0_1 : [-1/0,11]
RESULT: v0x423a170_1 : [-1/0,1/0]
RESULT: v0x423a3f0_1 : [0,1]
RESULT: v0x423a0d0_1 : [-1/0,1/0]
RESULT: v0x4238910_1 : [-1/0,1/0]
RESULT: v0x4239fc0_1 : [-1/0,1/0]
RESULT: v0x4167540_1 : [-1/0,1/0]
RESULT: v0x4238550_1 : [-1/0,1/0]
RESULT: v0x4238790_1 : [-1/0,1/0]
RESULT: v0x4239230_1 : [-1/0,1/0]
RESULT: v0x4238850_1 : [-1/0,1/0]
RESULT: v0x42383d0_1 : [-1/0,1/0]
RESULT: v0x4238230_1 : [-1/0,1/0]
RESULT: v0x423b040_1 : [-1/0,1/0]
RESULT: v0x4167600_1 : [-1/0,1/0]
RESULT: v0x4238f30_1 : [-1/0,1/0]
