RESULT: v0x3df7e00_1 : [4,4]
RESULT: v0x3e420c0_1 : [0,1]
RESULT: v0x3e3f600_1 : [0,1]
RESULT: v0x3db8390_1 : [0,1]
RESULT: v0x3e77fe0_1 : [0,1]
RESULT: v0x3dfe620_1 : [0,1]
RESULT: v0x3dfa600_1 : [0,1]
RESULT: v0x3ea6fe0_1 : [0,1]
RESULT: v0x3dfa800_1 : [0,1]
RESULT: v0x3e877e0_1 : [0,1]
RESULT: v0x3e84d40_1 : [0,1]
RESULT: v0x3e4a000_1 : [0,1]
RESULT: v0x3bc84d0_1 : [0,1]
RESULT: v0x3bfa310_1 : [0,2]
RESULT: v0x3c599e0_1 : [0,3]
RESULT: v0x3c4d3a0_1 : [0,1]
RESULT: v0x3c6d5e0_1 : [123,777]
RESULT: v0x3c63520_1 : [0,666]
RESULT: v0x3ad5d70_1 : [0,2]
RESULT: v0x3c57ec0_1 : [0,1]
RESULT: v0x3bf52e0_1 : [0,2]
RESULT: v0x3db4b60_1 : [0,456]
RESULT: v0x3d396e0_1 : [0,123]
RESULT: v0x3bc88b0_1 : [0,456]
