RESULT: v0x38dfde0_1 : [-1/0,1/0]
RESULT: v0x38e0750_1 : [-1/0,1/0]
RESULT: v0x38e09d0_1 : [-1/0,1/0]
RESULT: v0x38e0c50_1 : [-1/0,1/0]
RESULT: v0x38e0f70_1 : [-1/0,1/0]
RESULT: v0x38e1350_1 : [-1/0,1/0]
RESULT: v0x38e1490_1 : [-1/0,1/0]
RESULT: v0x38e11f0_1 : [-1/0,1/0]
RESULT: v0x38e17b0_1 : [-1/0,1/0]
RESULT: v0x38e19b0_1 : [-1/0,1/0]
RESULT: v0x38e1bb0_1 : [-1/0,1/0]
RESULT: v0x38e1db0_1 : [-1/0,1/0]
RESULT: v0x38e1fb0_1 : [-1/0,1/0]
RESULT: v0x38e1550_1 : [-1/0,1/0]
RESULT: v0x38e23b0_1 : [-1/0,1/0]
RESULT: v0x38e25b0_1 : [-1/0,1/0]
RESULT: v0x38e27b0_1 : [-1/0,1/0]
RESULT: v0x38e29b0_1 : [-1/0,1/0]
RESULT: v0x38e2bb0_1 : [-1/0,1/0]
RESULT: v0x38e2db0_1 : [-1/0,1/0]
RESULT: v0x38e2fb0_1 : [-1/0,1/0]
RESULT: v0x38e31b0_1 : [-1/0,1/0]
RESULT: v0x38e33b0_1 : [-1/0,1/0]
RESULT: v0x38e35b0_1 : [-1/0,1/0]
RESULT: v0x38e37b0_1 : [-1/0,1/0]
RESULT: v0x38e20f0_1 : [-1/0,1/0]
RESULT: v0x38e3c80_1 : [-1/0,1/0]
