RESULT: v0x40c7db0_1 : [3,3]
RESULT: v0x40c7f10_1 : [0,1]
RESULT: v0x40c8090_1 : [0,1]
RESULT: v0x40c82d0_1 : [0,1]
RESULT: v0x405f6c0_1 : [0,1]
RESULT: v0x405f540_1 : [0,1]
RESULT: v0x405f3c0_1 : [0,1]
RESULT: v0x405f180_1 : [0,1]
RESULT: v0x3f2ff30_1 : [0,1]
RESULT: v0x3f2fff0_1 : [0,1]
RESULT: v0x3deff20_1 : [0,1]
RESULT: v0x3f30230_1 : [0,2]
RESULT: v0x3f302f0_1 : [0,3]
RESULT: v0x3f23850_1 : [123,777]
RESULT: v0x3f1d990_1 : [0,666]
RESULT: v0x3f231e0_1 : [0,2]
RESULT: v0x3f19730_1 : [0,1]
RESULT: v0x3f1c4d0_1 : [0,2]
RESULT: v0x3ef0d30_1 : [0,456]
RESULT: v0x3ef12a0_1 : [0,123]
RESULT: v0x3f21220_1 : [0,456]
RESULT: v0x3f252d0_1 : [0,3]
RESULT: v0x3f21190_1 : [0,1]
RESULT: v0x3f341a0_1 : [0,1]
