RESULT: v0x639ac90_0 : [-1/0,1/0]
RESULT: v0x63b4510_0 : [-1/0,1/0]
RESULT: v0x61202a0_0 : [-1/0,1/0]
RESULT: v0x40a98b0_0 : [-1/0,1/0]
RESULT: v0x408ca00_0 : [27,1/0]
RESULT: v0x40a5ad0_0 : [-1/0,1/0]
RESULT: v0x40a5b50_0 : [-1/0,1/0]
RESULT: v0x61d5ce0_0 : [1,1]
RESULT: v0x626d240_0 : [-1/0,1/0]
RESULT: v0x47b15c0_0 : [-1/0,1/0]
RESULT: v0x63472f0_0 : [-1/0,1/0]
RESULT: v0x3f94330_0 : [67,1/0]
RESULT: v0x3f94430_0 : [0,1]
RESULT: v0x3f94530_0 : [-1/0,1/0]
RESULT: v0x3f94630_0 : [-1/0,1/0]
RESULT: v0x3f94730_0 : [-1/0,1/0]
RESULT: v0x3f94830_0 : [-1/0,1/0]
RESULT: v0x3f94930_0 : [0,1]
RESULT: v0x3f94a30_0 : [-1/0,1/0]
RESULT: v0x3f94b30_0 : [-1/0,1/0]
RESULT: v0x3f94c30_0 : [-1/0,1/0]
RESULT: v0x3f94d30_0 : [-1/0,1/0]
RESULT: v0x3f94e30_0 : [-1/0,1/0]
RESULT: v0x3f94f30_0 : [-1/0,1/0]
RESULT: v0x3f95030_0 : [-1/0,1/0]
RESULT: v0x62b2a80_0 : [-1/0,1/0]
RESULT: v0x4563780_0 : [-1/0,1/0]
RESULT: v0xabcdcb0_0 : [-1/0,1/0]
RESULT: v0x63b4590_0 : [-1/0,10]
RESULT: v0x424c280_0 : [-1/0,1/0]
RESULT: v0x3f96330_0 : [-1/0,1/0]
