RESULT: v0x4986450_1 : [3,3]
RESULT: v0x485ea30_1 : [0,1]
RESULT: v0x49868d0_1 : [0,1]
RESULT: v0x485ec70_1 : [0,1]
RESULT: v0x48c2eb0_1 : [0,1]
RESULT: v0x48c3010_1 : [0,1]
RESULT: v0x48c2d30_1 : [0,1]
RESULT: v0x48c2c70_1 : [0,1]
RESULT: v0x48c2a30_1 : [0,1]
RESULT: v0x48c2970_1 : [0,1]
RESULT: v0x48c2730_1 : [0,1]
RESULT: v0x48c2670_1 : [0,2]
RESULT: v0x48c2430_1 : [0,3]
RESULT: v0x48c2370_1 : [0,1]
RESULT: v0x48c2130_1 : [123,777]
RESULT: v0x48c2070_1 : [0,666]
RESULT: v0x48c1e30_1 : [0,2]
RESULT: v0x4901a50_1 : [0,1]
RESULT: v0x48c1b00_1 : [0,2]
RESULT: v0x48c1a40_1 : [0,456]
RESULT: v0x48c1800_1 : [0,123]
RESULT: v0x48c1740_1 : [0,456]
RESULT: v0x48c1d40_1 : [0,3]
RESULT: v0x4986c90_1 : [0,1]
RESULT: v0x4901b50_1 : [0,1]
