RESULT: v0x7453670_0 : [-1/0,1/0]
RESULT: v0x75c9b60_0 : [-1/0,1/0]
RESULT: v0x4e6cb90_0 : [0,1]
RESULT: v0x4da3940_0 : [-1/0,1/0]
RESULT: v0x5f08740_0 : [27,1/0]
RESULT: v0x75c9ae0_0 : [-1/0,1/0]
RESULT: v0x4be0f30_0 : [-1/0,1/0]
RESULT: v0x75c6de0_0 : [-1/0,1/0]
RESULT: v0x744b230_0 : [0,0]
RESULT: v0x4b405f0_0 : [-1/0,1/0]
RESULT: v0x74533d0_0 : [-1/0,1/0]
RESULT: v0x478d2d0_0 : [67,1/0]
RESULT: v0x478d3d0_0 : [0,1]
RESULT: v0x478d4d0_0 : [-1/0,1/0]
RESULT: v0x478d5d0_0 : [-1/0,1/0]
RESULT: v0x478d6d0_0 : [-1/0,1/0]
RESULT: v0x478d7d0_0 : [-1/0,1/0]
RESULT: v0x478d8d0_0 : [0,1]
RESULT: v0x478d9d0_0 : [-1/0,1/0]
RESULT: v0x478dad0_0 : [-1/0,1/0]
RESULT: v0x478dbd0_0 : [-1/0,1/0]
RESULT: v0x478dcd0_0 : [0,0]
RESULT: v0x478ddd0_0 : [-1/0,1/0]
RESULT: v0x478ded0_0 : [-1/0,1/0]
RESULT: v0x478dfd0_0 : [-1/0,1/0]
RESULT: v0x75c7080_0 : [-1/0,1/0]
RESULT: v0x5f7b440_0 : [-1/0,1/0]
RESULT: v0x4c90ee0_0 : [0,0]
RESULT: v0x518ecc0_0 : [-1/0,10]
RESULT: v0x5f7b280_0 : [-1/0,1/0]
RESULT: v0x478e2d0_0 : [-1/0,1/0]
