RESULT: v0x469b590_0 : [-1/0,1/0]
RESULT: v0x469b4d0_0 : [-1/0,1/0]
RESULT: v0x462c330_0 : [-1/0,1/0]
RESULT: v0x469b130_0 : [-1/0,1/0]
RESULT: v0x469b1d0_0 : [-1/0,1/0]
RESULT: v0x469b830_0 : [-1/0,1/0]
RESULT: v0x469b8b0_0 : [-1/0,1/0]
RESULT: v0x465c1d0_0 : [-1/0,1/0]
RESULT: v0x469b950_0 : [-1/0,1/0]
RESULT: v0x469ba10_0 : [-1/0,1/0]
RESULT: v0x469bad0_0 : [-1/0,1/0]
RESULT: v0x469bb90_0 : [-1/0,1/0]
RESULT: v0x469bc50_0 : [-1/0,1/0]
RESULT: v0x469bd10_0 : [-1/0,1/0]
RESULT: v0x469bdd0_0 : [-1/0,1/0]
RESULT: v0x469be90_0 : [-1/0,1/0]
RESULT: v0x469bf50_0 : [-1/0,1/0]
RESULT: v0x469c010_0 : [-1/0,1/0]
RESULT: v0x469c0d0_0 : [-1/0,1/0]
RESULT: v0x469b650_0 : [-1/0,1/0]
RESULT: v0x469b410_0 : [-1/0,1/0]
RESULT: v0x469b350_0 : [-1/0,1/0]
RESULT: v0x469b870_0 : [-1/0,1/0]
RESULT: v0x469b290_0 : [-1/0,1/0]
