RESULT: v0x47797e0_0 : [0,0]
RESULT: v0x4a609e0_1 : [0,1]
RESULT: v0x4a4ed20_1 : [0,1]
RESULT: v0x4a74840_1 : [0,1]
RESULT: v0x4a78af0_1 : [0,1]
RESULT: v0x4a79610_1 : [0,1]
RESULT: v0x4a6dbe0_1 : [0,1]
RESULT: v0x4a66610_1 : [0,1]
RESULT: v0x4a5ef10_1 : [0,1]
RESULT: v0x4a5f290_1 : [0,1]
RESULT: v0x4a5fc90_1 : [0,1]
RESULT: v0x4a53e20_1 : [0,1]
RESULT: v0x4a57c90_1 : [0,1]
RESULT: v0x4a7b910_1 : [0,1]
RESULT: v0x4a7fe10_1 : [-1/0,1/0]
RESULT: v0x4a59ec0_1 : [-1/0,1/0]
RESULT: v0x4a5a460_1 : [0,2]
RESULT: v0x4a5aae0_1 : [0,2]
RESULT: v0x4a463d0_1 : [0,2]
RESULT: v0x4a46650_1 : [0,2]
RESULT: v0x4a36bd0_1 : [0,2]
RESULT: v0x4a2d090_1 : [0,2]
RESULT: v0x4a2e450_1 : [0,2]
RESULT: v0x4a894c0_1 : [0,2]
RESULT: v0x4a89580_1 : [0,2]
RESULT: v0x48e66a0_1 : [0,2]
RESULT: v0x4a2b890_1 : [0,2]
RESULT: v0x4a31c60_1 : [0,2]
RESULT: v0x4a2fbf0_1 : [0,2]
RESULT: v0x4a32640_1 : [0,0]
