RESULT: v0x3f4b0e0_0 : [2,2]
RESULT: v0x3f532e0_0 : [0,1]
RESULT: v0x3f550e0_0 : [0,1/0]
RESULT: v0x3f4b6e0_0 : [1,1]
RESULT: v0x3f531e0_0 : [0,1]
RESULT: v0x3f536e0_0 : [-1/0,1]
RESULT: v0x3f54fe0_0 : [2,4]
RESULT: v0x3f4b1e0_0 : [0,1]
RESULT: v0x3f4b7e0_0 : [-1/0,1/0]
RESULT: v0x3f537e0_0 : [-1/0,1/0]
RESULT: v0x3f534e0_0 : [0,1]
RESULT: v0x3f4b4e0_0 : [0,1]
RESULT: v0x3f4bbe0_0 : [0,1]
RESULT: v0x3f53be0_0 : [0,1]
RESULT: v0x3f53ae0_0 : [0,1]
RESULT: v0x3f535e0_0 : [80,200]
RESULT: v0x3f4bae0_0 : [0,1]
RESULT: v0x3f4b5e0_0 : [0,120]
RESULT: v0x3f538e0_0 : [0,1]
RESULT: v0x3f53ce0_0 : [0,1]
RESULT: v0x3f4b8e0_0 : [0,1]
RESULT: v0x3f539e0_0 : [0,1]
RESULT: v0x3f533e0_0 : [0,1]
RESULT: v0x3f4b2e0_0 : [0,1]
RESULT: v0x3f4b9e0_0 : [0,1]
RESULT: v0x3f4b3e0_0 : [0,1]
RESULT: v0x3f4bce0_0 : [0,1]
RESULT: v0x50a7b20_1 : [1,1]
