RESULT: v0x3ae94f0_0 : [-1/0,1/0]
RESULT: v0x3ae9270_0 : [-1/0,1/0]
RESULT: v0x3ae7bf0_0 : [-1/0,1/0]
RESULT: v0x3ae7e70_0 : [-1/0,1/0]
RESULT: v0x3ae85f0_0 : [27,1/0]
RESULT: v0x3ae9770_0 : [-1/0,1/0]
RESULT: v0x3ae99f0_0 : [-1/0,1/0]
RESULT: v0x3ae9c70_0 : [-1/0,1/0]
RESULT: v0x3ae8af0_0 : [0,0]
RESULT: v0x3ae80f0_0 : [-1/0,1/0]
RESULT: v0x3ae8370_0 : [-1/0,1/0]
RESULT: v0x391f010_0 : [-1/0,1/0]
RESULT: v0x391f110_0 : [-1/0,1/0]
RESULT: v0x391f210_0 : [-1/0,1/0]
RESULT: v0x391f310_0 : [-1/0,1/0]
RESULT: v0x391f410_0 : [67,1/0]
RESULT: v0x391f510_0 : [0,1]
RESULT: v0x391f610_0 : [0,1]
RESULT: v0x391f710_0 : [-1/0,1/0]
RESULT: v0x391f810_0 : [-1/0,1/0]
RESULT: v0x391f910_0 : [-1/0,1/0]
RESULT: v0x391fa10_0 : [-1/0,1/0]
RESULT: v0x391fb10_0 : [-1/0,1/0]
RESULT: v0x391fc10_0 : [-1/0,1/0]
RESULT: v0x391fd10_0 : [-1/0,1/0]
RESULT: v0x3ae8d70_0 : [-1/0,1/0]
RESULT: v0x3ae8ff0_0 : [-1/0,1/0]
RESULT: v0x3acd120_0 : [0,0]
RESULT: v0x3ae7830_0 : [-1/0,10]
RESULT: v0x3ae8870_0 : [-1/0,1/0]
RESULT: v0x3920010_0 : [-1/0,1/0]
