RESULT: v0x3f82b40_0 : [-1/0,1/0]
RESULT: v0x3f83040_0 : [-1/0,1/0]
RESULT: v0x3f82e40_0 : [-1/0,1/0]
RESULT: v0x3f82f40_0 : [-1/0,1/0]
RESULT: v0x3f83f40_0 : [0,789]
RESULT: v0x3f82c40_0 : [-1/0,1/0]
RESULT: v0x3f82d40_0 : [-1/0,1/0]
RESULT: v0x3f82a40_0 : [-1/0,1/0]
RESULT: v0x4143c70_1 : [2,2]
RESULT: v0x413ce70_1 : [0,1]
RESULT: v0x412f130_1 : [0,1]
RESULT: v0x419f8c0_1 : [0,1]
RESULT: v0x419e4c0_1 : [0,1]
RESULT: v0x419fc80_1 : [0,1]
RESULT: v0x419fdc0_1 : [0,1]
RESULT: v0x419f640_1 : [0,1]
RESULT: v0x419e740_1 : [0,1]
RESULT: v0x419e9c0_1 : [0,1]
RESULT: v0x41a0f40_1 : [0,1]
RESULT: v0x41a0cc0_1 : [0,1]
RESULT: v0x41a07c0_1 : [0,2]
RESULT: v0x41a3740_1 : [0,3]
RESULT: v0x41a5680_1 : [0,1]
RESULT: v0x41a4f00_1 : [0,777]
RESULT: v0x41b2c40_1 : [0,666]
RESULT: v0x41b2240_1 : [0,2]
RESULT: v0x41b2740_1 : [0,1]
RESULT: v0x41b2380_1 : [0,2]
RESULT: v0x41b1ac0_1 : [0,456]
RESULT: v0x41b1c00_1 : [0,123]
RESULT: v0x41b1340_1 : [0,456]
RESULT: v0x41b1480_1 : [0,3]
RESULT: v0x41b0d00_1 : [0,1]
