RESULT: v0x44bcbf0_0 : [-1/0,1/0]
RESULT: v0x44bc8f0_0 : [1,2]
RESULT: v0x44bbb90_0 : [0,53]
RESULT: v0x44bb9f0_0 : [0,52]
RESULT: v0x44bb7f0_0 : [0,50]
RESULT: v0x44bbc90_0 : [0,53]
RESULT: v0x5fd9e70_0 : [0,53]
RESULT: v0x5feafd0_0 : [0,3]
RESULT: v0x5fd6d90_0 : [0,1/0]
RESULT: v0x5bd9f20_0 : [0,0]
RESULT: v0x5fdee50_0 : [0,3]
RESULT: v0x5f83350_0 : [0,53]
RESULT: v0x5fdc4b0_0 : [0,1/0]
RESULT: v0x44bb8f0_0 : [0,51]
RESULT: v0x59543c0_0 : [0,1]
RESULT: v0x5c603d0_0 : [0,0]
RESULT: v0x5954c60_0 : [1,1]
RESULT: v0x586f540_0 : [0,1]
RESULT: v0x585dea0_0 : [0,1]
RESULT: v0x585e3c0_0 : [0,0]
RESULT: v0x5c4ecf0_0 : [0,1]
RESULT: v0x5fd9f10_0 : [2,2]
RESULT: v0x61bba50_0 : [1,1]
RESULT: v0x61bbe90_0 : [0,4]
RESULT: v0x61bc2b0_0 : [50,54]
RESULT: v0x61bc6f0_0 : [0,4]
RESULT: v0x61bcb10_0 : [0,0]
RESULT: v0x61bcf50_0 : [1,1]
RESULT: v0x61bd370_0 : [0,1]
RESULT: v0x61bd7b0_0 : [0,1]
RESULT: v0x61bdbd0_0 : [0,1/0]
RESULT: v0x61be010_0 : [0,53]
RESULT: v0x61be430_0 : [0,2]
RESULT: v0x61be870_0 : [0,1]
RESULT: v0x44be3b0_0 : [-1/0,1/0]
