RESULT: v0x4cd0be0_0 : [0,0]
RESULT: v0x520c5d0_1 : [0,1]
RESULT: v0x520e270_1 : [0,1]
RESULT: v0x520c150_1 : [0,1]
RESULT: v0x520bfd0_1 : [0,1]
RESULT: v0x4f85840_1 : [0,1]
RESULT: v0x4f9c130_1 : [0,1]
RESULT: v0x4f880e0_1 : [0,1]
RESULT: v0x4f726b0_1 : [0,1]
RESULT: v0x4fa1a30_1 : [0,1]
RESULT: v0x4f853e0_1 : [0,1]
RESULT: v0x4f831c0_1 : [0,1]
RESULT: v0x4f88c40_1 : [-1/0,1/0]
RESULT: v0x4f473a0_1 : [-1/0,1/0]
RESULT: v0x4f606f0_1 : [0,2]
RESULT: v0x4f58750_1 : [0,2]
RESULT: v0x4f664f0_1 : [0,2]
RESULT: v0x51ee9f0_1 : [0,2]
RESULT: v0x4f91140_1 : [0,2]
RESULT: v0x51f5660_1 : [0,2]
RESULT: v0x4f8d340_1 : [0,2]
RESULT: v0x52009f0_1 : [0,2]
RESULT: v0x51ffd10_1 : [0,2]
RESULT: v0x51ed300_1 : [0,2]
RESULT: v0x516cce0_1 : [0,2]
RESULT: v0x51df5c0_1 : [0,0]
