RESULT: v0x3a80a40_0 : [1,1/0]
RESULT: v0x3a77bc0_0 : [0,1]
RESULT: v0x3b2b7d0_0 : [0,1]
RESULT: v0x3b20cc0_0 : [0,1]
RESULT: v0x3eaad80_0 : [0,1]
RESULT: v0x3b2ed30_0 : [0,1]
RESULT: v0x3ec6ea0_0 : [0,1]
RESULT: v0x3b2e270_0 : [0,1]
RESULT: v0x3eb4360_0 : [0,1]
RESULT: v0x3a83020_0 : [0,1]
RESULT: v0x3ebd780_0 : [0,1]
RESULT: v0x3ebc3a0_0 : [0,1]
RESULT: v0x3ec7d00_0 : [0,1]
RESULT: v0x3ccca90_0 : [123,777]
RESULT: v0x3ed3a40_0 : [0,666]
RESULT: v0x3ecdaa0_0 : [0,2]
RESULT: v0x3ed50e0_0 : [0,1]
RESULT: v0x3ba8940_0 : [0,456]
RESULT: v0x3ed4760_0 : [0,123]
RESULT: v0x3951740_0 : [-1/0,1/0]
RESULT: v0x3951440_0 : [0,456]
RESULT: v0x3951640_0 : [0,1]
