RESULT: v0x3f18890_1 : [4,4]
RESULT: v0x3e15f30_1 : [0,1]
RESULT: v0x3f40a10_1 : [0,1]
RESULT: v0x3f04510_1 : [0,1]
RESULT: v0x3f869d0_1 : [0,1]
RESULT: v0x3f61dd0_1 : [0,1]
RESULT: v0x3f8f4d0_1 : [0,1]
RESULT: v0x3f2ca10_1 : [0,1]
RESULT: v0x3f8f6d0_1 : [0,1]
RESULT: v0x3f5d510_1 : [0,1]
RESULT: v0x3d28b50_1 : [0,1]
RESULT: v0x3f8f690_1 : [0,1]
RESULT: v0x3d2d3f0_1 : [0,1]
RESULT: v0x3d38a10_1 : [0,2]
RESULT: v0x3ce23b0_1 : [0,3]
RESULT: v0x3d33ef0_1 : [0,1]
RESULT: v0x3d41a90_1 : [123,777]
RESULT: v0x3d52110_1 : [0,666]
RESULT: v0x3d4c5d0_1 : [0,2]
RESULT: v0x3d47010_1 : [0,1]
RESULT: v0x3e124b0_1 : [0,2]
RESULT: v0x3e9b5b0_1 : [0,456]
RESULT: v0x3e20050_1 : [0,123]
RESULT: v0x3ccf650_1 : [0,456]
