RESULT: v0x399f480_1 : [3,3]
RESULT: v0x38ab040_1 : [0,1]
RESULT: v0x398bf50_1 : [0,1]
RESULT: v0x38ae160_1 : [0,1]
RESULT: v0x396c9d0_1 : [0,1]
RESULT: v0x396da30_1 : [0,1]
RESULT: v0x3723df0_1 : [0,1]
RESULT: v0x399ea00_1 : [0,1]
RESULT: v0x396d5b0_1 : [0,1]
RESULT: v0x396d670_1 : [0,1]
RESULT: v0x396d430_1 : [0,1]
RESULT: v0x3723670_1 : [0,1]
RESULT: v0x399e880_1 : [0,1]
RESULT: v0x396cfb0_1 : [0,2]
RESULT: v0x396d070_1 : [0,3]
RESULT: v0x399e7e0_1 : [123,777]
RESULT: v0x399e7a0_1 : [0,666]
RESULT: v0x396cb30_1 : [0,2]
RESULT: v0x396ca70_1 : [0,1]
RESULT: v0x396c790_1 : [0,2]
RESULT: v0x37ab3c0_1 : [0,456]
RESULT: v0x37ab180_1 : [0,123]
RESULT: v0x37ab0c0_1 : [0,456]
RESULT: v0x37aae80_1 : [0,3]
