RESULT: v0x514c450_0 : [0,1]
RESULT: v0x5a08f90_1 : [0,1]
RESULT: v0x5a06a60_1 : [0,1]
RESULT: v0x5a2c4d0_1 : [0,1]
RESULT: v0x59d6520_1 : [0,1]
RESULT: v0x6549730_1 : [0,1]
RESULT: v0x5d18460_1 : [0,1]
RESULT: v0x5656130_1 : [0,1]
RESULT: v0x5416210_1 : [0,1]
RESULT: v0x6557d70_1 : [0,1]
RESULT: v0x5400380_1 : [0,1]
RESULT: v0x6558ce0_1 : [0,1]
RESULT: v0x6566890_1 : [0,1]
RESULT: v0x656c3b0_1 : [0,1]
RESULT: v0x53eadf0_1 : [0,2]
RESULT: v0x5404d20_1 : [0,2]
RESULT: v0x5adecd0_1 : [0,2]
RESULT: v0x65557f0_1 : [0,2]
RESULT: v0x6561380_1 : [0,2]
RESULT: v0x656f5b0_1 : [0,2]
RESULT: v0x5423440_1 : [0,2]
RESULT: v0x53b2c20_1 : [0,2]
RESULT: v0x541ef70_1 : [0,2]
RESULT: v0x656bfb0_1 : [0,2]
RESULT: v0x56a2ed0_1 : [0,2]
RESULT: v0x654a9d0_1 : [0,2]
RESULT: v0x5ac2530_1 : [0,2]
RESULT: v0x6554520_1 : [0,2]
