RESULT: v0x38100c0_0 : [-1/0,1/0]
RESULT: v0x380f520_0 : [-1/0,1/0]
RESULT: v0x380f480_0 : [-1/0,1/0]
RESULT: v0x380e8e0_0 : [-1/0,1/0]
RESULT: v0x380e840_0 : [-1/0,1/0]
RESULT: v0x3809480_0 : [-1/0,1/0]
RESULT: v0x3809440_0 : [-1/0,1/0]
RESULT: v0x37063d0_0 : [-1/0,1/0]
RESULT: v0x3705c10_0 : [-1/0,1/0]
RESULT: v0x3704ca0_0 : [-1/0,1/0]
RESULT: v0x3702440_0 : [-1/0,1/0]
RESULT: v0x3703210_0 : [-1/0,1/0]
RESULT: v0x3705e50_0 : [-1/0,1/0]
RESULT: v0x37081f0_0 : [1,1]
RESULT: v0x3706ae0_0 : [-1/0,1/0]
RESULT: v0x3702d80_0 : [-1/0,1/0]
RESULT: v0x3701bc0_0 : [-1/0,1/0]
RESULT: v0x3700ba0_0 : [-1/0,1/0]
RESULT: v0x37018c0_0 : [-1/0,1/0]
RESULT: v0x37015c0_0 : [-1/0,1/0]
RESULT: v0x36fe230_0 : [-1/0,1/0]
RESULT: v0x36fc8f0_0 : [-1/0,1/0]
RESULT: v0x36f8650_0 : [-1/0,1/0]
RESULT: v0x36f8140_0 : [-1/0,1/0]
RESULT: v0x3803ea0_0 : [-1/0,1/0]
RESULT: v0x3706270_0 : [-1/0,1/0]
RESULT: v0x3803c20_0 : [-1/0,1/0]
RESULT: v0x3803480_0 : [-1/0,1/0]
RESULT: v0x3706e90_0 : [-1/0,1/0]
RESULT: v0x36fff80_0 : [2,2]
