RESULT: v0x5aa88c0_0 : [0,1]
RESULT: v0x4d6e990_0 : [0,1]
RESULT: v0x51ae4f0_0 : [0,1]
RESULT: v0x51ae190_0 : [0,1]
RESULT: v0x4ee3120_0 : [0,1]
RESULT: v0x5180710_0 : [0,1]
RESULT: v0x587d810_0 : [0,1]
RESULT: v0x64ac8a0_0 : [0,1]
RESULT: v0x516fbd0_0 : [0,1]
RESULT: v0x516fc70_0 : [0,1]
RESULT: v0x5043f00_0 : [0,1]
RESULT: v0x516fb30_0 : [1,1]
RESULT: v0x639cd70_0 : [-1/0,1/0]
RESULT: v0x4e2e390_0 : [-1/0,1/0]
RESULT: v0x64acd60_0 : [0,2]
RESULT: v0x4e2e5f0_0 : [0,2]
RESULT: v0x4e2e570_0 : [0,2]
RESULT: v0x5a540e0_0 : [0,2]
RESULT: v0x70bd700_0 : [0,2]
RESULT: v0x4ee2bc0_0 : [0,2]
RESULT: v0x4ee2b60_0 : [0,2]
RESULT: v0x4ea1d60_0 : [0,2]
RESULT: v0x4ee29c0_0 : [0,2]
RESULT: v0x5043dc0_0 : [0,2]
RESULT: v0x4ea1b00_0 : [0,2]
RESULT: v0x4fa9700_0 : [2,2]
