RESULT: v0x42c5960_1 : [-1/0,1/0]
RESULT: v0x3fa5240_1 : [-1/0,1/0]
RESULT: v0x4e04840_1 : [-1/0,1/0]
RESULT: v0x4e04420_1 : [-1/0,1/0]
RESULT: v0x4e037e0_1 : [-1/0,1/0]
RESULT: v0x4e037a0_1 : [-1/0,1/0]
RESULT: v0x4e02ac0_1 : [-1/0,1/0]
RESULT: v0x4e027e0_1 : [-1/0,1/0]
RESULT: v0x4e029c0_1 : [-1/0,1/0]
RESULT: v0x4e01b80_1 : [-1/0,1/0]
RESULT: v0x4e01c00_1 : [-1/0,1/0]
RESULT: v0x4dfb7c0_1 : [-1/0,1/0]
RESULT: v0x4dfb500_1 : [-1/0,1/0]
RESULT: v0x4dfb6e0_1 : [-1/0,1/0]
RESULT: v0x4dfb120_1 : [-1/0,1/0]
RESULT: v0x4dfb2e0_1 : [-1/0,1/0]
RESULT: v0x4dfae40_1 : [-1/0,1/0]
RESULT: v0x4dfaec0_1 : [-1/0,1/0]
RESULT: v0x4dfa1f0_1 : [-1/0,1/0]
RESULT: v0x4dfa1b0_1 : [-1/0,1/0]
RESULT: v0x4df94d0_1 : [-1/0,1/0]
RESULT: v0x4df91f0_1 : [-1/0,1/0]
RESULT: v0x4df93d0_1 : [-1/0,1/0]
RESULT: v0x4df8480_1 : [-1/0,1/0]
RESULT: v0x4df8500_1 : [-1/0,1/0]
RESULT: v0x4a03b00_1 : [-1/0,1/0]
RESULT: v0x4a03840_1 : [-1/0,1/0]
