RESULT: v0x5cf8110_0 : [0,1]
RESULT: v0x8227240_0 : [0,1]
RESULT: v0x9090550_0 : [-1/0,1/0]
RESULT: v0x5a0f380_0 : [-1/0,1/0]
RESULT: v0x7a297d0_0 : [-1/0,1/0]
RESULT: v0x4ac5480_0 : [-1/0,1/0]
RESULT: v0x97e9df0_0 : [0,0]
RESULT: v0x40faaa0_0 : [67,1/0]
RESULT: v0x94a0f70_0 : [67,1/0]
RESULT: v0x40faba0_0 : [0,1]
RESULT: v0x40faca0_0 : [0,1]
RESULT: v0x40fada0_0 : [-1/0,1/0]
RESULT: v0x40faea0_0 : [-1/0,1/0]
RESULT: v0x40fafa0_0 : [0,0]
RESULT: v0x40fb0a0_0 : [0,0]
RESULT: v0x40fb1a0_0 : [-1/0,1/0]
RESULT: v0x8ed5fa0_0 : [-1/0,1/0]
RESULT: v0x40fb2a0_0 : [-1/0,1/0]
RESULT: v0x7003520_0 : [-1/0,1/0]
RESULT: v0x40fb3a0_0 : [-1/0,1/0]
RESULT: v0x648ef50_0 : [-1/0,1/0]
RESULT: v0x40fb4a0_0 : [-1/0,1/0]
RESULT: v0x40fb5a0_0 : [-1/0,1/0]
RESULT: v0x40fb6a0_0 : [-1/0,1/0]
RESULT: v0x40fb7a0_0 : [-1/0,1/0]
RESULT: v0x8f04540_0 : [-1/0,1/0]
RESULT: v0x82443e0_0 : [-1/0,1/0]
RESULT: v0x9bc6860_0 : [0,0]
RESULT: v0x648c6e0_0 : [-1/0,10]
RESULT: v0x976ace0_0 : [-1/0,1/0]
RESULT: v0x40fbaa0_0 : [-1/0,1/0]
