RESULT: v0x4922100_0 : [-1/0,1/0]
RESULT: v0x4922040_0 : [-1/0,1/0]
RESULT: v0x4921bc0_0 : [-1/0,1/0]
RESULT: v0x4921c80_0 : [-1/0,1/0]
RESULT: v0x4921d40_0 : [-1/0,1/0]
RESULT: v0x4922280_0 : [-1/0,1/0]
RESULT: v0x4922340_0 : [-1/0,1/0]
RESULT: v0x4921b00_0 : [-1/0,1/0]
RESULT: v0x48b6f20_0 : [-1/0,1/0]
RESULT: v0x489b430_0 : [-1/0,1/0]
RESULT: v0x4921a40_0 : [-1/0,1/0]
RESULT: v0x4922680_0 : [-1/0,1/0]
RESULT: v0x4922640_0 : [-1/0,1/0]
RESULT: v0x4922700_0 : [-1/0,1/0]
RESULT: v0x49224c0_0 : [-1/0,1/0]
RESULT: v0x49227c0_0 : [-1/0,1/0]
RESULT: v0x4922880_0 : [-1/0,1/0]
RESULT: v0x4922940_0 : [-1/0,1/0]
RESULT: v0x4922a20_0 : [-1/0,1/0]
RESULT: v0x4922ac0_0 : [-1/0,1/0]
RESULT: v0x4922400_0 : [-1/0,1/0]
RESULT: v0x4921f80_0 : [-1/0,1/0]
RESULT: v0x4921ec0_0 : [-1/0,1/0]
RESULT: v0x49221c0_0 : [-1/0,1/0]
RESULT: v0x4921e00_0 : [-1/0,1/0]
