RESULT: v0x116e9d70_0 : [-1/0,1/0]
RESULT: v0x116e9b90_0 : [-1/0,1/0]
RESULT: v0x116e9d30_0 : [-1/0,1/0]
RESULT: v0xd6f9e50_0 : [-1/0,1/0]
RESULT: v0xd6f98b0_0 : [-1/0,1/0]
RESULT: v0x13716030_0 : [-1/0,1/0]
RESULT: v0xfd4e0e0_0 : [-1/0,1/0]
RESULT: v0x7d40160_0 : [-1/0,1/0]
RESULT: v0xfe33200_0 : [-1/0,1/0]
RESULT: v0xfe33a60_0 : [-1/0,1/0]
RESULT: v0xfc5dca0_0 : [-1/0,1/0]
RESULT: v0x116e9b30_0 : [-1/0,1/0]
RESULT: v0x4c20990_0 : [-1/0,1/0]
RESULT: v0x13715df0_0 : [-1/0,1/0]
RESULT: v0x10bfcd90_0 : [-1/0,1/0]
RESULT: v0xfd4d7c0_0 : [-1/0,1/0]
RESULT: v0xd6f9eb0_0 : [-1/0,1/0]
RESULT: v0xd6f9670_0 : [-1/0,1/0]
RESULT: v0xd6fa050_0 : [-1/0,1/0]
RESULT: v0xd6fa090_0 : [-1/0,1/0]
RESULT: v0xfc8b200_0 : [-1/0,1/0]
RESULT: v0xfc8ba60_0 : [-1/0,1/0]
RESULT: v0xfd2d820_0 : [-1/0,1/0]
RESULT: v0xd6ff940_0 : [-1/0,1/0]
RESULT: v0xc7c1160_0 : [-1/0,1/0]
RESULT: v0xc7d7400_0 : [-1/0,1/0]
