RESULT: v0x50ec6a0_0 : [-1/0,1/0]
RESULT: v0x50ec8a0_0 : [-1/0,1/0]
RESULT: v0x50ed5a0_0 : [789,789]
RESULT: v0x50ec5a0_0 : [-1/0,1/0]
RESULT: v0x50ec7a0_0 : [-1/0,1/0]
RESULT: v0x50ec4a0_0 : [-1/0,1/0]
RESULT: v0x561e920_1 : [3,3]
RESULT: v0x561eba0_1 : [0,1]
RESULT: v0x561ea60_1 : [0,1]
RESULT: v0x561e2e0_1 : [0,1]
RESULT: v0x5621620_1 : [0,1]
RESULT: v0x561fbe0_1 : [0,1]
RESULT: v0x5623f60_1 : [0,1]
RESULT: v0x5625c20_1 : [0,1]
RESULT: v0x562a360_1 : [0,1]
RESULT: v0x562a4a0_1 : [0,1]
RESULT: v0x562a0e0_1 : [0,1]
RESULT: v0x56277a0_1 : [0,1]
RESULT: v0x550a960_1 : [0,1]
RESULT: v0x5543b20_1 : [0,2]
RESULT: v0x5546960_1 : [0,3]
RESULT: v0x55ef3a0_1 : [0,1]
RESULT: v0x55fbf60_1 : [123,777]
RESULT: v0x55fe4e0_1 : [0,666]
RESULT: v0x55a9ee0_1 : [0,2]
RESULT: v0x551a4a0_1 : [0,1]
RESULT: v0x5541be0_1 : [0,2]
RESULT: v0x5542360_1 : [0,456]
RESULT: v0x5526a20_1 : [0,123]
RESULT: v0x5383220_1 : [0,456]
RESULT: v0x5534b20_1 : [0,3]
