RESULT: v0x53e8c30_0 : [-1/0,1/0]
RESULT: v0x53eacf0_0 : [-1/0,1/0]
RESULT: v0x53e8b50_0 : [-1/0,1/0]
RESULT: v0x53ebaf0_0 : [-1/0,1/0]
RESULT: v0x53edf30_0 : [-1/0,1/0]
RESULT: v0x53ead30_0 : [-1/0,1/0]
RESULT: v0x53e8a90_0 : [-1/0,1/0]
RESULT: v0x53eadf0_0 : [-1/0,1/0]
RESULT: v0x5452b70_0 : [-1/0,1/0]
RESULT: v0x53ee170_0 : [-1/0,1/0]
RESULT: v0x53ecf30_0 : [-1/0,1/0]
RESULT: v0x53eb9f0_0 : [-1/0,1/0]
RESULT: v0x53eba30_0 : [-1/0,1/0]
RESULT: v0x544c950_0 : [-1/0,1/0]
RESULT: v0x53e8910_0 : [-1/0,1/0]
RESULT: v0x53e8790_0 : [-1/0,1/0]
RESULT: v0x53e92f0_0 : [-1/0,1/0]
RESULT: v0x53e73f0_0 : [-1/0,1/0]
RESULT: v0x53e8230_0 : [-1/0,1/0]
RESULT: v0x53e8170_0 : [-1/0,1/0]
RESULT: v0x53e86d0_0 : [-1/0,1/0]
RESULT: v0x53e89d0_0 : [-1/0,1/0]
RESULT: v0x53e82f0_0 : [-1/0,1/0]
RESULT: v0x53e8850_0 : [-1/0,1/0]
RESULT: v0x53e7f30_0 : [-1/0,1/0]
