RESULT: v0x4f3a010_0 : [2,1/0]
RESULT: v0x4f3e810_0 : [0,1]
RESULT: v0x4f1bc70_0 : [0,1]
RESULT: v0x4d7b7f0_0 : [0,1]
RESULT: v0x4f15130_0 : [0,1]
RESULT: v0x4f27210_0 : [0,1]
RESULT: v0x4db84b0_0 : [0,1]
RESULT: v0x4c9ba40_0 : [0,1]
RESULT: v0x4b78fe0_0 : [0,1]
RESULT: v0x4b05440_0 : [0,1]
RESULT: v0x4f41bb0_0 : [1,1]
RESULT: v0x4f25cb0_0 : [0,1]
RESULT: v0x4afce20_0 : [1,1]
RESULT: v0x4f28a50_0 : [123,777]
RESULT: v0x4f2a810_0 : [0,666]
RESULT: v0x4f0fce0_0 : [0,2]
RESULT: v0x4f13d70_0 : [0,1]
RESULT: v0x4c16cb0_0 : [0,456]
RESULT: v0x4f2c9d0_0 : [0,123]
RESULT: v0x49be1b0_0 : [-1/0,1/0]
RESULT: v0x49bdeb0_0 : [0,456]
RESULT: v0x49beeb0_0 : [-1/0,1/0]
RESULT: v0x49befb0_0 : [0,456]
RESULT: v0x49be0b0_0 : [0,1]
RESULT: v0x49bf2b0_0 : [123,777]
RESULT: v0x49bf5b0_0 : [0,123]
RESULT: v0x49bf6b0_0 : [0,1]
