RESULT: v0x48b28a0_1 : [3,3]
RESULT: v0x48b2ae0_1 : [0,1]
RESULT: v0x48b2c60_1 : [0,1]
RESULT: v0x48b2ea0_1 : [0,1]
RESULT: v0x4978c00_1 : [0,1]
RESULT: v0x4978a80_1 : [0,1]
RESULT: v0x4978900_1 : [0,1]
RESULT: v0x49786c0_1 : [0,1]
RESULT: v0x48a1210_1 : [0,1]
RESULT: v0x48a12d0_1 : [0,1]
RESULT: v0x476d880_1 : [123,777]
RESULT: v0x48a1510_1 : [0,666]
RESULT: v0x48a15d0_1 : [0,2]
RESULT: v0x48868d0_1 : [0,1]
RESULT: v0x488d470_1 : [0,2]
RESULT: v0x4882200_1 : [0,456]
RESULT: v0x488dfa0_1 : [0,123]
RESULT: v0x4891de0_1 : [0,456]
RESULT: v0x48963e0_1 : [0,3]
RESULT: v0x4891d50_1 : [0,1]
RESULT: v0x48ab100_1 : [0,1]
