RESULT: v0x4c68f00_1 : [3,3]
RESULT: v0x4c68fc0_1 : [0,1]
RESULT: v0x4c69040_1 : [0,1]
RESULT: v0x4c69100_1 : [0,1]
RESULT: v0x4c35e80_1 : [0,1]
RESULT: v0x4c35d00_1 : [0,1]
RESULT: v0x4c35c40_1 : [0,1]
RESULT: v0x4b2dcb0_1 : [0,1]
RESULT: v0x4b20340_1 : [0,1]
RESULT: v0x4b20400_1 : [0,1]
RESULT: v0x4b204c0_1 : [0,1]
RESULT: v0x4b20580_1 : [0,1]
RESULT: v0x4b20640_1 : [0,1]
RESULT: v0x4b20700_1 : [123,777]
RESULT: v0x4b09cb0_1 : [0,666]
RESULT: v0x4b0c390_1 : [0,2]
RESULT: v0x4adf870_1 : [0,1]
RESULT: v0x4b0d100_1 : [0,2]
RESULT: v0x4b11250_1 : [0,456]
RESULT: v0x4b155c0_1 : [0,123]
RESULT: v0x4b111c0_1 : [0,456]
RESULT: v0x4b24a50_1 : [0,3]
