RESULT: v0x456c380_1 : [4,4]
RESULT: v0x45a1ae0_1 : [0,1]
RESULT: v0x451eb60_1 : [0,1]
RESULT: v0x457aba0_1 : [0,1]
RESULT: v0x45534e0_1 : [0,1]
RESULT: v0x456a060_1 : [0,1]
RESULT: v0x4575620_1 : [0,1]
RESULT: v0x4584480_1 : [0,1]
RESULT: v0x456b900_1 : [0,1]
RESULT: v0x4522100_1 : [0,1]
RESULT: v0x45b5120_1 : [0,1]
RESULT: v0x45b39a0_1 : [0,1]
RESULT: v0x45ccfe0_1 : [0,1]
RESULT: v0x45b4f00_1 : [0,2]
RESULT: v0x4459090_1 : [0,3]
RESULT: v0x4459050_1 : [123,777]
RESULT: v0x4388ad0_1 : [0,666]
RESULT: v0x4388a10_1 : [0,2]
RESULT: v0x4388730_1 : [0,1]
RESULT: v0x4388670_1 : [0,2]
RESULT: v0x4428910_1 : [0,456]
RESULT: v0x4428850_1 : [0,123]
RESULT: v0x4428610_1 : [0,456]
RESULT: v0x4389cd0_1 : [0,3]
