RESULT: v0x3e38990_0 : [-1/0,1/0]
RESULT: v0x3e37db0_0 : [-1/0,1/0]
RESULT: v0x3e39510_0 : [-1/0,1/0]
RESULT: v0x3e394d0_0 : [-1/0,1/0]
RESULT: v0x3e395d0_0 : [-1/0,1/0]
RESULT: v0x3e38090_0 : [-1/0,1/0]
RESULT: v0x3e794b0_0 : [-1/0,1/0]
RESULT: v0x3987de0_0 : [-1/0,1/0]
RESULT: v0x3e3e2b0_0 : [-1/0,1/0]
RESULT: v0x38189b0_0 : [-1/0,1/0]
RESULT: v0x3818ab0_0 : [-1/0,1/0]
RESULT: v0x3818bb0_0 : [-1/0,1/0]
RESULT: v0x3818cb0_0 : [1,2]
RESULT: v0x3818db0_0 : [-1/0,1/0]
RESULT: v0x3818eb0_0 : [1,1]
RESULT: v0x38193b0_0 : [0,0]
RESULT: v0x38194b0_0 : [-1/0,1/0]
RESULT: v0x38195b0_0 : [0,0]
RESULT: v0x3e8c8f0_0 : [-1/0,1/0]
RESULT: v0x3e37cf0_0 : [-1/0,1/0]
RESULT: v0x3e38790_0 : [-1/0,1/0]
RESULT: v0x3e37c30_0 : [-1/0,1/0]
RESULT: v0x3e37b70_0 : [-1/0,1/0]
RESULT: v0x3e379f0_0 : [-1/0,1/0]
RESULT: v0x3e64c80_0 : [-1/0,1/0]
RESULT: v0x3e64d40_0 : [-1/0,1/0]
RESULT: v0x3e37290_0 : [-1/0,1/0]
RESULT: v0x3e37110_0 : [-1/0,1/0]
RESULT: v0x3e37870_0 : [-1/0,1/0]
RESULT: v0x3e37930_0 : [-1/0,1/0]
RESULT: v0x3e3a1d0_0 : [-1/0,1/0]
RESULT: v0x3e3d090_0 : [-1/0,1/0]
RESULT: v0x3e3d150_0 : [-1/0,1/0]
