RESULT: v0x95f8aa0_0 : [-1/0,1/0]
RESULT: v0xaeb2400_0 : [-1/0,1/0]
RESULT: v0x737ae00_0 : [-1/0,1/0]
RESULT: v0xfaedb10_0 : [-1/0,1/0]
RESULT: v0x126be8c0_0 : [27,1/0]
RESULT: v0x6271b40_0 : [-1/0,1/0]
RESULT: v0x143606f0_0 : [-1/0,1/0]
RESULT: v0xaeb23c0_0 : [1,1]
RESULT: v0x811a9b0_0 : [-1/0,1/0]
RESULT: v0x49c9cb0_0 : [-1/0,1/0]
RESULT: v0xfbd6b20_0 : [-1/0,1/0]
RESULT: v0x3f94330_0 : [67,1/0]
RESULT: v0x3f94430_0 : [0,1]
RESULT: v0x3f94530_0 : [-1/0,1/0]
RESULT: v0x3f94630_0 : [-1/0,1/0]
RESULT: v0x3f94730_0 : [-1/0,1/0]
RESULT: v0x3f94830_0 : [-1/0,1/0]
RESULT: v0x3f94930_0 : [0,1]
RESULT: v0x3f94a30_0 : [-1/0,1/0]
RESULT: v0x3f94b30_0 : [-1/0,1/0]
RESULT: v0x3f94c30_0 : [-1/0,1/0]
RESULT: v0x3f94d30_0 : [-1/0,1/0]
RESULT: v0x3f94e30_0 : [-1/0,1/0]
RESULT: v0x3f94f30_0 : [-1/0,1/0]
RESULT: v0x3f95030_0 : [-1/0,1/0]
RESULT: v0x4433310_0 : [-1/0,1/0]
RESULT: v0xfceff80_0 : [-1/0,1/0]
RESULT: v0xa52a0d0_0 : [-1/0,1/0]
RESULT: v0x106f6610_0 : [-1/0,10]
RESULT: v0x4681230_0 : [-1/0,1/0]
RESULT: v0x3f96330_0 : [-1/0,1/0]
