RESULT: v0x3b8e330_0 : [-1/0,1/0]
RESULT: v0x3b953e0_0 : [-1/0,1/0]
RESULT: v0x3dad250_0 : [-1/0,1/0]
RESULT: v0x3dad6d0_0 : [-1/0,1/0]
RESULT: v0x3dba170_0 : [-1/0,1/0]
RESULT: v0x3c93e60_0 : [-1/0,1/0]
RESULT: v0x3ca7910_0 : [-1/0,1/0]
RESULT: v0x3d37530_0 : [-1/0,1/0]
RESULT: v0x3d5dc80_0 : [-1/0,1/0]
RESULT: v0x3b90de0_0 : [-1/0,1/0]
RESULT: v0x3c9d7d0_0 : [-1/0,1/0]
RESULT: v0x3b9fe60_0 : [-1/0,1/0]
RESULT: v0x3a05d80_0 : [-1/0,1/0]
RESULT: v0x3b94dc0_0 : [1,1]
RESULT: v0x3b95b60_0 : [-1/0,1/0]
RESULT: v0x3ca6d30_0 : [-1/0,1/0]
RESULT: v0x3cca570_0 : [-1/0,1/0]
RESULT: v0x3c8b210_0 : [-1/0,1/0]
RESULT: v0x3c98460_0 : [-1/0,1/0]
RESULT: v0x3bb1ce0_0 : [-1/0,1/0]
RESULT: v0x3db8580_0 : [-1/0,1/0]
RESULT: v0x3badbc0_0 : [-1/0,1/0]
RESULT: v0x3ba2be0_0 : [-1/0,1/0]
RESULT: v0x3cad2b0_0 : [-1/0,1/0]
RESULT: v0x3a274b0_0 : [-1/0,1/0]
RESULT: v0x3d65690_0 : [-1/0,1/0]
RESULT: v0x3d28f70_0 : [-1/0,1/0]
RESULT: v0x3d284b0_0 : [-1/0,1/0]
RESULT: v0x3ce5930_0 : [-1/0,1/0]
RESULT: v0x3d46540_0 : [2,2]
