RESULT: v0x3f2fe50_1 : [3,3]
RESULT: v0x3f30090_1 : [0,1]
RESULT: v0x3f30210_1 : [0,1]
RESULT: v0x3f30450_1 : [0,1]
RESULT: v0x3ff69f0_1 : [0,1]
RESULT: v0x3ff6870_1 : [0,1]
RESULT: v0x3ff66f0_1 : [0,1]
RESULT: v0x3ff64b0_1 : [0,1]
RESULT: v0x3f1e7c0_1 : [0,1]
RESULT: v0x3f1e880_1 : [0,1]
RESULT: v0x3dec2c0_1 : [123,777]
RESULT: v0x3f1eac0_1 : [0,666]
RESULT: v0x3f1eb80_1 : [0,2]
RESULT: v0x3f04360_1 : [0,1]
RESULT: v0x3f0ad60_1 : [0,2]
RESULT: v0x3effc90_1 : [0,456]
RESULT: v0x3f0b990_1 : [0,123]
RESULT: v0x3f0f7b0_1 : [0,456]
RESULT: v0x3f13990_1 : [0,3]
RESULT: v0x3f0f720_1 : [0,1]
RESULT: v0x3f286d0_1 : [0,1]
