RESULT: v0x56fbdc0_0 : [0,0]
RESULT: v0x56f9760_0 : [0,0]
RESULT: v0x56f9c80_0 : [40,40]
RESULT: v0x56f8a00_0 : [0,0]
RESULT: v0x56f87c0_0 : [0,0]
RESULT: v0x4ba23c0_0 : [0,0]
RESULT: v0x4ba24c0_0 : [0,0]
RESULT: v0x56fa4a0_0 : [3,3]
RESULT: v0x56f8d00_0 : [1,1]
RESULT: v0x56fbce0_0 : [1,1]
RESULT: v0x56fb840_0 : [0,0]
RESULT: v0x56fb360_0 : [1,1]
RESULT: v0x56fa340_0 : [0,0]
RESULT: v0x56fa420_0 : [1,1]
RESULT: v0x56f9f80_0 : [1,1]
RESULT: v0x56f9e00_0 : [1,1]
RESULT: v0x56f9d40_0 : [1,1]
RESULT: v0x4ba22c0_0 : [-1/0,1/0]
RESULT: v0x4bc76c0_0 : [80,80]
RESULT: v0x4bc77c0_0 : [0,0]
RESULT: v0x4bc78c0_0 : [1,1]
RESULT: v0x4bc79c0_0 : [1,1]
RESULT: v0x4bc7ac0_0 : [0,0]
RESULT: v0x4bc7bc0_0 : [1,1]
RESULT: v0x4bc7cc0_0 : [3,3]
RESULT: v0x4bc7dc0_0 : [1,1]
RESULT: v0x4bc7ec0_0 : [1,1]
RESULT: v0x4bc7fc0_0 : [1,1]
RESULT: v0x4bc80c0_0 : [0,0]
RESULT: v0x4bc81c0_0 : [1,1]
RESULT: v0x4bc82c0_0 : [1,1]
RESULT: v0x594f7a0_0 : [2,2]
RESULT: v0x4bc95c0_0 : [4,4]
