RESULT: v0x46038b0_1 : [3,3]
RESULT: v0x4603af0_1 : [0,1]
RESULT: v0x4603c70_1 : [0,1]
RESULT: v0x4603eb0_1 : [0,1]
RESULT: v0x46c9b60_1 : [0,1]
RESULT: v0x46c99e0_1 : [0,1]
RESULT: v0x46c9860_1 : [0,1]
RESULT: v0x46c9620_1 : [0,1]
RESULT: v0x45f2220_1 : [0,1]
RESULT: v0x45f22e0_1 : [0,1]
RESULT: v0x44be830_1 : [123,777]
RESULT: v0x45f2520_1 : [0,666]
RESULT: v0x45f25e0_1 : [0,2]
RESULT: v0x45ab470_1 : [0,1]
RESULT: v0x45de2e0_1 : [0,2]
RESULT: v0x45b16c0_1 : [0,456]
RESULT: v0x44a18d0_1 : [0,123]
RESULT: v0x45e3210_1 : [0,456]
RESULT: v0x45e73f0_1 : [0,3]
RESULT: v0x45e3180_1 : [0,1]
RESULT: v0x45fc110_1 : [0,1]
