RESULT: v0x4f6e340_0 : [0,1/0]
RESULT: v0x4ed0c70_0 : [123,777]
RESULT: v0x4c7ad20_0 : [0,1]
RESULT: v0x4e3ebd0_0 : [0,1]
RESULT: v0x4e3ea50_0 : [0,2]
RESULT: v0x4e3e750_0 : [0,3]
RESULT: v0x4e95070_0 : [0,1]
RESULT: v0x4f6f860_0 : [0,1]
RESULT: v0x4e3f050_0 : [0,1]
RESULT: v0x4ed3280_0 : [0,666]
RESULT: v0x4e3eed0_0 : [0,1]
RESULT: v0x4e3e690_0 : [0,1]
RESULT: v0x4c81870_0 : [0,1]
RESULT: v0x4e3e5d0_0 : [0,1]
RESULT: v0x4eef6e0_0 : [0,456]
RESULT: v0x4c6cad0_0 : [0,2]
RESULT: v0x4e3f290_0 : [0,1]
RESULT: v0x4e3cc70_0 : [0,1]
RESULT: v0x4efa700_0 : [0,123]
RESULT: v0x4cbdb00_0 : [0,1]
RESULT: v0x4eebe40_0 : [0,1]
RESULT: v0x4ed5600_0 : [0,3]
RESULT: v0x5192520_0 : [0,456]
RESULT: v0x4e3ed50_0 : [0,1]
RESULT: v0x4cc2620_0 : [0,2]
