RESULT: v0xb421ca0_0 : [1,1]
RESULT: v0x7030370_0 : [0,0]
RESULT: v0x70100e0_0 : [0,1]
RESULT: v0x509f020_0 : [1,2]
RESULT: v0xb1985b0_0 : [0,2]
RESULT: v0x509e320_0 : [0,1/0]
RESULT: v0x871f6f0_0 : [0,1]
RESULT: v0x509e220_0 : [0,1/0]
RESULT: v0x86aaa40_0 : [0,1/0]
RESULT: v0xa711740_0 : [1,6]
RESULT: v0xa744be0_0 : [0,1]
RESULT: v0xa710f30_0 : [0,1]
RESULT: v0x8e5add0_0 : [0,1]
RESULT: v0xb42c280_0 : [0,1]
RESULT: v0xa6dfe90_0 : [0,1]
RESULT: v0xa74c8a0_0 : [0,1]
RESULT: v0x7016480_0 : [-1/0,1/0]
RESULT: v0x98d9100_0 : [-1/0,1/0]
RESULT: v0x50a79f0_0 : [1,6]
RESULT: v0x50a7af0_0 : [0,1]
RESULT: v0x50a7bf0_0 : [0,2]
RESULT: v0x50a7cf0_0 : [0,1]
RESULT: v0x50a7df0_0 : [0,1]
RESULT: v0x50a7ef0_0 : [0,1/0]
RESULT: v0x50a7ff0_0 : [0,1]
RESULT: v0x50a80f0_0 : [0,1]
RESULT: v0x50a81f0_0 : [0,1]
RESULT: v0x50a82f0_0 : [0,1]
RESULT: v0x50a83f0_0 : [-1/0,1/0]
RESULT: v0x50a84f0_0 : [0,0]
RESULT: v0x50a85f0_0 : [1,1]
RESULT: v0x50a86f0_0 : [0,1]
RESULT: v0x50a87f0_0 : [-1/0,1/0]
RESULT: v0x509f620_0 : [-1/0,1/0]
RESULT: v0x509f320_0 : [-1/0,1/0]
RESULT: v0x50a89f0_0 : [-1/0,1/0]
RESULT: v0xa5c0010_0 : [-1/0,1/0]
RESULT: v0xa5c0170_0 : [0,1/0]
RESULT: v0xa5c0370_0 : [0,1/0]
RESULT: v0xa5c0570_0 : [0,2]
RESULT: v0xa5c0770_0 : [0,1]
RESULT: v0xa5c0970_0 : [1,1]
RESULT: v0xa5c0b70_0 : [-1/0,1/0]
RESULT: v0x50a88f0_0 : [-1/0,1/0]
