RESULT: v0x3f5fa10_0 : [-1/0,1/0]
RESULT: v0x3f60990_0 : [-1/0,1/0]
RESULT: v0x3f5fcf0_0 : [-1/0,1/0]
RESULT: v0x3f5ed10_0 : [-1/0,1/0]
RESULT: v0x3f5fab0_0 : [-1/0,1/0]
RESULT: v0x3f5f010_0 : [-1/0,1/0]
RESULT: v0x3f5ec30_0 : [-1/0,1/0]
RESULT: v0x3f5fe70_0 : [-1/0,1/0]
RESULT: v0x3d9f790_0 : [-1/0,1/0]
RESULT: v0x3f5f190_0 : [-1/0,1/0]
RESULT: v0x3f60810_0 : [-1/0,1/0]
RESULT: v0x3dbeec0_0 : [-1/0,1/0]
RESULT: v0x3f5fb70_0 : [-1/0,1/0]
RESULT: v0x3f5edd0_0 : [-1/0,1/0]
RESULT: v0x3f5ee90_0 : [-1/0,1/0]
RESULT: v0x3f5eb90_0 : [-1/0,1/0]
RESULT: v0x3f5ef50_0 : [-1/0,1/0]
RESULT: v0x39fe240_0 : [-1/0,1/0]
RESULT: v0x39fe000_0 : [-1/0,1/0]
RESULT: v0x39fe360_0 : [-1/0,1/0]
RESULT: v0x39fe180_0 : [-1/0,1/0]
RESULT: v0x3f614b0_0 : [-1/0,1/0]
RESULT: v0x3f61430_0 : [-1/0,1/0]
RESULT: v0x3f60750_0 : [-1/0,1/0]
