RESULT: v0x50a04e0_0 : [2,2]
RESULT: v0x50a00e0_0 : [1,1]
RESULT: v0x509fbe0_0 : [0,2]
RESULT: v0x509f020_0 : [1,2]
RESULT: v0x50a05e0_0 : [0,1]
RESULT: v0x509e320_0 : [0,51]
RESULT: v0x509e220_0 : [0,50]
RESULT: v0x509f9e0_0 : [0,6]
RESULT: v0x50a07e0_0 : [-1/0,1/0]
RESULT: v0x50a02e0_0 : [0,1]
RESULT: v0x50a03e0_0 : [-1/0,1/0]
RESULT: v0x50a01e0_0 : [0,1]
RESULT: v0x509fae0_0 : [0,1]
RESULT: v0x50a06e0_0 : [0,1]
RESULT: v0x509ffe0_0 : [0,1]
RESULT: v0x509fee0_0 : [0,51]
RESULT: v0x509fce0_0 : [0,1]
RESULT: v0x509fde0_0 : [0,1]
RESULT: v0x7154df0_0 : [-1/0,1/0]
RESULT: v0x71549d0_0 : [0,0]
RESULT: v0x7154370_0 : [0,0]
RESULT: v0x7153b10_0 : [-1/0,1/0]
RESULT: v0x71532b0_0 : [0,0]
RESULT: v0x7152630_0 : [-1/0,1/0]
RESULT: v0x7151bb0_0 : [-1/0,1/0]
RESULT: v0x7150d10_0 : [-1/0,1/0]
RESULT: v0x71504b0_0 : [-1/0,1/0]
RESULT: v0x714f610_0 : [1,1]
