RESULT: v0x514c450_0 : [0,0]
RESULT: v0x5643490_1 : [0,1]
RESULT: v0x5643e90_1 : [0,1]
RESULT: v0x5643cf0_1 : [0,1]
RESULT: v0x5643910_1 : [0,1]
RESULT: v0x5430cd0_1 : [0,1]
RESULT: v0x5434240_1 : [0,1]
RESULT: v0x54141a0_1 : [0,1]
RESULT: v0x5427cc0_1 : [0,1]
RESULT: v0x5403a60_1 : [0,1]
RESULT: v0x5403fe0_1 : [0,1]
RESULT: v0x53f7440_1 : [0,1]
RESULT: v0x5405460_1 : [0,1]
RESULT: v0x53e2160_1 : [0,1]
RESULT: v0x53f4260_1 : [0,2]
RESULT: v0x52765b0_1 : [0,2]
RESULT: v0x51a4290_1 : [0,2]
RESULT: v0x5640570_1 : [0,2]
RESULT: v0x5454af0_1 : [0,2]
RESULT: v0x5444650_1 : [0,2]
RESULT: v0x564de10_1 : [0,2]
RESULT: v0x56486e0_1 : [0,2]
RESULT: v0x51a6b90_1 : [0,2]
RESULT: v0x5647960_1 : [0,2]
RESULT: v0x5646f60_1 : [0,2]
RESULT: v0x56477e0_1 : [0,2]
RESULT: v0x5647b20_1 : [0,2]
RESULT: v0x5648720_1 : [0,0]
