RESULT: v0x4a2f040_0 : [0,1/0]
RESULT: v0x4ce42f0_0 : [0,1]
RESULT: v0x4f31c20_0 : [123,777]
RESULT: v0x4b45fd0_0 : [0,1]
RESULT: v0x4b44cf0_0 : [0,666]
RESULT: v0x4f1b0a0_0 : [0,1]
RESULT: v0x4f19d40_0 : [0,1]
RESULT: v0x4b74b50_0 : [0,1]
RESULT: v0x4cc24f0_0 : [0,2]
RESULT: v0x4f19000_0 : [0,456]
RESULT: v0x4f2d420_0 : [0,1]
RESULT: v0x4ba91d0_0 : [0,1]
RESULT: v0x4f38ec0_0 : [0,1]
RESULT: v0x4bb6910_0 : [0,3]
RESULT: v0x4ba3010_0 : [0,1]
RESULT: v0x4f34680_0 : [0,123]
RESULT: v0x4baddf0_0 : [0,1]
RESULT: v0x4ba5b10_0 : [0,1]
RESULT: v0x4911800_0 : [0,456]
RESULT: v0x4cbb9d0_0 : [0,1]
RESULT: v0x4ca5510_0 : [0,2]
RESULT: v0x4753a40_0 : [-1/0,1/0]
RESULT: v0x4753b40_0 : [0,456]
RESULT: v0x4753340_0 : [-1/0,1/0]
RESULT: v0x4753040_0 : [0,456]
RESULT: v0x4753240_0 : [0,1]
RESULT: v0x4753f40_0 : [0,123]
