RESULT: v0x4600fe0_0 : [0,1]
RESULT: v0x48728c0_1 : [0,1]
RESULT: v0x5ae09d0_1 : [0,1]
RESULT: v0x54980b0_1 : [0,1]
RESULT: v0x4a09c90_1 : [0,1]
RESULT: v0x4a12260_1 : [0,1]
RESULT: v0x4a5dd40_1 : [0,1]
RESULT: v0x54ad7a0_1 : [0,1]
RESULT: v0x54829e0_1 : [0,1]
RESULT: v0x51be740_1 : [0,1]
RESULT: v0x54a31a0_1 : [-1/0,1/0]
RESULT: v0x4a59da0_1 : [-1/0,1/0]
RESULT: v0x5ac73e0_1 : [0,2]
RESULT: v0x4a63740_1 : [0,2]
RESULT: v0x486f2d0_1 : [0,2]
RESULT: v0x51c18a0_1 : [0,2]
RESULT: v0x5498760_1 : [0,2]
RESULT: v0x54833c0_1 : [0,2]
RESULT: v0x51c14e0_1 : [0,2]
RESULT: v0x53fbaa0_1 : [0,2]
RESULT: v0x48906d0_1 : [0,2]
RESULT: v0x53f7f70_1 : [0,2]
