RESULT: v0x3ae8ee0_0 : [2,1/0]
RESULT: v0x3b3c5c0_0 : [123,777]
RESULT: v0x38c69d0_0 : [0,1]
RESULT: v0x3a8aaf0_0 : [0,1]
RESULT: v0x3a8a970_0 : [0,2]
RESULT: v0x3a8a670_0 : [0,3]
RESULT: v0x3bba0e0_0 : [0,1]
RESULT: v0x3b527c0_0 : [0,0]
RESULT: v0x3a8af70_0 : [0,0]
RESULT: v0x3b7a900_0 : [456,456]
RESULT: v0x3a8adf0_0 : [0,1]
RESULT: v0x3a8a5b0_0 : [0,1]
RESULT: v0x38cd520_0 : [0,1]
RESULT: v0x3a8a4f0_0 : [0,1]
RESULT: v0x3dd2350_0 : [0,456]
RESULT: v0x3b1de60_0 : [0,2]
RESULT: v0x3a8b1b0_0 : [0,1]
RESULT: v0x3a88b90_0 : [0,1]
RESULT: v0x3ae91e0_0 : [0,123]
RESULT: v0x3b4f6e0_0 : [0,1]
RESULT: v0x3bb2b40_0 : [0,1]
RESULT: v0x3b88f40_0 : [0,3]
RESULT: v0x3aa0aa0_0 : [456,456]
RESULT: v0x3a8ac70_0 : [1,1]
RESULT: v0x3b1fe40_0 : [2,2]
