RESULT: v0x531d8f0_0 : [-1/0,1/0]
RESULT: v0x531d830_0 : [-1/0,1/0]
RESULT: v0x5295460_0 : [-1/0,1/0]
RESULT: v0x531d490_0 : [-1/0,1/0]
RESULT: v0x531d530_0 : [-1/0,1/0]
RESULT: v0x531db30_0 : [-1/0,1/0]
RESULT: v0x531dbf0_0 : [-1/0,1/0]
RESULT: v0x52c6570_0 : [-1/0,1/0]
RESULT: v0x531dcb0_0 : [-1/0,1/0]
RESULT: v0x531dd70_0 : [-1/0,1/0]
RESULT: v0x531de30_0 : [-1/0,1/0]
RESULT: v0x531def0_0 : [-1/0,1/0]
RESULT: v0x531dfb0_0 : [-1/0,1/0]
RESULT: v0x531e070_0 : [-1/0,1/0]
RESULT: v0x531e130_0 : [-1/0,1/0]
RESULT: v0x531e1f0_0 : [-1/0,1/0]
RESULT: v0x531e2b0_0 : [-1/0,1/0]
RESULT: v0x531e370_0 : [-1/0,1/0]
RESULT: v0x531e430_0 : [-1/0,1/0]
RESULT: v0x531d9b0_0 : [-1/0,1/0]
RESULT: v0x531d770_0 : [-1/0,1/0]
RESULT: v0x531d6b0_0 : [-1/0,1/0]
RESULT: v0x531db70_0 : [-1/0,1/0]
RESULT: v0x531d5f0_0 : [-1/0,1/0]
