RESULT: v0x3f2db50_0 : [1,1/0]
RESULT: v0x41789b0_0 : [0,1]
RESULT: v0x405fe60_0 : [0,1]
RESULT: v0x4183b30_0 : [123,777]
RESULT: v0x3f8fb70_0 : [0,1]
RESULT: v0x4121af0_0 : [0,1]
RESULT: v0x3f39780_0 : [0,2]
RESULT: v0x4178570_0 : [0,3]
RESULT: v0x4181f50_0 : [0,1]
RESULT: v0x405cd30_0 : [0,1]
RESULT: v0x416a590_0 : [0,1]
RESULT: v0x3f2c4d0_0 : [0,666]
RESULT: v0x3f3d620_0 : [0,2]
RESULT: v0x4161c50_0 : [0,456]
RESULT: v0x3fbb500_0 : [0,1]
RESULT: v0x3f43080_0 : [0,1]
RESULT: v0x412d9d0_0 : [0,1]
RESULT: v0x4124db0_0 : [3,3]
RESULT: v0x3f2efb0_0 : [0,2]
RESULT: v0x3f22ee0_0 : [0,456]
RESULT: v0x40c7df0_0 : [0,1]
RESULT: v0x4064b50_0 : [1,1]
RESULT: v0x40ed880_0 : [0,123]
RESULT: v0x3f8dbf0_0 : [0,1]
