RESULT: v0x6821280_0 : [-1/0,1/0]
RESULT: v0x6821040_0 : [-1/0,1/0]
RESULT: v0x68211c0_0 : [-1/0,1/0]
RESULT: v0x9503340_0 : [-1/0,1/0]
RESULT: v0x6821ac0_0 : [-1/0,1/0]
RESULT: v0x6821300_0 : [-1/0,1/0]
RESULT: v0x6821340_0 : [-1/0,1/0]
RESULT: v0x6821380_0 : [-1/0,1/0]
RESULT: v0x6821180_0 : [-1/0,1/0]
RESULT: v0x550ff20_0 : [-1/0,1/0]
RESULT: v0x6821700_0 : [-1/0,1/0]
RESULT: v0x6821480_0 : [-1/0,1/0]
RESULT: v0x6821600_0 : [-1/0,1/0]
RESULT: v0x68214c0_0 : [-1/0,1/0]
RESULT: v0x6821440_0 : [-1/0,1/0]
RESULT: v0x682a9c0_0 : [-1/0,1/0]
RESULT: v0x6821240_0 : [-1/0,1/0]
RESULT: v0x6821200_0 : [-1/0,1/0]
RESULT: v0x6821100_0 : [-1/0,1/0]
RESULT: v0x6821a80_0 : [-1/0,1/0]
RESULT: v0x68213c0_0 : [-1/0,1/0]
RESULT: v0x5d40b00_0 : [-1/0,1/0]
RESULT: v0x682df70_0 : [-1/0,1/0]
RESULT: v0x6830fd0_0 : [-1/0,1/0]
RESULT: v0xa2fca40_0 : [-1/0,1/0]
RESULT: v0x682d230_0 : [-1/0,1/0]
