RESULT: v0x47cba70_1 : [3,3]
RESULT: v0x46b4c70_1 : [0,1]
RESULT: v0x46b8ac0_1 : [0,1]
RESULT: v0x46bcb50_1 : [0,1]
RESULT: v0x46ccba0_1 : [0,1]
RESULT: v0x46bfab0_1 : [0,1]
RESULT: v0x471d6d0_1 : [0,1]
RESULT: v0x471d650_1 : [0,1]
RESULT: v0x4727bd0_1 : [0,1]
RESULT: v0x46c08f0_1 : [0,1]
RESULT: v0x47128d0_1 : [0,1]
RESULT: v0x476d5c0_1 : [0,1]
RESULT: v0x4718c70_1 : [0,1]
RESULT: v0x47292f0_1 : [0,2]
RESULT: v0x4592000_1 : [0,3]
RESULT: v0x4712bd0_1 : [0,1]
RESULT: v0x4594ab0_1 : [123,777]
RESULT: v0x458b4a0_1 : [0,666]
RESULT: v0x4716bf0_1 : [0,2]
RESULT: v0x46b39f0_1 : [0,1]
RESULT: v0x4709570_1 : [0,2]
RESULT: v0x47191f0_1 : [0,456]
RESULT: v0x486a8f0_1 : [0,123]
RESULT: v0x47f7360_1 : [0,456]
