RESULT: v0x3944280_1 : [-1/0,11]
RESULT: v0x3944640_1 : [-1/0,1/0]
RESULT: v0x39448c0_1 : [-1/0,1/0]
RESULT: v0x3944b40_1 : [-1/0,1/0]
RESULT: v0x3944dc0_1 : [-1/0,1/0]
RESULT: v0x3945040_1 : [-1/0,1/0]
RESULT: v0x39452c0_1 : [-1/0,1/0]
RESULT: v0x3945540_1 : [-1/0,1/0]
RESULT: v0x39457c0_1 : [-1/0,1/0]
RESULT: v0x3945a40_1 : [-1/0,1/0]
RESULT: v0x3945cc0_1 : [-1/0,1/0]
