RESULT: v0x3ee9080_1 : [-1/0,1/0]
RESULT: v0x3f0baf0_1 : [-1/0,1/0]
RESULT: v0x3e8e260_1 : [-1/0,1/0]
RESULT: v0x3e8bae0_1 : [-1/0,1/0]
RESULT: v0x3e8e020_1 : [-1/0,1/0]
RESULT: v0x3e8dea0_1 : [-1/0,1/0]
RESULT: v0x3e8ccc0_1 : [-1/0,1/0]
RESULT: v0x3e8cc00_1 : [-1/0,1/0]
RESULT: v0x3e8dc60_1 : [-1/0,1/0]
RESULT: v0x3e8dae0_1 : [-1/0,1/0]
RESULT: v0x3e8b2a0_1 : [-1/0,1/0]
RESULT: v0x3e8da20_1 : [-1/0,1/0]
RESULT: v0x3e8d8a0_1 : [-1/0,1/0]
RESULT: v0x3e8c480_1 : [-1/0,1/0]
RESULT: v0x3e8c3c0_1 : [-1/0,1/0]
RESULT: v0x3e8d660_1 : [-1/0,1/0]
RESULT: v0x3e8d140_1 : [-1/0,1/0]
RESULT: v0x3e8cfc0_1 : [-1/0,1/0]
RESULT: v0x3e8ce40_1 : [-1/0,1/0]
RESULT: v0x3e8ca80_1 : [-1/0,1/0]
RESULT: v0x3e8c900_1 : [-1/0,1/0]
RESULT: v0x3e8c780_1 : [-1/0,1/0]
RESULT: v0x3e8c600_1 : [-1/0,1/0]
RESULT: v0x3e8c240_1 : [-1/0,1/0]
RESULT: v0x3e8bde0_1 : [-1/0,1/0]
RESULT: v0x3e8ba20_1 : [-1/0,1/0]
RESULT: v0x3e8b8c0_1 : [-1/0,1/0]
RESULT: v0x3e8a1e0_1 : [-1/0,1/0]
RESULT: v0x3e8b880_1 : [-1/0,1/0]
