RESULT: v0x4916d00_0 : [-1/0,1/0]
RESULT: v0x4f77120_0 : [-1/0,1/0]
RESULT: v0x4f76ba0_0 : [-1/0,1/0]
RESULT: v0x4f773c0_0 : [-1/0,1/0]
RESULT: v0x4b357a0_0 : [27,1/0]
RESULT: v0x47bc340_0 : [-1/0,1/0]
RESULT: v0x4835c80_0 : [-1/0,1/0]
RESULT: v0x47bd340_0 : [-1/0,1/0]
RESULT: v0x4bbb320_0 : [1,1]
RESULT: v0x4834820_0 : [-1/0,1/0]
RESULT: v0x49185e0_0 : [-1/0,1/0]
RESULT: v0x478d2d0_0 : [67,1/0]
RESULT: v0x478d3d0_0 : [0,1]
RESULT: v0x478d4d0_0 : [-1/0,1/0]
RESULT: v0x478d5d0_0 : [-1/0,1/0]
RESULT: v0x478d6d0_0 : [-1/0,1/0]
RESULT: v0x478d7d0_0 : [-1/0,1/0]
RESULT: v0x478d8d0_0 : [0,1]
RESULT: v0x478d9d0_0 : [-1/0,1/0]
RESULT: v0x478dad0_0 : [-1/0,1/0]
RESULT: v0x478dbd0_0 : [-1/0,1/0]
RESULT: v0x478dcd0_0 : [-1/0,1/0]
RESULT: v0x478ddd0_0 : [-1/0,1/0]
RESULT: v0x478ded0_0 : [-1/0,1/0]
RESULT: v0x478dfd0_0 : [-1/0,1/0]
RESULT: v0x4b88310_0 : [-1/0,1/0]
RESULT: v0x48347e0_0 : [-1/0,1/0]
RESULT: v0x4b6ec70_0 : [-1/0,1/0]
RESULT: v0x4f768c0_0 : [-1/0,10]
RESULT: v0x47c1be0_0 : [-1/0,1/0]
RESULT: v0x478f2d0_0 : [-1/0,1/0]
