RESULT: v0x50ad0d0_1 : [3,3]
RESULT: v0x50e3410_1 : [0,1]
RESULT: v0x50e8450_1 : [0,1]
RESULT: v0x50e4d50_1 : [0,1]
RESULT: v0x51f5f30_1 : [0,1]
RESULT: v0x51f5db0_1 : [0,1]
RESULT: v0x51f5c30_1 : [0,1]
RESULT: v0x51f59f0_1 : [0,1]
RESULT: v0x50e0d40_1 : [0,1]
RESULT: v0x50e0e00_1 : [0,1]
RESULT: v0x4fa3d70_1 : [0,2]
RESULT: v0x50e1040_1 : [0,3]
RESULT: v0x50e1100_1 : [123,777]
RESULT: v0x50e11c0_1 : [0,666]
RESULT: v0x50e1280_1 : [0,2]
RESULT: v0x4fbd010_1 : [0,1]
RESULT: v0x4fbfa90_1 : [0,2]
RESULT: v0x4fc2ef0_1 : [0,456]
RESULT: v0x4fc3830_1 : [0,123]
RESULT: v0x4fc6ab0_1 : [0,456]
RESULT: v0x50d60c0_1 : [0,1]
RESULT: v0x50d2fc0_1 : [0,1]
RESULT: v0x50e2f60_1 : [0,1]
