RESULT: v0x576eab0_0 : [-1/0,1/0]
RESULT: v0x576efb0_0 : [-1/0,1/0]
RESULT: v0x576fbb0_0 : [789,789]
RESULT: v0x576ecb0_0 : [-1/0,1/0]
RESULT: v0x576eeb0_0 : [-1/0,1/0]
RESULT: v0x576ebb0_0 : [-1/0,1/0]
RESULT: v0x5bbd8f0_1 : [4,4]
RESULT: v0x5c634f0_1 : [0,1]
RESULT: v0x5bb6870_1 : [0,1]
RESULT: v0x5caeb30_1 : [0,1]
RESULT: v0x5beec70_1 : [0,1]
RESULT: v0x5c381b0_1 : [0,1]
RESULT: v0x5c345b0_1 : [0,1]
RESULT: v0x5a1d930_1 : [0,1]
RESULT: v0x5b9cfb0_1 : [0,1]
RESULT: v0x5c931f0_1 : [0,1]
RESULT: v0x5c32530_1 : [0,1]
RESULT: v0x5cb6e80_1 : [0,1]
RESULT: v0x5cb6b40_1 : [0,1]
RESULT: v0x5cb7020_1 : [0,2]
RESULT: v0x5cb8bf0_1 : [0,3]
RESULT: v0x5d54720_1 : [0,1]
RESULT: v0x5d547e0_1 : [123,777]
RESULT: v0x5d545a0_1 : [0,666]
RESULT: v0x5d54120_1 : [0,2]
RESULT: v0x5ba88b0_1 : [0,1]
RESULT: v0x5bd2bb0_1 : [0,2]
RESULT: v0x5bfceb0_1 : [0,456]
RESULT: v0x5bd5130_1 : [0,123]
RESULT: v0x5bdd1f0_1 : [0,456]
RESULT: v0x5c9d5b0_1 : [0,3]
