RESULT: v0x51d8650_0 : [0,1]
RESULT: v0x51de950_0 : [1,2]
RESULT: v0x524ba20_0 : [0,0]
RESULT: v0x4d291a0_0 : [1,1]
RESULT: v0x43bc9b0_0 : [1,2]
RESULT: v0x51db690_0 : [0,1]
RESULT: v0x4e4ed80_0 : [0,1]
RESULT: v0x51d7930_0 : [0,6]
RESULT: v0x48559c0_0 : [0,50]
RESULT: v0x4cfc0b0_0 : [-1/0,1/0]
RESULT: v0x51e5da0_0 : [0,1]
RESULT: v0x43bbcb0_0 : [0,50]
RESULT: v0x4e29630_0 : [0,0]
RESULT: v0x51d7360_0 : [0,0]
RESULT: v0x4d29c00_0 : [0,0]
RESULT: v0x5252700_0 : [0,0]
RESULT: v0x5250780_0 : [-1/0,1/0]
RESULT: v0x43bccb0_0 : [-1/0,1/0]
RESULT: v0x43c5380_0 : [0,6]
RESULT: v0x43c5480_0 : [0,1]
RESULT: v0x43c5580_0 : [1,2]
RESULT: v0x43c5680_0 : [0,1]
RESULT: v0x43c5780_0 : [0,0]
RESULT: v0x43c5880_0 : [0,50]
RESULT: v0x43c5980_0 : [0,0]
RESULT: v0x43c5a80_0 : [0,1]
RESULT: v0x43c5b80_0 : [0,1]
RESULT: v0x43c5c80_0 : [0,0]
RESULT: v0x43c5d80_0 : [-1/0,1/0]
RESULT: v0x43c5e80_0 : [0,0]
RESULT: v0x43c5f80_0 : [1,1]
RESULT: v0x43c6080_0 : [0,0]
RESULT: v0x43c6180_0 : [-1/0,1/0]
RESULT: v0x43bcfb0_0 : [-1/0,1/0]
RESULT: v0x43c6380_0 : [-1/0,1/0]
RESULT: v0x5386670_0 : [-1/0,1/0]
RESULT: v0x53bdb20_0 : [0,50]
RESULT: v0x53bdd20_0 : [0,2]
RESULT: v0x53bdf20_0 : [0,1]
RESULT: v0x53be120_0 : [1,1]
RESULT: v0x53be320_0 : [-1/0,1/0]
RESULT: v0x43c6280_0 : [-1/0,1/0]
