RESULT: v0x4a943e0_1 : [-1/0,2]
RESULT: v0x4992140_1 : [-1/0,1/0]
RESULT: v0x4991d20_1 : [-1/0,1]
RESULT: v0x4991fa0_1 : [-1/0,1/0]
RESULT: v0x4991de0_1 : [-1/0,1/0]
RESULT: v0x4992200_1 : [-1/0,1/0]
RESULT: v0x4991340_1 : [-1/0,1/0]
RESULT: v0x4990e60_1 : [-1/0,1/0]
RESULT: v0x49911a0_1 : [-1/0,1/0]
RESULT: v0x4991000_1 : [-1/0,1/0]
RESULT: v0x4991440_1 : [-1/0,1/0]
RESULT: v0x4990640_1 : [-1/0,1/0]
RESULT: v0x49903c0_1 : [-1/0,1/0]
RESULT: v0x498ffa0_1 : [-1/0,1/0]
RESULT: v0x4990200_1 : [-1/0,1/0]
RESULT: v0x4990580_1 : [-1/0,1/0]
