RESULT: v0x4e5acf0_0 : [0,1]
RESULT: v0x4300e40_0 : [0,1]
RESULT: v0x4e622b0_0 : [-1/0,1/0]
RESULT: v0x55e1470_0 : [-1/0,1/0]
RESULT: v0x5582b00_0 : [-1/0,1/0]
RESULT: v0x48bdcc0_0 : [-1/0,1/0]
RESULT: v0x4e86050_0 : [0,0]
RESULT: v0x40faaa0_0 : [67,1/0]
RESULT: v0x55b0b80_0 : [67,1/0]
RESULT: v0x40faba0_0 : [0,1]
RESULT: v0x40faca0_0 : [0,1]
RESULT: v0x40fada0_0 : [-1/0,1/0]
RESULT: v0x40faea0_0 : [-1/0,1/0]
RESULT: v0x40fafa0_0 : [0,0]
RESULT: v0x40fb0a0_0 : [0,0]
RESULT: v0x40fb1a0_0 : [-1/0,1/0]
RESULT: v0x46ddd50_0 : [-1/0,1/0]
RESULT: v0x40fb2a0_0 : [-1/0,1/0]
RESULT: v0x42ee290_0 : [-1/0,1/0]
RESULT: v0x40fb3a0_0 : [-1/0,1/0]
RESULT: v0x4eba5f0_0 : [-1/0,1/0]
RESULT: v0x40fb4a0_0 : [-1/0,1/0]
RESULT: v0x40fb5a0_0 : [-1/0,1/0]
RESULT: v0x40fb6a0_0 : [-1/0,1/0]
RESULT: v0x40fb7a0_0 : [-1/0,1/0]
RESULT: v0x626ba20_0 : [-1/0,1/0]
RESULT: v0x42fbaa0_0 : [-1/0,1/0]
RESULT: v0x424aaa0_0 : [0,0]
RESULT: v0x6378b50_0 : [-1/0,10]
RESULT: v0x49e5800_0 : [-1/0,1/0]
RESULT: v0x40fbaa0_0 : [-1/0,1/0]
