RESULT: v0x4e8c750_1 : [3,3]
RESULT: v0x4e8c690_1 : [0,1]
RESULT: v0x4e8c5d0_1 : [0,1]
RESULT: v0x4d533e0_1 : [0,1]
RESULT: v0x4f9fbd0_1 : [0,1]
RESULT: v0x4f9fb30_1 : [0,1]
RESULT: v0x4f9faf0_1 : [0,1]
RESULT: v0x4f9f690_1 : [0,1]
RESULT: v0x4e8cc90_1 : [0,1]
RESULT: v0x4e8cd50_1 : [0,1]
RESULT: v0x4d56590_1 : [0,1]
RESULT: v0x4e8cf90_1 : [123,777]
RESULT: v0x4e8d050_1 : [0,666]
RESULT: v0x4e8d110_1 : [0,2]
RESULT: v0x4e76be0_1 : [0,1]
RESULT: v0x4e792c0_1 : [0,2]
RESULT: v0x4e4be80_1 : [0,456]
RESULT: v0x4e79f10_1 : [0,123]
RESULT: v0x4e7dc80_1 : [0,456]
RESULT: v0x4e82030_1 : [0,3]
RESULT: v0x4e7dbf0_1 : [0,1]
RESULT: v0x4e95e40_1 : [0,1]
