RESULT: v0x7ea32c0_0 : [-1/0,2]
RESULT: v0x3e4a030_0 : [1,2]
RESULT: v0x6774bd0_0 : [0,0]
RESULT: v0x7ecd120_0 : [-1/0,1/0]
RESULT: v0x7e44ab0_0 : [0,1]
RESULT: v0x67ec480_0 : [0,1/0]
RESULT: v0x5a2d6c0_0 : [0,1/0]
RESULT: v0x6e2f440_0 : [0,3]
RESULT: v0x6788340_0 : [0,1/0]
RESULT: v0x6242120_0 : [0,53]
RESULT: v0x7e78b40_0 : [-1/0,1/0]
RESULT: v0x5e97210_0 : [0,1]
RESULT: v0x7e7d660_0 : [0,1]
RESULT: v0x8481860_0 : [1,1]
RESULT: v0x6254720_0 : [0,1]
RESULT: v0x3e49230_0 : [0,52]
RESULT: v0x3e49030_0 : [0,50]
RESULT: v0x3e493d0_0 : [0,53]
RESULT: v0x3e49130_0 : [0,51]
RESULT: v0x7e6fa00_0 : [-1/0,1/0]
RESULT: v0x3e4a330_0 : [-1/0,1/0]
RESULT: v0x3e52a00_0 : [-1/0,1/0]
RESULT: v0x3e52b00_0 : [0,1]
RESULT: v0x3e52c00_0 : [-1/0,2]
RESULT: v0x3e52d00_0 : [0,1]
RESULT: v0x3e52e00_0 : [0,1/0]
RESULT: v0x3e52f00_0 : [0,53]
RESULT: v0x3e53000_0 : [0,1/0]
RESULT: v0x3e53100_0 : [0,1]
RESULT: v0x3e53200_0 : [0,1]
RESULT: v0x3e53300_0 : [0,1/0]
RESULT: v0x3e53400_0 : [-1/0,1/0]
RESULT: v0x3e53500_0 : [0,0]
RESULT: v0x3e53600_0 : [1,1]
RESULT: v0x3e53700_0 : [0,3]
RESULT: v0x3e53800_0 : [-1/0,1/0]
RESULT: v0x3e499d0_0 : [-1/0,1/0]
RESULT: v0x3e53a00_0 : [-1/0,1/0]
RESULT: v0x85f59f0_0 : [-1/0,1/0]
RESULT: v0x8530d60_0 : [0,50]
RESULT: v0x8530e60_0 : [0,51]
RESULT: v0x8530f60_0 : [0,52]
RESULT: v0x8531060_0 : [0,53]
RESULT: v0x8531160_0 : [-1/0,2]
RESULT: v0x8531260_0 : [0,1]
RESULT: v0x8531360_0 : [1,1]
RESULT: v0x8531460_0 : [-1/0,1/0]
RESULT: v0x3e53900_0 : [-1/0,1/0]
