RESULT: v0x4ea4da0_0 : [-1/0,1/0]
RESULT: v0x41e2890_0 : [0,1]
RESULT: v0x4721b50_0 : [-1/0,1/0]
RESULT: v0x42e9950_0 : [-1/0,1/0]
RESULT: v0x55aaab0_0 : [-1/0,1/0]
RESULT: v0x4e00730_0 : [-1/0,1/0]
RESULT: v0x61b1a10_0 : [0,0]
RESULT: v0x40faaa0_0 : [67,1/0]
RESULT: v0x432a2f0_0 : [67,1/0]
RESULT: v0x40faba0_0 : [0,1]
RESULT: v0x40faca0_0 : [0,1]
RESULT: v0x40fada0_0 : [-1/0,1/0]
RESULT: v0x40faea0_0 : [-1/0,1/0]
RESULT: v0x40fafa0_0 : [0,0]
RESULT: v0x40fb0a0_0 : [-1/0,1/0]
RESULT: v0x40fb1a0_0 : [-1/0,1/0]
RESULT: v0x4e05220_0 : [-1/0,1/0]
RESULT: v0x40fb2a0_0 : [-1/0,1/0]
RESULT: v0x5652920_0 : [-1/0,1/0]
RESULT: v0x40fb3a0_0 : [-1/0,1/0]
RESULT: v0x4664970_0 : [-1/0,1/0]
RESULT: v0x40fb4a0_0 : [-1/0,1/0]
RESULT: v0x40fb5a0_0 : [-1/0,1/0]
RESULT: v0x40fb6a0_0 : [-1/0,1/0]
RESULT: v0x40fb7a0_0 : [-1/0,1/0]
RESULT: v0x55b0700_0 : [-1/0,1/0]
RESULT: v0x4e69d00_0 : [-1/0,1/0]
RESULT: v0x4ccf2e0_0 : [0,0]
RESULT: v0x6726a50_0 : [-1/0,10]
RESULT: v0x69a9e10_0 : [-1/0,1/0]
RESULT: v0x40fbaa0_0 : [-1/0,1/0]
