RESULT: v0x4201cd0_1 : [3,3]
RESULT: v0x4363430_1 : [0,1]
RESULT: v0x4362170_1 : [0,1]
RESULT: v0x4313530_1 : [0,1]
RESULT: v0x4400e20_1 : [0,1]
RESULT: v0x43f1b50_1 : [0,1]
RESULT: v0x43f1c10_1 : [0,1]
RESULT: v0x4400be0_1 : [0,1]
RESULT: v0x41e77a0_1 : [0,1]
RESULT: v0x41e7b60_1 : [0,1]
RESULT: v0x41e7f20_1 : [0,1]
RESULT: v0x41e82e0_1 : [0,1]
RESULT: v0x41e86a0_1 : [0,1]
RESULT: v0x41e8a60_1 : [0,2]
RESULT: v0x41e8e20_1 : [0,3]
RESULT: v0x41e3da0_1 : [123,777]
RESULT: v0x4204220_1 : [0,2]
RESULT: v0x4204020_1 : [0,1]
RESULT: v0x4310390_1 : [0,2]
RESULT: v0x43144b0_1 : [0,456]
RESULT: v0x4318480_1 : [0,123]
RESULT: v0x432c960_1 : [0,456]
