RESULT: v0x4454a50_0 : [-1/0,1/0]
RESULT: v0x6c8c090_0 : [-1/0,1/0]
RESULT: v0x5621ee0_0 : [-1/0,1/0]
RESULT: v0x4edcab0_0 : [-1/0,1/0]
RESULT: v0x435a390_0 : [-1/0,1/0]
RESULT: v0x45077c0_0 : [-1/0,1/0]
RESULT: v0x43b8960_0 : [1,1]
RESULT: v0x40faaa0_0 : [67,1/0]
RESULT: v0x4202eb0_0 : [27,1/0]
RESULT: v0x40faba0_0 : [0,1]
RESULT: v0x40faca0_0 : [0,1]
RESULT: v0x40fada0_0 : [-1/0,1/0]
RESULT: v0x40faea0_0 : [-1/0,1/0]
RESULT: v0x40fafa0_0 : [-1/0,1/0]
RESULT: v0x40fb0a0_0 : [-1/0,1/0]
RESULT: v0x40fb1a0_0 : [-1/0,1/0]
RESULT: v0x43994a0_0 : [-1/0,1/0]
RESULT: v0x40fb2a0_0 : [-1/0,1/0]
RESULT: v0x4227380_0 : [-1/0,1/0]
RESULT: v0x40fb3a0_0 : [-1/0,1/0]
RESULT: v0x487bb60_0 : [-1/0,1/0]
RESULT: v0x40fb4a0_0 : [-1/0,1/0]
RESULT: v0x40fb5a0_0 : [-1/0,1/0]
RESULT: v0x40fb6a0_0 : [-1/0,1/0]
RESULT: v0x40fb7a0_0 : [-1/0,1/0]
RESULT: v0x41e6110_0 : [-1/0,1/0]
RESULT: v0x61f36e0_0 : [-1/0,1/0]
RESULT: v0x6ca4ba0_0 : [-1/0,1/0]
RESULT: v0x49ef760_0 : [-1/0,10]
RESULT: v0x4e7dfc0_0 : [-1/0,1/0]
RESULT: v0x40fcaa0_0 : [-1/0,1/0]
