RESULT: v0x3cc9dc0_1 : [4,4]
RESULT: v0x3fb2390_1 : [0,1]
RESULT: v0x3cdbe70_1 : [0,1]
RESULT: v0x3d5aaa0_1 : [0,1]
RESULT: v0x3d4b4c0_1 : [0,1]
RESULT: v0x3ce7120_1 : [0,1]
RESULT: v0x3d2de60_1 : [0,1]
RESULT: v0x3cf3f60_1 : [0,1]
RESULT: v0x3cedf40_1 : [0,1]
RESULT: v0x3d28160_1 : [0,1]
RESULT: v0x3c6afe0_1 : [0,1]
RESULT: v0x3ce7260_1 : [0,1]
RESULT: v0x3ceb280_1 : [0,1]
RESULT: v0x3c8b9b0_1 : [0,2]
RESULT: v0x3c07950_1 : [0,3]
RESULT: v0x3c07910_1 : [123,777]
RESULT: v0x3b37450_1 : [0,666]
RESULT: v0x3b37390_1 : [0,2]
RESULT: v0x3b370b0_1 : [0,1]
RESULT: v0x3b36ff0_1 : [0,2]
RESULT: v0x3bd7410_1 : [0,456]
RESULT: v0x3bd7350_1 : [0,123]
RESULT: v0x3bd7110_1 : [0,456]
RESULT: v0x3b38650_1 : [0,3]
