RESULT: v0x7526840_0 : [-1/0,1/0]
RESULT: v0x82051b0_0 : [-1/0,1/0]
RESULT: v0x82052b0_0 : [-1/0,1/0]
RESULT: v0x82053b0_0 : [-1/0,1/0]
RESULT: v0x82054b0_0 : [-1/0,1/0]
RESULT: v0x82055b0_0 : [-1/0,1/0]
RESULT: v0x8201470_0 : [-1/0,1/0]
RESULT: v0x8201570_0 : [-1/0,1/0]
RESULT: v0x8201670_0 : [-1/0,1/0]
RESULT: v0x8201770_0 : [-1/0,1/0]
RESULT: v0x8201870_0 : [-1/0,1/0]
RESULT: v0x8201970_0 : [-1/0,1/0]
RESULT: v0x8201a70_0 : [-1/0,1/0]
RESULT: v0x8201b70_0 : [-1/0,1/0]
RESULT: v0x8201c70_0 : [1,2]
RESULT: v0x8201d70_0 : [2,2]
RESULT: v0x8201e70_0 : [0,0]
RESULT: v0x8201f70_0 : [-1/0,1/0]
RESULT: v0x8202890_0 : [-1/0,1/0]
RESULT: v0x8202990_0 : [-1/0,1/0]
RESULT: v0x8202a90_0 : [-1/0,1/0]
