RESULT: v0x50ec6a0_0 : [-1/0,1/0]
RESULT: v0x50ec8a0_0 : [-1/0,1/0]
RESULT: v0x50ed5a0_0 : [789,789]
RESULT: v0x50ec5a0_0 : [-1/0,1/0]
RESULT: v0x50ec7a0_0 : [-1/0,1/0]
RESULT: v0x50ec4a0_0 : [-1/0,1/0]
RESULT: v0x5540060_1 : [4,4]
RESULT: v0x5552c60_1 : [0,1]
RESULT: v0x552d460_1 : [0,1]
RESULT: v0x53835e0_1 : [0,1]
RESULT: v0x5606960_1 : [0,1]
RESULT: v0x5535a20_1 : [0,1]
RESULT: v0x55055a0_1 : [0,1]
RESULT: v0x55e2560_1 : [0,1]
RESULT: v0x55dffe0_1 : [0,1]
RESULT: v0x54f0420_1 : [0,1]
RESULT: v0x55e7060_1 : [0,1]
RESULT: v0x5635cf0_1 : [0,1]
RESULT: v0x5635980_1 : [0,1]
RESULT: v0x5635e90_1 : [0,2]
RESULT: v0x5636ca0_1 : [0,3]
RESULT: v0x56c3f80_1 : [0,1]
RESULT: v0x56c4040_1 : [123,777]
RESULT: v0x56c3e00_1 : [0,666]
RESULT: v0x56c3980_1 : [0,2]
RESULT: v0x55401a0_1 : [0,1]
RESULT: v0x54f8c60_1 : [0,2]
RESULT: v0x5397d60_1 : [0,456]
RESULT: v0x54fd760_1 : [0,123]
RESULT: v0x5615be0_1 : [0,456]
RESULT: v0x554ede0_1 : [0,3]
