RESULT: v0x524bea0_0 : [0,1]
RESULT: v0x69b26f0_0 : [0,1]
RESULT: v0x439bf00_0 : [-1/0,1/0]
RESULT: v0x470a190_0 : [-1/0,1/0]
RESULT: v0x61b0bb0_0 : [-1/0,1/0]
RESULT: v0x562dd30_0 : [-1/0,1/0]
RESULT: v0x4d09e20_0 : [0,0]
RESULT: v0x40faaa0_0 : [67,1/0]
RESULT: v0x591bac0_0 : [67,1/0]
RESULT: v0x40faba0_0 : [0,1]
RESULT: v0x40faca0_0 : [0,1]
RESULT: v0x40fada0_0 : [-1/0,1/0]
RESULT: v0x40faea0_0 : [-1/0,1/0]
RESULT: v0x40fafa0_0 : [0,0]
RESULT: v0x40fb0a0_0 : [0,0]
RESULT: v0x40fb1a0_0 : [-1/0,1/0]
RESULT: v0x4709ef0_0 : [-1/0,1/0]
RESULT: v0x40fb2a0_0 : [-1/0,1/0]
RESULT: v0x60a8f80_0 : [-1/0,1/0]
RESULT: v0x40fb3a0_0 : [-1/0,1/0]
RESULT: v0xa081ec0_0 : [-1/0,1/0]
RESULT: v0x40fb4a0_0 : [-1/0,1/0]
RESULT: v0x40fb5a0_0 : [-1/0,1/0]
RESULT: v0x40fb6a0_0 : [-1/0,1/0]
RESULT: v0x40fb7a0_0 : [-1/0,1/0]
RESULT: v0x471dd80_0 : [-1/0,1/0]
RESULT: v0x8c99b90_0 : [-1/0,1/0]
RESULT: v0x626e6e0_0 : [0,0]
RESULT: v0x4290390_0 : [-1/0,10]
RESULT: v0x6387d10_0 : [-1/0,1/0]
RESULT: v0x40fbaa0_0 : [-1/0,1/0]
