RESULT: v0x4d64b20_0 : [1,1/0]
RESULT: v0x4d843e0_0 : [0,1]
RESULT: v0x4dc1b60_0 : [0,1]
RESULT: v0x4d41540_0 : [123,777]
RESULT: v0x4d86400_0 : [0,1]
RESULT: v0x4d64e60_0 : [0,1]
RESULT: v0x4da2c20_0 : [0,1]
RESULT: v0x4dbad00_0 : [0,2]
RESULT: v0x4d44ac0_0 : [0,3]
RESULT: v0x4dc23c0_0 : [0,1]
RESULT: v0x4d41680_0 : [0,1]
RESULT: v0x4b47dc0_0 : [0,1]
RESULT: v0x4db22d0_0 : [0,666]
RESULT: v0x4d83740_0 : [1,1]
RESULT: v0x4dce4c0_0 : [1,1]
RESULT: v0x4d74220_0 : [0,2]
RESULT: v0x4d8c520_0 : [0,456]
RESULT: v0x4c80140_0 : [0,123]
RESULT: v0x4c78af0_0 : [0,456]
RESULT: v0x4da7760_0 : [0,2]
RESULT: v0x4d35d80_0 : [0,1]
RESULT: v0x4bdbeb0_0 : [0,1]
RESULT: v0x4d38c80_0 : [0,1]
RESULT: v0x4c4cf60_0 : [0,1]
