RESULT: v0x51182e0_0 : [0,0]
RESULT: v0x53afb70_1 : [0,1]
RESULT: v0x53aa3a0_1 : [0,1]
RESULT: v0x53b7f60_1 : [0,1]
RESULT: v0x53b79e0_1 : [0,1]
RESULT: v0x53c8ed0_1 : [0,1]
RESULT: v0x53c4db0_1 : [0,1]
RESULT: v0x53c4af0_1 : [0,1]
RESULT: v0x5386dc0_1 : [0,1]
RESULT: v0x53be750_1 : [0,1]
RESULT: v0x53c2b20_1 : [0,1]
RESULT: v0x53941d0_1 : [-1/0,1/0]
RESULT: v0x53b8140_1 : [-1/0,1/0]
RESULT: v0x53aef60_1 : [0,2]
RESULT: v0x53af830_1 : [0,2]
RESULT: v0x53a2d70_1 : [0,2]
RESULT: v0x53a3fd0_1 : [0,2]
RESULT: v0x53855a0_1 : [0,2]
RESULT: v0x538d600_1 : [0,2]
RESULT: v0x538d920_1 : [0,2]
RESULT: v0x538e120_1 : [0,2]
RESULT: v0x538e4a0_1 : [0,2]
RESULT: v0x538ee40_1 : [0,2]
RESULT: v0x5396800_1 : [0,0]
