RESULT: v0x48c3a80_1 : [3,3]
RESULT: v0x48c3be0_1 : [0,1]
RESULT: v0x48c3d60_1 : [0,1]
RESULT: v0x48c3fa0_1 : [0,1]
RESULT: v0x485b3f0_1 : [0,1]
RESULT: v0x485b270_1 : [0,1]
RESULT: v0x485b0f0_1 : [0,1]
RESULT: v0x485aeb0_1 : [0,1]
RESULT: v0x472bb70_1 : [0,1]
RESULT: v0x472bc30_1 : [0,1]
RESULT: v0x45eb780_1 : [0,1]
RESULT: v0x472be70_1 : [0,2]
RESULT: v0x472bf30_1 : [0,3]
RESULT: v0x471f490_1 : [123,777]
RESULT: v0x47195f0_1 : [0,666]
RESULT: v0x471ee20_1 : [0,2]
RESULT: v0x47153f0_1 : [0,1]
RESULT: v0x4718170_1 : [0,2]
RESULT: v0x470f770_1 : [0,456]
RESULT: v0x470fd00_1 : [0,123]
RESULT: v0x471ce60_1 : [0,456]
RESULT: v0x4720f10_1 : [0,3]
RESULT: v0x471cdd0_1 : [0,1]
RESULT: v0x472fdd0_1 : [0,1]
