RESULT: v0x4cd0be0_0 : [0,1]
RESULT: v0x5876c80_1 : [0,1]
RESULT: v0x5872d40_1 : [0,1]
RESULT: v0x5874600_1 : [0,1]
RESULT: v0x58743c0_1 : [0,1]
RESULT: v0x5874300_1 : [0,1]
RESULT: v0x5873f40_1 : [0,1]
RESULT: v0x5875140_1 : [0,1]
RESULT: v0x5874fc0_1 : [0,1]
RESULT: v0x51cfb40_1 : [0,1]
RESULT: v0x4e13870_1 : [0,1]
RESULT: v0x58764c0_1 : [0,1]
RESULT: v0x5877ce0_1 : [-1/0,1/0]
RESULT: v0x4f6c630_1 : [-1/0,1/0]
RESULT: v0x4d17470_1 : [0,2]
RESULT: v0x51ebac0_1 : [0,2]
RESULT: v0x582a420_1 : [0,2]
RESULT: v0x565cb30_1 : [0,2]
RESULT: v0x4d28af0_1 : [0,2]
RESULT: v0x4f736f0_1 : [0,2]
RESULT: v0x51e6f60_1 : [0,2]
RESULT: v0x4f84820_1 : [0,2]
RESULT: v0x5f50e00_1 : [0,2]
RESULT: v0x4f797d0_1 : [0,2]
RESULT: v0x4d10640_1 : [0,2]
RESULT: v0x4f8d1a0_1 : [0,2]
