RESULT: v0x3a26320_0 : [-1/0,1/0]
RESULT: v0x3a26260_0 : [-1/0,1/0]
RESULT: v0x39b6490_0 : [-1/0,1/0]
RESULT: v0x3a25ec0_0 : [-1/0,1/0]
RESULT: v0x3a25f60_0 : [-1/0,1/0]
RESULT: v0x3a265c0_0 : [-1/0,1/0]
RESULT: v0x3a26640_0 : [-1/0,1/0]
RESULT: v0x39e7310_0 : [-1/0,1/0]
RESULT: v0x3a266e0_0 : [-1/0,1/0]
RESULT: v0x3a267a0_0 : [-1/0,1/0]
RESULT: v0x3a26860_0 : [-1/0,1/0]
RESULT: v0x3a26920_0 : [-1/0,1/0]
RESULT: v0x3a269e0_0 : [-1/0,1/0]
RESULT: v0x3a26aa0_0 : [-1/0,1/0]
RESULT: v0x3a26b60_0 : [-1/0,1/0]
RESULT: v0x3a26c20_0 : [-1/0,1/0]
RESULT: v0x3a26ce0_0 : [-1/0,1/0]
RESULT: v0x3a26da0_0 : [-1/0,1/0]
RESULT: v0x3a26e60_0 : [-1/0,1/0]
RESULT: v0x3a263e0_0 : [-1/0,1/0]
RESULT: v0x3a261a0_0 : [-1/0,1/0]
RESULT: v0x3a260e0_0 : [-1/0,1/0]
RESULT: v0x3a26600_0 : [-1/0,1/0]
RESULT: v0x3a26020_0 : [-1/0,1/0]
