RESULT: v0x5b928b0_0 : [1,1/0]
RESULT: v0x5756c50_0 : [-1/0,1/0]
RESULT: v0x5756e50_0 : [-1/0,1/0]
RESULT: v0x5d00860_0 : [0,1]
RESULT: v0x5ee18e0_0 : [0,1]
RESULT: v0x5c704f0_0 : [0,1]
RESULT: v0x5ee6300_0 : [0,3]
RESULT: v0x5c529f0_0 : [0,1]
RESULT: v0x5ecfaf0_0 : [0,3]
RESULT: v0x5edd0a0_0 : [0,2]
RESULT: v0x5ecab50_0 : [0,1]
RESULT: v0x5c9f070_0 : [0,1]
RESULT: v0x5cb3bf0_0 : [0,666]
RESULT: v0x5bd4530_0 : [0,1]
RESULT: v0x5ed26f0_0 : [123,777]
RESULT: v0x5bbac70_0 : [0,1]
RESULT: v0x5b97ef0_0 : [0,1]
RESULT: v0x5c98130_0 : [0,1]
RESULT: v0x5c55fb0_0 : [0,456]
RESULT: v0x5c78bf0_0 : [0,2]
RESULT: v0x5cf5900_0 : [0,1]
RESULT: v0x5c45930_0 : [0,1]
RESULT: v0x5c5e070_0 : [0,456]
RESULT: v0x5a044b0_0 : [0,2]
RESULT: v0x5ba1db0_0 : [0,123]
RESULT: v0x5ee9be0_0 : [0,1]
RESULT: v0x5c221b0_0 : [0,1]
RESULT: v0x5757b50_0 : [789,789]
RESULT: v0x5756b50_0 : [-1/0,1/0]
RESULT: v0x5756d50_0 : [-1/0,1/0]
RESULT: v0x5756a50_0 : [-1/0,1/0]
