RESULT: v0x514c450_0 : [0,1]
RESULT: v0x6782050_1 : [0,1]
RESULT: v0x6779f70_1 : [0,1]
RESULT: v0x6532530_1 : [0,1]
RESULT: v0x60e5000_1 : [0,1]
RESULT: v0x678d7b0_1 : [0,1]
RESULT: v0x677cfd0_1 : [0,1]
RESULT: v0x68a95a0_1 : [0,1]
RESULT: v0x68a2a80_1 : [0,1]
RESULT: v0x5ad4f30_1 : [0,1]
RESULT: v0x59dc280_1 : [0,1]
RESULT: v0x5656130_1 : [0,1]
RESULT: v0x6535030_1 : [0,1]
RESULT: v0x6530490_1 : [0,1]
RESULT: v0x652bef0_1 : [0,2]
RESULT: v0x652b990_1 : [0,2]
RESULT: v0x70ea960_1 : [0,2]
RESULT: v0x678aab0_1 : [0,2]
RESULT: v0x70e9880_1 : [0,2]
RESULT: v0x69ec140_1 : [0,2]
RESULT: v0x5cd1e20_1 : [0,2]
RESULT: v0x59db0e0_1 : [0,2]
RESULT: v0x651e230_1 : [0,2]
RESULT: v0x67742f0_1 : [0,2]
RESULT: v0x70ca070_1 : [0,2]
RESULT: v0x70d8040_1 : [0,2]
RESULT: v0x721b7c0_1 : [0,2]
RESULT: v0x709d760_1 : [0,2]
