RESULT: v0x421d9d0_1 : [3,3]
RESULT: v0x421db30_1 : [0,1]
RESULT: v0x421dcb0_1 : [0,1]
RESULT: v0x421def0_1 : [0,1]
RESULT: v0x41e9bf0_1 : [0,1]
RESULT: v0x41e9a70_1 : [0,1]
RESULT: v0x41e99b0_1 : [0,1]
RESULT: v0x40e1b10_1 : [0,1]
RESULT: v0x40d4160_1 : [0,1]
RESULT: v0x40d4220_1 : [0,1]
RESULT: v0x40d42e0_1 : [0,1]
RESULT: v0x40d43a0_1 : [0,1]
RESULT: v0x40d4460_1 : [0,1]
RESULT: v0x40d4520_1 : [123,777]
RESULT: v0x40bdf80_1 : [0,666]
RESULT: v0x40c0660_1 : [0,2]
RESULT: v0x4093a00_1 : [0,1]
RESULT: v0x40c1330_1 : [0,2]
RESULT: v0x40c5170_1 : [0,456]
RESULT: v0x40c9440_1 : [0,123]
RESULT: v0x40c50e0_1 : [0,456]
RESULT: v0x40d8810_1 : [0,3]
