RESULT: v0x4a05180_0 : [-1/0,1/0]
RESULT: v0x67f0790_0 : [-1/0,1/0]
RESULT: v0x6582530_0 : [-1/0,1/0]
RESULT: v0x658c9a0_0 : [-1/0,1/0]
RESULT: v0x6554de0_0 : [27,1/0]
RESULT: v0x3a20940_0 : [-1/0,1/0]
RESULT: v0x905d4c0_0 : [-1/0,1/0]
RESULT: v0x95b8210_0 : [-1/0,1/0]
RESULT: v0x64c82d0_0 : [1,1]
RESULT: v0x4634140_0 : [-1/0,1/0]
RESULT: v0x5a50390_0 : [-1/0,1/0]
RESULT: v0x391f010_0 : [-1/0,1/0]
RESULT: v0x391f110_0 : [-1/0,1/0]
RESULT: v0x391f210_0 : [-1/0,1/0]
RESULT: v0x391f310_0 : [-1/0,1/0]
RESULT: v0x391f410_0 : [67,1/0]
RESULT: v0x391f510_0 : [0,1]
RESULT: v0x391f610_0 : [0,1]
RESULT: v0x391f710_0 : [-1/0,1/0]
RESULT: v0x391f810_0 : [-1/0,1/0]
RESULT: v0x391f910_0 : [-1/0,1/0]
RESULT: v0x391fa10_0 : [-1/0,1/0]
RESULT: v0x391fb10_0 : [-1/0,1/0]
RESULT: v0x391fc10_0 : [-1/0,1/0]
RESULT: v0x391fd10_0 : [-1/0,1/0]
RESULT: v0x8c34d50_0 : [-1/0,1/0]
RESULT: v0x3d24670_0 : [-1/0,1/0]
RESULT: v0x4e57400_0 : [-1/0,1/0]
RESULT: v0x45b8c80_0 : [-1/0,10]
RESULT: v0x8a02ee0_0 : [-1/0,1/0]
RESULT: v0x3921010_0 : [-1/0,1/0]
