RESULT: v0x420db00_0 : [2,1/0]
RESULT: v0x43c5d40_0 : [0,1]
RESULT: v0x43c52e0_0 : [0,1]
RESULT: v0x43d5e20_0 : [0,1]
RESULT: v0x43e4900_0 : [0,1]
RESULT: v0x43b4780_0 : [0,1]
RESULT: v0x43b3cc0_0 : [0,1]
RESULT: v0x4017b10_0 : [0,1]
RESULT: v0x43ca860_0 : [0,1]
RESULT: v0x43c7bc0_0 : [1,1]
RESULT: v0x43dfca0_0 : [1,1]
RESULT: v0x440e020_0 : [0,1]
RESULT: v0x43d6be0_0 : [1,1]
RESULT: v0x43bd5a0_0 : [123,777]
RESULT: v0x43b52c0_0 : [0,0]
RESULT: v0x43d8a00_0 : [0,2]
RESULT: v0x43d8a80_0 : [0,1]
RESULT: v0x4029e00_0 : [0,456]
RESULT: v0x41db8d0_0 : [0,123]
RESULT: v0x3e5e350_0 : [-1/0,1/0]
RESULT: v0x3e5e050_0 : [0,456]
RESULT: v0x3e5f050_0 : [-1/0,1/0]
RESULT: v0x3e5f150_0 : [0,456]
RESULT: v0x3e5e250_0 : [0,1]
RESULT: v0x3e5f450_0 : [123,777]
RESULT: v0x3e5f750_0 : [0,456]
RESULT: v0x3e5f850_0 : [-1/0,1/0]
