RESULT: v0x54a6f80_0 : [0,1]
RESULT: v0x54a7100_0 : [0,1]
RESULT: v0x54a7300_0 : [0,1]
RESULT: v0x54a7500_0 : [0,1]
RESULT: v0x54a7700_0 : [0,1]
RESULT: v0x54a7900_0 : [0,1]
RESULT: v0x54a7b00_0 : [0,1]
RESULT: v0x54a7d00_0 : [0,1]
RESULT: v0x54a7f00_0 : [0,1]
RESULT: v0x54a8100_0 : [1,1]
RESULT: v0x54a8300_0 : [-1/0,1/0]
RESULT: v0x54a8500_0 : [-1/0,1/0]
RESULT: v0x54a8700_0 : [0,2]
RESULT: v0x54a8900_0 : [0,2]
RESULT: v0x54839b0_0 : [0,2]
RESULT: v0x5483bb0_0 : [0,2]
RESULT: v0x5483db0_0 : [0,2]
RESULT: v0x5483fb0_0 : [0,2]
RESULT: v0x54a9700_0 : [0,2]
RESULT: v0x54a9900_0 : [0,2]
RESULT: v0x54a9b00_0 : [0,2]
RESULT: v0x54a9d00_0 : [2,2]
