RESULT: v0x5b6c3a0_0 : [-1/0,1/0]
RESULT: v0x5b6c8a0_0 : [-1/0,1/0]
RESULT: v0x5b6c5a0_0 : [-1/0,1/0]
RESULT: v0x5b6c7a0_0 : [-1/0,1/0]
RESULT: v0x5b6d7a0_0 : [0,789]
RESULT: v0x5b6c6a0_0 : [-1/0,1/0]
RESULT: v0x5b6c4a0_0 : [-1/0,1/0]
RESULT: v0x5b6c2a0_0 : [-1/0,1/0]
RESULT: v0x5ca8700_1 : [2,2]
RESULT: v0x5c9f4c0_1 : [0,1]
RESULT: v0x5c9b140_1 : [0,1]
RESULT: v0x5d3c680_1 : [0,1]
RESULT: v0x5d3c400_1 : [0,1]
RESULT: v0x5d3cb80_1 : [0,1]
RESULT: v0x5d3d080_1 : [0,1]
RESULT: v0x5d3cf40_1 : [0,1]
RESULT: v0x5d3c040_1 : [0,1]
RESULT: v0x5d3c2c0_1 : [0,1]
RESULT: v0x5d3e340_1 : [0,1]
RESULT: v0x5d3dd00_1 : [0,1]
RESULT: v0x5d3ee80_1 : [0,1]
RESULT: v0x5d40640_1 : [0,2]
RESULT: v0x5d43700_1 : [0,3]
RESULT: v0x5d42800_1 : [0,1]
RESULT: v0x5d4e880_1 : [0,777]
RESULT: v0x5d4e240_1 : [0,666]
RESULT: v0x5d4e380_1 : [0,2]
RESULT: v0x5d4dfc0_1 : [0,1]
RESULT: v0x5d46540_1 : [0,2]
RESULT: v0x5d4dc00_1 : [0,456]
RESULT: v0x5d4dac0_1 : [0,123]
RESULT: v0x5d46400_1 : [0,456]
RESULT: v0x5d4d480_1 : [0,3]
