RESULT: v0x4a23350_0 : [-1/0,1/0]
RESULT: v0x48cc540_0 : [-1/0,1/0]
RESULT: v0x4aaf200_0 : [-1/0,1/0]
RESULT: v0x4bac5c0_0 : [0,1]
RESULT: v0x4a230d0_0 : [67,1/0]
RESULT: v0x48cc4c0_0 : [-1/0,1/0]
RESULT: v0x4a23570_0 : [-1/0,1/0]
RESULT: v0x4be9ae0_0 : [-1/0,1/0]
RESULT: v0x4ac6290_0 : [0,0]
RESULT: v0x4bd3c40_0 : [-1/0,1/0]
RESULT: v0x4c44da0_0 : [-1/0,1/0]
RESULT: v0x478d2d0_0 : [67,1/0]
RESULT: v0x478d3d0_0 : [0,1]
RESULT: v0x478d4d0_0 : [-1/0,1/0]
RESULT: v0x478d5d0_0 : [-1/0,1/0]
RESULT: v0x478d6d0_0 : [-1/0,1/0]
RESULT: v0x478d7d0_0 : [-1/0,1/0]
RESULT: v0x478d8d0_0 : [0,1]
RESULT: v0x478d9d0_0 : [-1/0,1/0]
RESULT: v0x478dad0_0 : [-1/0,1/0]
RESULT: v0x478dbd0_0 : [0,0]
RESULT: v0x478dcd0_0 : [-1/0,1/0]
RESULT: v0x478ddd0_0 : [-1/0,1/0]
RESULT: v0x478ded0_0 : [-1/0,1/0]
RESULT: v0x478dfd0_0 : [-1/0,1/0]
RESULT: v0x4fd0280_0 : [-1/0,1/0]
RESULT: v0x4ac6570_0 : [-1/0,1/0]
RESULT: v0x4b93050_0 : [0,0]
RESULT: v0x48ec090_0 : [-1/0,10]
RESULT: v0x53b31f0_0 : [-1/0,1/0]
RESULT: v0x478e2d0_0 : [-1/0,1/0]
