RESULT: v0x42b77f0_0 : [-1/0,1/0]
RESULT: v0x42b7570_0 : [-1/0,1/0]
RESULT: v0x42b81f0_0 : [-1/0,1/0]
RESULT: v0x42b8470_0 : [-1/0,1/0]
RESULT: v0x42b86f0_0 : [-1/0,1/0]
RESULT: v0x42b8970_0 : [-1/0,1/0]
RESULT: v0x42b6df0_0 : [0,0]
RESULT: v0x40faaa0_0 : [67,1/0]
RESULT: v0x42b68f0_0 : [27,1/0]
RESULT: v0x40faba0_0 : [0,1]
RESULT: v0x40faca0_0 : [0,1]
RESULT: v0x40fada0_0 : [-1/0,1/0]
RESULT: v0x40faea0_0 : [-1/0,1/0]
RESULT: v0x40fafa0_0 : [-1/0,1/0]
RESULT: v0x40fb0a0_0 : [-1/0,1/0]
RESULT: v0x40fb1a0_0 : [-1/0,1/0]
RESULT: v0x42b7a70_0 : [-1/0,1/0]
RESULT: v0x40fb2a0_0 : [-1/0,1/0]
RESULT: v0x42b7cf0_0 : [-1/0,1/0]
RESULT: v0x40fb3a0_0 : [-1/0,1/0]
RESULT: v0x42b7f70_0 : [-1/0,1/0]
RESULT: v0x40fb4a0_0 : [-1/0,1/0]
RESULT: v0x40fb5a0_0 : [-1/0,1/0]
RESULT: v0x40fb6a0_0 : [-1/0,1/0]
RESULT: v0x40fb7a0_0 : [-1/0,1/0]
RESULT: v0x42b7070_0 : [-1/0,1/0]
RESULT: v0x42b72f0_0 : [-1/0,1/0]
RESULT: v0x41ad4b0_0 : [0,0]
RESULT: v0x42b6530_0 : [-1/0,10]
RESULT: v0x42b6b70_0 : [-1/0,1/0]
RESULT: v0x40fbaa0_0 : [-1/0,1/0]
