RESULT: v0x71b0950_0 : [0,1]
RESULT: v0x41120a0_0 : [0,1]
RESULT: v0x8f8bf70_0 : [-1/0,1/0]
RESULT: v0x5359610_0 : [-1/0,1/0]
RESULT: v0x538d3f0_0 : [-1/0,1/0]
RESULT: v0x61f7140_0 : [-1/0,1/0]
RESULT: v0x56f5db0_0 : [0,0]
RESULT: v0x40faaa0_0 : [67,1/0]
RESULT: v0x61f4b20_0 : [67,1/0]
RESULT: v0x40faba0_0 : [0,1]
RESULT: v0x40faca0_0 : [0,1]
RESULT: v0x40fada0_0 : [-1/0,1/0]
RESULT: v0x40faea0_0 : [-1/0,1/0]
RESULT: v0x40fafa0_0 : [0,0]
RESULT: v0x40fb0a0_0 : [0,0]
RESULT: v0x40fb1a0_0 : [-1/0,1/0]
RESULT: v0x9ce7500_0 : [-1/0,1/0]
RESULT: v0x40fb2a0_0 : [-1/0,1/0]
RESULT: v0x718b230_0 : [-1/0,1/0]
RESULT: v0x40fb3a0_0 : [-1/0,1/0]
RESULT: v0x73bfa20_0 : [-1/0,1/0]
RESULT: v0x40fb4a0_0 : [-1/0,1/0]
RESULT: v0x40fb5a0_0 : [-1/0,1/0]
RESULT: v0x40fb6a0_0 : [-1/0,1/0]
RESULT: v0x40fb7a0_0 : [-1/0,1/0]
RESULT: v0x8dd1920_0 : [-1/0,1/0]
RESULT: v0x47167f0_0 : [-1/0,1/0]
RESULT: v0x707c610_0 : [0,0]
RESULT: v0x430cd10_0 : [-1/0,10]
RESULT: v0x8cf4690_0 : [-1/0,1/0]
RESULT: v0x40fbaa0_0 : [-1/0,1/0]
