RESULT: v0x4da16d0_0 : [0,1]
RESULT: v0x3c93f20_0 : [0,1]
RESULT: v0x4663ab0_0 : [0,1]
RESULT: v0x4e3ce40_0 : [0,1]
RESULT: v0x4724c30_0 : [0,1]
RESULT: v0x4e30320_0 : [0,1]
RESULT: v0x37a2670_0 : [0,1]
RESULT: v0x4e2edc0_0 : [0,1]
RESULT: v0x4dfec00_0 : [0,1]
RESULT: v0x4d9ddd0_0 : [0,1]
RESULT: v0x4225db0_0 : [0,1]
RESULT: v0x3cca120_0 : [0,1]
RESULT: v0x3c37120_0 : [0,1]
RESULT: v0x37a7c00_0 : [1,1]
RESULT: v0x3cae020_0 : [-1/0,1/0]
RESULT: v0x4e1b7c0_0 : [-1/0,1/0]
RESULT: v0x35c4a70_0 : [0,2]
RESULT: v0x3c632c0_0 : [0,2]
RESULT: v0x49f5bd0_0 : [0,2]
RESULT: v0x4e177a0_0 : [0,2]
RESULT: v0x4dfe160_0 : [0,2]
RESULT: v0x4e09720_0 : [0,2]
RESULT: v0x4d9d330_0 : [0,2]
RESULT: v0x49f1bb0_0 : [0,2]
RESULT: v0x49b4420_0 : [0,2]
RESULT: v0x3ca4a80_0 : [0,2]
RESULT: v0x481aa90_0 : [0,2]
RESULT: v0x4e10cc0_0 : [0,2]
RESULT: v0x35baa20_0 : [0,2]
RESULT: v0x4e262e0_0 : [2,2]
