RESULT: v0x42de350_0 : [0,1]
RESULT: v0x5d9d950_1 : [0,1]
RESULT: v0x5d7b0a0_1 : [0,1]
RESULT: v0x5d7c7c0_1 : [0,1]
RESULT: v0x5d7a7c0_1 : [0,1]
RESULT: v0x4f800f0_1 : [0,1]
RESULT: v0x47c9cc0_1 : [0,1]
RESULT: v0x50f24e0_1 : [0,1]
RESULT: v0x459fa70_1 : [0,1]
RESULT: v0x4ba8100_1 : [0,1]
RESULT: v0x45ab8b0_1 : [0,1]
RESULT: v0x45b4e80_1 : [0,1]
RESULT: v0x4588930_1 : [0,1]
RESULT: v0x47f4d80_1 : [-1/0,1/0]
RESULT: v0x48019b0_1 : [-1/0,1/0]
RESULT: v0x45cd1e0_1 : [0,2]
RESULT: v0x458ab50_1 : [0,2]
RESULT: v0x45909c0_1 : [0,2]
RESULT: v0x47bc750_1 : [0,2]
RESULT: v0x45b4310_1 : [0,2]
RESULT: v0x45aa230_1 : [0,2]
RESULT: v0x45a9ab0_1 : [0,2]
RESULT: v0x5533260_1 : [0,2]
RESULT: v0x5d8d590_1 : [0,2]
RESULT: v0x5d96fd0_1 : [0,2]
RESULT: v0x4ad1620_1 : [0,2]
RESULT: v0x5a38520_1 : [0,2]
RESULT: v0x5d7faa0_1 : [0,2]
