RESULT: v0x656b750_0 : [0,1]
RESULT: v0x656b8f0_0 : [0,1]
RESULT: v0x656baf0_0 : [0,1]
RESULT: v0x656bcf0_0 : [0,1]
RESULT: v0x656bef0_0 : [0,1]
RESULT: v0x656c0f0_0 : [0,1]
RESULT: v0x656c2f0_0 : [0,1]
RESULT: v0x656c4f0_0 : [0,1]
RESULT: v0x656c6f0_0 : [0,1]
RESULT: v0x656c8f0_0 : [0,1]
RESULT: v0x656caf0_0 : [0,1]
RESULT: v0x656ccf0_0 : [0,1]
RESULT: v0x656cef0_0 : [0,1]
RESULT: v0x656d0f0_0 : [1,1]
RESULT: v0x656d2f0_0 : [0,2]
RESULT: v0x656d4f0_0 : [0,2]
RESULT: v0x656d6f0_0 : [0,2]
RESULT: v0x656d8f0_0 : [0,2]
RESULT: v0x656daf0_0 : [0,2]
RESULT: v0x656dcf0_0 : [0,2]
RESULT: v0x656def0_0 : [0,2]
RESULT: v0x656e0f0_0 : [0,2]
RESULT: v0x656e2f0_0 : [0,2]
RESULT: v0x656e4f0_0 : [0,2]
RESULT: v0x656e6f0_0 : [0,2]
RESULT: v0x656e8f0_0 : [0,2]
RESULT: v0x656eaf0_0 : [0,2]
RESULT: v0x656ecf0_0 : [2,2]
