RESULT: v0x4e9b2d0_0 : [-1/0,1/0]
RESULT: v0x3fe67b0_0 : [-1/0,1/0]
RESULT: v0x3979030_0 : [-1/0,1/0]
RESULT: v0x3af3aa0_0 : [-1/0,1/0]
RESULT: v0x3a9bb20_0 : [27,1/0]
RESULT: v0x4152a80_0 : [-1/0,1/0]
RESULT: v0x4e9b310_0 : [-1/0,1/0]
RESULT: v0x465e320_0 : [-1/0,1/0]
RESULT: v0x3a93b70_0 : [0,0]
RESULT: v0x3be1100_0 : [-1/0,1/0]
RESULT: v0x460e9e0_0 : [-1/0,1/0]
RESULT: v0x391f010_0 : [-1/0,1/0]
RESULT: v0x391f110_0 : [-1/0,1/0]
RESULT: v0x391f210_0 : [-1/0,1/0]
RESULT: v0x391f310_0 : [-1/0,1/0]
RESULT: v0x391f410_0 : [67,1/0]
RESULT: v0x391f510_0 : [0,1]
RESULT: v0x391f610_0 : [0,1]
RESULT: v0x391f710_0 : [-1/0,1/0]
RESULT: v0x391f810_0 : [-1/0,1/0]
RESULT: v0x391f910_0 : [-1/0,1/0]
RESULT: v0x391fa10_0 : [-1/0,1/0]
RESULT: v0x391fb10_0 : [-1/0,1/0]
RESULT: v0x391fc10_0 : [-1/0,1/0]
RESULT: v0x391fd10_0 : [-1/0,1/0]
RESULT: v0x409e420_0 : [-1/0,1/0]
RESULT: v0x3c99170_0 : [-1/0,1/0]
RESULT: v0x46dcea0_0 : [0,0]
RESULT: v0x3af3540_0 : [-1/0,10]
RESULT: v0x3bb1120_0 : [-1/0,1/0]
RESULT: v0x3920010_0 : [-1/0,1/0]
