RESULT: v0x4fa9ee0_0 : [-1/0,1/0]
RESULT: v0x4fad940_0 : [-1/0,1/0]
RESULT: v0x50b0190_0 : [0,1]
RESULT: v0x4fa9d80_0 : [-1/0,1/0]
RESULT: v0x4fa8d60_0 : [-1/0,1/0]
RESULT: v0x4fad9e0_0 : [-1/0,1/0]
RESULT: v0x50be630_0 : [0,0]
RESULT: v0x4e8eda0_0 : [67,1/0]
RESULT: v0x50be7d0_0 : [27,1/0]
RESULT: v0x4e8eea0_0 : [0,1]
RESULT: v0x4e8efa0_0 : [0,1]
RESULT: v0x4e8f0a0_0 : [-1/0,1/0]
RESULT: v0x4e8f1a0_0 : [-1/0,1/0]
RESULT: v0x4e8f2a0_0 : [-1/0,1/0]
RESULT: v0x4e8f3a0_0 : [0,0]
RESULT: v0x4e8f4a0_0 : [-1/0,1/0]
RESULT: v0x4fadaa0_0 : [-1/0,1/0]
RESULT: v0x4e8f5a0_0 : [-1/0,1/0]
RESULT: v0x50c9050_0 : [-1/0,1/0]
RESULT: v0x4e8f6a0_0 : [-1/0,1/0]
RESULT: v0x4ed1d20_0 : [-1/0,1/0]
RESULT: v0x4e8f7a0_0 : [-1/0,1/0]
RESULT: v0x4e8f8a0_0 : [-1/0,1/0]
RESULT: v0x4e8f9a0_0 : [-1/0,1/0]
RESULT: v0x4e8faa0_0 : [-1/0,1/0]
RESULT: v0x4fa93e0_0 : [-1/0,1/0]
RESULT: v0x4fab560_0 : [-1/0,1/0]
RESULT: v0x4f35310_0 : [0,0]
RESULT: v0x4ec61e0_0 : [-1/0,10]
RESULT: v0x4ed9140_0 : [-1/0,1/0]
RESULT: v0x4e8fda0_0 : [-1/0,1/0]
