RESULT: v0x5497ff0_0 : [0,1]
RESULT: v0x4858160_0 : [0,1]
RESULT: v0x54b2140_0 : [0,1]
RESULT: v0x4a5d160_0 : [0,1]
RESULT: v0x5ad97d0_0 : [0,1]
RESULT: v0x5ad9790_0 : [0,1]
RESULT: v0x5adb3d0_0 : [0,1]
RESULT: v0x5ad5170_0 : [0,1]
RESULT: v0x54135d0_0 : [0,1]
RESULT: v0x56c7990_0 : [1,1]
RESULT: v0x5ad6570_0 : [-1/0,1/0]
RESULT: v0x5adaf90_0 : [-1/0,1/0]
RESULT: v0x5ad7a30_0 : [0,2]
RESULT: v0x5ae0670_0 : [0,2]
RESULT: v0x5ac99f0_0 : [0,2]
RESULT: v0x5ac9890_0 : [0,2]
RESULT: v0x5ac9eb0_0 : [0,2]
RESULT: v0x5ad89b0_0 : [0,2]
RESULT: v0x5ac9bf0_0 : [0,2]
RESULT: v0x5ad6510_0 : [0,2]
RESULT: v0x5ae0390_0 : [0,2]
RESULT: v0x5ad7bf0_0 : [2,2]
