RESULT: v0x45d5e80_0 : [-1/0,1/0]
RESULT: v0x45434d0_0 : [-1/0,1/0]
RESULT: v0x45d5b60_0 : [-1/0,1/0]
RESULT: v0x40ffb00_0 : [-1/0,1/0]
RESULT: v0x451e810_0 : [67,1/0]
RESULT: v0x463ebc0_0 : [-1/0,1/0]
RESULT: v0x4131040_0 : [-1/0,1/0]
RESULT: v0x42a93a0_0 : [0,0]
RESULT: v0x451ea30_0 : [-1/0,1/0]
RESULT: v0x433e250_0 : [-1/0,1/0]
RESULT: v0x4164ef0_0 : [-1/0,1/0]
RESULT: v0x3fa3330_0 : [67,1/0]
RESULT: v0x3fa3430_0 : [-1/0,1/0]
RESULT: v0x3fa3530_0 : [-1/0,1/0]
RESULT: v0x3fa3630_0 : [-1/0,1/0]
RESULT: v0x3fa3730_0 : [-1/0,1/0]
RESULT: v0x3fa3830_0 : [0,1]
RESULT: v0x3fa3930_0 : [-1/0,1/0]
RESULT: v0x3fa3a30_0 : [-1/0,1/0]
RESULT: v0x3fa3b30_0 : [0,0]
RESULT: v0x3fa3c30_0 : [0,0]
RESULT: v0x3fa3d30_0 : [-1/0,1/0]
RESULT: v0x3fa3e30_0 : [-1/0,1/0]
RESULT: v0x3fa3f30_0 : [-1/0,1/0]
RESULT: v0x45f2690_0 : [-1/0,1/0]
RESULT: v0x40a3350_0 : [0,0]
RESULT: v0x42a9360_0 : [-1/0,10]
RESULT: v0x45d5ec0_0 : [-1/0,1/0]
RESULT: v0x40f8590_0 : [-1/0,1/0]
RESULT: v0x3fa4230_0 : [-1/0,1/0]
