RESULT: v0x417b910_0 : [0,1]
RESULT: v0x4162cd0_0 : [-1/0,1/0]
RESULT: v0x4163290_0 : [-1/0,1/0]
RESULT: v0x4187d50_0 : [-1/0,1/0]
RESULT: v0x43455a0_0 : [-1/0,1/0]
RESULT: v0x43100e0_0 : [-1/0,1/0]
RESULT: v0x411cdd0_0 : [0,0]
RESULT: v0x40faaa0_0 : [67,1/0]
RESULT: v0x411ce90_0 : [27,1/0]
RESULT: v0x40faba0_0 : [0,1]
RESULT: v0x40faca0_0 : [0,1]
RESULT: v0x40fada0_0 : [-1/0,1/0]
RESULT: v0x40faea0_0 : [-1/0,1/0]
RESULT: v0x40fafa0_0 : [-1/0,1/0]
RESULT: v0x40fb0a0_0 : [0,0]
RESULT: v0x40fb1a0_0 : [-1/0,1/0]
RESULT: v0x4345aa0_0 : [-1/0,1/0]
RESULT: v0x40fb2a0_0 : [-1/0,1/0]
RESULT: v0x41291b0_0 : [-1/0,1/0]
RESULT: v0x40fb3a0_0 : [-1/0,1/0]
RESULT: v0x42225e0_0 : [-1/0,1/0]
RESULT: v0x40fb4a0_0 : [-1/0,1/0]
RESULT: v0x40fb5a0_0 : [-1/0,1/0]
RESULT: v0x40fb6a0_0 : [-1/0,1/0]
RESULT: v0x40fb7a0_0 : [-1/0,1/0]
RESULT: v0x41191f0_0 : [-1/0,1/0]
RESULT: v0x4349a20_0 : [-1/0,1/0]
RESULT: v0x4214560_0 : [0,0]
RESULT: v0x4180070_0 : [-1/0,10]
RESULT: v0x411f430_0 : [-1/0,1/0]
RESULT: v0x40fbaa0_0 : [-1/0,1/0]
