RESULT: v0x4393e20_0 : [2,1/0]
RESULT: v0x41a2950_0 : [0,1]
RESULT: v0x45440c0_0 : [0,1]
RESULT: v0x41b4a40_0 : [0,1]
RESULT: v0x419e920_0 : [0,1]
RESULT: v0x4538af0_0 : [0,1]
RESULT: v0x435f9b0_0 : [0,1]
RESULT: v0x45460a0_0 : [0,1]
RESULT: v0x456b780_0 : [0,0]
RESULT: v0x412cde0_0 : [0,1]
RESULT: v0x42c7220_0 : [1,1]
RESULT: v0x45420a0_0 : [1,1]
RESULT: v0x41fcfa0_0 : [1,1]
RESULT: v0x4568f80_0 : [123,777]
RESULT: v0x4555720_0 : [0,666]
RESULT: v0x45959e0_0 : [2,2]
RESULT: v0x45421e0_0 : [0,0]
RESULT: v0x4594540_0 : [456,456]
RESULT: v0x455ae40_0 : [0,0]
RESULT: v0x3fe7bf0_0 : [-1/0,1/0]
RESULT: v0x3fe78f0_0 : [456,456]
RESULT: v0x3fe8bf0_0 : [0,0]
RESULT: v0x3fe8cf0_0 : [0,456]
RESULT: v0x3fe7af0_0 : [0,0]
RESULT: v0x3fe8ff0_0 : [123,777]
RESULT: v0x3fe92f0_0 : [0,456]
RESULT: v0x3fe93f0_0 : [0,0]
