RESULT: v0x547b480_0 : [0,1/0]
RESULT: v0x53d5ef0_0 : [0,1]
RESULT: v0x5575e80_0 : [0,1]
RESULT: v0x546b3f0_0 : [123,777]
RESULT: v0x54ee8a0_0 : [0,1]
RESULT: v0x5572ca0_0 : [0,1]
RESULT: v0x539d5e0_0 : [0,2]
RESULT: v0x52274a0_0 : [0,3]
RESULT: v0x547ce90_0 : [0,1]
RESULT: v0x55574a0_0 : [0,1]
RESULT: v0x524c710_0 : [0,666]
RESULT: v0x554b6a0_0 : [0,1]
RESULT: v0x5578ce0_0 : [0,1]
RESULT: v0x55749a0_0 : [0,1]
RESULT: v0x554f540_0 : [0,2]
RESULT: v0x55452e0_0 : [0,456]
RESULT: v0x55949a0_0 : [0,1]
RESULT: v0x554da00_0 : [0,1]
RESULT: v0x54e8640_0 : [0,123]
RESULT: v0x5570d00_0 : [0,1]
RESULT: v0x54ea840_0 : [0,1]
RESULT: v0x553f960_0 : [0,2]
RESULT: v0x53d3f10_0 : [0,456]
