RESULT: v0x5b4f890_0 : [-1/0,1/0]
RESULT: v0x5b4fad0_0 : [-1/0,1/0]
RESULT: v0x5b4e150_0 : [-1/0,1/0]
RESULT: v0x5b4ebd0_0 : [-1/0,1/0]
RESULT: v0x5b4f3f0_0 : [-1/0,1/0]
RESULT: v0x5b4eeb0_0 : [-1/0,1/0]
RESULT: v0x5b4ed30_0 : [-1/0,1/0]
RESULT: v0x5b4e970_0 : [-1/0,1/0]
RESULT: v0x5b4eb90_0 : [-1/0,1/0]
RESULT: v0x5b4edf0_0 : [-1/0,1/0]
RESULT: v0x44cbee0_0 : [-1/0,1/0]
RESULT: v0x5b4e1f0_0 : [-1/0,1/0]
RESULT: v0x5b4eaf0_0 : [-1/0,1/0]
RESULT: v0x5b4e110_0 : [-1/0,1/0]
RESULT: v0x5b79010_0 : [-1/0,1/0]
RESULT: v0x5b4ec70_0 : [-1/0,1/0]
RESULT: v0x5b4f970_0 : [-1/0,1/0]
RESULT: v0x5b4f930_0 : [-1/0,1/0]
RESULT: v0x5b50550_0 : [-1/0,1/0]
RESULT: v0x5b503f0_0 : [-1/0,1/0]
RESULT: v0x5b4ff50_0 : [-1/0,1/0]
RESULT: v0x5b500d0_0 : [-1/0,1/0]
RESULT: v0x5b84bb0_0 : [-1/0,1/0]
RESULT: v0x5b7c3d0_0 : [-1/0,1/0]
RESULT: v0x5aacfd0_0 : [-1/0,1/0]
RESULT: v0x59b55a0_0 : [-1/0,1/0]
