RESULT: v0x4d45630_0 : [-1/0,1/0]
RESULT: v0x4d45350_0 : [-1/0,1/0]
RESULT: v0x4d44ef0_0 : [-1/0,1/0]
RESULT: v0x4d44f90_0 : [-1/0,1/0]
RESULT: v0x4d45050_0 : [-1/0,1/0]
RESULT: v0x4d455f0_0 : [-1/0,1/0]
RESULT: v0x4d45670_0 : [-1/0,1/0]
RESULT: v0x4cd64f0_0 : [-1/0,1/0]
RESULT: v0x4cf1bc0_0 : [-1/0,1/0]
RESULT: v0x4d45710_0 : [-1/0,1/0]
RESULT: v0x4d457d0_0 : [-1/0,1/0]
RESULT: v0x4d45890_0 : [-1/0,1/0]
RESULT: v0x4d45950_0 : [-1/0,1/0]
RESULT: v0x4d45a10_0 : [-1/0,1/0]
RESULT: v0x4d45ad0_0 : [-1/0,1/0]
RESULT: v0x4d45b90_0 : [-1/0,1/0]
RESULT: v0x4d45c50_0 : [-1/0,1/0]
RESULT: v0x4d45d10_0 : [-1/0,1/0]
RESULT: v0x4d45dd0_0 : [-1/0,1/0]
RESULT: v0x4d45e90_0 : [-1/0,1/0]
RESULT: v0x4d45410_0 : [-1/0,1/0]
RESULT: v0x4d45290_0 : [-1/0,1/0]
RESULT: v0x4d451d0_0 : [-1/0,1/0]
RESULT: v0x4d45110_0 : [-1/0,1/0]
