RESULT: v0x44bd9b0_0 : [0,1]
RESULT: v0x44bddb0_0 : [-1/0,2]
RESULT: v0x44bc8f0_0 : [1,2]
RESULT: v0x44bd4b0_0 : [-1/0,2]
RESULT: v0x44bd2b0_0 : [-1/0,1/0]
RESULT: v0x44bdbb0_0 : [0,1/0]
RESULT: v0x44bdfb0_0 : [-1/0,1/0]
RESULT: v0x44bd8b0_0 : [0,4]
RESULT: v0x44bd6b0_0 : [0,1/0]
RESULT: v0x44bd7b0_0 : [0,1/0]
RESULT: v0x44be0b0_0 : [-1/0,1/0]
RESULT: v0x44bdab0_0 : [0,1]
RESULT: v0x44bdeb0_0 : [0,1]
RESULT: v0x44bd3b0_0 : [0,1]
RESULT: v0x44bd5b0_0 : [0,1]
RESULT: v0x44bbc90_0 : [0,54]
RESULT: v0x44bb9f0_0 : [0,52]
RESULT: v0x44bb7f0_0 : [0,50]
RESULT: v0x44bbb90_0 : [0,53]
RESULT: v0x44bb8f0_0 : [0,51]
RESULT: v0x44bdcb0_0 : [-1/0,1/0]
RESULT: v0x44bcbf0_0 : [-1/0,1/0]
RESULT: v0x814d8d0_0 : [-1/0,1/0]
RESULT: v0x814d9d0_0 : [0,0]
RESULT: v0x814dad0_0 : [0,0]
RESULT: v0x814dbd0_0 : [-1/0,1/0]
RESULT: v0x814dcd0_0 : [0,0]
RESULT: v0x814ddd0_0 : [-1/0,1/0]
RESULT: v0x814ded0_0 : [-1/0,1/0]
RESULT: v0x814dfd0_0 : [-1/0,1/0]
RESULT: v0x814e0d0_0 : [-1/0,1/0]
RESULT: v0x814e1d0_0 : [1,1]
