RESULT: v0x4bcb6b0_0 : [1,1/0]
RESULT: v0x4c53e50_0 : [123,777]
RESULT: v0x498a900_0 : [0,1]
RESULT: v0x4b4e840_0 : [0,1]
RESULT: v0x4b4e6c0_0 : [0,2]
RESULT: v0x4b4e3c0_0 : [0,3]
RESULT: v0x4c55b70_0 : [0,1]
RESULT: v0x4c58630_0 : [0,1]
RESULT: v0x4b4ecc0_0 : [0,1]
RESULT: v0x4c4c590_0 : [0,666]
RESULT: v0x4b4eb40_0 : [0,1]
RESULT: v0x4b4e300_0 : [0,1]
RESULT: v0x4991470_0 : [0,1]
RESULT: v0x4b4e240_0 : [0,1]
RESULT: v0x4c6ad70_0 : [0,456]
RESULT: v0x4be5670_0 : [0,2]
RESULT: v0x4b4ef00_0 : [0,1]
RESULT: v0x4b4c8e0_0 : [0,1]
RESULT: v0x4c29d40_0 : [0,123]
RESULT: v0x4bd0490_0 : [0,1]
RESULT: v0x4bf9810_0 : [1,1]
RESULT: v0x4e956d0_0 : [3,3]
RESULT: v0x4c740d0_0 : [0,456]
RESULT: v0x4b4e9c0_0 : [0,1]
RESULT: v0x4bdd040_0 : [0,2]
