RESULT: v0x3cf1720_0 : [2,1/0]
RESULT: v0x38bc230_0 : [123,777]
RESULT: v0x39f97b0_0 : [0,1]
RESULT: v0x3bbd670_0 : [0,1]
RESULT: v0x3bbd4f0_0 : [0,2]
RESULT: v0x3bbd1f0_0 : [0,3]
RESULT: v0x3ce1640_0 : [0,1]
RESULT: v0x3c57be0_0 : [0,0]
RESULT: v0x3bbdaf0_0 : [0,0]
RESULT: v0x3cecbc0_0 : [456,456]
RESULT: v0x3bbd970_0 : [0,1]
RESULT: v0x3bbd130_0 : [0,1]
RESULT: v0x3a002e0_0 : [0,1]
RESULT: v0x3bbd070_0 : [0,1]
RESULT: v0x3a9c800_0 : [0,456]
RESULT: v0x3c3e380_0 : [0,2]
RESULT: v0x3bbdd30_0 : [0,1]
RESULT: v0x3bbb710_0 : [0,1]
RESULT: v0x3ce0140_0 : [0,123]
RESULT: v0x3cd6e40_0 : [0,1]
RESULT: v0x3c1c460_0 : [0,1]
RESULT: v0x3f611b0_0 : [0,3]
RESULT: v0x3a5d5f0_0 : [456,456]
RESULT: v0x3bbd7f0_0 : [1,1]
RESULT: v0x39e9d50_0 : [2,2]
