RESULT: v0x47f01d0_1 : [3,3]
RESULT: v0x47f0410_1 : [0,1]
RESULT: v0x47f0590_1 : [0,1]
RESULT: v0x47f07d0_1 : [0,1]
RESULT: v0x48b6320_1 : [0,1]
RESULT: v0x48b61a0_1 : [0,1]
RESULT: v0x48b6020_1 : [0,1]
RESULT: v0x48b5de0_1 : [0,1]
RESULT: v0x47deb60_1 : [0,1]
RESULT: v0x47dec20_1 : [0,1]
RESULT: v0x46ab0f0_1 : [123,777]
RESULT: v0x47dee60_1 : [0,666]
RESULT: v0x47def20_1 : [0,2]
RESULT: v0x47b2870_1 : [0,1]
RESULT: v0x47cad60_1 : [0,2]
RESULT: v0x479e170_1 : [0,456]
RESULT: v0x47cb920_1 : [0,123]
RESULT: v0x47cfb50_1 : [0,456]
RESULT: v0x47d3d30_1 : [0,3]
RESULT: v0x47cfac0_1 : [0,1]
RESULT: v0x47e8a70_1 : [0,1]
