RESULT: v0x5327ab0_0 : [-1/0,1/0]
RESULT: v0x53240d0_0 : [-1/0,1/0]
RESULT: v0x5321870_0 : [-1/0,1/0]
RESULT: v0x5327a10_0 : [-1/0,1/0]
RESULT: v0x5323ed0_0 : [-1/0,1/0]
RESULT: v0x53250f0_0 : [-1/0,1/0]
RESULT: v0x5327c50_0 : [-1/0,1/0]
RESULT: v0x5325130_0 : [-1/0,1/0]
RESULT: v0x53251f0_0 : [-1/0,1/0]
RESULT: v0x53297a0_0 : [-1/0,1/0]
RESULT: v0x5329820_0 : [-1/0,1/0]
RESULT: v0x5327dd0_0 : [-1/0,1/0]
RESULT: v0x537a5d0_0 : [-1/0,1/0]
RESULT: v0x4f8e8e0_0 : [-1/0,1/0]
RESULT: v0x53289d0_0 : [-1/0,1/0]
RESULT: v0x5321790_0 : [-1/0,1/0]
RESULT: v0x53237d0_0 : [-1/0,1/0]
RESULT: v0x53231f0_0 : [-1/0,1/0]
RESULT: v0x5323730_0 : [-1/0,1/0]
RESULT: v0x53234f0_0 : [-1/0,1/0]
RESULT: v0x5323670_0 : [-1/0,1/0]
RESULT: v0x53235b0_0 : [-1/0,1/0]
RESULT: v0x5323430_0 : [-1/0,1/0]
RESULT: v0x53232b0_0 : [-1/0,1/0]
RESULT: v0x5327af0_0 : [-1/0,1/0]
