RESULT: v0x65caff0_0 : [0,0]
RESULT: v0x75f03f0_0 : [0,1]
RESULT: v0x6ea5590_0 : [1,2]
RESULT: v0x431c700_0 : [1,2]
RESULT: v0x75d4530_0 : [1,1]
RESULT: v0x76ccc20_0 : [0,1]
RESULT: v0x5b59810_0 : [0,2]
RESULT: v0x7748080_0 : [-1/0,6]
RESULT: v0x54d9b90_0 : [0,1]
RESULT: v0x431ba00_0 : [0,1/0]
RESULT: v0x52845e0_0 : [0,1/0]
RESULT: v0x5b5f9f0_0 : [-1/0,1/0]
RESULT: v0x64adaa0_0 : [0,2]
RESULT: v0x431b900_0 : [0,1/0]
RESULT: v0x431b800_0 : [0,50]
RESULT: v0x61df470_0 : [0,1/0]
RESULT: v0x765cc30_0 : [0,2]
RESULT: v0x764e0d0_0 : [0,1]
RESULT: v0x54cdeb0_0 : [-1/0,1/0]
RESULT: v0x43250d0_0 : [-1/0,6]
RESULT: v0x43251d0_0 : [0,1]
RESULT: v0x43252d0_0 : [1,2]
RESULT: v0x43253d0_0 : [0,1]
RESULT: v0x43254d0_0 : [0,2]
RESULT: v0x43255d0_0 : [0,1/0]
RESULT: v0x43256d0_0 : [0,2]
RESULT: v0x43257d0_0 : [0,1]
RESULT: v0x43258d0_0 : [0,1]
RESULT: v0x43259d0_0 : [0,2]
RESULT: v0x4325ad0_0 : [-1/0,1/0]
RESULT: v0x4325bd0_0 : [0,0]
RESULT: v0x4325cd0_0 : [1,1]
RESULT: v0x4325dd0_0 : [0,1/0]
RESULT: v0x4325ed0_0 : [-1/0,1/0]
RESULT: v0x431cd00_0 : [-1/0,1/0]
RESULT: v0x431ca00_0 : [-1/0,1/0]
RESULT: v0x43260d0_0 : [-1/0,1/0]
RESULT: v0x9145f20_0 : [-1/0,1/0]
RESULT: v0x9146080_0 : [0,50]
RESULT: v0x9146280_0 : [0,1/0]
RESULT: v0x9146480_0 : [0,1/0]
RESULT: v0x9146680_0 : [0,2]
RESULT: v0x9146880_0 : [0,1]
RESULT: v0x90f8150_0 : [1,1]
RESULT: v0x90f8350_0 : [-1/0,1/0]
RESULT: v0x4325fd0_0 : [-1/0,1/0]
