RESULT: v0x4eb9920_0 : [2,1/0]
RESULT: v0x4eb59e0_0 : [0,1]
RESULT: v0x4f49d20_0 : [0,1]
RESULT: v0x4df1750_0 : [123,777]
RESULT: v0x4deab20_0 : [0,1]
RESULT: v0x4f04740_0 : [0,1]
RESULT: v0x4ef1820_0 : [0,1]
RESULT: v0x4dc4280_0 : [0,2]
RESULT: v0x4d47af0_0 : [0,3]
RESULT: v0x4cca1a0_0 : [0,1]
RESULT: v0x4de3240_0 : [0,1]
RESULT: v0x4efa7c0_0 : [1,1]
RESULT: v0x4ed37c0_0 : [0,0]
RESULT: v0x4f4c860_0 : [1,1]
RESULT: v0x4e65a60_0 : [1,1]
RESULT: v0x4f09a00_0 : [0,2]
RESULT: v0x4f41f60_0 : [0,456]
RESULT: v0x4e6f500_0 : [0,123]
RESULT: v0x4f49f20_0 : [0,456]
RESULT: v0x4e46830_0 : [0,2]
RESULT: v0x4eb4b40_0 : [0,1]
RESULT: v0x4df1ab0_0 : [0,1]
RESULT: v0x4ead780_0 : [0,1]
RESULT: v0x4ef30a0_0 : [0,1]
RESULT: v0x4b60da0_0 : [2,2]
RESULT: v0x4b60ea0_0 : [1,1]
RESULT: v0x4b60fa0_0 : [2,2]
RESULT: v0x4b610a0_0 : [1,1]
RESULT: v0x4b615a0_0 : [0,0]
RESULT: v0x4b616a0_0 : [123,777]
RESULT: v0x4b617a0_0 : [0,0]
