RESULT: v0x477bd50_0 : [-1/0,1/0]
RESULT: v0x477a810_0 : [-1/0,1/0]
RESULT: v0x477ecd0_0 : [-1/0,1/0]
RESULT: v0x477ed90_0 : [-1/0,1/0]
RESULT: v0x4778ec0_0 : [-1/0,1/0]
RESULT: v0x477bd90_0 : [-1/0,1/0]
RESULT: v0x477ea90_0 : [-1/0,1/0]
RESULT: v0x4c1d6e0_0 : [-1/0,1/0]
RESULT: v0x477be50_0 : [-1/0,1/0]
RESULT: v0x477d2d0_0 : [-1/0,1/0]
RESULT: v0x477ec10_0 : [-1/0,1/0]
RESULT: v0x477e0d0_0 : [-1/0,1/0]
RESULT: v0x4c42fe0_0 : [-1/0,1/0]
RESULT: v0x4c3eea0_0 : [-1/0,1/0]
RESULT: v0x477fbd0_0 : [-1/0,1/0]
RESULT: v0x4778de0_0 : [-1/0,1/0]
RESULT: v0x477a750_0 : [-1/0,1/0]
RESULT: v0x4777900_0 : [-1/0,1/0]
RESULT: v0x477a710_0 : [-1/0,1/0]
RESULT: v0x4777860_0 : [-1/0,1/0]
RESULT: v0x4779bd0_0 : [-1/0,1/0]
RESULT: v0x47799b0_0 : [-1/0,1/0]
RESULT: v0x4779120_0 : [-1/0,1/0]
RESULT: v0x4779020_0 : [-1/0,1/0]
RESULT: v0x477ee50_0 : [-1/0,1/0]
