RESULT: v0x593efd0_0 : [-1/0,1/0]
RESULT: v0x5942a80_0 : [-1/0,1/0]
RESULT: v0x5942b80_0 : [-1/0,1/0]
RESULT: v0x5942c80_0 : [-1/0,1/0]
RESULT: v0x5942d80_0 : [-1/0,1/0]
RESULT: v0x5942e80_0 : [-1/0,1/0]
RESULT: v0x5942f80_0 : [-1/0,1/0]
RESULT: v0x5943080_0 : [-1/0,1/0]
RESULT: v0x5943180_0 : [-1/0,1/0]
RESULT: v0x5943280_0 : [-1/0,1/0]
RESULT: v0x5943380_0 : [-1/0,1/0]
RESULT: v0x5943480_0 : [-1/0,1/0]
RESULT: v0x5943580_0 : [-1/0,1/0]
RESULT: v0x5943680_0 : [-1/0,1/0]
RESULT: v0x58dc330_0 : [-1/0,1/0]
RESULT: v0x5f1f7b0_0 : [-1/0,1/0]
RESULT: v0x5be27b0_0 : [1,2]
RESULT: v0x5c4ed50_0 : [2,2]
RESULT: v0x57047e0_0 : [0,0]
RESULT: v0x5f45db0_0 : [-1/0,1/0]
RESULT: v0x60236f0_0 : [-1/0,1/0]
RESULT: v0x60237f0_0 : [-1/0,1/0]
RESULT: v0x60238f0_0 : [-1/0,1/0]
