RESULT: v0x3ddd4b0_1 : [3,3]
RESULT: v0x3cc6f70_1 : [0,1]
RESULT: v0x3ccaba0_1 : [0,1]
RESULT: v0x3ccec30_1 : [0,1]
RESULT: v0x3cdeca0_1 : [0,1]
RESULT: v0x3d2a8b0_1 : [0,1]
RESULT: v0x3ba71e0_1 : [0,1]
RESULT: v0x3d37930_1 : [0,1]
RESULT: v0x3cd1bb0_1 : [0,1]
RESULT: v0x3d21b70_1 : [0,1]
RESULT: v0x3d30bd0_1 : [0,1]
RESULT: v0x3d7f280_1 : [0,1]
RESULT: v0x3dfa300_1 : [0,1]
RESULT: v0x3d2e430_1 : [0,2]
RESULT: v0x3c973e0_1 : [0,3]
RESULT: v0x3d36f50_1 : [0,1]
RESULT: v0x3d34470_1 : [123,777]
RESULT: v0x3d394b0_1 : [0,666]
RESULT: v0x3d3b4d0_1 : [0,2]
RESULT: v0x3ccdcb0_1 : [0,1]
RESULT: v0x3d2b8d0_1 : [0,2]
RESULT: v0x3d35f90_1 : [0,456]
RESULT: v0x3e7cad0_1 : [0,123]
RESULT: v0x3e094e0_1 : [0,456]
