RESULT: v0x3836260_1 : [3,3]
RESULT: v0x38153f0_1 : [0,1]
RESULT: v0x3845870_1 : [0,1]
RESULT: v0x3833c00_1 : [0,1]
RESULT: v0x39208d0_1 : [0,1]
RESULT: v0x3920750_1 : [0,1]
RESULT: v0x3920690_1 : [0,1]
RESULT: v0x3920390_1 : [0,1]
RESULT: v0x3833490_1 : [0,1]
RESULT: v0x3833550_1 : [0,1]
RESULT: v0x3833610_1 : [0,1]
RESULT: v0x38336d0_1 : [0,1]
RESULT: v0x3833790_1 : [123,777]
RESULT: v0x38077d0_1 : [0,666]
RESULT: v0x381f9e0_1 : [0,2]
RESULT: v0x37f2b50_1 : [0,1]
RESULT: v0x3820770_1 : [0,2]
RESULT: v0x38243e0_1 : [0,456]
RESULT: v0x38285c0_1 : [0,123]
RESULT: v0x3824350_1 : [0,456]
RESULT: v0x383c280_1 : [0,3]
