RESULT: v0x3a388c0_0 : [0,1/0]
RESULT: v0x47a5200_1 : [0,1]
RESULT: v0x47a7010_1 : [0,1]
RESULT: v0x530e430_1 : [0,1]
RESULT: v0x530e870_1 : [0,1]
RESULT: v0x530e030_1 : [0,1]
RESULT: v0x530dff0_1 : [0,1]
RESULT: v0x428a280_1 : [0,1]
RESULT: v0x530e550_1 : [0,1]
RESULT: v0x531f140_1 : [0,1]
RESULT: v0x4c7e0b0_1 : [0,1]
RESULT: v0x4df70c0_1 : [-1/0,2]
RESULT: v0x472bd10_1 : [-1/0,2]
RESULT: v0x5319560_1 : [-1/0,2]
RESULT: v0x4c78fa0_1 : [-1/0,2]
RESULT: v0x5318f20_1 : [-1/0,2]
RESULT: v0x4ebe390_1 : [-1/0,2]
RESULT: v0x47a4fa0_1 : [-1/0,2]
RESULT: v0x4c6c870_1 : [-1/0,2]
RESULT: v0x531ca20_1 : [0,2]
RESULT: v0x4274a20_1 : [0,2]
RESULT: v0x4ff79c0_1 : [0,2]
