RESULT: v0x3fbba10_0 : [1,1/0]
RESULT: v0x4220360_0 : [0,1]
RESULT: v0x429f400_0 : [123,777]
RESULT: v0x4242e20_0 : [0,1]
RESULT: v0x4181a40_0 : [0,1]
RESULT: v0x422c140_0 : [0,2]
RESULT: v0x42a3d00_0 : [0,3]
RESULT: v0x4226da0_0 : [0,1]
RESULT: v0x3e97300_0 : [0,1]
RESULT: v0x42912e0_0 : [0,666]
RESULT: v0x3e9b8a0_0 : [0,1]
RESULT: v0x41e89a0_0 : [0,1]
RESULT: v0x421e4e0_0 : [0,2]
RESULT: v0x4197fd0_0 : [0,456]
RESULT: v0x44e7b60_0 : [0,1]
RESULT: v0x44ea780_0 : [0,123]
RESULT: v0x3fd8dd0_0 : [0,1]
RESULT: v0x3ea2e80_0 : [0,1]
RESULT: v0x4241760_0 : [0,3]
RESULT: v0x40315f0_0 : [0,1]
RESULT: v0x42a1440_0 : [0,1]
RESULT: v0x42523c0_0 : [0,1]
RESULT: v0x4228be0_0 : [0,1]
RESULT: v0x4287cc0_0 : [0,2]
RESULT: v0x44e1d80_0 : [0,456]
