RESULT: v0x56719f0_0 : [2,1/0]
RESULT: v0x50ec6a0_0 : [-1/0,1/0]
RESULT: v0x50ec8a0_0 : [-1/0,1/0]
RESULT: v0x565c820_0 : [0,1]
RESULT: v0x5685550_0 : [0,1]
RESULT: v0x58780d0_0 : [0,1]
RESULT: v0x588c980_0 : [0,3]
RESULT: v0x53cc110_0 : [0,1]
RESULT: v0x55a5660_0 : [0,3]
RESULT: v0x560c360_0 : [0,2]
RESULT: v0x54f7720_0 : [0,1]
RESULT: v0x55dac20_0 : [0,0]
RESULT: v0x5671290_0 : [456,456]
RESULT: v0x5882000_0 : [0,0]
RESULT: v0x53dad90_0 : [123,777]
RESULT: v0x588a000_0 : [0,1]
RESULT: v0x5895340_0 : [0,1]
RESULT: v0x5537320_0 : [0,1]
RESULT: v0x5878eb0_0 : [456,456]
RESULT: v0x5889c80_0 : [2,2]
RESULT: v0x55483a0_0 : [1,1]
RESULT: v0x56c4dc0_0 : [0,456]
RESULT: v0x554be60_0 : [0,2]
RESULT: v0x5685b50_0 : [0,1]
RESULT: v0x5509920_0 : [0,1]
RESULT: v0x565c0d0_0 : [0,123]
RESULT: v0x53d4dd0_0 : [0,1]
RESULT: v0x50ed5a0_0 : [789,789]
RESULT: v0x50ec5a0_0 : [-1/0,1/0]
RESULT: v0x50ec7a0_0 : [-1/0,1/0]
RESULT: v0x50ec4a0_0 : [-1/0,1/0]
