RESULT: v0x41bc330_1 : [-1/0,11]
RESULT: v0x3ccd9c0_1 : [-1/0,1/0]
RESULT: v0x3ccda40_1 : [-1/0,1/0]
RESULT: v0x3d68760_1 : [-1/0,1/0]
RESULT: v0x3d685e0_1 : [-1/0,1/0]
RESULT: v0x3571b70_1 : [-1/0,1/0]
RESULT: v0x3c48420_1 : [-1/0,1/0]
RESULT: v0x3c482a0_1 : [-1/0,1/0]
RESULT: v0x39bd240_1 : [-1/0,1/0]
RESULT: v0x39bd140_1 : [-1/0,1/0]
RESULT: v0x3bdd7e0_1 : [-1/0,1/0]
