RESULT: v0x4b6ad70_0 : [2,1/0]
RESULT: v0x4ccc5a0_0 : [0,1]
RESULT: v0x4b75b10_0 : [0,1]
RESULT: v0x4cc5a20_0 : [123,777]
RESULT: v0x4c2cf50_0 : [0,1]
RESULT: v0x4cdfac0_0 : [0,1]
RESULT: v0x4d34860_0 : [0,2]
RESULT: v0x4d5f4c0_0 : [0,456]
RESULT: v0x4ccf020_0 : [0,1]
RESULT: v0x4c68840_0 : [0,1]
RESULT: v0x4d4d4c0_0 : [0,666]
RESULT: v0x4b66710_0 : [0,1]
RESULT: v0x4d30d00_0 : [0,1]
RESULT: v0x4b5c550_0 : [0,1]
RESULT: v0x4d0de20_0 : [0,123]
RESULT: v0x49f3130_0 : [0,1]
RESULT: v0x4cefdc0_0 : [0,1]
RESULT: v0x4b28fa0_0 : [0,456]
RESULT: v0x4ceb300_0 : [0,2]
RESULT: v0x4b30d00_0 : [0,1]
RESULT: v0x49f34b0_0 : [0,1]
RESULT: v0x49f1590_0 : [0,3]
RESULT: v0x49ceda0_0 : [-1/0,1/0]
RESULT: v0x49ceea0_0 : [0,456]
RESULT: v0x49ce7a0_0 : [-1/0,1/0]
RESULT: v0x49ce4a0_0 : [0,456]
RESULT: v0x49cf2a0_0 : [0,2]
RESULT: v0x49cf3a0_0 : [0,1]
RESULT: v0x49cf4a0_0 : [0,1]
RESULT: v0x49cf5a0_0 : [1,2]
RESULT: v0x49d0ba0_0 : [0,0]
RESULT: v0x49d0ca0_0 : [0,123]
RESULT: v0x49d0da0_0 : [0,0]
RESULT: v0x49d0ea0_0 : [0,1]
RESULT: v0x49d0fa0_0 : [2,2]
RESULT: v0x49d10a0_0 : [1,1]
RESULT: v0x49d11a0_0 : [1,3]
RESULT: v0x49d12a0_0 : [2,2]
RESULT: v0x49d13a0_0 : [2,2]
RESULT: v0x49d14a0_0 : [0,0]
RESULT: v0x49d16a0_0 : [0,1]
RESULT: v0x49ce6a0_0 : [0,1]
