RESULT: v0x4f6e1b0_0 : [-1/0,1/0]
RESULT: v0x4f6ec50_0 : [-1/0,1/0]
RESULT: v0x4f6ed10_0 : [-1/0,1/0]
RESULT: v0x4f6f190_0 : [-1/0,1/0]
RESULT: v0x4f703c0_0 : [-1/0,1/0]
RESULT: v0x4f6e0f0_0 : [-1/0,1/0]
RESULT: v0x4f6f010_0 : [-1/0,1/0]
RESULT: v0x4f6f310_0 : [-1/0,1/0]
RESULT: v0x4f6fea0_0 : [-1/0,1/0]
RESULT: v0x4f6fe00_0 : [-1/0,1/0]
RESULT: v0x4f6f0d0_0 : [-1/0,1/0]
RESULT: v0x4fb2e30_0 : [-1/0,1/0]
RESULT: v0x4f9e600_0 : [-1/0,1/0]
RESULT: v0x4f700e0_0 : [-1/0,1/0]
RESULT: v0x4f6e030_0 : [-1/0,1/0]
RESULT: v0x4f6deb0_0 : [-1/0,1/0]
RESULT: v0x4f6ddd0_0 : [-1/0,1/0]
RESULT: v0x4f6d7f0_0 : [-1/0,1/0]
RESULT: v0x4f6adf0_0 : [-1/0,1/0]
RESULT: v0x4f6b3f0_0 : [-1/0,1/0]
RESULT: v0x4f6da30_0 : [-1/0,1/0]
RESULT: v0x4f6de10_0 : [-1/0,1/0]
RESULT: v0x4f6df70_0 : [-1/0,1/0]
RESULT: v0x4f8cad0_0 : [-1/0,1/0]
