RESULT: v0xf3947e0_0 : [-1/0,1/0]
RESULT: v0x649ba20_0 : [-1/0,1/0]
RESULT: v0x8a0f6e0_0 : [-1/0,1/0]
RESULT: v0x649b9a0_0 : [-1/0,1/0]
RESULT: v0x59295d0_0 : [27,1/0]
RESULT: v0x7bdaf20_0 : [-1/0,1/0]
RESULT: v0x7173fc0_0 : [-1/0,1/0]
RESULT: v0xb08ce90_0 : [-1/0,1/0]
RESULT: v0x8a0f480_0 : [1,1]
RESULT: v0x7bdaf60_0 : [-1/0,1/0]
RESULT: v0x8abbb80_0 : [-1/0,1/0]
RESULT: v0x478d2d0_0 : [67,1/0]
RESULT: v0x478d3d0_0 : [0,1]
RESULT: v0x478d4d0_0 : [-1/0,1/0]
RESULT: v0x478d5d0_0 : [-1/0,1/0]
RESULT: v0x478d6d0_0 : [-1/0,1/0]
RESULT: v0x478d7d0_0 : [-1/0,1/0]
RESULT: v0x478d8d0_0 : [0,1]
RESULT: v0x478d9d0_0 : [-1/0,1/0]
RESULT: v0x478dad0_0 : [-1/0,1/0]
RESULT: v0x478dbd0_0 : [-1/0,1/0]
RESULT: v0x478dcd0_0 : [-1/0,1/0]
RESULT: v0x478ddd0_0 : [-1/0,1/0]
RESULT: v0x478ded0_0 : [-1/0,1/0]
RESULT: v0x478dfd0_0 : [-1/0,1/0]
RESULT: v0x485b3e0_0 : [-1/0,1/0]
RESULT: v0x786e390_0 : [-1/0,1/0]
RESULT: v0x9465360_0 : [-1/0,1/0]
RESULT: v0x8a3c370_0 : [-1/0,10]
RESULT: v0x6e06230_0 : [-1/0,1/0]
RESULT: v0x478f2d0_0 : [-1/0,1/0]
