RESULT: v0x49f2e10_0 : [0,1]
RESULT: v0x640c420_1 : [0,1]
RESULT: v0x64124e0_1 : [0,1]
RESULT: v0x63e3370_1 : [0,1]
RESULT: v0x4c937d0_1 : [0,1]
RESULT: v0x4cd51e0_1 : [0,1]
RESULT: v0x4ebfb80_1 : [0,1]
RESULT: v0x5f57cf0_1 : [0,1]
RESULT: v0x4ebce00_1 : [0,1]
RESULT: v0x5058960_1 : [0,1]
RESULT: v0x56857e0_1 : [0,1]
RESULT: v0x4cd0b70_1 : [0,1]
RESULT: v0x5b0d550_1 : [0,1]
RESULT: v0x4fa41d0_1 : [-1/0,1/0]
RESULT: v0x4cc8d20_1 : [-1/0,1/0]
RESULT: v0x4cd2e60_1 : [0,2]
RESULT: v0x4cbeef0_1 : [0,2]
RESULT: v0x4c990b0_1 : [0,2]
RESULT: v0x4c99490_1 : [0,2]
RESULT: v0x4ecf980_1 : [0,2]
RESULT: v0x4ec7e40_1 : [0,2]
RESULT: v0x5038880_1 : [0,2]
RESULT: v0x4d4afe0_1 : [0,2]
RESULT: v0x4f9f910_1 : [0,2]
RESULT: v0x5c45760_1 : [0,2]
RESULT: v0x4ccc030_1 : [0,2]
RESULT: v0x5c44020_1 : [0,2]
RESULT: v0x4fed240_1 : [0,2]
