RESULT: v0x594f690_0 : [-1/0,1/0]
RESULT: v0x594fb90_0 : [-1/0,1/0]
RESULT: v0x5950790_0 : [789,789]
RESULT: v0x594f890_0 : [-1/0,1/0]
RESULT: v0x594f990_0 : [-1/0,1/0]
RESULT: v0x594f790_0 : [-1/0,1/0]
RESULT: v0x5e48da0_1 : [4,4]
RESULT: v0x5ecd1e0_1 : [0,1]
RESULT: v0x5e41d20_1 : [0,1]
RESULT: v0x5ee38a0_1 : [0,1]
RESULT: v0x5e96320_1 : [0,1]
RESULT: v0x5ed0ca0_1 : [0,1]
RESULT: v0x5bf76a0_1 : [0,1]
RESULT: v0x5ec6520_1 : [0,1]
RESULT: v0x5bf30a0_1 : [0,1]
RESULT: v0x5e9e2a0_1 : [0,1]
RESULT: v0x5bfc6a0_1 : [0,1]
RESULT: v0x5eebc20_1 : [0,1]
RESULT: v0x5eeb8e0_1 : [0,1]
RESULT: v0x5eebdc0_1 : [0,2]
RESULT: v0x5eed9a0_1 : [0,3]
RESULT: v0x5cfbdd0_1 : [0,1]
RESULT: v0x5cfbe90_1 : [123,777]
RESULT: v0x5cfbc50_1 : [0,666]
RESULT: v0x5cfb7d0_1 : [0,2]
RESULT: v0x5e41e60_1 : [0,1]
RESULT: v0x5e5e060_1 : [0,2]
RESULT: v0x5e2e220_1 : [0,456]
RESULT: v0x5e731e0_1 : [0,123]
RESULT: v0x5ed08e0_1 : [0,456]
RESULT: v0x5e40420_1 : [0,3]
