RESULT: v0x44176c0_0 : [-1/0,1/0]
RESULT: v0x4417600_0 : [-1/0,1/0]
RESULT: v0x4417480_0 : [-1/0,1/0]
RESULT: v0x4417780_0 : [-1/0,1/0]
RESULT: v0x4417000_0 : [-1/0,1/0]
RESULT: v0x4417240_0 : [-1/0,1/0]
RESULT: v0x4417180_0 : [-1/0,1/0]
RESULT: v0x44170c0_0 : [-1/0,1/0]
RESULT: v0x43c00e0_0 : [-1/0,1/0]
RESULT: v0x438fd80_0 : [-1/0,1/0]
RESULT: v0x4416f60_0 : [-1/0,1/0]
RESULT: v0x4417900_0 : [-1/0,1/0]
RESULT: v0x44179c0_0 : [-1/0,1/0]
RESULT: v0x4417a80_0 : [-1/0,1/0]
RESULT: v0x4417b40_0 : [-1/0,1/0]
RESULT: v0x4417c00_0 : [-1/0,1/0]
RESULT: v0x4417cc0_0 : [-1/0,1/0]
RESULT: v0x4417d80_0 : [-1/0,1/0]
RESULT: v0x4417e40_0 : [-1/0,1/0]
RESULT: v0x4417f00_0 : [-1/0,1/0]
RESULT: v0x4417840_0 : [-1/0,1/0]
RESULT: v0x4417640_0 : [-1/0,1/0]
RESULT: v0x44173c0_0 : [-1/0,1/0]
RESULT: v0x4417300_0 : [-1/0,1/0]
