RESULT: v0x5437590_0 : [0,0]
RESULT: v0x5712d10_0 : [0,1]
RESULT: v0x4401dd0_0 : [1,2]
RESULT: v0x43bc9b0_0 : [1,2]
RESULT: v0x43bbcb0_0 : [0,50]
RESULT: v0x57120d0_0 : [1,1]
RESULT: v0x4d2bda0_0 : [0,1]
RESULT: v0x5425010_0 : [0,1]
RESULT: v0x56e6b40_0 : [3,6]
RESULT: v0x541fb50_0 : [-1/0,1/0]
RESULT: v0x56e8900_0 : [0,1]
RESULT: v0x53b8610_0 : [0,50]
RESULT: v0x4e55ee0_0 : [0,0]
RESULT: v0x5716d70_0 : [0,0]
RESULT: v0x5727cd0_0 : [0,0]
RESULT: v0x56fec50_0 : [0,0]
RESULT: v0x5457650_0 : [-1/0,1/0]
RESULT: v0x43c5380_0 : [3,6]
RESULT: v0x43c5480_0 : [0,1]
RESULT: v0x43c5580_0 : [1,2]
RESULT: v0x43c5680_0 : [0,1]
RESULT: v0x43c5780_0 : [0,0]
RESULT: v0x43c5880_0 : [0,50]
RESULT: v0x43c5980_0 : [0,0]
RESULT: v0x43c5a80_0 : [0,1]
RESULT: v0x43c5b80_0 : [0,1]
RESULT: v0x43c5c80_0 : [0,0]
RESULT: v0x43c5d80_0 : [-1/0,1/0]
RESULT: v0x43c5e80_0 : [0,0]
RESULT: v0x43c5f80_0 : [1,1]
RESULT: v0x43c6080_0 : [0,0]
RESULT: v0x43c6180_0 : [-1/0,1/0]
RESULT: v0x43bcfb0_0 : [-1/0,1/0]
RESULT: v0x43bccb0_0 : [-1/0,1/0]
RESULT: v0x43c6380_0 : [-1/0,1/0]
RESULT: v0x4e24060_0 : [-1/0,1/0]
RESULT: v0x5248670_0 : [0,50]
RESULT: v0x4e20850_0 : [0,2]
RESULT: v0x5243e60_0 : [0,1]
RESULT: v0x4e1ea50_0 : [1,1]
RESULT: v0x53a90b0_0 : [-1/0,1/0]
RESULT: v0x43c6280_0 : [-1/0,1/0]
