RESULT: v0x407d450_1 : [3,3]
RESULT: v0x3f66690_1 : [0,1]
RESULT: v0x3f6a4e0_1 : [0,1]
RESULT: v0x3f6e570_1 : [0,1]
RESULT: v0x3f7e5c0_1 : [0,1]
RESULT: v0x3fb4cf0_1 : [0,1]
RESULT: v0x3e3dc60_1 : [0,1]
RESULT: v0x3e47cc0_1 : [0,1]
RESULT: v0x3f6f190_1 : [0,1]
RESULT: v0x3f6f650_1 : [0,1]
RESULT: v0x3fd8d30_1 : [0,1]
RESULT: v0x4073c10_1 : [0,1]
RESULT: v0x3fd0a30_1 : [0,1]
RESULT: v0x3fb5d90_1 : [0,2]
RESULT: v0x3fd7550_1 : [0,3]
RESULT: v0x3e49300_1 : [0,1]
RESULT: v0x3f59160_1 : [123,777]
RESULT: v0x3fdaab0_1 : [0,666]
RESULT: v0x3f72310_1 : [0,2]
RESULT: v0x3fceef0_1 : [0,1]
RESULT: v0x3fc8e70_1 : [0,2]
RESULT: v0x3fba350_1 : [0,456]
RESULT: v0x41242a0_1 : [0,123]
RESULT: v0x40a8e80_1 : [0,456]
