RESULT: v0x514de80_0 : [0,1]
RESULT: v0x4881450_0 : [0,1]
RESULT: v0x54acd20_0 : [0,1]
RESULT: v0x5405c50_0 : [0,1]
RESULT: v0x53faec0_0 : [0,1]
RESULT: v0x569b210_0 : [0,1]
RESULT: v0x4a69e60_0 : [0,1]
RESULT: v0x5497a00_0 : [0,1]
RESULT: v0x54949f0_0 : [0,1]
RESULT: v0x56a4a40_0 : [1,1]
RESULT: v0x51bd6a0_0 : [-1/0,1/0]
RESULT: v0x51be060_0 : [-1/0,1/0]
RESULT: v0x4a0c400_0 : [0,2]
RESULT: v0x4a6d3e0_0 : [0,2]
RESULT: v0x51bdfa0_0 : [0,2]
RESULT: v0x51bb880_0 : [0,2]
RESULT: v0x51bb400_0 : [0,2]
RESULT: v0x51baec0_0 : [0,2]
RESULT: v0x514cde0_0 : [0,2]
RESULT: v0x5fa2a60_0 : [0,2]
RESULT: v0x5f97bc0_0 : [0,2]
RESULT: v0x5f96ac0_0 : [2,2]
