RESULT: v0x45e53e0_0 : [-1/0,1/0]
RESULT: v0x45151f0_0 : [-1/0,1/0]
RESULT: v0x4515230_0 : [0,1]
RESULT: v0x4565250_0 : [-1/0,1/0]
RESULT: v0x407ef60_0 : [27,1/0]
RESULT: v0x42e9fe0_0 : [-1/0,1/0]
RESULT: v0x42ef6c0_0 : [-1/0,1/0]
RESULT: v0x41cef00_0 : [0,0]
RESULT: v0x44aea90_0 : [-1/0,1/0]
RESULT: v0x44ffb50_0 : [-1/0,1/0]
RESULT: v0x4076f90_0 : [-1/0,1/0]
RESULT: v0x3f94330_0 : [67,1/0]
RESULT: v0x3f94430_0 : [0,1]
RESULT: v0x3f94530_0 : [-1/0,1/0]
RESULT: v0x3f94630_0 : [-1/0,1/0]
RESULT: v0x3f94730_0 : [-1/0,1/0]
RESULT: v0x3f94830_0 : [-1/0,1/0]
RESULT: v0x3f94930_0 : [0,1]
RESULT: v0x3f94a30_0 : [-1/0,1/0]
RESULT: v0x3f94b30_0 : [-1/0,1/0]
RESULT: v0x3f94c30_0 : [-1/0,1/0]
RESULT: v0x3f94d30_0 : [0,0]
RESULT: v0x3f94e30_0 : [-1/0,1/0]
RESULT: v0x3f94f30_0 : [-1/0,1/0]
RESULT: v0x3f95030_0 : [-1/0,1/0]
RESULT: v0x41d4700_0 : [-1/0,1/0]
RESULT: v0x453fc70_0 : [-1/0,1/0]
RESULT: v0x46e4050_0 : [0,0]
RESULT: v0x4279f70_0 : [-1/0,10]
RESULT: v0x453f870_0 : [-1/0,1/0]
RESULT: v0x3f95330_0 : [-1/0,1/0]
