RESULT: v0x60981b0_0 : [-1/0,1/0]
RESULT: v0x60983b0_0 : [-1/0,1/0]
RESULT: v0x60990b0_0 : [789,789]
RESULT: v0x60980b0_0 : [-1/0,1/0]
RESULT: v0x60982b0_0 : [-1/0,1/0]
RESULT: v0x6097fb0_0 : [-1/0,1/0]
RESULT: v0x65a40f0_1 : [4,4]
RESULT: v0x632e330_1 : [0,1]
RESULT: v0x65914f0_1 : [0,1]
RESULT: v0x6514570_1 : [0,1]
RESULT: v0x65580b0_1 : [0,1]
RESULT: v0x6509030_1 : [0,1]
RESULT: v0x655dab0_1 : [0,1]
RESULT: v0x64a57b0_1 : [0,1]
RESULT: v0x65aeaf0_1 : [0,1]
RESULT: v0x64b33b0_1 : [0,1]
RESULT: v0x64aa2b0_1 : [0,1]
RESULT: v0x65db400_1 : [0,1]
RESULT: v0x65db090_1 : [0,1]
RESULT: v0x65db5a0_1 : [0,2]
RESULT: v0x65dc3b0_1 : [0,3]
RESULT: v0x666c900_1 : [0,1]
RESULT: v0x666c9c0_1 : [123,777]
RESULT: v0x666c780_1 : [0,666]
RESULT: v0x666c300_1 : [0,2]
RESULT: v0x649d470_1 : [0,1]
RESULT: v0x64c9cf0_1 : [0,2]
RESULT: v0x64f8af0_1 : [0,456]
RESULT: v0x655f270_1 : [0,123]
RESULT: v0x64eba30_1 : [0,456]
RESULT: v0x64e6a30_1 : [0,3]
