RESULT: v0x56ec900_0 : [2,1/0]
RESULT: v0x566e480_0 : [123,777]
RESULT: v0x5435830_0 : [0,1]
RESULT: v0x55f9870_0 : [0,1]
RESULT: v0x55f96f0_0 : [0,2]
RESULT: v0x55f93f0_0 : [0,3]
RESULT: v0x56b5160_0 : [0,1]
RESULT: v0x566f980_0 : [0,1]
RESULT: v0x55f9cf0_0 : [1,1]
RESULT: v0x5700940_0 : [0,0]
RESULT: v0x55f9b70_0 : [0,1]
RESULT: v0x55f9330_0 : [0,1]
RESULT: v0x543c360_0 : [0,1]
RESULT: v0x55f9270_0 : [0,1]
RESULT: v0x572eac0_0 : [0,456]
RESULT: v0x5708520_0 : [0,2]
RESULT: v0x55f9f30_0 : [0,1]
RESULT: v0x55f7910_0 : [0,1]
RESULT: v0x567fd60_0 : [0,123]
RESULT: v0x547e020_0 : [0,1]
RESULT: v0x56c4740_0 : [0,1]
RESULT: v0x5663220_0 : [0,3]
RESULT: v0x56e2260_0 : [0,456]
RESULT: v0x55f99f0_0 : [0,1]
RESULT: v0x567d580_0 : [0,2]
RESULT: v0x52c8210_0 : [2,2]
RESULT: v0x52c8310_0 : [1,1]
RESULT: v0x52c8410_0 : [0,1]
RESULT: v0x52c8510_0 : [0,456]
RESULT: v0x52c8610_0 : [-1/0,1/0]
RESULT: v0x52c8710_0 : [1,3]
RESULT: v0x52c8c10_0 : [0,0]
RESULT: v0x52c8d10_0 : [123,777]
RESULT: v0x52c8e10_0 : [0,0]
