RESULT: v0x4046910_1 : [3,3]
RESULT: v0x3ef2ed0_1 : [0,1]
RESULT: v0x4055f00_1 : [0,1]
RESULT: v0x40442b0_1 : [0,1]
RESULT: v0x4131010_1 : [0,1]
RESULT: v0x4130e90_1 : [0,1]
RESULT: v0x4130dd0_1 : [0,1]
RESULT: v0x4130ad0_1 : [0,1]
RESULT: v0x4043b40_1 : [0,1]
RESULT: v0x4043c00_1 : [0,1]
RESULT: v0x4043cc0_1 : [0,1]
RESULT: v0x4043d80_1 : [0,1]
RESULT: v0x4043e40_1 : [123,777]
RESULT: v0x3f55030_1 : [0,666]
RESULT: v0x402fc30_1 : [0,2]
RESULT: v0x40026e0_1 : [0,1]
RESULT: v0x4030800_1 : [0,2]
RESULT: v0x4034a70_1 : [0,456]
RESULT: v0x4038c50_1 : [0,123]
RESULT: v0x40349e0_1 : [0,456]
RESULT: v0x404c930_1 : [0,3]
