RESULT: v0x3a388c0_0 : [0,1]
RESULT: v0x42ce510_1 : [0,1]
RESULT: v0x47078d0_1 : [0,1]
RESULT: v0x4565050_1 : [0,1]
RESULT: v0x42cce00_1 : [0,1]
RESULT: v0x42e12f0_1 : [0,1]
RESULT: v0x4476080_1 : [0,1]
RESULT: v0x42c9470_1 : [0,1]
RESULT: v0x46f5cd0_1 : [0,1]
RESULT: v0x3cc6880_1 : [0,1]
RESULT: v0x46f4090_1 : [0,1]
RESULT: v0x3e7d180_1 : [0,2]
RESULT: v0x4bdbfb0_1 : [0,2]
RESULT: v0x470b2d0_1 : [0,2]
RESULT: v0x3cb3fe0_1 : [0,2]
RESULT: v0x3e5fb00_1 : [0,2]
RESULT: v0x3b6bde0_1 : [0,2]
RESULT: v0x3e5edd0_1 : [0,2]
RESULT: v0x3cdac20_1 : [0,2]
RESULT: v0x3ea8860_1 : [0,2]
RESULT: v0x45635b0_1 : [0,2]
RESULT: v0x3c9b6c0_1 : [0,2]
