RESULT: v0x3a1ba20_0 : [2,1/0]
RESULT: v0x38e7f70_0 : [0,1]
RESULT: v0x3ac5550_0 : [0,1]
RESULT: v0x3afcc90_0 : [123,777]
RESULT: v0x39d5b50_0 : [0,1]
RESULT: v0x3af57d0_0 : [0,1]
RESULT: v0x3afa910_0 : [0,1]
RESULT: v0x3a51840_0 : [0,2]
RESULT: v0x3b3ebf0_0 : [0,3]
RESULT: v0x3aabbd0_0 : [0,1]
RESULT: v0x3b32190_0 : [0,0]
RESULT: v0x39d94a0_0 : [0,0]
RESULT: v0x3b4a230_0 : [456,456]
RESULT: v0x39cfea0_0 : [1,1]
RESULT: v0x3adea50_0 : [1,1]
RESULT: v0x3a51920_0 : [0,2]
RESULT: v0x389e590_0 : [0,456]
RESULT: v0x3add410_0 : [0,0]
RESULT: v0x3951c40_0 : [456,456]
RESULT: v0x3896550_0 : [2,2]
RESULT: v0x3ac91f0_0 : [1,1]
RESULT: v0x3ade850_0 : [0,0]
RESULT: v0x3936e30_0 : [0,0]
RESULT: v0x3a1d820_0 : [0,1]
