RESULT: v0x3b67020_0 : [-1/0,1/0]
RESULT: v0x3b3d6c0_0 : [0,1]
RESULT: v0x3b66ea0_0 : [-1/0,1/0]
RESULT: v0x3b69a60_0 : [-1/0,1/0]
RESULT: v0x3b3d300_0 : [67,1/0]
RESULT: v0x3b3b520_0 : [-1/0,1/0]
RESULT: v0x3b3f640_0 : [-1/0,1/0]
RESULT: v0x3b3ba40_0 : [-1/0,1/0]
RESULT: v0x3b6bea0_0 : [0,0]
RESULT: v0x3b3eec0_0 : [-1/0,1/0]
RESULT: v0x3b68560_0 : [-1/0,1/0]
RESULT: v0x391f010_0 : [-1/0,1/0]
RESULT: v0x391f110_0 : [-1/0,1/0]
RESULT: v0x391f210_0 : [-1/0,1/0]
RESULT: v0x391f310_0 : [-1/0,1/0]
RESULT: v0x391f410_0 : [67,1/0]
RESULT: v0x391f510_0 : [0,1]
RESULT: v0x391f610_0 : [0,1]
RESULT: v0x391f710_0 : [-1/0,1/0]
RESULT: v0x391f810_0 : [-1/0,1/0]
RESULT: v0x391f910_0 : [0,0]
RESULT: v0x391fa10_0 : [-1/0,1/0]
RESULT: v0x391fb10_0 : [-1/0,1/0]
RESULT: v0x391fc10_0 : [-1/0,1/0]
RESULT: v0x391fd10_0 : [-1/0,1/0]
RESULT: v0x3b3ada0_0 : [-1/0,1/0]
RESULT: v0x3b682a0_0 : [-1/0,1/0]
RESULT: v0x395dd40_0 : [0,0]
RESULT: v0x3b6b720_0 : [-1/0,10]
RESULT: v0x3b66c60_0 : [-1/0,1/0]
RESULT: v0x3920010_0 : [-1/0,1/0]
