RESULT: v0x4733d80_0 : [-1/0,1/0]
RESULT: v0x4e1df30_0 : [0,1]
RESULT: v0x3a6b4e0_0 : [-1/0,1/0]
RESULT: v0x3db64b0_0 : [-1/0,1/0]
RESULT: v0x3c327f0_0 : [67,1/0]
RESULT: v0x4e7f880_0 : [-1/0,1/0]
RESULT: v0x67f0e30_0 : [-1/0,1/0]
RESULT: v0x546d590_0 : [-1/0,1/0]
RESULT: v0x3ca5220_0 : [0,0]
RESULT: v0x3d5bab0_0 : [-1/0,1/0]
RESULT: v0x64c4690_0 : [-1/0,1/0]
RESULT: v0x391f010_0 : [-1/0,1/0]
RESULT: v0x391f110_0 : [-1/0,1/0]
RESULT: v0x391f210_0 : [-1/0,1/0]
RESULT: v0x391f310_0 : [-1/0,1/0]
RESULT: v0x391f410_0 : [67,1/0]
RESULT: v0x391f510_0 : [0,1]
RESULT: v0x391f610_0 : [0,1]
RESULT: v0x391f710_0 : [-1/0,1/0]
RESULT: v0x391f810_0 : [-1/0,1/0]
RESULT: v0x391f910_0 : [0,0]
RESULT: v0x391fa10_0 : [-1/0,1/0]
RESULT: v0x391fb10_0 : [-1/0,1/0]
RESULT: v0x391fc10_0 : [-1/0,1/0]
RESULT: v0x391fd10_0 : [-1/0,1/0]
RESULT: v0x4e8a440_0 : [-1/0,1/0]
RESULT: v0x77540c0_0 : [-1/0,1/0]
RESULT: v0x6839b70_0 : [0,0]
RESULT: v0x3e23110_0 : [-1/0,10]
RESULT: v0x412eca0_0 : [-1/0,1/0]
RESULT: v0x3920010_0 : [-1/0,1/0]
