RESULT: v0x32d6eb0_0 : [0,1/0]
RESULT: v0x5ee4dc0_1 : [0,1]
RESULT: v0x4568180_1 : [0,1]
RESULT: v0x57427b0_1 : [0,1]
RESULT: v0x4dac180_1 : [0,1]
RESULT: v0x4346b60_1 : [0,1]
RESULT: v0x4e5d2e0_1 : [0,1]
RESULT: v0x623f730_1 : [0,1]
RESULT: v0x51f14b0_1 : [0,1]
RESULT: v0x4354be0_1 : [0,1]
RESULT: v0x6016cc0_1 : [0,1/0]
RESULT: v0x6241770_1 : [0,1/0]
RESULT: v0x5eddb60_1 : [-1/0,2]
RESULT: v0x6452970_1 : [-1/0,2]
RESULT: v0x64531d0_1 : [-1/0,2]
RESULT: v0x4343ae0_1 : [-1/0,2]
RESULT: v0x4f67b00_1 : [-1/0,2]
RESULT: v0x625afc0_1 : [-1/0,2]
RESULT: v0x4356960_1 : [-1/0,2]
RESULT: v0x4354160_1 : [0,2]
RESULT: v0x45bb440_1 : [0,2]
RESULT: v0x4f5f1c0_1 : [0,2]
RESULT: v0x4545f20_1 : [0,2]
RESULT: v0x434a920_1 : [0,2]
