RESULT: v0x39cc160_0 : [-1/0,1/0]
RESULT: v0x39cc1a0_0 : [-1/0,1/0]
RESULT: v0x39cb560_0 : [-1/0,1/0]
RESULT: v0x39cb600_0 : [-1/0,1/0]
RESULT: v0x39ca920_0 : [-1/0,1/0]
RESULT: v0x39ca9c0_0 : [-1/0,1/0]
RESULT: v0x39c6960_0 : [-1/0,1/0]
RESULT: v0x39be970_0 : [-1/0,1/0]
RESULT: v0x39be050_0 : [-1/0,1/0]
RESULT: v0x38bf0b0_0 : [-1/0,1/0]
RESULT: v0x391c150_0 : [-1/0,1/0]
RESULT: v0x39bdd10_0 : [-1/0,1/0]
RESULT: v0x38c1af0_0 : [-1/0,1/0]
RESULT: v0x38c1770_0 : [1,1]
RESULT: v0x391c810_0 : [-1/0,1/0]
RESULT: v0x38c3af0_0 : [-1/0,1/0]
RESULT: v0x38bcfe0_0 : [-1/0,1/0]
RESULT: v0x38bbf00_0 : [-1/0,1/0]
RESULT: v0x38bcce0_0 : [-1/0,1/0]
RESULT: v0x38bc9e0_0 : [-1/0,1/0]
RESULT: v0x38b9200_0 : [-1/0,1/0]
RESULT: v0x3a09ad0_0 : [-1/0,1/0]
RESULT: v0x38b8750_0 : [-1/0,1/0]
RESULT: v0x38b7f50_0 : [-1/0,1/0]
RESULT: v0x39bf840_0 : [-1/0,1/0]
RESULT: v0x391cb50_0 : [-1/0,1/0]
RESULT: v0x39bf340_0 : [-1/0,1/0]
RESULT: v0x391cdc0_0 : [-1/0,1/0]
RESULT: v0x38be4a0_0 : [-1/0,1/0]
RESULT: v0x38bb6a0_0 : [2,2]
