RESULT: v0x431c700_0 : [1,2]
RESULT: v0x431ba00_0 : [0,0]
RESULT: v0x431b900_0 : [0,51]
RESULT: v0x431b800_0 : [0,50]
RESULT: v0x48c5ee0_0 : [0,1]
RESULT: v0x4361d20_0 : [0,51]
RESULT: v0x53d5f60_0 : [0,1]
RESULT: v0x53ab180_0 : [0,3]
RESULT: v0x51c7500_0 : [0,1]
RESULT: v0x53d62a0_0 : [0,51]
RESULT: v0x4efc8d0_0 : [0,0]
RESULT: v0x539dfb0_0 : [0,1]
RESULT: v0x51c6520_0 : [0,0]
RESULT: v0x5068300_0 : [0,1]
RESULT: v0x53ba280_0 : [0,0]
RESULT: v0x4f8c340_0 : [1,1]
RESULT: v0x4f1fbf0_0 : [0,1]
RESULT: v0x5337200_0 : [0,1]
RESULT: v0x53d52a0_0 : [2,2]
RESULT: v0x431ca00_0 : [-1/0,1/0]
RESULT: v0x5067b00_0 : [1,1]
RESULT: v0x474fcb0_0 : [0,2]
RESULT: v0x4578520_0 : [50,52]
RESULT: v0x4a18060_0 : [0,2]
RESULT: v0x53cffa0_0 : [0,0]
RESULT: v0x5337f40_0 : [1,1]
RESULT: v0x51ce500_0 : [0,1]
RESULT: v0x5077c20_0 : [0,1]
RESULT: v0x4efc090_0 : [0,1]
RESULT: v0x46d53c0_0 : [0,51]
RESULT: v0x4f47600_0 : [0,2]
RESULT: v0x52f44f0_0 : [0,1]
RESULT: v0x431e1c0_0 : [-1/0,1/0]
