RESULT: v0x51182e0_0 : [0,1]
RESULT: v0x5689340_1 : [0,1]
RESULT: v0x5392170_1 : [0,1]
RESULT: v0x60eb700_1 : [0,1]
RESULT: v0x5a19000_1 : [0,1]
RESULT: v0x5a033a0_1 : [0,1]
RESULT: v0x61e28b0_1 : [0,1]
RESULT: v0x56851e0_1 : [0,1]
RESULT: v0x62ed880_1 : [0,1]
RESULT: v0x5396660_1 : [0,1]
RESULT: v0x60f81e0_1 : [0,1]
RESULT: v0x55c9310_1 : [-1/0,1/0]
RESULT: v0x53cd210_1 : [-1/0,1/0]
RESULT: v0x538c360_1 : [0,2]
RESULT: v0x5a148a0_1 : [0,2]
RESULT: v0x5a12b40_1 : [0,2]
RESULT: v0x56a83b0_1 : [0,2]
RESULT: v0x56681e0_1 : [0,2]
RESULT: v0x56982c0_1 : [0,2]
RESULT: v0x5391b70_1 : [0,2]
RESULT: v0x5a04260_1 : [0,2]
RESULT: v0x569b910_1 : [0,2]
RESULT: v0x56af480_1 : [0,2]
RESULT: v0x5a29470_1 : [0,2]
