RESULT: v0x42de350_0 : [0,0]
RESULT: v0x4568a80_1 : [0,1]
RESULT: v0x4325110_1 : [0,1]
RESULT: v0x456ff50_1 : [0,1]
RESULT: v0x43221a0_1 : [0,1]
RESULT: v0x47eb6c0_1 : [0,1]
RESULT: v0x47e7280_1 : [0,1]
RESULT: v0x47fa710_1 : [0,1]
RESULT: v0x47fa650_1 : [0,1]
RESULT: v0x47f2740_1 : [0,1]
RESULT: v0x47e7480_1 : [0,1]
RESULT: v0x47eb740_1 : [0,1]
RESULT: v0x47ebfa0_1 : [0,1]
RESULT: v0x4579170_1 : [-1/0,1/0]
RESULT: v0x4576930_1 : [-1/0,1/0]
RESULT: v0x457b6e0_1 : [0,2]
RESULT: v0x457a9b0_1 : [0,2]
RESULT: v0x4323370_1 : [0,2]
RESULT: v0x4439f90_1 : [0,2]
RESULT: v0x4571210_1 : [0,2]
RESULT: v0x4595100_1 : [0,2]
RESULT: v0x4595840_1 : [0,2]
RESULT: v0x4593ce0_1 : [0,2]
RESULT: v0x45a9b70_1 : [0,2]
RESULT: v0x45c6c80_1 : [0,2]
RESULT: v0x45c6f20_1 : [0,2]
RESULT: v0x45cd1e0_1 : [0,2]
RESULT: v0x45c3760_1 : [0,0]
