RESULT: v0x4148f20_0 : [0,1]
RESULT: v0x4eeff30_0 : [-1/0,1/0]
RESULT: v0x46f1f30_0 : [-1/0,1/0]
RESULT: v0x4e9a650_0 : [-1/0,1/0]
RESULT: v0x3e237e0_0 : [27,1/0]
RESULT: v0x4e2e340_0 : [-1/0,1/0]
RESULT: v0x3b223f0_0 : [-1/0,1/0]
RESULT: v0x3d1fbe0_0 : [-1/0,1/0]
RESULT: v0x4efafe0_0 : [0,0]
RESULT: v0x46f1eb0_0 : [-1/0,1/0]
RESULT: v0x3e227e0_0 : [-1/0,1/0]
RESULT: v0x391f010_0 : [-1/0,1/0]
RESULT: v0x391f110_0 : [-1/0,1/0]
RESULT: v0x391f210_0 : [-1/0,1/0]
RESULT: v0x391f310_0 : [-1/0,1/0]
RESULT: v0x391f410_0 : [67,1/0]
RESULT: v0x391f510_0 : [0,1]
RESULT: v0x391f610_0 : [0,1]
RESULT: v0x391f710_0 : [-1/0,1/0]
RESULT: v0x391f810_0 : [-1/0,1/0]
RESULT: v0x391f910_0 : [-1/0,1/0]
RESULT: v0x391fa10_0 : [0,0]
RESULT: v0x391fb10_0 : [-1/0,1/0]
RESULT: v0x391fc10_0 : [-1/0,1/0]
RESULT: v0x391fd10_0 : [-1/0,1/0]
RESULT: v0x46bfe60_0 : [-1/0,1/0]
RESULT: v0x50c5fe0_0 : [-1/0,1/0]
RESULT: v0x4e5a120_0 : [0,0]
RESULT: v0x46e6420_0 : [-1/0,10]
RESULT: v0x47c0cd0_0 : [-1/0,1/0]
RESULT: v0x3920010_0 : [-1/0,1/0]
