RESULT: v0x50a04e0_0 : [0,2]
RESULT: v0x50a00e0_0 : [0,1]
RESULT: v0x509fbe0_0 : [0,2]
RESULT: v0x50a05e0_0 : [0,1]
RESULT: v0x509f020_0 : [1,2]
RESULT: v0x509e320_0 : [0,1/0]
RESULT: v0x509e220_0 : [0,1/0]
RESULT: v0x509fae0_0 : [0,1]
RESULT: v0x509ffe0_0 : [0,1]
RESULT: v0x509f9e0_0 : [-1/0,6]
RESULT: v0x50a02e0_0 : [0,1]
RESULT: v0x50a06e0_0 : [0,1]
RESULT: v0x50a01e0_0 : [0,1]
RESULT: v0x509fee0_0 : [0,1/0]
RESULT: v0x509fce0_0 : [0,1]
RESULT: v0x509fde0_0 : [0,1]
RESULT: v0x50a07e0_0 : [-1/0,1/0]
RESULT: v0x50a03e0_0 : [-1/0,1/0]
RESULT: v0x7a7f690_0 : [-1/0,1/0]
RESULT: v0x7bf4ed0_0 : [0,0]
RESULT: v0x6e55aa0_0 : [0,0]
RESULT: v0x7d00de0_0 : [-1/0,1/0]
RESULT: v0x7d02340_0 : [0,0]
RESULT: v0x7929f70_0 : [-1/0,1/0]
RESULT: v0x8fdbd70_0 : [-1/0,1/0]
RESULT: v0x69f2710_0 : [-1/0,1/0]
RESULT: v0x7dc5fb0_0 : [-1/0,1/0]
RESULT: v0x6e83190_0 : [1,1]
