RESULT: v0x4f22aa0_0 : [1,1]
RESULT: v0x4ac68d0_0 : [0,1]
RESULT: v0x5e21a00_0 : [2,2]
RESULT: v0x5df7d90_0 : [0,0]
RESULT: v0x5e202d0_0 : [0,1]
RESULT: v0x56579c0_0 : [0,1]
RESULT: v0x52e7200_0 : [0,1]
RESULT: v0x5e20430_0 : [40,120]
RESULT: v0x5e1f460_0 : [0,1]
RESULT: v0x5666f90_0 : [0,1]
RESULT: v0x5e20f70_0 : [1,1]
RESULT: v0x5dec760_0 : [1,1]
RESULT: v0x5e48cf0_0 : [1,1]
RESULT: v0x5e1f520_0 : [0,0]
RESULT: v0x5e32de0_0 : [4,4]
RESULT: v0x47b41d0_0 : [80,120]
RESULT: v0x47b42d0_0 : [0,1]
RESULT: v0x47b43d0_0 : [0,0]
RESULT: v0x47b44d0_0 : [3,4]
RESULT: v0x47b45d0_0 : [0,1]
RESULT: v0x47b46d0_0 : [1,1]
RESULT: v0x47b47d0_0 : [1,1]
RESULT: v0x47b48d0_0 : [0,1]
RESULT: v0x47b49d0_0 : [0,1]
RESULT: v0x47b4ad0_0 : [1,1]
RESULT: v0x47b4bd0_0 : [1,1]
RESULT: v0x47b4cd0_0 : [0,1]
RESULT: v0x47b4dd0_0 : [0,1]
RESULT: v0x47b4ed0_0 : [1,1]
RESULT: v0x61e7d20_0 : [0,0]
RESULT: v0x47b51d0_0 : [4,5]
