RESULT: v0x36b20e0_0 : [0,1]
RESULT: v0x36b33e0_0 : [0,0]
RESULT: v0x36a52f0_0 : [1,1]
RESULT: v0x36a33d0_0 : [3,3]
RESULT: v0x36a37d0_0 : [-1073741637,0]
RESULT: v0x36a36d0_0 : [-1073741637,0]
RESULT: v0x36a6ef0_0 : [1,6]
RESULT: v0x36a6bf0_0 : [-1/0,1/0]
RESULT: v0x36a70f0_0 : [-1073741637,259]
RESULT: v0x36a6cf0_0 : [0,259]
RESULT: v0x36a57f0_0 : [-1/0,24]
RESULT: v0x36a31d0_0 : [0,1/0]
RESULT: v0x36b3fe0_0 : [-1/0,1/0]
RESULT: v0x36b34e0_0 : [1,1]
RESULT: v0x36a55f0_0 : [0,0]
RESULT: v0x36bb5e0_0 : [184,184]
RESULT: v0x36bb8e0_0 : [24,24]
RESULT: v0x36bbbe0_0 : [48,48]
RESULT: v0x36bc0e0_0 : [-1/0,1/0]
RESULT: v0x36bc2e0_0 : [0,1]
RESULT: v0x36bbfe0_0 : [1,1/0]
RESULT: v0x36baae0_0 : [0,1/0]
RESULT: v0x36bbde0_0 : [0,0]
RESULT: v0x36bbee0_0 : [0,1/0]
RESULT: v0x36bcfe0_0 : [-1/0,1/0]
RESULT: v0x36bdae0_0 : [0,1]
RESULT: v0x36a34d0_0 : [-1/0,1/0]
RESULT: v0x78f1980_0 : [1,1]
RESULT: v0x7a75650_0 : [0,1]
