RESULT: v0x7c64ca0_0 : [1,1]
RESULT: v0x7a70700_0 : [-1/0,1/0]
RESULT: v0x4fe5810_0 : [-1/0,1/0]
RESULT: v0x50ce880_0 : [-1/0,1/0]
RESULT: v0x7600040_0 : [-1/0,1/0]
RESULT: v0x7c64ab0_0 : [27,1/0]
RESULT: v0x5b997a0_0 : [-1/0,1/0]
RESULT: v0x492ae60_0 : [-1/0,1/0]
RESULT: v0x5849fa0_0 : [-1/0,1/0]
RESULT: v0x8d9cb50_0 : [-1/0,1/0]
RESULT: v0x9446a10_0 : [-1/0,1/0]
RESULT: v0x391f010_0 : [-1/0,1/0]
RESULT: v0x391f110_0 : [-1/0,1/0]
RESULT: v0x391f210_0 : [-1/0,1/0]
RESULT: v0x391f310_0 : [-1/0,1/0]
RESULT: v0x391f410_0 : [67,1/0]
RESULT: v0x391f510_0 : [0,1]
RESULT: v0x391f610_0 : [0,1]
RESULT: v0x391f710_0 : [-1/0,1/0]
RESULT: v0x391f810_0 : [-1/0,1/0]
RESULT: v0x391f910_0 : [-1/0,1/0]
RESULT: v0x391fa10_0 : [-1/0,1/0]
RESULT: v0x391fb10_0 : [-1/0,1/0]
RESULT: v0x391fc10_0 : [-1/0,1/0]
RESULT: v0x391fd10_0 : [-1/0,1/0]
RESULT: v0x6ecae20_0 : [-1/0,1/0]
RESULT: v0x50ce7c0_0 : [-1/0,1/0]
RESULT: v0x4104750_0 : [-1/0,1/0]
RESULT: v0x450d240_0 : [-1/0,10]
RESULT: v0x4fe5770_0 : [-1/0,1/0]
RESULT: v0x3921010_0 : [-1/0,1/0]
