RESULT: v0x4fe6d80_0 : [-1/0,1/0]
RESULT: v0x7703c60_0 : [-1/0,1/0]
RESULT: v0x4fb7e80_0 : [-1/0,1/0]
RESULT: v0x531bfa0_0 : [-1/0,1/0]
RESULT: v0x4bbd2a0_0 : [-1/0,1/0]
RESULT: v0x544ca90_0 : [-1/0,1/0]
RESULT: v0x585d700_0 : [1,1]
RESULT: v0x4e8eda0_0 : [67,1/0]
RESULT: v0x5662360_0 : [27,1/0]
RESULT: v0x4e8eea0_0 : [0,1]
RESULT: v0x4e8efa0_0 : [0,1]
RESULT: v0x4e8f0a0_0 : [-1/0,1/0]
RESULT: v0x4e8f1a0_0 : [-1/0,1/0]
RESULT: v0x4e8f2a0_0 : [-1/0,1/0]
RESULT: v0x4e8f3a0_0 : [-1/0,1/0]
RESULT: v0x4e8f4a0_0 : [-1/0,1/0]
RESULT: v0x5fda410_0 : [-1/0,1/0]
RESULT: v0x4e8f5a0_0 : [-1/0,1/0]
RESULT: v0x504f1c0_0 : [-1/0,1/0]
RESULT: v0x4e8f6a0_0 : [-1/0,1/0]
RESULT: v0x544c9f0_0 : [-1/0,1/0]
RESULT: v0x4e8f7a0_0 : [-1/0,1/0]
RESULT: v0x4e8f8a0_0 : [-1/0,1/0]
RESULT: v0x4e8f9a0_0 : [-1/0,1/0]
RESULT: v0x4e8faa0_0 : [-1/0,1/0]
RESULT: v0x655bb80_0 : [-1/0,1/0]
RESULT: v0x4facdc0_0 : [-1/0,1/0]
RESULT: v0x4fcb860_0 : [-1/0,1/0]
RESULT: v0x57e6a30_0 : [-1/0,10]
RESULT: v0x51e59b0_0 : [-1/0,1/0]
RESULT: v0x4e90da0_0 : [-1/0,1/0]
