RESULT: v0x674c480_0 : [0,1]
RESULT: v0x4c471d0_0 : [0,1]
RESULT: v0x5542de0_0 : [0,1]
RESULT: v0x5548680_0 : [0,1]
RESULT: v0x5548980_0 : [0,1]
RESULT: v0x554a860_0 : [0,1]
RESULT: v0x554a320_0 : [0,1]
RESULT: v0x6741580_0 : [0,1]
RESULT: v0x5540e10_0 : [0,1]
RESULT: v0x6715810_0 : [0,1]
RESULT: v0x4c81a10_0 : [0,1]
RESULT: v0x4c76ab0_0 : [1,1]
RESULT: v0x4c71b40_0 : [-1/0,1/0]
RESULT: v0x5572ed0_0 : [-1/0,1/0]
RESULT: v0x5577110_0 : [0,2]
RESULT: v0x5574370_0 : [0,2]
RESULT: v0x51be840_0 : [0,2]
RESULT: v0x51b3e00_0 : [0,2]
RESULT: v0x5f14310_0 : [0,2]
RESULT: v0x51c0160_0 : [0,2]
RESULT: v0x51c0510_0 : [0,2]
RESULT: v0x51b7510_0 : [0,2]
RESULT: v0x5f14410_0 : [0,2]
RESULT: v0x5576470_0 : [0,2]
RESULT: v0x51b4710_0 : [0,2]
RESULT: v0x51be7a0_0 : [2,2]
