RESULT: v0x64fb460_0 : [-1/0,1/0]
RESULT: v0x847e040_0 : [-1/0,1/0]
RESULT: v0x11d5f2d0_0 : [-1/0,1/0]
RESULT: v0x5996390_0 : [-1/0,1/0]
RESULT: v0x64fb4a0_0 : [67,1/0]
RESULT: v0x787b930_0 : [-1/0,1/0]
RESULT: v0x45636c0_0 : [-1/0,1/0]
RESULT: v0x5996350_0 : [0,0]
RESULT: v0x11d5f350_0 : [-1/0,1/0]
RESULT: v0x84853a0_0 : [-1/0,1/0]
RESULT: v0x64fb3e0_0 : [-1/0,1/0]
RESULT: v0x3f94330_0 : [67,1/0]
RESULT: v0x3f94430_0 : [0,1]
RESULT: v0x3f94530_0 : [-1/0,1/0]
RESULT: v0x3f94630_0 : [-1/0,1/0]
RESULT: v0x3f94730_0 : [-1/0,1/0]
RESULT: v0x3f94830_0 : [-1/0,1/0]
RESULT: v0x3f94930_0 : [0,1]
RESULT: v0x3f94a30_0 : [-1/0,1/0]
RESULT: v0x3f94b30_0 : [-1/0,1/0]
RESULT: v0x3f94c30_0 : [0,0]
RESULT: v0x3f94d30_0 : [0,0]
RESULT: v0x3f94e30_0 : [-1/0,1/0]
RESULT: v0x3f94f30_0 : [-1/0,1/0]
RESULT: v0x3f95030_0 : [-1/0,1/0]
RESULT: v0x4563700_0 : [-1/0,1/0]
RESULT: v0x67da830_0 : [-1/0,1/0]
RESULT: v0x11cb84b0_0 : [0,0]
RESULT: v0xb415870_0 : [-1/0,10]
RESULT: v0x67da870_0 : [-1/0,1/0]
RESULT: v0x3f95330_0 : [-1/0,1/0]
