RESULT: v0x32d6eb0_0 : [0,1/0]
RESULT: v0x5d50940_1 : [0,1]
RESULT: v0x4570370_1 : [0,1]
RESULT: v0x4f549c0_1 : [0,1]
RESULT: v0x4f545a0_1 : [0,1]
RESULT: v0x434b3a0_1 : [0,1]
RESULT: v0x434ab40_1 : [0,1]
RESULT: v0x5d09240_1 : [0,1]
RESULT: v0x5d53fb0_1 : [0,1]
RESULT: v0x434a920_1 : [0,1]
RESULT: v0x434a4e0_1 : [0,1/0]
RESULT: v0x4fb3010_1 : [0,1/0]
RESULT: v0x45bb440_1 : [-1/0,2]
RESULT: v0x4f70f20_1 : [-1/0,2]
RESULT: v0x4f708a0_1 : [-1/0,2]
RESULT: v0x6486230_1 : [-1/0,2]
RESULT: v0x4545f20_1 : [-1/0,2]
RESULT: v0x4fbde20_1 : [-1/0,2]
RESULT: v0x5950c90_1 : [-1/0,2]
RESULT: v0x4f79ba0_1 : [0,2]
RESULT: v0x630df40_1 : [0,2]
RESULT: v0x4fb3db0_1 : [0,2]
RESULT: v0x4704ce0_1 : [0,2]
RESULT: v0x4dd5580_1 : [0,2]
