RESULT: v0x386f7a0_0 : [0,1]
RESULT: v0x3892160_1 : [0,1]
RESULT: v0x438b6b0_1 : [0,1]
RESULT: v0x3cdfc20_1 : [0,1]
RESULT: v0x438edb0_1 : [0,1]
RESULT: v0x438e7b0_1 : [0,1]
RESULT: v0x3cf89c0_1 : [0,1]
RESULT: v0x3d28ae0_1 : [0,1]
RESULT: v0x3b26040_1 : [0,1]
RESULT: v0x438bcf0_1 : [0,1]
RESULT: v0x438e870_1 : [0,1]
RESULT: v0x3ab8320_1 : [-1/0,1/0]
RESULT: v0x3af3be0_1 : [-1/0,1/0]
RESULT: v0x3cd6440_1 : [0,2]
RESULT: v0x435ad60_1 : [0,2]
RESULT: v0x3b01770_1 : [0,2]
RESULT: v0x38af700_1 : [0,2]
RESULT: v0x3cc3820_1 : [0,2]
RESULT: v0x3ae9af0_1 : [0,2]
RESULT: v0x3b17e20_1 : [0,2]
RESULT: v0x4c34c20_1 : [0,2]
RESULT: v0x4357210_1 : [0,2]
RESULT: v0x3d21400_1 : [0,2]
RESULT: v0x3d29480_1 : [0,2]
