RESULT: v0x431dbc0_0 : [2,2]
RESULT: v0x431d7c0_0 : [1,1]
RESULT: v0x431dcc0_0 : [0,1]
RESULT: v0x431c700_0 : [1,2]
RESULT: v0x431d2c0_0 : [0,2]
RESULT: v0x431d1c0_0 : [0,1]
RESULT: v0x431d8c0_0 : [0,1]
RESULT: v0x431b900_0 : [0,1/0]
RESULT: v0x431d9c0_0 : [0,2]
RESULT: v0x431d0c0_0 : [-1/0,1/0]
RESULT: v0x431ba00_0 : [0,1/0]
RESULT: v0x431b800_0 : [0,1/0]
RESULT: v0x431d5c0_0 : [0,1/0]
RESULT: v0x431dec0_0 : [-1/0,1/0]
RESULT: v0x431ddc0_0 : [0,1/0]
RESULT: v0x431d6c0_0 : [-1/0,1/0]
RESULT: v0x431d4c0_0 : [-1/0,2]
RESULT: v0x431d3c0_0 : [0,1/0]
RESULT: v0x431dac0_0 : [-1/0,1/0]
RESULT: v0x7fab080_0 : [-1/0,1/0]
RESULT: v0xa11f2b0_0 : [0,0]
RESULT: v0x81bee80_0 : [0,0]
RESULT: v0x7fc66d0_0 : [-1/0,1/0]
RESULT: v0xa0857c0_0 : [0,0]
RESULT: v0x9382940_0 : [-1/0,1/0]
RESULT: v0xa13b3b0_0 : [-1/0,1/0]
RESULT: v0x72a0c60_0 : [-1/0,1/0]
RESULT: v0x80ad9e0_0 : [-1/0,1/0]
RESULT: v0x6f70400_0 : [1,1]
