RESULT: v0x3d58c60_0 : [2,1/0]
RESULT: v0x3d1fd40_0 : [0,1]
RESULT: v0x3d60260_0 : [0,1]
RESULT: v0x3acce60_0 : [123,777]
RESULT: v0x3d71e40_0 : [0,1]
RESULT: v0x3c63f20_0 : [0,1]
RESULT: v0x3c053e0_0 : [0,1]
RESULT: v0x3c775a0_0 : [0,1]
RESULT: v0x3d00fa0_0 : [0,2]
RESULT: v0x3c6dca0_0 : [0,3]
RESULT: v0x3d5f5c0_0 : [0,0]
RESULT: v0x3c89a90_0 : [0,0]
RESULT: v0x3c7e330_0 : [456,456]
RESULT: v0x3d25da0_0 : [0,2]
RESULT: v0x3cca820_0 : [0,456]
RESULT: v0x3d27f40_0 : [3,3]
RESULT: v0x3d7c9a0_0 : [456,456]
RESULT: v0x3c01d20_0 : [1,1]
RESULT: v0x3fb4990_0 : [2,2]
RESULT: v0x3d19c20_0 : [0,1]
RESULT: v0x3c01c60_0 : [0,1]
RESULT: v0x3c8ebf0_0 : [1,1]
RESULT: v0x3bffe60_0 : [0,123]
RESULT: v0x3d4f260_0 : [0,1]
