RESULT: v0x41e6d60_1 : [4,4]
RESULT: v0x41a0ae0_1 : [0,1]
RESULT: v0x41cf740_1 : [0,1]
RESULT: v0x416b0c0_1 : [0,1]
RESULT: v0x4423f70_1 : [0,1]
RESULT: v0x41a52e0_1 : [0,1]
RESULT: v0x41ce9c0_1 : [0,1]
RESULT: v0x4219000_1 : [0,1]
RESULT: v0x41f6280_1 : [0,1]
RESULT: v0x41019b0_1 : [0,1]
RESULT: v0x41bb5e0_1 : [0,1]
RESULT: v0x41c35c0_1 : [0,1]
RESULT: v0x3fb5d90_1 : [0,1]
RESULT: v0x3fd7550_1 : [0,2]
RESULT: v0x3e49300_1 : [0,3]
RESULT: v0x3f59160_1 : [0,1]
RESULT: v0x3fdaab0_1 : [123,777]
RESULT: v0x3f72310_1 : [0,666]
RESULT: v0x3fceef0_1 : [0,2]
RESULT: v0x3fc8e70_1 : [0,1]
RESULT: v0x3fba350_1 : [0,2]
RESULT: v0x41242a0_1 : [0,456]
RESULT: v0x40a8e80_1 : [0,123]
RESULT: v0x3f58e20_1 : [0,456]
