RESULT: v0x4fe3980_0 : [0,1/0]
RESULT: v0x4fd8880_0 : [2,2]
RESULT: v0x4fdfe80_0 : [1,1]
RESULT: v0x4fe0280_0 : [-1/0,1/0]
RESULT: v0x4fdfd80_0 : [0,1]
RESULT: v0x4fd8980_0 : [0,1]
RESULT: v0x4fd8f80_0 : [-1/0,1/0]
RESULT: v0x4fe0380_0 : [-1/0,1/0]
RESULT: v0x4fd8e80_0 : [0,0]
RESULT: v0x4fe0480_0 : [1,1]
RESULT: v0x4fe0780_0 : [0,1]
RESULT: v0x4fe0080_0 : [0,1]
RESULT: v0x4fd8c80_0 : [0,1]
RESULT: v0x4fe0880_0 : [0,1]
RESULT: v0x4fe0180_0 : [80,200]
RESULT: v0x4fe0680_0 : [0,1]
RESULT: v0x4fd9080_0 : [0,1]
RESULT: v0x4fdff80_0 : [1,1]
RESULT: v0x4fe0580_0 : [0,1]
RESULT: v0x4fd8d80_0 : [40,120]
RESULT: v0x4fd9280_0 : [0,1]
RESULT: v0x4fd9380_0 : [0,1]
RESULT: v0x4fd8b80_0 : [1,1]
RESULT: v0x4fd9180_0 : [1,1]
RESULT: v0x4fd8a80_0 : [1,1]
RESULT: v0x4fd9480_0 : [1,1]
RESULT: v0x4fe0b80_0 : [-1/0,1/0]
RESULT: v0x4fe3880_0 : [0,2]
RESULT: v0x94d7ef0_1 : [3,3]
