RESULT: v0x4176ef0_0 : [-1/0,1/0]
RESULT: v0x4176e30_0 : [-1/0,1/0]
RESULT: v0x41769b0_0 : [-1/0,1/0]
RESULT: v0x4176a70_0 : [-1/0,1/0]
RESULT: v0x4176b30_0 : [-1/0,1/0]
RESULT: v0x4177070_0 : [-1/0,1/0]
RESULT: v0x4177130_0 : [-1/0,1/0]
RESULT: v0x411fe80_0 : [-1/0,1/0]
RESULT: v0x413b7b0_0 : [-1/0,1/0]
RESULT: v0x41772b0_0 : [-1/0,1/0]
RESULT: v0x4177370_0 : [-1/0,1/0]
RESULT: v0x4177430_0 : [-1/0,1/0]
RESULT: v0x41774f0_0 : [-1/0,1/0]
RESULT: v0x41777d0_0 : [-1/0,1/0]
RESULT: v0x4177790_0 : [-1/0,1/0]
RESULT: v0x4177810_0 : [-1/0,1/0]
RESULT: v0x41775b0_0 : [-1/0,1/0]
RESULT: v0x41778b0_0 : [-1/0,1/0]
RESULT: v0x4177990_0 : [-1/0,1/0]
RESULT: v0x4177a30_0 : [-1/0,1/0]
RESULT: v0x41771f0_0 : [-1/0,1/0]
RESULT: v0x4176d70_0 : [-1/0,1/0]
RESULT: v0x4176cb0_0 : [-1/0,1/0]
RESULT: v0x4176fb0_0 : [-1/0,1/0]
RESULT: v0x4176bf0_0 : [-1/0,1/0]
