RESULT: v0x44dd2b0_0 : [0,1/0]
RESULT: v0x45449e0_0 : [0,1]
RESULT: v0x45a2120_0 : [0,1]
RESULT: v0x4806ed0_0 : [123,777]
RESULT: v0x45252a0_0 : [0,1]
RESULT: v0x4522c20_0 : [0,1]
RESULT: v0x4580960_0 : [0,1]
RESULT: v0x45a9060_0 : [0,1]
RESULT: v0x4802c10_0 : [0,2]
RESULT: v0x457ca40_0 : [0,3]
RESULT: v0x452cbf0_0 : [0,1]
RESULT: v0x4550840_0 : [0,1]
RESULT: v0x44bfca0_0 : [0,666]
RESULT: v0x45a3600_0 : [0,2]
RESULT: v0x44d9330_0 : [0,456]
RESULT: v0x45b9920_0 : [0,3]
RESULT: v0x45a8c20_0 : [0,456]
RESULT: v0x45cd860_0 : [0,1]
RESULT: v0x455f2e0_0 : [0,2]
RESULT: v0x45ac600_0 : [0,1]
RESULT: v0x454d3a0_0 : [0,1]
RESULT: v0x44c4f10_0 : [0,1]
RESULT: v0x451fd40_0 : [0,123]
RESULT: v0x44dbeb0_0 : [0,1]
