RESULT: v0x39f0640_1 : [3,3]
RESULT: v0x3942da0_1 : [0,1]
RESULT: v0x3946bf0_1 : [0,1]
RESULT: v0x394ac80_1 : [0,1]
RESULT: v0x395acd0_1 : [0,1]
RESULT: v0x39b4d80_1 : [0,1]
RESULT: v0x3997b60_1 : [0,1]
RESULT: v0x3946a70_1 : [0,1]
RESULT: v0x393c900_1 : [0,1]
RESULT: v0x394a960_1 : [0,1]
RESULT: v0x394d8e0_1 : [0,1]
RESULT: v0x39fbad0_1 : [0,1]
RESULT: v0x39b5380_1 : [0,1]
RESULT: v0x39ab2c0_1 : [0,2]
RESULT: v0x39a8280_1 : [0,3]
RESULT: v0x3992620_1 : [0,1]
RESULT: v0x394bba0_1 : [123,777]
RESULT: v0x39acd40_1 : [0,666]
RESULT: v0x3a77690_1 : [0,2]
RESULT: v0x39aace0_1 : [0,1]
RESULT: v0x3949b20_1 : [0,2]
RESULT: v0x394abe0_1 : [0,456]
RESULT: v0x3b007b0_1 : [0,123]
RESULT: v0x3a85370_1 : [0,456]
