RESULT: v0x4cd0be0_0 : [0,1]
RESULT: v0x5f4df80_1 : [0,1]
RESULT: v0x520bfd0_1 : [0,1]
RESULT: v0x5f7ea50_1 : [0,1]
RESULT: v0x5f7e850_1 : [0,1]
RESULT: v0x5200cb0_1 : [0,1]
RESULT: v0x4f7b2f0_1 : [0,1]
RESULT: v0x4f616b0_1 : [0,1]
RESULT: v0x51c9ce0_1 : [0,1]
RESULT: v0x4f77470_1 : [0,1]
RESULT: v0x5821650_1 : [0,1]
RESULT: v0x4fa11f0_1 : [0,1]
RESULT: v0x5f762d0_1 : [-1/0,1/0]
RESULT: v0x4f61e10_1 : [-1/0,1/0]
RESULT: v0x4f5fc10_1 : [0,2]
RESULT: v0x581da60_1 : [0,2]
RESULT: v0x4f69c80_1 : [0,2]
RESULT: v0x4f68750_1 : [0,2]
RESULT: v0x4f6fdb0_1 : [0,2]
RESULT: v0x4f51bc0_1 : [0,2]
RESULT: v0x4f85840_1 : [0,2]
RESULT: v0x517f2f0_1 : [0,2]
RESULT: v0x582c940_1 : [0,2]
RESULT: v0x52243c0_1 : [0,2]
RESULT: v0x4d1bb30_1 : [0,2]
RESULT: v0x5825530_1 : [0,2]
