RESULT: v0x3432e20_0 : [-1/0,1/0]
RESULT: v0x3432ee0_0 : [-1/0,1/0]
RESULT: v0x3432fa0_0 : [-1/0,1/0]
RESULT: v0x34331e0_0 : [-1/0,1/0]
RESULT: v0x34334e0_0 : [-1/0,1/0]
RESULT: v0x3432d60_0 : [-1/0,1/0]
RESULT: v0x3433440_0 : [-1/0,1/0]
RESULT: v0x34333c0_0 : [-1/0,1/0]
RESULT: v0x34021b0_0 : [-1/0,1/0]
RESULT: v0x33c3a10_0 : [-1/0,1/0]
RESULT: v0x3432cc0_0 : [-1/0,1/0]
RESULT: v0x3433660_0 : [-1/0,1/0]
RESULT: v0x3433720_0 : [-1/0,1/0]
RESULT: v0x34337e0_0 : [-1/0,1/0]
RESULT: v0x34338a0_0 : [-1/0,1/0]
RESULT: v0x3433960_0 : [-1/0,1/0]
RESULT: v0x3433a20_0 : [-1/0,1/0]
RESULT: v0x3433ae0_0 : [-1/0,1/0]
RESULT: v0x3433ba0_0 : [-1/0,1/0]
RESULT: v0x3433c60_0 : [-1/0,1/0]
RESULT: v0x34335a0_0 : [-1/0,1/0]
RESULT: v0x3433120_0 : [-1/0,1/0]
RESULT: v0x3433400_0 : [-1/0,1/0]
RESULT: v0x3433060_0 : [-1/0,1/0]
