RESULT: v0x5004e20_1 : [3,3]
RESULT: v0x5005040_1 : [0,1]
RESULT: v0x5003560_1 : [0,1]
RESULT: v0x50036c0_1 : [0,1]
RESULT: v0x4fa6a60_1 : [0,1]
RESULT: v0x4fa6820_1 : [0,1]
RESULT: v0x4fa66a0_1 : [0,1]
RESULT: v0x4fa6460_1 : [0,1]
RESULT: v0x4d4a710_1 : [0,1]
RESULT: v0x4d4aad0_1 : [0,1]
RESULT: v0x4d4ae90_1 : [0,1]
RESULT: v0x4d4b250_1 : [0,1]
RESULT: v0x4d4b610_1 : [0,1]
RESULT: v0x4d4b9d0_1 : [0,2]
RESULT: v0x4d4bd90_1 : [0,3]
RESULT: v0x4d4c150_1 : [123,777]
RESULT: v0x4d46d10_1 : [0,666]
RESULT: v0x4d69cb0_1 : [0,2]
RESULT: v0x4d69eb0_1 : [0,1]
RESULT: v0x4d6fbb0_1 : [0,2]
RESULT: v0x4d70770_1 : [0,456]
RESULT: v0x4e7eb10_1 : [0,123]
RESULT: v0x4e8cac0_1 : [0,456]
