RESULT: v0x548e120_1 : [3,3]
RESULT: v0x55fcdb0_1 : [0,1]
RESULT: v0x55fcff0_1 : [0,1]
RESULT: v0x55fd230_1 : [0,1]
RESULT: v0x54208c0_1 : [0,1]
RESULT: v0x5425fb0_1 : [0,1]
RESULT: v0x54a5e50_1 : [0,1]
RESULT: v0x55742a0_1 : [0,1]
RESULT: v0x541e480_1 : [0,1]
RESULT: v0x53ebaa0_1 : [0,1]
RESULT: v0x54972a0_1 : [0,1]
RESULT: v0x5302540_1 : [0,1]
RESULT: v0x54846a0_1 : [0,1]
RESULT: v0x542b580_1 : [0,2]
RESULT: v0x5422ff0_1 : [0,3]
RESULT: v0x5498820_1 : [0,1]
RESULT: v0x547c0c0_1 : [123,777]
RESULT: v0x54866e0_1 : [0,666]
RESULT: v0x52f3f00_1 : [0,2]
RESULT: v0x5425130_1 : [0,1]
RESULT: v0x5490d00_1 : [0,2]
RESULT: v0x548e780_1 : [0,456]
RESULT: v0x548c200_1 : [0,123]
RESULT: v0x567b820_1 : [0,456]
RESULT: v0x560d420_1 : [0,3]
