RESULT: v0x6896b50_0 : [0,1]
RESULT: v0x6896cf0_0 : [0,1]
RESULT: v0x6896ef0_0 : [0,1]
RESULT: v0x68970f0_0 : [0,1]
RESULT: v0x68972f0_0 : [0,1]
RESULT: v0x4ed5b40_0 : [0,1]
RESULT: v0x4ed5d40_0 : [0,1]
RESULT: v0x4ed5f40_0 : [0,1]
RESULT: v0x4ed6140_0 : [0,1]
RESULT: v0x68980f0_0 : [0,1]
RESULT: v0x68982f0_0 : [1,1]
RESULT: v0x68984f0_0 : [-1/0,2]
RESULT: v0x68986f0_0 : [-1/0,2]
RESULT: v0x68988f0_0 : [-1/0,2]
RESULT: v0x6898af0_0 : [-1/0,2]
RESULT: v0x6898cf0_0 : [-1/0,2]
RESULT: v0x6898ef0_0 : [-1/0,2]
RESULT: v0x68990f0_0 : [-1/0,2]
RESULT: v0x68992f0_0 : [-1/0,2]
RESULT: v0x68994f0_0 : [0,2]
RESULT: v0x68996f0_0 : [0,2]
RESULT: v0x68998f0_0 : [2,2]
