RESULT: v0x5454c30_0 : [-1/0,1/0]
RESULT: v0x5454b70_0 : [-1/0,1/0]
RESULT: v0x5455810_0 : [-1/0,1/0]
RESULT: v0x54559d0_0 : [-1/0,1/0]
RESULT: v0x5455ab0_0 : [-1/0,1/0]
RESULT: v0x5453a30_0 : [-1/0,1/0]
RESULT: v0x55b7330_0 : [0,0]
RESULT: v0x40faaa0_0 : [67,1/0]
RESULT: v0x5451760_0 : [27,1/0]
RESULT: v0x40faba0_0 : [0,1]
RESULT: v0x40faca0_0 : [0,1]
RESULT: v0x40fada0_0 : [-1/0,1/0]
RESULT: v0x40faea0_0 : [-1/0,1/0]
RESULT: v0x40fafa0_0 : [-1/0,1/0]
RESULT: v0x40fb0a0_0 : [-1/0,1/0]
RESULT: v0x40fb1a0_0 : [-1/0,1/0]
RESULT: v0x54535b0_0 : [-1/0,1/0]
RESULT: v0x40fb2a0_0 : [-1/0,1/0]
RESULT: v0x5454dd0_0 : [-1/0,1/0]
RESULT: v0x40fb3a0_0 : [-1/0,1/0]
RESULT: v0x5455c30_0 : [-1/0,1/0]
RESULT: v0x40fb4a0_0 : [-1/0,1/0]
RESULT: v0x40fb5a0_0 : [-1/0,1/0]
RESULT: v0x40fb6a0_0 : [-1/0,1/0]
RESULT: v0x40fb7a0_0 : [-1/0,1/0]
RESULT: v0x55b7570_0 : [-1/0,1/0]
RESULT: v0x5453970_0 : [-1/0,1/0]
RESULT: v0x459e1e0_0 : [0,0]
RESULT: v0x544ff60_0 : [-1/0,10]
RESULT: v0x5453af0_0 : [-1/0,1/0]
RESULT: v0x40fbaa0_0 : [-1/0,1/0]
