RESULT: v0x6043100_0 : [0,1]
RESULT: v0x60432a0_0 : [0,1]
RESULT: v0x60434a0_0 : [0,1]
RESULT: v0x60436a0_0 : [0,1]
RESULT: v0x60438a0_0 : [0,1]
RESULT: v0x5804f90_0 : [0,1]
RESULT: v0x5805190_0 : [0,1]
RESULT: v0x5805390_0 : [0,1]
RESULT: v0x5805590_0 : [0,1]
RESULT: v0x60446a0_0 : [0,1]
RESULT: v0x60448a0_0 : [1,1]
RESULT: v0x6044aa0_0 : [0,2]
RESULT: v0x6044ca0_0 : [-1/0,2]
RESULT: v0x6044ea0_0 : [-1/0,2]
RESULT: v0x60450a0_0 : [-1/0,2]
RESULT: v0x60452a0_0 : [-1/0,2]
RESULT: v0x60454a0_0 : [-1/0,2]
RESULT: v0x60456a0_0 : [-1/0,2]
RESULT: v0x60458a0_0 : [-1/0,2]
RESULT: v0x6045aa0_0 : [0,2]
RESULT: v0x6045ca0_0 : [0,2]
RESULT: v0x6045ea0_0 : [2,2]
