RESULT: v0x399b940_0 : [1,1/0]
RESULT: v0x3b53fb0_0 : [0,1]
RESULT: v0x3c31750_0 : [123,777]
RESULT: v0x3c38df0_0 : [0,1]
RESULT: v0x39e4cd0_0 : [0,1]
RESULT: v0x3bdcc00_0 : [0,2]
RESULT: v0x3bd3290_0 : [0,3]
RESULT: v0x3c536d0_0 : [0,1]
RESULT: v0x39fddb0_0 : [0,1]
RESULT: v0x3c053f0_0 : [0,666]
RESULT: v0x3860fb0_0 : [0,1]
RESULT: v0x3ead870_0 : [0,1]
RESULT: v0x3c47890_0 : [0,2]
RESULT: v0x3c52370_0 : [0,456]
RESULT: v0x3c02b70_0 : [0,1]
RESULT: v0x39e4050_0 : [0,123]
RESULT: v0x399fc70_0 : [0,1]
RESULT: v0x398c010_0 : [0,1]
RESULT: v0x3b50bf0_0 : [0,3]
RESULT: v0x3acc6f0_0 : [0,1]
RESULT: v0x3c09470_0 : [0,1]
RESULT: v0x3bfa350_0 : [0,1]
RESULT: v0x3c65b70_0 : [0,1]
RESULT: v0x3b66300_0 : [0,2]
RESULT: v0x3b556f0_0 : [0,456]
