RESULT: v0x410c030_0 : [0,1/0]
RESULT: v0x42ceac0_0 : [0,1]
RESULT: v0x4364d30_0 : [123,777]
RESULT: v0x42ed530_0 : [0,1]
RESULT: v0x42ce280_0 : [0,1]
RESULT: v0x4112790_0 : [0,2]
RESULT: v0x4344d50_0 : [0,3]
RESULT: v0x43e3360_0 : [0,1]
RESULT: v0x4186470_0 : [0,1]
RESULT: v0x43d3520_0 : [0,666]
RESULT: v0x4183430_0 : [0,1]
RESULT: v0x41321f0_0 : [0,1]
RESULT: v0x43f0700_0 : [0,2]
RESULT: v0x438da00_0 : [0,456]
RESULT: v0x437a640_0 : [0,1]
RESULT: v0x4387900_0 : [0,123]
RESULT: v0x41290d0_0 : [0,1]
RESULT: v0x4175330_0 : [0,1]
RESULT: v0x43677b0_0 : [0,3]
RESULT: v0x43bfd60_0 : [0,1]
RESULT: v0x4354160_0 : [0,1]
RESULT: v0x4399100_0 : [0,1]
RESULT: v0x42d02c0_0 : [0,1]
RESULT: v0x43738c0_0 : [0,2]
RESULT: v0x42d0200_0 : [0,456]
