RESULT: v0xa11f0f0_0 : [2,2]
RESULT: v0xa06dff0_0 : [0,1]
RESULT: v0x890b300_0 : [1,1]
RESULT: v0x989dbb0_0 : [0,1]
RESULT: v0xa4cd6e0_0 : [0,1]
RESULT: v0xa55fc90_0 : [40,120]
RESULT: v0xa4b4060_0 : [0,1]
RESULT: v0xa0aabf0_0 : [0,1]
RESULT: v0xa528a70_0 : [0,1]
RESULT: v0xa50ad50_0 : [0,1]
RESULT: v0xa4982a0_0 : [0,1]
RESULT: v0x98a8f00_0 : [0,1]
RESULT: v0xa4c2fa0_0 : [-1/0,1/0]
RESULT: v0x4fdfd80_0 : [0,1]
RESULT: v0x4fdfe80_0 : [0,1]
RESULT: v0x4fdff80_0 : [0,1]
RESULT: v0x4fe0080_0 : [0,1]
RESULT: v0x4fe0180_0 : [80,120]
RESULT: v0x4fe0280_0 : [0,1]
RESULT: v0x4fe0380_0 : [-1/0,1/0]
RESULT: v0x4fe0480_0 : [0,1]
RESULT: v0x4fe0580_0 : [0,1]
RESULT: v0x4fe0680_0 : [0,1]
RESULT: v0x4fe0780_0 : [0,1]
RESULT: v0x4fe0880_0 : [0,1]
RESULT: v0xa027080_0 : [-1/0,1/0]
RESULT: v0x4fe1b80_0 : [-1/0,1/0]
