RESULT: v0x4eee9e0_0 : [0,1]
RESULT: v0x67e8840_0 : [-1/0,1/0]
RESULT: v0x3b8a4f0_0 : [-1/0,1/0]
RESULT: v0x70cc900_0 : [-1/0,1/0]
RESULT: v0x46fd7a0_0 : [27,1/0]
RESULT: v0x8aa9d00_0 : [-1/0,1/0]
RESULT: v0x3a99da0_0 : [-1/0,1/0]
RESULT: v0xb895070_0 : [-1/0,1/0]
RESULT: v0x9130600_0 : [0,0]
RESULT: v0x3bb0ce0_0 : [-1/0,1/0]
RESULT: v0x4113480_0 : [-1/0,1/0]
RESULT: v0x391f010_0 : [-1/0,1/0]
RESULT: v0x391f110_0 : [-1/0,1/0]
RESULT: v0x391f210_0 : [-1/0,1/0]
RESULT: v0x391f310_0 : [-1/0,1/0]
RESULT: v0x391f410_0 : [67,1/0]
RESULT: v0x391f510_0 : [0,1]
RESULT: v0x391f610_0 : [0,1]
RESULT: v0x391f710_0 : [-1/0,1/0]
RESULT: v0x391f810_0 : [-1/0,1/0]
RESULT: v0x391f910_0 : [-1/0,1/0]
RESULT: v0x391fa10_0 : [0,0]
RESULT: v0x391fb10_0 : [-1/0,1/0]
RESULT: v0x391fc10_0 : [-1/0,1/0]
RESULT: v0x391fd10_0 : [-1/0,1/0]
RESULT: v0x9067020_0 : [-1/0,1/0]
RESULT: v0x7ad93b0_0 : [-1/0,1/0]
RESULT: v0x8bff870_0 : [0,0]
RESULT: v0x9126fa0_0 : [-1/0,10]
RESULT: v0x8c43370_0 : [-1/0,1/0]
RESULT: v0x3920010_0 : [-1/0,1/0]
