RESULT: v0x4958280_0 : [-1/0,1/0]
RESULT: v0x4958780_0 : [-1/0,1/0]
RESULT: v0x4959380_0 : [789,789]
RESULT: v0x4958480_0 : [-1/0,1/0]
RESULT: v0x4958580_0 : [-1/0,1/0]
RESULT: v0x4958380_0 : [-1/0,1/0]
RESULT: v0x4e07a60_1 : [4,4]
RESULT: v0x4e89920_1 : [0,1]
RESULT: v0x4e02f60_1 : [0,1]
RESULT: v0x4ea9220_1 : [0,1]
RESULT: v0x4bec320_1 : [0,1]
RESULT: v0x4e30d20_1 : [0,1]
RESULT: v0x4e3c260_1 : [0,1]
RESULT: v0x4d89aa0_1 : [0,1]
RESULT: v0x4e90860_1 : [0,1]
RESULT: v0x4e0d6e0_1 : [0,1]
RESULT: v0x4bdf4e0_1 : [0,1]
RESULT: v0x4ec15a0_1 : [0,2]
RESULT: v0x4e945a0_1 : [0,3]
RESULT: v0x4ec29c0_1 : [0,1]
RESULT: v0x4ec02d0_1 : [123,777]
RESULT: v0x4ec1c40_1 : [0,666]
RESULT: v0x4ec1b80_1 : [0,2]
RESULT: v0x4ec1a00_1 : [0,1]
RESULT: v0x4ec1e80_1 : [0,2]
RESULT: v0x4ec2ee0_1 : [0,456]
RESULT: v0x4e09860_1 : [0,123]
RESULT: v0x4e2cae0_1 : [0,456]
RESULT: v0x4e03d20_1 : [0,3]
RESULT: v0x4e1eee0_1 : [0,1]
RESULT: v0x4ea26a0_1 : [0,1]
