RESULT: v0x3a66120_1 : [-1/0,1/0]
RESULT: v0x3a88c00_1 : [-1/0,1/0]
RESULT: v0x3a0b390_1 : [-1/0,1/0]
RESULT: v0x3a08c10_1 : [-1/0,1/0]
RESULT: v0x3a0b150_1 : [-1/0,1/0]
RESULT: v0x3a0afd0_1 : [-1/0,1/0]
RESULT: v0x3a09df0_1 : [-1/0,1/0]
RESULT: v0x3a09d30_1 : [-1/0,1/0]
RESULT: v0x3a0ad90_1 : [-1/0,1/0]
RESULT: v0x3a0ac10_1 : [-1/0,1/0]
RESULT: v0x3a083d0_1 : [-1/0,1/0]
RESULT: v0x3a0ab50_1 : [-1/0,1/0]
RESULT: v0x3a0a9d0_1 : [-1/0,1/0]
RESULT: v0x3a095b0_1 : [-1/0,1/0]
RESULT: v0x3a094f0_1 : [-1/0,1/0]
RESULT: v0x3a0a790_1 : [-1/0,1/0]
RESULT: v0x3a0a270_1 : [-1/0,1/0]
RESULT: v0x3a0a0f0_1 : [-1/0,1/0]
RESULT: v0x3a09f70_1 : [-1/0,1/0]
RESULT: v0x3a09bb0_1 : [-1/0,1/0]
RESULT: v0x3a09a30_1 : [-1/0,1/0]
RESULT: v0x3a098b0_1 : [-1/0,1/0]
RESULT: v0x3a09730_1 : [-1/0,1/0]
RESULT: v0x3a09370_1 : [-1/0,1/0]
RESULT: v0x3a08f10_1 : [-1/0,1/0]
RESULT: v0x3a08b50_1 : [-1/0,1/0]
RESULT: v0x3a089f0_1 : [-1/0,1/0]
RESULT: v0x3a07310_1 : [-1/0,1/0]
RESULT: v0x3a089b0_1 : [-1/0,1/0]
