RESULT: v0x7c65190_0 : [-1/0,1/0]
RESULT: v0x71ace70_0 : [-1/0,1/0]
RESULT: v0x8d8acd0_0 : [-1/0,1/0]
RESULT: v0x5a6f130_0 : [-1/0,1/0]
RESULT: v0x60c48b0_0 : [27,1/0]
RESULT: v0x570c590_0 : [-1/0,1/0]
RESULT: v0x6f89730_0 : [-1/0,1/0]
RESULT: v0x6a54bf0_0 : [-1/0,1/0]
RESULT: v0x5ab4610_0 : [0,0]
RESULT: v0x8abe8c0_0 : [-1/0,1/0]
RESULT: v0x8d88230_0 : [-1/0,1/0]
RESULT: v0x391f010_0 : [-1/0,1/0]
RESULT: v0x391f110_0 : [-1/0,1/0]
RESULT: v0x391f210_0 : [-1/0,1/0]
RESULT: v0x391f310_0 : [-1/0,1/0]
RESULT: v0x391f410_0 : [67,1/0]
RESULT: v0x391f510_0 : [0,1]
RESULT: v0x391f610_0 : [0,1]
RESULT: v0x391f710_0 : [-1/0,1/0]
RESULT: v0x391f810_0 : [-1/0,1/0]
RESULT: v0x391f910_0 : [-1/0,1/0]
RESULT: v0x391fa10_0 : [-1/0,1/0]
RESULT: v0x391fb10_0 : [-1/0,1/0]
RESULT: v0x391fc10_0 : [-1/0,1/0]
RESULT: v0x391fd10_0 : [-1/0,1/0]
RESULT: v0x774a550_0 : [-1/0,1/0]
RESULT: v0x3e813c0_0 : [-1/0,1/0]
RESULT: v0x7736840_0 : [0,0]
RESULT: v0x45a0a90_0 : [-1/0,10]
RESULT: v0x774a590_0 : [-1/0,1/0]
RESULT: v0x3920010_0 : [-1/0,1/0]
