RESULT: v0x4551180_0 : [0,1/0]
RESULT: v0x59d0ad0_1 : [0,1]
RESULT: v0x47fb0d0_1 : [0,1]
RESULT: v0x5764f30_1 : [0,1]
RESULT: v0x50a6620_1 : [0,1]
RESULT: v0x6601120_1 : [0,1]
RESULT: v0x5f55b10_1 : [0,1]
RESULT: v0x5f94760_1 : [0,1]
RESULT: v0x456f1c0_1 : [0,1]
RESULT: v0x5f7e520_1 : [0,1]
RESULT: v0x5f982b0_1 : [0,1]
RESULT: v0x571f760_1 : [0,1/0]
RESULT: v0x480e890_1 : [0,1/0]
RESULT: v0x64f0230_1 : [-1/0,2]
RESULT: v0x658bea0_1 : [-1/0,2]
RESULT: v0x6602220_1 : [-1/0,2]
RESULT: v0x47fc9f0_1 : [-1/0,2]
RESULT: v0x6225f60_1 : [-1/0,2]
RESULT: v0x590cc60_1 : [-1/0,2]
RESULT: v0x5e0bc10_1 : [-1/0,2]
RESULT: v0x5867e50_1 : [-1/0,2]
RESULT: v0x5f60eb0_1 : [0,2]
RESULT: v0x65ea1e0_1 : [0,2]
RESULT: v0x5f77380_1 : [0,2]
RESULT: v0x570bb40_1 : [0,2]
RESULT: v0x656efa0_1 : [0,2]
