RESULT: v0x3c0af10_0 : [-1/0,1/0]
RESULT: v0x3649360_0 : [0,1]
RESULT: v0x45219a0_0 : [-1/0,1/0]
RESULT: v0x3942a50_0 : [-1/0,1/0]
RESULT: v0x5b926b0_0 : [67,1/0]
RESULT: v0x46f5dc0_0 : [-1/0,1/0]
RESULT: v0x3c37f20_0 : [-1/0,1/0]
RESULT: v0x9030570_0 : [-1/0,1/0]
RESULT: v0x60da020_0 : [0,0]
RESULT: v0x39d7f60_0 : [-1/0,1/0]
RESULT: v0x412da00_0 : [-1/0,1/0]
RESULT: v0x391f010_0 : [-1/0,1/0]
RESULT: v0x391f110_0 : [-1/0,1/0]
RESULT: v0x391f210_0 : [-1/0,1/0]
RESULT: v0x391f310_0 : [-1/0,1/0]
RESULT: v0x391f410_0 : [67,1/0]
RESULT: v0x391f510_0 : [0,1]
RESULT: v0x391f610_0 : [0,1]
RESULT: v0x391f710_0 : [-1/0,1/0]
RESULT: v0x391f810_0 : [-1/0,1/0]
RESULT: v0x391f910_0 : [0,0]
RESULT: v0x391fa10_0 : [-1/0,1/0]
RESULT: v0x391fb10_0 : [-1/0,1/0]
RESULT: v0x391fc10_0 : [-1/0,1/0]
RESULT: v0x391fd10_0 : [-1/0,1/0]
RESULT: v0x3c37ea0_0 : [-1/0,1/0]
RESULT: v0x6579fa0_0 : [-1/0,1/0]
RESULT: v0x78fe5f0_0 : [0,0]
RESULT: v0x50fe830_0 : [-1/0,10]
RESULT: v0x8d64a80_0 : [-1/0,1/0]
RESULT: v0x3920010_0 : [-1/0,1/0]
