RESULT: v0x467fca0_1 : [3,3]
RESULT: v0x45582a0_1 : [0,1]
RESULT: v0x4680140_1 : [0,1]
RESULT: v0x45584e0_1 : [0,1]
RESULT: v0x45bc6e0_1 : [0,1]
RESULT: v0x45bc840_1 : [0,1]
RESULT: v0x45bc560_1 : [0,1]
RESULT: v0x45bc4a0_1 : [0,1]
RESULT: v0x45bc260_1 : [0,1]
RESULT: v0x45bc1a0_1 : [0,1]
RESULT: v0x45bbf60_1 : [0,1]
RESULT: v0x45bbea0_1 : [0,2]
RESULT: v0x45bbc60_1 : [0,3]
RESULT: v0x45bbba0_1 : [0,1]
RESULT: v0x45bb960_1 : [123,777]
RESULT: v0x45bb8a0_1 : [0,666]
RESULT: v0x45bb660_1 : [0,2]
RESULT: v0x45c2870_1 : [0,1]
RESULT: v0x45bb330_1 : [0,2]
RESULT: v0x45bb270_1 : [0,456]
RESULT: v0x45bb030_1 : [0,123]
RESULT: v0x45baf70_1 : [0,456]
RESULT: v0x45bb570_1 : [0,3]
RESULT: v0x4680500_1 : [0,1]
RESULT: v0x45c2970_1 : [0,1]
