RESULT: v0x43bbcb0_0 : [0,0]
RESULT: v0x43bc9b0_0 : [0,0]
RESULT: v0x43bccb0_0 : [0,0]
RESULT: v0x43bcfb0_0 : [0,0]
RESULT: v0x460e4b0_0 : [0,6]
RESULT: v0x485a8a0_0 : [0,1]
RESULT: v0x4842fa0_0 : [1,2]
RESULT: v0x485c400_0 : [0,1]
RESULT: v0x4855770_0 : [0,0]
RESULT: v0x485f410_0 : [0,50]
RESULT: v0x485f2d0_0 : [0,0]
RESULT: v0x484db80_0 : [0,0]
RESULT: v0x4a07ce0_0 : [0,1]
RESULT: v0x48565c0_0 : [0,0]
RESULT: v0x461d300_0 : [-1/0,1/0]
RESULT: v0x4846d50_0 : [0,0]
RESULT: v0x477de70_0 : [1,1]
RESULT: v0x4600630_0 : [0,0]
RESULT: v0x4608ba0_0 : [-1/0,1/0]
RESULT: v0x43c5380_0 : [0,6]
RESULT: v0x43c5480_0 : [0,1]
RESULT: v0x43c5580_0 : [1,2]
RESULT: v0x43c5680_0 : [0,1]
RESULT: v0x43c5780_0 : [0,0]
RESULT: v0x43c5880_0 : [0,50]
RESULT: v0x43c5980_0 : [0,0]
RESULT: v0x43c5a80_0 : [0,0]
RESULT: v0x43c5b80_0 : [0,1]
RESULT: v0x43c5c80_0 : [0,0]
RESULT: v0x43c5d80_0 : [-1/0,1/0]
RESULT: v0x43c5e80_0 : [0,0]
RESULT: v0x43c5f80_0 : [1,1]
RESULT: v0x43c6080_0 : [0,0]
RESULT: v0x43c6180_0 : [-1/0,1/0]
RESULT: v0x43c6380_0 : [-1/0,1/0]
RESULT: v0x4a43b90_0 : [-1/0,1/0]
RESULT: v0x4a753d0_0 : [0,50]
RESULT: v0x4a755d0_0 : [0,2]
RESULT: v0x4a757d0_0 : [1,1]
RESULT: v0x4a759d0_0 : [1,1]
RESULT: v0x4a75bd0_0 : [0,0]
RESULT: v0x43c6280_0 : [-1/0,1/0]
