RESULT: v0x53d41c0_0 : [-1/0,1/0]
RESULT: v0x556c930_0 : [-1/0,1/0]
RESULT: v0x5564510_0 : [-1/0,1/0]
RESULT: v0x556b750_0 : [-1/0,1/0]
RESULT: v0x556e4d0_0 : [-1/0,1/0]
RESULT: v0x556bd30_0 : [-1/0,1/0]
RESULT: v0x556c610_0 : [-1/0,1/0]
RESULT: v0x556c6f0_0 : [-1/0,1/0]
RESULT: v0x556c650_0 : [-1/0,1/0]
RESULT: v0x556c870_0 : [-1/0,1/0]
RESULT: v0x556c7b0_0 : [-1/0,1/0]
RESULT: v0x556c570_0 : [-1/0,1/0]
RESULT: v0x5121580_0 : [-1/0,1/0]
RESULT: v0x5121680_0 : [-1/0,1/0]
RESULT: v0x5121780_0 : [1,1]
RESULT: v0x5121880_0 : [0,1]
RESULT: v0x5121980_0 : [-1/0,1/0]
RESULT: v0x556e570_0 : [-1/0,1/0]
RESULT: v0x5121e80_0 : [0,0]
RESULT: v0x5121f80_0 : [-1/0,1/0]
RESULT: v0x5122080_0 : [0,0]
RESULT: v0x54eb380_0 : [-1/0,1/0]
RESULT: v0x54ae730_0 : [-1/0,1/0]
RESULT: v0x556e410_0 : [-1/0,1/0]
RESULT: v0x55644d0_0 : [-1/0,1/0]
RESULT: v0x5324940_0 : [-1/0,1/0]
RESULT: v0x53d4100_0 : [-1/0,1/0]
RESULT: v0x556b610_0 : [-1/0,1/0]
RESULT: v0x556b690_0 : [-1/0,1/0]
RESULT: v0x5324880_0 : [-1/0,1/0]
RESULT: v0x53d40c0_0 : [-1/0,1/0]
RESULT: v0x5325580_0 : [-1/0,1/0]
RESULT: v0x53254c0_0 : [-1/0,1/0]
