RESULT: v0x50ec6a0_0 : [-1/0,1/0]
RESULT: v0x50ec8a0_0 : [-1/0,1/0]
RESULT: v0x50ed5a0_0 : [789,789]
RESULT: v0x50ec4a0_0 : [-1/0,1/0]
RESULT: v0x50ec7a0_0 : [-1/0,1/0]
RESULT: v0x50ec5a0_0 : [-1/0,1/0]
RESULT: v0x553a3e0_1 : [2,2]
RESULT: v0x553a2a0_1 : [0,1]
RESULT: v0x553b560_1 : [0,1]
RESULT: v0x5538fe0_1 : [0,1]
RESULT: v0x553b420_1 : [0,1]
RESULT: v0x553b060_1 : [0,1]
RESULT: v0x55439e0_1 : [0,1]
RESULT: v0x5542ae0_1 : [0,1]
RESULT: v0x5542720_1 : [0,1]
RESULT: v0x55425e0_1 : [0,1]
RESULT: v0x5541be0_1 : [0,1]
RESULT: v0x5542360_1 : [0,1]
RESULT: v0x5541e60_1 : [0,1]
RESULT: v0x5541fa0_1 : [0,2]
RESULT: v0x5546d20_1 : [0,3]
RESULT: v0x5540ce0_1 : [0,1]
RESULT: v0x5546aa0_1 : [123,777]
RESULT: v0x5546820_1 : [0,666]
RESULT: v0x5545e20_1 : [0,2]
RESULT: v0x55465a0_1 : [0,1]
RESULT: v0x555d8e0_1 : [0,2]
RESULT: v0x555da20_1 : [0,456]
RESULT: v0x555c9e0_1 : [0,123]
RESULT: v0x555bae0_1 : [0,456]
RESULT: v0x55618a0_1 : [0,3]
