RESULT: v0x52c36c0_0 : [0,0]
RESULT: v0x52c37c0_0 : [-1/0,1/0]
RESULT: v0x52c39c0_0 : [-1/0,1/0]
RESULT: v0x52c34c0_0 : [-1/0,1/0]
RESULT: v0x52c33c0_0 : [-1/0,1/0]
RESULT: v0x52c32c0_0 : [-1/0,1/0]
RESULT: v0x52c3ec0_0 : [-1/0,1/0]
RESULT: v0x52c30c0_0 : [-1/0,1/0]
RESULT: v0x52c40c0_0 : [-1/0,1/0]
RESULT: v0x51ba750_0 : [-1/0,1/0]
RESULT: v0x52c2910_0 : [-1/0,1/0]
RESULT: v0x52c4790_0 : [-1/0,1/0]
RESULT: v0x52c4990_0 : [-1/0,1/0]
RESULT: v0x52c4b90_0 : [-1/0,1/0]
RESULT: v0x52c4d90_0 : [-1/0,1/0]
RESULT: v0x52c4f90_0 : [-1/0,1/0]
RESULT: v0x52c5190_0 : [-1/0,1/0]
RESULT: v0x52c5390_0 : [-1/0,1/0]
RESULT: v0x52c5590_0 : [-1/0,1/0]
RESULT: v0x52c5790_0 : [-1/0,1/0]
RESULT: v0x52c5990_0 : [-1/0,1/0]
RESULT: v0x52c5b90_0 : [-1/0,1/0]
RESULT: v0x52c5d90_0 : [-1/0,1/0]
RESULT: v0x52c5f90_0 : [-1/0,1/0]
RESULT: v0x52c6190_0 : [-1/0,1/0]
RESULT: v0x52c6490_0 : [-1/0,1/0]
RESULT: v0x52c6690_0 : [-1/0,1/0]
RESULT: v0x52c6890_0 : [-1/0,1/0]
RESULT: v0x52c6a90_0 : [-1/0,1/0]
RESULT: v0x52c6c90_0 : [-1/0,1/0]
RESULT: v0x52c6e90_0 : [-1/0,1/0]
RESULT: v0x52c7090_0 : [-1/0,1/0]
RESULT: v0x52c7290_0 : [-1/0,1/0]
RESULT: v0x52c7490_0 : [-1/0,1/0]
RESULT: v0x52c7690_0 : [-1/0,1/0]
RESULT: v0x52c43c0_0 : [-1/0,1/0]
RESULT: v0x52c45c0_0 : [-1/0,1/0]
RESULT: v0x52c8080_0 : [-1/0,1/0]
RESULT: v0x52c8280_0 : [-1/0,1/0]
RESULT: v0x52c8480_0 : [-1/0,1/0]
RESULT: v0x52c8680_0 : [-1/0,1/0]
RESULT: v0x52c8880_0 : [-1/0,1/0]
RESULT: v0x52c8a80_0 : [-1/0,1/0]
RESULT: v0x52c8c80_0 : [-1/0,1/0]
RESULT: v0x52c8e80_0 : [-1/0,1/0]
RESULT: v0x52c9080_0 : [-1/0,1/0]
RESULT: v0x52c9280_0 : [-1/0,1/0]
RESULT: v0x52c9480_0 : [-1/0,1/0]
RESULT: v0x52c9680_0 : [-1/0,1/0]
RESULT: v0x52c9880_0 : [-1/0,1/0]
RESULT: v0x52c9a80_0 : [-1/0,1/0]
RESULT: v0x52c9c80_0 : [-1/0,1/0]
RESULT: v0x52c9e80_0 : [-1/0,1/0]
RESULT: v0x52ca080_0 : [-1/0,1/0]
RESULT: v0x52ca280_0 : [-1/0,1/0]
RESULT: v0x52ca480_0 : [-1/0,1/0]
RESULT: v0x52ca680_0 : [-1/0,1/0]
RESULT: v0x52ca880_0 : [-1/0,1/0]
RESULT: v0x52caa80_0 : [-1/0,1/0]
RESULT: v0x52cac80_0 : [-1/0,1/0]
RESULT: v0x52cae80_0 : [-1/0,1/0]
RESULT: v0x52cb080_0 : [-1/0,1/0]
RESULT: v0x52cb280_0 : [-1/0,1/0]
RESULT: v0x52cb480_0 : [-1/0,1/0]
RESULT: v0x52cb680_0 : [-1/0,1/0]
RESULT: v0x52cb880_0 : [-1/0,1/0]
RESULT: v0x52cba80_0 : [-1/0,1/0]
RESULT: v0x52cbc80_0 : [-1/0,1/0]
RESULT: v0x52cbe80_0 : [-1/0,1/0]
RESULT: v0x52cc080_0 : [-1/0,1/0]
RESULT: v0x52cc280_0 : [-1/0,1/0]
RESULT: v0x52cc480_0 : [-1/0,1/0]
RESULT: v0x52cc680_0 : [-1/0,1/0]
RESULT: v0x52cc880_0 : [-1/0,1/0]
RESULT: v0x52cca80_0 : [-1/0,1/0]
RESULT: v0x52ccc80_0 : [-1/0,1/0]
RESULT: v0x52cce80_0 : [-1/0,1/0]
RESULT: v0x52cd080_0 : [-1/0,1/0]
RESULT: v0x52cd280_0 : [-1/0,1/0]
RESULT: v0x52cd480_0 : [-1/0,1/0]
RESULT: v0x52c2bc0_0 : [-1/0,1/0]
RESULT: v0x52cd680_0 : [-1/0,1/0]
RESULT: v0x52cd880_0 : [-1/0,1/0]
RESULT: v0x52cda80_0 : [-1/0,1/0]
RESULT: v0x52c2fc0_0 : [-1/0,1/0]
RESULT: v0x52ce280_0 : [-1/0,1/0]
RESULT: v0x52ce380_0 : [-1/0,1/0]
RESULT: v0x52ce480_0 : [-1/0,1/0]
RESULT: v0x52ce580_0 : [-1/0,1/0]
RESULT: v0x52cdf80_0 : [-1/0,1/0]
RESULT: v0x52ce680_0 : [-1/0,1/0]
RESULT: v0x52ce780_0 : [-1/0,1/0]
RESULT: v0x52ce080_0 : [-1/0,1/0]
RESULT: v0x52ce880_0 : [-1/0,1/0]
RESULT: v0x52ce980_0 : [-1/0,1/0]
RESULT: v0x52ce180_0 : [-1/0,1/0]
RESULT: v0x52c2ac0_0 : [-1/0,1/0]
RESULT: v0x52cf880_0 : [-1/0,1/0]
RESULT: v0x52c1030_0 : [-1/0,1/0]
RESULT: v0x52c7790_0 : [-1/0,1/0]
RESULT: v0x52c7890_0 : [-1/0,1/0]
RESULT: v0x52c7a90_0 : [-1/0,1/0]
RESULT: v0x52c7c90_0 : [-1/0,1/0]
RESULT: v0x52d05c0_0 : [-1/0,1/0]
RESULT: v0x52d07a0_0 : [-1/0,1/0]
RESULT: v0x52c0f30_0 : [-1/0,1/0]
RESULT: v0x52d09a0_0 : [-1/0,1/0]
RESULT: v0x52c25f0_0 : [-1/0,1/0]
RESULT: v0x52d0ba0_0 : [-1/0,1/0]
RESULT: v0x52d0da0_0 : [-1/0,1/0]
RESULT: v0x52d0fa0_0 : [-1/0,1/0]
RESULT: v0x52d11a0_0 : [-1/0,1/0]
RESULT: v0x52d12a0_0 : [-1/0,1/0]
RESULT: v0x52d14a0_0 : [-1/0,1/0]
RESULT: v0x52d16a0_0 : [-1/0,1/0]
RESULT: v0x52d18a0_0 : [-1/0,1/0]
RESULT: v0x52d19a0_0 : [-1/0,1/0]
RESULT: v0x52d1ba0_0 : [-1/0,1/0]
RESULT: v0x52d1da0_0 : [-1/0,1/0]
RESULT: v0x52d1fa0_0 : [-1/0,1/0]
RESULT: v0x52d21a0_0 : [-1/0,1/0]
RESULT: v0x52d23a0_0 : [-1/0,1/0]
RESULT: v0x52d25a0_0 : [-1/0,1/0]
RESULT: v0x52d26a0_0 : [-1/0,1/0]
RESULT: v0x52d28a0_0 : [-1/0,1/0]
RESULT: v0x52d2aa0_0 : [-1/0,1/0]
RESULT: v0x52d2ca0_0 : [-1/0,1/0]
RESULT: v0x52d2ea0_0 : [-1/0,1/0]
RESULT: v0x52d30a0_0 : [-1/0,1/0]
RESULT: v0x52d32a0_0 : [-1/0,1/0]
RESULT: v0x52d34a0_0 : [-1/0,1/0]
RESULT: v0x52d36a0_0 : [-1/0,1/0]
RESULT: v0x52d38a0_0 : [-1/0,1/0]
RESULT: v0x52d3aa0_0 : [-1/0,1/0]
RESULT: v0x52d3ca0_0 : [-1/0,1/0]
RESULT: v0x52d3ea0_0 : [-1/0,1/0]
RESULT: v0x52d40a0_0 : [-1/0,1/0]
RESULT: v0x52d43a0_0 : [-1/0,1/0]
RESULT: v0x52d44a0_0 : [-1/0,1/0]
RESULT: v0x52d46a0_0 : [-1/0,1/0]
RESULT: v0x52d4aa0_0 : [-1/0,1/0]
RESULT: v0x52d4ca0_0 : [-1/0,1/0]
RESULT: v0x52d4ea0_0 : [-1/0,1/0]
RESULT: v0x52d50a0_0 : [-1/0,1/0]
RESULT: v0x52d52a0_0 : [-1/0,1/0]
RESULT: v0x52d54a0_0 : [-1/0,1/0]
RESULT: v0x52d56a0_0 : [-1/0,1/0]
RESULT: v0x52d58a0_0 : [-1/0,1/0]
RESULT: v0x52d5aa0_0 : [-1/0,1/0]
RESULT: v0x52d5ca0_0 : [-1/0,1/0]
RESULT: v0x52d5ea0_0 : [-1/0,1/0]
RESULT: v0x52d60a0_0 : [-1/0,1/0]
RESULT: v0x52d62a0_0 : [-1/0,1/0]
RESULT: v0x52d64a0_0 : [-1/0,1/0]
RESULT: v0x52d66a0_0 : [-1/0,1/0]
RESULT: v0x52d69a0_0 : [-1/0,1/0]
RESULT: v0x52d6ba0_0 : [-1/0,1/0]
RESULT: v0x52d6da0_0 : [-1/0,1/0]
RESULT: v0x52d6fa0_0 : [-1/0,1/0]
RESULT: v0x52d71a0_0 : [-1/0,1/0]
RESULT: v0x52d73a0_0 : [-1/0,1/0]
RESULT: v0x52d75a0_0 : [-1/0,1/0]
RESULT: v0x52d77a0_0 : [-1/0,1/0]
RESULT: v0x52d79a0_0 : [-1/0,1/0]
RESULT: v0x52d7ba0_0 : [-1/0,1/0]
RESULT: v0x52d7da0_0 : [-1/0,1/0]
RESULT: v0x52d7fa0_0 : [-1/0,1/0]
RESULT: v0x52cf980_0 : [-1/0,1/0]
RESULT: v0x52cfb80_0 : [-1/0,1/0]
RESULT: v0x52cfd80_0 : [-1/0,1/0]
RESULT: v0x52cff80_0 : [-1/0,1/0]
RESULT: v0x52d0180_0 : [-1/0,1/0]
RESULT: v0x52d0380_0 : [-1/0,1/0]
RESULT: v0x52d9990_0 : [-1/0,1/0]
RESULT: v0x52d9b90_0 : [-1/0,1/0]
RESULT: v0x52d9d90_0 : [-1/0,1/0]
RESULT: v0x52d9f90_0 : [-1/0,1/0]
RESULT: v0x52da190_0 : [-1/0,1/0]
RESULT: v0x52da390_0 : [-1/0,1/0]
RESULT: v0x52da590_0 : [-1/0,1/0]
RESULT: v0x52da790_0 : [-1/0,1/0]
RESULT: v0x52da990_0 : [-1/0,1/0]
RESULT: v0x52dab90_0 : [-1/0,1/0]
RESULT: v0x52dad90_0 : [-1/0,1/0]
RESULT: v0x52daf90_0 : [-1/0,1/0]
RESULT: v0x52db290_0 : [-1/0,1/0]
RESULT: v0x52db490_0 : [-1/0,1/0]
RESULT: v0x52c24f0_0 : [-1/0,1/0]
RESULT: v0x52db890_0 : [-1/0,1/0]
RESULT: v0x52c23f0_0 : [-1/0,1/0]
RESULT: v0x52dba90_0 : [-1/0,1/0]
RESULT: v0x52dbc90_0 : [-1/0,1/0]
RESULT: v0x52dbe90_0 : [-1/0,1/0]
