RESULT: v0x47797e0_0 : [0,1]
RESULT: v0x5caf010_1 : [0,1]
RESULT: v0x62e2820_1 : [0,1]
RESULT: v0x62c3c60_1 : [0,1]
RESULT: v0x5e71420_1 : [0,1]
RESULT: v0x62e5da0_1 : [0,1]
RESULT: v0x560b300_1 : [0,1]
RESULT: v0x4cd7490_1 : [0,1]
RESULT: v0x5ec0600_1 : [0,1]
RESULT: v0x5caa7b0_1 : [0,1]
RESULT: v0x508cc30_1 : [0,1]
RESULT: v0x62d3f00_1 : [0,1]
RESULT: v0x62b68a0_1 : [0,1]
RESULT: v0x62b2880_1 : [0,1]
RESULT: v0x5147cd0_1 : [-1/0,1/0]
RESULT: v0x513cc50_1 : [-1/0,1/0]
RESULT: v0x50fff70_1 : [0,2]
RESULT: v0x515ba50_1 : [0,2]
RESULT: v0x4a63730_1 : [0,2]
RESULT: v0x4a627b0_1 : [0,2]
RESULT: v0x51481f0_1 : [0,2]
RESULT: v0x5cca270_1 : [0,2]
RESULT: v0x47bd3c0_1 : [0,2]
RESULT: v0x50f1ed0_1 : [0,2]
RESULT: v0x62e3b40_1 : [0,2]
RESULT: v0x4a5ac20_1 : [0,2]
RESULT: v0x560b900_1 : [0,2]
RESULT: v0x517ce90_1 : [0,2]
RESULT: v0x625a0f0_1 : [0,2]
RESULT: v0x62d5a40_1 : [0,2]
