RESULT: v0x52caae0_1 : [4,4]
RESULT: v0x5317860_1 : [0,1]
RESULT: v0x53a1d60_1 : [0,1]
RESULT: v0x5372340_1 : [0,1]
RESULT: v0x52d32d0_1 : [0,1]
RESULT: v0x537ae40_1 : [0,1]
RESULT: v0x52d9310_1 : [0,1]
RESULT: v0x55ffe20_1 : [0,1]
RESULT: v0x535db00_1 : [0,1]
RESULT: v0x5374680_1 : [0,1]
RESULT: v0x53670c0_1 : [0,1]
RESULT: v0x5326c70_1 : [0,1]
RESULT: v0x53b91c0_1 : [0,1]
RESULT: v0x5372480_1 : [0,2]
RESULT: v0x5252140_1 : [0,3]
RESULT: v0x5252100_1 : [123,777]
RESULT: v0x52202b0_1 : [0,666]
RESULT: v0x52201f0_1 : [0,2]
RESULT: v0x5064050_1 : [0,1]
RESULT: v0x5063f90_1 : [0,2]
RESULT: v0x5063d50_1 : [0,456]
RESULT: v0x5063c90_1 : [0,123]
RESULT: v0x5063a50_1 : [0,456]
RESULT: v0x52214b0_1 : [0,3]
