RESULT: v0x4bba8e0_1 : [3,3]
RESULT: v0x4bba820_1 : [0,1]
RESULT: v0x4bba760_1 : [0,1]
RESULT: v0x4a815f0_1 : [0,1]
RESULT: v0x4ccddd0_1 : [0,1]
RESULT: v0x4ccdd10_1 : [0,1]
RESULT: v0x4ccdc90_1 : [0,1]
RESULT: v0x4ccd890_1 : [0,1]
RESULT: v0x4bbae20_1 : [0,1]
RESULT: v0x4bbaee0_1 : [0,1]
RESULT: v0x4a847a0_1 : [0,1]
RESULT: v0x4bbb120_1 : [123,777]
RESULT: v0x4bbb1e0_1 : [0,666]
RESULT: v0x4bbb2a0_1 : [0,2]
RESULT: v0x4b9d950_1 : [0,1]
RESULT: v0x4ba7360_1 : [0,2]
RESULT: v0x4b7ac80_1 : [0,456]
RESULT: v0x4ba7f50_1 : [0,123]
RESULT: v0x4babdf0_1 : [0,456]
RESULT: v0x4bb01a0_1 : [0,3]
RESULT: v0x4babd60_1 : [0,1]
RESULT: v0x4bc3fe0_1 : [0,1]
