RESULT: v0x4d0c290_0 : [0,1]
RESULT: v0x58c1720_1 : [0,1]
RESULT: v0x58b0c00_1 : [1,1]
RESULT: v0x645a210_1 : [0,1]
RESULT: v0x568ac40_1 : [0,1]
RESULT: v0x51fac50_1 : [0,1]
RESULT: v0x58c5660_1 : [0,1]
RESULT: v0x58b2ae0_1 : [0,1]
RESULT: v0x58b8080_1 : [0,1]
RESULT: v0x4feecb0_1 : [0,1]
RESULT: v0x6464090_1 : [0,1]
RESULT: v0x4fb7580_1 : [0,1]
RESULT: v0x52af130_1 : [0,1]
RESULT: v0x645e050_1 : [0,1]
RESULT: v0x62879e0_1 : [0,2]
RESULT: v0x58c0740_1 : [2,2]
RESULT: v0x520a8c0_1 : [0,2]
RESULT: v0x520d370_1 : [0,2]
RESULT: v0x58bbbe0_1 : [0,2]
RESULT: v0x58b8fe0_1 : [0,2]
RESULT: v0x58b3400_1 : [0,2]
RESULT: v0x5691560_1 : [0,2]
RESULT: v0x610c140_1 : [0,2]
RESULT: v0x58ae880_1 : [0,2]
RESULT: v0x628cfe0_1 : [0,2]
RESULT: v0x58c2a00_1 : [0,2]
RESULT: v0x58ba9a0_1 : [0,2]
RESULT: v0x58c0380_1 : [0,2]
