RESULT: v0x7d1a890_0 : [0,0]
RESULT: v0x7629b30_0 : [1,1]
RESULT: v0x7b795a0_0 : [0,1]
RESULT: v0x7b52700_0 : [40,120]
RESULT: v0x6265990_0 : [0,1]
RESULT: v0x4ba24c0_0 : [0,0]
RESULT: v0x7b79700_0 : [0,1]
RESULT: v0x7e30400_0 : [0,1]
RESULT: v0x7b54d10_0 : [1,1]
RESULT: v0x7ff8610_0 : [0,1]
RESULT: v0x7b7b740_0 : [0,1]
RESULT: v0x7e2ba80_0 : [1,1]
RESULT: v0x7b7a720_0 : [1,1]
RESULT: v0x766d3e0_0 : [1,1]
RESULT: v0x7d04430_0 : [1,1]
RESULT: v0x4ba22c0_0 : [-1/0,1/0]
RESULT: v0x4ba23c0_0 : [-1/0,1/0]
RESULT: v0x7624670_0 : [3,4]
RESULT: v0x4bc76c0_0 : [80,120]
RESULT: v0x4bc77c0_0 : [0,1]
RESULT: v0x4bc78c0_0 : [0,1]
RESULT: v0x4bc79c0_0 : [0,1]
RESULT: v0x4bc7ac0_0 : [0,1]
RESULT: v0x4bc7bc0_0 : [0,1]
RESULT: v0x4bc7cc0_0 : [2,4]
RESULT: v0x4bc7dc0_0 : [0,1]
RESULT: v0x4bc7ec0_0 : [1,1]
RESULT: v0x4bc7fc0_0 : [1,1]
RESULT: v0x4bc80c0_0 : [0,1]
RESULT: v0x4bc81c0_0 : [0,1]
RESULT: v0x4bc82c0_0 : [1,1]
RESULT: v0x87c8040_0 : [1,3]
RESULT: v0x4bc95c0_0 : [3,5]
