RESULT: v0x37a71f0_0 : [-1/0,1/0]
RESULT: v0x37a7130_0 : [-1/0,1/0]
RESULT: v0x37a6fb0_0 : [-1/0,1/0]
RESULT: v0x37a72b0_0 : [-1/0,1/0]
RESULT: v0x37a6b30_0 : [-1/0,1/0]
RESULT: v0x37a6d70_0 : [-1/0,1/0]
RESULT: v0x37a6cb0_0 : [-1/0,1/0]
RESULT: v0x37a6bf0_0 : [-1/0,1/0]
RESULT: v0x374fec0_0 : [-1/0,1/0]
RESULT: v0x371fb00_0 : [-1/0,1/0]
RESULT: v0x37a6a90_0 : [-1/0,1/0]
RESULT: v0x37a7430_0 : [-1/0,1/0]
RESULT: v0x37a74f0_0 : [-1/0,1/0]
RESULT: v0x37a75b0_0 : [-1/0,1/0]
RESULT: v0x37a7670_0 : [-1/0,1/0]
RESULT: v0x37a7730_0 : [-1/0,1/0]
RESULT: v0x37a77f0_0 : [-1/0,1/0]
RESULT: v0x37a78b0_0 : [-1/0,1/0]
RESULT: v0x37a7970_0 : [-1/0,1/0]
RESULT: v0x37a7a30_0 : [-1/0,1/0]
RESULT: v0x37a7370_0 : [-1/0,1/0]
RESULT: v0x37a7170_0 : [-1/0,1/0]
RESULT: v0x37a6ef0_0 : [-1/0,1/0]
RESULT: v0x37a6e30_0 : [-1/0,1/0]
