RESULT: v0x3c87d20_0 : [0,1]
RESULT: v0x49dd1f0_0 : [0,1]
RESULT: v0x4d9f4f0_0 : [0,1]
RESULT: v0x3caac60_0 : [0,1]
RESULT: v0x4e1aec0_0 : [0,1]
RESULT: v0x49f92f0_0 : [0,1]
RESULT: v0x4e0f900_0 : [0,1]
RESULT: v0x4da4a70_0 : [0,1]
RESULT: v0x35a3590_0 : [0,1]
RESULT: v0x3c67f40_0 : [0,1]
RESULT: v0x4e13920_0 : [0,1]
RESULT: v0x4e0ae20_0 : [0,1]
RESULT: v0x3c56940_0 : [0,1]
RESULT: v0x4e18ea0_0 : [0,1]
RESULT: v0x49f72d0_0 : [-1/0,1/0]
RESULT: v0x3c42880_0 : [-1/0,1/0]
RESULT: v0x481a170_0 : [0,2]
RESULT: v0x37a9300_0 : [0,2]
RESULT: v0x3ca4160_0 : [0,2]
RESULT: v0x4db2ae0_0 : [0,2]
RESULT: v0x481e190_0 : [0,2]
RESULT: v0x4e2da00_0 : [0,2]
RESULT: v0x4e16e80_0 : [0,2]
RESULT: v0x45aeae0_0 : [0,2]
RESULT: v0x4da0a30_0 : [0,2]
RESULT: v0x3c3f300_0 : [0,2]
RESULT: v0x4dae000_0 : [0,2]
RESULT: v0x37a72e0_0 : [0,2]
RESULT: v0x3ca2140_0 : [0,2]
RESULT: v0x4da5fb0_0 : [0,2]
