RESULT: v0x4f3efb0_0 : [-1/0,1/0]
RESULT: v0x4f3e070_0 : [-1/0,1/0]
RESULT: v0x4f3ed10_0 : [-1/0,1/0]
RESULT: v0x4a5f210_0 : [-1/0,1/0]
RESULT: v0x48b3210_0 : [67,1/0]
RESULT: v0x4f3cab0_0 : [-1/0,1/0]
RESULT: v0x4f3dff0_0 : [-1/0,1/0]
RESULT: v0x4f3f250_0 : [-1/0,1/0]
RESULT: v0x4814f30_0 : [0,0]
RESULT: v0x4a5e550_0 : [-1/0,1/0]
RESULT: v0x4f3e530_0 : [-1/0,1/0]
RESULT: v0x478d2d0_0 : [67,1/0]
RESULT: v0x478d3d0_0 : [0,1]
RESULT: v0x478d4d0_0 : [-1/0,1/0]
RESULT: v0x478d5d0_0 : [-1/0,1/0]
RESULT: v0x478d6d0_0 : [-1/0,1/0]
RESULT: v0x478d7d0_0 : [-1/0,1/0]
RESULT: v0x478d8d0_0 : [0,1]
RESULT: v0x478d9d0_0 : [-1/0,1/0]
RESULT: v0x478dad0_0 : [-1/0,1/0]
RESULT: v0x478dbd0_0 : [0,0]
RESULT: v0x478dcd0_0 : [0,0]
RESULT: v0x478ddd0_0 : [-1/0,1/0]
RESULT: v0x478ded0_0 : [-1/0,1/0]
RESULT: v0x478dfd0_0 : [-1/0,1/0]
RESULT: v0x4f3d0b0_0 : [-1/0,1/0]
RESULT: v0x4f3b690_0 : [-1/0,1/0]
RESULT: v0x47d20a0_0 : [0,0]
RESULT: v0x4815730_0 : [-1/0,10]
RESULT: v0x4f3b390_0 : [-1/0,1/0]
RESULT: v0x478e2d0_0 : [-1/0,1/0]
