RESULT: v0x5aec640_0 : [0,0]
RESULT: v0x5cb19e0_0 : [1,2]
RESULT: v0x431c700_0 : [1,2]
RESULT: v0x5cd73a0_0 : [0,2]
RESULT: v0x56e4f30_0 : [0,2]
RESULT: v0x5ceeea0_0 : [-1/0,1/0]
RESULT: v0x5f1cd80_0 : [0,2]
RESULT: v0x5cef700_0 : [0,1/0]
RESULT: v0x5d054f0_0 : [0,2]
RESULT: v0x57914d0_0 : [-1/0,1/0]
RESULT: v0x53ac240_0 : [0,1]
RESULT: v0x59bc450_0 : [0,1]
RESULT: v0x5d08c80_0 : [0,1]
RESULT: v0x5ad7df0_0 : [1,1]
RESULT: v0x56e3570_0 : [0,1]
RESULT: v0x431b900_0 : [0,51]
RESULT: v0x431b800_0 : [0,50]
RESULT: v0x431ba00_0 : [0,52]
RESULT: v0x5cd1d80_0 : [-1/0,1/0]
RESULT: v0x431ca00_0 : [-1/0,1/0]
RESULT: v0x43250d0_0 : [-1/0,1/0]
RESULT: v0x43251d0_0 : [0,1]
RESULT: v0x43252d0_0 : [1,2]
RESULT: v0x43253d0_0 : [0,1]
RESULT: v0x43254d0_0 : [0,2]
RESULT: v0x43255d0_0 : [0,1/0]
RESULT: v0x43256d0_0 : [0,2]
RESULT: v0x43257d0_0 : [0,1]
RESULT: v0x43258d0_0 : [0,1]
RESULT: v0x43259d0_0 : [0,2]
RESULT: v0x4325ad0_0 : [-1/0,1/0]
RESULT: v0x4325bd0_0 : [0,0]
RESULT: v0x4325cd0_0 : [1,1]
RESULT: v0x4325dd0_0 : [0,2]
RESULT: v0x4325ed0_0 : [-1/0,1/0]
RESULT: v0x431cd00_0 : [-1/0,1/0]
RESULT: v0x43260d0_0 : [-1/0,1/0]
RESULT: v0x6678010_0 : [-1/0,1/0]
RESULT: v0x6678170_0 : [0,50]
RESULT: v0x6678370_0 : [0,51]
RESULT: v0x6678570_0 : [0,52]
RESULT: v0x6678770_0 : [0,2]
RESULT: v0x6678970_0 : [0,1]
RESULT: v0x66393f0_0 : [1,1]
RESULT: v0x66395f0_0 : [-1/0,1/0]
RESULT: v0x4325fd0_0 : [-1/0,1/0]
