RESULT: v0x5091f60_0 : [0,1]
RESULT: v0x5092100_0 : [0,1]
RESULT: v0x5092300_0 : [0,1]
RESULT: v0x5092500_0 : [0,1]
RESULT: v0x5092700_0 : [0,1]
RESULT: v0x5092900_0 : [0,1]
RESULT: v0x5092b00_0 : [0,1]
RESULT: v0x5092d00_0 : [0,1]
RESULT: v0x5092f00_0 : [0,1]
RESULT: v0x5093100_0 : [0,1]
RESULT: v0x5093300_0 : [0,1]
RESULT: v0x5093500_0 : [1,1]
RESULT: v0x5093700_0 : [0,2]
RESULT: v0x5093900_0 : [0,2]
RESULT: v0x5093b00_0 : [0,2]
RESULT: v0x5093d00_0 : [0,2]
RESULT: v0x5093f00_0 : [0,2]
RESULT: v0x5094100_0 : [0,2]
RESULT: v0x5094300_0 : [0,2]
RESULT: v0x5094500_0 : [0,2]
RESULT: v0x5094700_0 : [0,2]
RESULT: v0x5094900_0 : [0,2]
RESULT: v0x5094b00_0 : [0,2]
RESULT: v0x5094d00_0 : [2,2]
