RESULT: v0x55ef660_0 : [0,1]
RESULT: v0x55d4050_0 : [0,1]
RESULT: v0x5a2b210_0 : [0,1]
RESULT: v0x5d76e40_0 : [0,1]
RESULT: v0x5a2c1d0_0 : [0,1]
RESULT: v0x5a1dc20_0 : [0,1]
RESULT: v0x5a3c4c0_0 : [0,1]
RESULT: v0x5687900_0 : [0,1]
RESULT: v0x53a0ee0_0 : [0,1]
RESULT: v0x55d3c70_0 : [0,1]
RESULT: v0x568f3d0_0 : [1,1]
RESULT: v0x5a3aa00_0 : [-1/0,1/0]
RESULT: v0x53abf10_0 : [-1/0,1/0]
RESULT: v0x5a09ba0_0 : [0,2]
RESULT: v0x53953e0_0 : [0,2]
RESULT: v0x5a27980_0 : [0,2]
RESULT: v0x55d3a70_0 : [0,2]
RESULT: v0x55d5fd0_0 : [0,2]
RESULT: v0x5a38c80_0 : [0,2]
RESULT: v0x5a01e00_0 : [0,2]
RESULT: v0x5a1d690_0 : [0,2]
RESULT: v0x5680920_0 : [0,2]
RESULT: v0x66746c0_0 : [0,2]
RESULT: v0x686fe60_0 : [2,2]
