RESULT: v0x7538450_0 : [0,0]
RESULT: v0xa88a0b0_0 : [0,1]
RESULT: v0x7537740_0 : [1,1]
RESULT: v0x509f020_0 : [1,2]
RESULT: v0x9bd2da0_0 : [0,2]
RESULT: v0x509e320_0 : [0,1/0]
RESULT: v0x634abf0_0 : [0,1]
RESULT: v0x85e9a40_0 : [1,6]
RESULT: v0x7535ee0_0 : [0,1]
RESULT: v0x650ba30_0 : [0,1]
RESULT: v0x509e220_0 : [0,1/0]
RESULT: v0xa867b80_0 : [0,1/0]
RESULT: v0x75370c0_0 : [0,1]
RESULT: v0x7537c60_0 : [0,1]
RESULT: v0x85e6580_0 : [0,1]
RESULT: v0x7a46e90_0 : [0,1]
RESULT: v0x85edb40_0 : [-1/0,1/0]
RESULT: v0x85261a0_0 : [-1/0,1/0]
RESULT: v0x50a79f0_0 : [1,6]
RESULT: v0x50a7af0_0 : [0,1]
RESULT: v0x50a7bf0_0 : [0,2]
RESULT: v0x50a7cf0_0 : [0,1]
RESULT: v0x50a7df0_0 : [0,1]
RESULT: v0x50a7ef0_0 : [0,1/0]
RESULT: v0x50a7ff0_0 : [0,1]
RESULT: v0x50a80f0_0 : [0,1]
RESULT: v0x50a81f0_0 : [0,1]
RESULT: v0x50a82f0_0 : [0,1]
RESULT: v0x50a83f0_0 : [-1/0,1/0]
RESULT: v0x50a84f0_0 : [0,0]
RESULT: v0x50a85f0_0 : [1,1]
RESULT: v0x50a86f0_0 : [0,1]
RESULT: v0x50a87f0_0 : [-1/0,1/0]
RESULT: v0x509f620_0 : [-1/0,1/0]
RESULT: v0x509f320_0 : [-1/0,1/0]
RESULT: v0x50a89f0_0 : [-1/0,1/0]
RESULT: v0x8f61b40_0 : [-1/0,1/0]
RESULT: v0x8f61ca0_0 : [0,1/0]
RESULT: v0x8f61ea0_0 : [0,1/0]
RESULT: v0x8f620a0_0 : [0,2]
RESULT: v0x8f622a0_0 : [0,1]
RESULT: v0x8f624a0_0 : [1,1]
RESULT: v0x8f626a0_0 : [-1/0,1/0]
RESULT: v0x50a88f0_0 : [-1/0,1/0]
