RESULT: v0x72a5c90_0 : [-1/0,1/0]
RESULT: v0x95f9780_0 : [-1/0,1/0]
RESULT: v0xac91ca0_0 : [-1/0,1/0]
RESULT: v0x732c3f0_0 : [0,1]
RESULT: v0x72f2540_0 : [-1/0,1/0]
RESULT: v0x733ce50_0 : [-1/0,1/0]
RESULT: v0x8026050_0 : [0,0]
RESULT: v0x4e8eda0_0 : [67,1/0]
RESULT: v0x731ff20_0 : [67,1/0]
RESULT: v0x4e8eea0_0 : [0,1]
RESULT: v0x4e8efa0_0 : [0,1]
RESULT: v0x4e8f0a0_0 : [-1/0,1/0]
RESULT: v0x4e8f1a0_0 : [-1/0,1/0]
RESULT: v0x4e8f2a0_0 : [0,0]
RESULT: v0x4e8f3a0_0 : [-1/0,1/0]
RESULT: v0x4e8f4a0_0 : [-1/0,1/0]
RESULT: v0x7385a30_0 : [-1/0,1/0]
RESULT: v0x4e8f5a0_0 : [-1/0,1/0]
RESULT: v0x804ced0_0 : [-1/0,1/0]
RESULT: v0x4e8f6a0_0 : [-1/0,1/0]
RESULT: v0x6339b60_0 : [-1/0,1/0]
RESULT: v0x4e8f7a0_0 : [-1/0,1/0]
RESULT: v0x4e8f8a0_0 : [-1/0,1/0]
RESULT: v0x4e8f9a0_0 : [-1/0,1/0]
RESULT: v0x4e8faa0_0 : [-1/0,1/0]
RESULT: v0x51479d0_0 : [-1/0,1/0]
RESULT: v0x7fd1ee0_0 : [-1/0,1/0]
RESULT: v0x6418cf0_0 : [0,0]
RESULT: v0x72f2720_0 : [-1/0,10]
RESULT: v0x732de90_0 : [-1/0,1/0]
RESULT: v0x4e8fda0_0 : [-1/0,1/0]
