RESULT: v0x7a7bab0_0 : [0,0]
RESULT: v0x8fc8be0_0 : [0,1]
RESULT: v0x7a7b290_0 : [0,2]
RESULT: v0x91a7fb0_0 : [1,1]
RESULT: v0x509f020_0 : [1,2]
RESULT: v0x509e320_0 : [0,1/0]
RESULT: v0x509e220_0 : [0,1/0]
RESULT: v0x6fec920_0 : [0,1]
RESULT: v0x8fbc840_0 : [0,1]
RESULT: v0x81dfe70_0 : [-1/0,6]
RESULT: v0x6e58940_0 : [0,1]
RESULT: v0x7bf32d0_0 : [0,1]
RESULT: v0x91f2a00_0 : [0,1]
RESULT: v0x6eaecd0_0 : [0,1/0]
RESULT: v0x7d0d8a0_0 : [0,1]
RESULT: v0x8fcffd0_0 : [0,1]
RESULT: v0x91e23c0_0 : [-1/0,1/0]
RESULT: v0x6e1a580_0 : [-1/0,1/0]
RESULT: v0x50a79f0_0 : [-1/0,6]
RESULT: v0x50a7af0_0 : [0,1]
RESULT: v0x50a7bf0_0 : [0,2]
RESULT: v0x50a7cf0_0 : [0,1]
RESULT: v0x50a7df0_0 : [0,1]
RESULT: v0x50a7ef0_0 : [0,1/0]
RESULT: v0x50a7ff0_0 : [0,1]
RESULT: v0x50a80f0_0 : [0,1]
RESULT: v0x50a81f0_0 : [0,1]
RESULT: v0x50a82f0_0 : [0,1]
RESULT: v0x50a83f0_0 : [-1/0,1/0]
RESULT: v0x50a84f0_0 : [0,0]
RESULT: v0x50a85f0_0 : [1,1]
RESULT: v0x50a86f0_0 : [0,1]
RESULT: v0x50a87f0_0 : [-1/0,1/0]
RESULT: v0x509f620_0 : [-1/0,1/0]
RESULT: v0x509f320_0 : [-1/0,1/0]
RESULT: v0x50a89f0_0 : [-1/0,1/0]
RESULT: v0x92d22a0_0 : [-1/0,1/0]
RESULT: v0x92d2400_0 : [0,1/0]
RESULT: v0x92d2600_0 : [0,1/0]
RESULT: v0x92d2800_0 : [0,2]
RESULT: v0x92d2a00_0 : [0,1]
RESULT: v0x92d2c00_0 : [1,1]
RESULT: v0x92d2e00_0 : [-1/0,1/0]
RESULT: v0x50a88f0_0 : [-1/0,1/0]
