RESULT: v0x40d3aa0_1 : [-1/0,11]
RESULT: v0x40d4410_1 : [-1/0,1/0]
RESULT: v0x40d4690_1 : [-1/0,1/0]
RESULT: v0x40d4910_1 : [-1/0,1/0]
RESULT: v0x40d4b90_1 : [-1/0,1/0]
RESULT: v0x40d4e10_1 : [-1/0,1/0]
RESULT: v0x40d5090_1 : [0,1]
RESULT: v0x40ce830_1 : [-1/0,1/0]
RESULT: v0x42d5a00_1 : [-1/0,1/0]
RESULT: v0x40d5310_1 : [-1/0,1/0]
RESULT: v0x40d5590_1 : [-1/0,1/0]
RESULT: v0x40d5810_1 : [-1/0,1/0]
RESULT: v0x40d5a90_1 : [-1/0,1/0]
RESULT: v0x40d5dd0_1 : [-1/0,1/0]
RESULT: v0x40d6050_1 : [-1/0,1/0]
RESULT: v0x40d62d0_1 : [-1/0,1/0]
