RESULT: v0x47e7b80_1 : [3,3]
RESULT: v0x49c4fd0_1 : [0,1]
RESULT: v0x49c5210_1 : [0,1]
RESULT: v0x49c5450_1 : [0,1]
RESULT: v0x47e8b00_1 : [0,1]
RESULT: v0x4863fe0_1 : [0,1]
RESULT: v0x46bc680_1 : [0,1]
RESULT: v0x485df80_1 : [0,1]
RESULT: v0x4854980_1 : [0,1]
RESULT: v0x47be2a0_1 : [0,1]
RESULT: v0x4860fc0_1 : [0,1]
RESULT: v0x47bd3e0_1 : [0,1]
RESULT: v0x48422e0_1 : [0,1]
RESULT: v0x4849e20_1 : [0,2]
RESULT: v0x47eaf60_1 : [0,3]
RESULT: v0x485da40_1 : [0,1]
RESULT: v0x4856f20_1 : [123,777]
RESULT: v0x48488c0_1 : [0,666]
RESULT: v0x486e0d0_1 : [0,2]
RESULT: v0x47ecf50_1 : [0,1]
RESULT: v0x483d800_1 : [0,2]
RESULT: v0x47e9740_1 : [0,456]
RESULT: v0x493c530_1 : [0,123]
RESULT: v0x4ad0b80_1 : [0,456]
RESULT: v0x4a33b20_1 : [0,3]
