RESULT: v0x734b1f0_0 : [-1/0,1/0]
RESULT: v0x7349e50_0 : [-1/0,1/0]
RESULT: v0xf57ac30_0 : [-1/0,1/0]
RESULT: v0xf57af30_0 : [-1/0,1/0]
RESULT: v0x73561b0_0 : [27,1/0]
RESULT: v0xac3bed0_0 : [-1/0,1/0]
RESULT: v0xac3bf10_0 : [-1/0,1/0]
RESULT: v0x67b9c80_0 : [-1/0,1/0]
RESULT: v0xac3bf50_0 : [0,0]
RESULT: v0x733e6c0_0 : [-1/0,1/0]
RESULT: v0x726b8f0_0 : [-1/0,1/0]
RESULT: v0x478d2d0_0 : [67,1/0]
RESULT: v0x478d3d0_0 : [0,1]
RESULT: v0x478d4d0_0 : [-1/0,1/0]
RESULT: v0x478d5d0_0 : [-1/0,1/0]
RESULT: v0x478d6d0_0 : [-1/0,1/0]
RESULT: v0x478d7d0_0 : [-1/0,1/0]
RESULT: v0x478d8d0_0 : [0,1]
RESULT: v0x478d9d0_0 : [-1/0,1/0]
RESULT: v0x478dad0_0 : [-1/0,1/0]
RESULT: v0x478dbd0_0 : [-1/0,1/0]
RESULT: v0x478dcd0_0 : [-1/0,1/0]
RESULT: v0x478ddd0_0 : [-1/0,1/0]
RESULT: v0x478ded0_0 : [-1/0,1/0]
RESULT: v0x478dfd0_0 : [-1/0,1/0]
RESULT: v0x5e46ca0_0 : [-1/0,1/0]
RESULT: v0x5e46960_0 : [-1/0,1/0]
RESULT: v0x67e6d80_0 : [0,0]
RESULT: v0x733fe60_0 : [-1/0,10]
RESULT: v0x73524d0_0 : [-1/0,1/0]
RESULT: v0x478e2d0_0 : [-1/0,1/0]
