RESULT: v0x4ead480_0 : [-1/0,1/0]
RESULT: v0x4eb1840_0 : [-1/0,1/0]
RESULT: v0x4eb8a00_0 : [-1/0,1/0]
RESULT: v0x4ead240_0 : [0,1]
RESULT: v0x4eac840_0 : [-1/0,1/0]
RESULT: v0x4eb1440_0 : [-1/0,1/0]
RESULT: v0x4eace40_0 : [0,0]
RESULT: v0x4e8eda0_0 : [67,1/0]
RESULT: v0x4ead0c0_0 : [67,1/0]
RESULT: v0x4e8eea0_0 : [0,1]
RESULT: v0x4e8efa0_0 : [0,1]
RESULT: v0x4e8f0a0_0 : [-1/0,1/0]
RESULT: v0x4e8f1a0_0 : [-1/0,1/0]
RESULT: v0x4e8f2a0_0 : [0,0]
RESULT: v0x4e8f3a0_0 : [-1/0,1/0]
RESULT: v0x4e8f4a0_0 : [-1/0,1/0]
RESULT: v0x4eb0440_0 : [-1/0,1/0]
RESULT: v0x4e8f5a0_0 : [-1/0,1/0]
RESULT: v0x4eb5300_0 : [-1/0,1/0]
RESULT: v0x4e8f6a0_0 : [-1/0,1/0]
RESULT: v0x4eaab80_0 : [-1/0,1/0]
RESULT: v0x4e8f7a0_0 : [-1/0,1/0]
RESULT: v0x4e8f8a0_0 : [-1/0,1/0]
RESULT: v0x4e8f9a0_0 : [-1/0,1/0]
RESULT: v0x4e8faa0_0 : [-1/0,1/0]
RESULT: v0x4eb0060_0 : [-1/0,1/0]
RESULT: v0x4eb3260_0 : [-1/0,1/0]
RESULT: v0x4f42f30_0 : [0,0]
RESULT: v0x4eb8600_0 : [-1/0,10]
RESULT: v0x4eb4900_0 : [-1/0,1/0]
RESULT: v0x4e8fda0_0 : [-1/0,1/0]
