RESULT: v0x3e5a780_0 : [0,1]
RESULT: v0x440cae0_1 : [0,1]
RESULT: v0x44053b0_1 : [0,1]
RESULT: v0x4325e50_1 : [0,1]
RESULT: v0x4329d30_1 : [0,1]
RESULT: v0x440b850_1 : [0,1]
RESULT: v0x4306a80_1 : [0,1]
RESULT: v0x4324630_1 : [0,1]
RESULT: v0x4eba4e0_1 : [0,1]
RESULT: v0x40c3c40_1 : [0,1]
RESULT: v0x4413f40_1 : [-1/0,1/0]
RESULT: v0x44102f0_1 : [-1/0,1/0]
RESULT: v0x4e92ae0_1 : [0,2]
RESULT: v0x4ead240_1 : [0,2]
RESULT: v0x3e9d300_1 : [0,2]
RESULT: v0x40bbc90_1 : [0,2]
RESULT: v0x4eccbd0_1 : [0,2]
RESULT: v0x40eeea0_1 : [0,2]
RESULT: v0x408f210_1 : [0,2]
RESULT: v0x4274220_1 : [0,2]
RESULT: v0x4274a80_1 : [0,2]
RESULT: v0x53bf210_1 : [0,2]
