RESULT: v0x6388190_0 : [-1/0,1/0]
RESULT: v0x8a5a4a0_0 : [-1/0,1/0]
RESULT: v0x61a7260_0 : [-1/0,1/0]
RESULT: v0x629f800_0 : [0,1]
RESULT: v0x4630e40_0 : [67,1/0]
RESULT: v0x4630dc0_0 : [-1/0,1/0]
RESULT: v0x61a76a0_0 : [-1/0,1/0]
RESULT: v0x629fae0_0 : [0,0]
RESULT: v0x53a52a0_0 : [-1/0,1/0]
RESULT: v0x5274c10_0 : [-1/0,1/0]
RESULT: v0x417fbe0_0 : [-1/0,1/0]
RESULT: v0x3fa3330_0 : [67,1/0]
RESULT: v0x3fa3430_0 : [-1/0,1/0]
RESULT: v0x3fa3530_0 : [-1/0,1/0]
RESULT: v0x3fa3630_0 : [-1/0,1/0]
RESULT: v0x3fa3730_0 : [-1/0,1/0]
RESULT: v0x3fa3830_0 : [0,1]
RESULT: v0x3fa3930_0 : [-1/0,1/0]
RESULT: v0x3fa3a30_0 : [-1/0,1/0]
RESULT: v0x3fa3b30_0 : [0,0]
RESULT: v0x3fa3c30_0 : [-1/0,1/0]
RESULT: v0x3fa3d30_0 : [-1/0,1/0]
RESULT: v0x3fa3e30_0 : [-1/0,1/0]
RESULT: v0x3fa3f30_0 : [-1/0,1/0]
RESULT: v0x96486c0_0 : [-1/0,1/0]
RESULT: v0x44a7420_0 : [0,0]
RESULT: v0x629fd00_0 : [-1/0,10]
RESULT: v0x62790b0_0 : [-1/0,1/0]
RESULT: v0x61a7620_0 : [-1/0,1/0]
RESULT: v0x3fa4230_0 : [-1/0,1/0]
