RESULT: v0x4551180_0 : [0,1]
RESULT: v0x5764350_1 : [0,1]
RESULT: v0x592ab00_1 : [0,1]
RESULT: v0x5929b00_1 : [0,1]
RESULT: v0x5716dd0_1 : [0,1]
RESULT: v0x577e000_1 : [0,1]
RESULT: v0x499ae40_1 : [0,1]
RESULT: v0x5088460_1 : [0,1]
RESULT: v0x571b010_1 : [0,1]
RESULT: v0x571a450_1 : [0,1]
RESULT: v0x50f8100_1 : [0,1]
RESULT: v0x547e9a0_1 : [0,1]
RESULT: v0x59248c0_1 : [0,1]
RESULT: v0x56e3ee0_1 : [0,2]
RESULT: v0x57435c0_1 : [0,2]
RESULT: v0x5479560_1 : [0,2]
RESULT: v0x5714e30_1 : [0,2]
RESULT: v0x575a890_1 : [0,2]
RESULT: v0x5095000_1 : [0,2]
RESULT: v0x5762440_1 : [0,2]
RESULT: v0x56ed100_1 : [0,2]
RESULT: v0x5922f60_1 : [0,2]
RESULT: v0x47edfa0_1 : [0,2]
RESULT: v0x59188e0_1 : [0,2]
RESULT: v0x509a6b0_1 : [0,2]
RESULT: v0x574c310_1 : [0,2]
