RESULT: v0x7960ab0_0 : [-1/0,1/0]
RESULT: v0x5f0d2d0_0 : [-1/0,1/0]
RESULT: v0x4c53500_0 : [0,1]
RESULT: v0x714e2d0_0 : [-1/0,1/0]
RESULT: v0x840cba0_0 : [27,1/0]
RESULT: v0x6df0010_0 : [-1/0,1/0]
RESULT: v0x7459c30_0 : [-1/0,1/0]
RESULT: v0x7459e90_0 : [-1/0,1/0]
RESULT: v0x714e370_0 : [0,0]
RESULT: v0x5423900_0 : [-1/0,1/0]
RESULT: v0x6df04d0_0 : [-1/0,1/0]
RESULT: v0x478d2d0_0 : [67,1/0]
RESULT: v0x478d3d0_0 : [0,1]
RESULT: v0x478d4d0_0 : [-1/0,1/0]
RESULT: v0x478d5d0_0 : [-1/0,1/0]
RESULT: v0x478d6d0_0 : [-1/0,1/0]
RESULT: v0x478d7d0_0 : [-1/0,1/0]
RESULT: v0x478d8d0_0 : [0,1]
RESULT: v0x478d9d0_0 : [-1/0,1/0]
RESULT: v0x478dad0_0 : [-1/0,1/0]
RESULT: v0x478dbd0_0 : [-1/0,1/0]
RESULT: v0x478dcd0_0 : [0,0]
RESULT: v0x478ddd0_0 : [-1/0,1/0]
RESULT: v0x478ded0_0 : [-1/0,1/0]
RESULT: v0x478dfd0_0 : [-1/0,1/0]
RESULT: v0x4c53540_0 : [-1/0,1/0]
RESULT: v0x4a3f520_0 : [-1/0,1/0]
RESULT: v0xa546cc0_0 : [0,0]
RESULT: v0x4816610_0 : [-1/0,10]
RESULT: v0x7e820e0_0 : [-1/0,1/0]
RESULT: v0x478e2d0_0 : [-1/0,1/0]
