RESULT: v0x576eab0_0 : [-1/0,1/0]
RESULT: v0x576efb0_0 : [-1/0,1/0]
RESULT: v0x576fbb0_0 : [789,789]
RESULT: v0x576ebb0_0 : [-1/0,1/0]
RESULT: v0x576eeb0_0 : [-1/0,1/0]
RESULT: v0x576ecb0_0 : [-1/0,1/0]
RESULT: v0x5bba0b0_1 : [2,2]
RESULT: v0x5bbbaf0_1 : [0,1]
RESULT: v0x5b7e970_1 : [0,1]
RESULT: v0x5bc0ff0_1 : [0,1]
RESULT: v0x5bc4330_1 : [0,1]
RESULT: v0x5bc32f0_1 : [0,1]
RESULT: v0x5bc3430_1 : [0,1]
RESULT: v0x5bc22b0_1 : [0,1]
RESULT: v0x5bc3070_1 : [0,1]
RESULT: v0x5bc2670_1 : [0,1]
RESULT: v0x5bc2cb0_1 : [0,1]
RESULT: v0x5bc2df0_1 : [0,1]
RESULT: v0x5bc28f0_1 : [0,1]
RESULT: v0x5bc2a30_1 : [0,2]
RESULT: v0x5bc77b0_1 : [0,3]
RESULT: v0x5bc1770_1 : [0,1]
RESULT: v0x5bc7530_1 : [123,777]
RESULT: v0x5bc72b0_1 : [0,666]
RESULT: v0x5bc68b0_1 : [0,2]
RESULT: v0x5bc7030_1 : [0,1]
RESULT: v0x5bde370_1 : [0,2]
RESULT: v0x5bde4b0_1 : [0,456]
RESULT: v0x5bdd470_1 : [0,123]
RESULT: v0x5bdc570_1 : [0,456]
RESULT: v0x5be2330_1 : [0,3]
