RESULT: v0x36c5640_0 : [-1/0,1/0]
RESULT: v0x36c8ae0_0 : [4464,4480]
RESULT: v0x36c8ce0_0 : [4496,4512]
RESULT: v0x36c7ce0_0 : [-1/0,1/0]
RESULT: v0x36c7ee0_0 : [768,768]
RESULT: v0x36c87e0_0 : [4400,4560]
RESULT: v0x36c92b0_0 : [3,4512]
RESULT: v0x36c7de0_0 : [-1/0,1/0]
RESULT: v0x36c7be0_0 : [-1/0,1/0]
RESULT: v0x36c7ae0_0 : [-1/0,1/0]
RESULT: v0x36c63c0_0 : [-1/0,1/0]
RESULT: v0x36c64c0_0 : [-1/0,1/0]
RESULT: v0x36c57f0_0 : [-1/0,1/0]
RESULT: v0x36c78e0_0 : [-1/0,1/0]
RESULT: v0x36c77e0_0 : [-1/0,1/0]
RESULT: v0x36c76e0_0 : [-1/0,1/0]
RESULT: v0x36c79e0_0 : [-1/0,1/0]
RESULT: v0x3d5b8f0_1 : [-1/0,1/0]
RESULT: v0x3b1d920_1 : [0,1/0]
RESULT: v0x3a95eb0_1 : [3,4560]
RESULT: v0x3d342d0_1 : [-1/0,1/0]
RESULT: v0x3b1fec0_1 : [-1/0,1/0]
