RESULT: v0x54867b0_1 : [3,3]
RESULT: v0x535edd0_1 : [0,1]
RESULT: v0x5486c50_1 : [0,1]
RESULT: v0x5486650_1 : [0,1]
RESULT: v0x53d3440_1 : [0,1]
RESULT: v0x53d35a0_1 : [0,1]
RESULT: v0x53d32c0_1 : [0,1]
RESULT: v0x53d3200_1 : [0,1]
RESULT: v0x53d2fc0_1 : [0,1]
RESULT: v0x53d2f00_1 : [0,1]
RESULT: v0x53d2cc0_1 : [0,1]
RESULT: v0x53d2c00_1 : [0,2]
RESULT: v0x53d29c0_1 : [0,3]
RESULT: v0x53d2900_1 : [0,1]
RESULT: v0x53d26c0_1 : [123,777]
RESULT: v0x53d2600_1 : [0,666]
RESULT: v0x53d23c0_1 : [0,2]
RESULT: v0x53ea360_1 : [0,1]
RESULT: v0x53d2090_1 : [0,2]
RESULT: v0x53d1fd0_1 : [0,456]
RESULT: v0x53d1d90_1 : [0,123]
RESULT: v0x53d1cd0_1 : [0,456]
RESULT: v0x53d22d0_1 : [0,3]
RESULT: v0x5487010_1 : [0,1]
RESULT: v0x53ea460_1 : [0,1]
