RESULT: v0x9066570_0 : [0,0]
RESULT: v0x60f3660_0 : [1,1]
RESULT: v0x903ca40_0 : [0,1]
RESULT: v0x9083130_0 : [40,120]
RESULT: v0x9085130_0 : [0,1]
RESULT: v0x4ba24c0_0 : [-1/0,1/0]
RESULT: v0x9070090_0 : [0,1]
RESULT: v0x8a6c9a0_0 : [0,1]
RESULT: v0x5f12b40_0 : [1,1]
RESULT: v0x905fff0_0 : [0,1]
RESULT: v0x907fa10_0 : [0,1]
RESULT: v0x9066ad0_0 : [1,1]
RESULT: v0x8d57ae0_0 : [1,1]
RESULT: v0x5ed36b0_0 : [1,1]
RESULT: v0x8c19f70_0 : [1,1]
RESULT: v0x4ba22c0_0 : [-1/0,1/0]
RESULT: v0x4ba23c0_0 : [-1/0,1/0]
RESULT: v0x6101280_0 : [3,4]
RESULT: v0x4bb86c0_0 : [80,120]
RESULT: v0x4bb87c0_0 : [0,1]
RESULT: v0x4bb88c0_0 : [0,1]
RESULT: v0x4bb89c0_0 : [0,1]
RESULT: v0x4bb8ac0_0 : [0,1]
RESULT: v0x4bb8bc0_0 : [0,1]
RESULT: v0x4bb8cc0_0 : [0,1]
RESULT: v0x4bb8dc0_0 : [2,4]
RESULT: v0x4bb8ec0_0 : [0,1]
RESULT: v0x4bb8fc0_0 : [1,1]
RESULT: v0x4bb90c0_0 : [1,1]
RESULT: v0x4bb91c0_0 : [0,1]
RESULT: v0x4bb92c0_0 : [0,1]
RESULT: v0x4bb93c0_0 : [1,1]
RESULT: v0x927f010_0 : [1,3]
RESULT: v0x4bba6c0_0 : [3,5]
