RESULT: v0xa3add00_0 : [-1/0,1/0]
RESULT: v0x523b5f0_0 : [-1/0,1/0]
RESULT: v0x62d8bb0_0 : [-1/0,1/0]
RESULT: v0x428cab0_0 : [0,1]
RESULT: v0x61e16c0_0 : [67,1/0]
RESULT: v0xa3ada60_0 : [-1/0,1/0]
RESULT: v0x62d8ed0_0 : [-1/0,1/0]
RESULT: v0x5eedd40_0 : [0,0]
RESULT: v0x62d8fd0_0 : [-1/0,1/0]
RESULT: v0x61c8670_0 : [-1/0,1/0]
RESULT: v0x523bb70_0 : [-1/0,1/0]
RESULT: v0x3f94330_0 : [67,1/0]
RESULT: v0x3f94430_0 : [0,1]
RESULT: v0x3f94530_0 : [-1/0,1/0]
RESULT: v0x3f94630_0 : [-1/0,1/0]
RESULT: v0x3f94730_0 : [-1/0,1/0]
RESULT: v0x3f94830_0 : [-1/0,1/0]
RESULT: v0x3f94930_0 : [0,1]
RESULT: v0x3f94a30_0 : [-1/0,1/0]
RESULT: v0x3f94b30_0 : [-1/0,1/0]
RESULT: v0x3f94c30_0 : [0,0]
RESULT: v0x3f94d30_0 : [-1/0,1/0]
RESULT: v0x3f94e30_0 : [-1/0,1/0]
RESULT: v0x3f94f30_0 : [-1/0,1/0]
RESULT: v0x3f95030_0 : [-1/0,1/0]
RESULT: v0x62d9010_0 : [-1/0,1/0]
RESULT: v0x61c82f0_0 : [-1/0,1/0]
RESULT: v0x6270be0_0 : [0,0]
RESULT: v0x5eede80_0 : [-1/0,10]
RESULT: v0x706c230_0 : [-1/0,1/0]
RESULT: v0x3f95330_0 : [-1/0,1/0]
