RESULT: v0x50a04e0_0 : [0,2]
RESULT: v0x50a00e0_0 : [0,1]
RESULT: v0x509fbe0_0 : [0,2]
RESULT: v0x50a05e0_0 : [0,1]
RESULT: v0x509f020_0 : [1,2]
RESULT: v0x509e320_0 : [0,1/0]
RESULT: v0x509e220_0 : [0,1/0]
RESULT: v0x509fae0_0 : [0,1]
RESULT: v0x509ffe0_0 : [0,1]
RESULT: v0x509f9e0_0 : [-1/0,6]
RESULT: v0x50a02e0_0 : [0,1]
RESULT: v0x50a06e0_0 : [0,1]
RESULT: v0x50a01e0_0 : [0,1]
RESULT: v0x509fee0_0 : [0,1/0]
RESULT: v0x509fce0_0 : [0,1]
RESULT: v0x509fde0_0 : [0,1]
RESULT: v0x50a07e0_0 : [-1/0,1/0]
RESULT: v0x50a03e0_0 : [-1/0,1/0]
RESULT: v0x6e78bb0_0 : [-1/0,1/0]
RESULT: v0x7a82670_0 : [0,0]
RESULT: v0x8fdc290_0 : [0,0]
RESULT: v0x91610b0_0 : [-1/0,1/0]
RESULT: v0x8fd0210_0 : [0,0]
RESULT: v0x6feae60_0 : [-1/0,1/0]
RESULT: v0x6c215c0_0 : [-1/0,1/0]
RESULT: v0x7f1f140_0 : [-1/0,1/0]
RESULT: v0x5e96cf0_0 : [-1/0,1/0]
RESULT: v0x7a7d0b0_0 : [1,1]
