RESULT: v0x535b210_0 : [-1/0,1/0]
RESULT: v0x535b150_0 : [-1/0,1/0]
RESULT: v0x535acd0_0 : [-1/0,1/0]
RESULT: v0x535ad90_0 : [-1/0,1/0]
RESULT: v0x535ae50_0 : [-1/0,1/0]
RESULT: v0x535b390_0 : [-1/0,1/0]
RESULT: v0x535b450_0 : [-1/0,1/0]
RESULT: v0x535ac10_0 : [-1/0,1/0]
RESULT: v0x529df80_0 : [-1/0,1/0]
RESULT: v0x52835f0_0 : [-1/0,1/0]
RESULT: v0x535ab50_0 : [-1/0,1/0]
RESULT: v0x535b7f0_0 : [-1/0,1/0]
RESULT: v0x535b7b0_0 : [-1/0,1/0]
RESULT: v0x535b830_0 : [-1/0,1/0]
RESULT: v0x535b5d0_0 : [-1/0,1/0]
RESULT: v0x535b8d0_0 : [-1/0,1/0]
RESULT: v0x535b990_0 : [-1/0,1/0]
RESULT: v0x535ba50_0 : [-1/0,1/0]
RESULT: v0x535bb30_0 : [-1/0,1/0]
RESULT: v0x535bbd0_0 : [-1/0,1/0]
RESULT: v0x535b510_0 : [-1/0,1/0]
RESULT: v0x535b090_0 : [-1/0,1/0]
RESULT: v0x535afd0_0 : [-1/0,1/0]
RESULT: v0x535b2d0_0 : [-1/0,1/0]
RESULT: v0x535af10_0 : [-1/0,1/0]
