RESULT: v0x3744d70_1 : [3,3]
RESULT: v0x3744ed0_1 : [0,1]
RESULT: v0x3745050_1 : [0,1]
RESULT: v0x3745290_1 : [0,1]
RESULT: v0x36dc680_1 : [0,1]
RESULT: v0x36dc500_1 : [0,1]
RESULT: v0x36dc380_1 : [0,1]
RESULT: v0x36dc140_1 : [0,1]
RESULT: v0x35acf00_1 : [0,1]
RESULT: v0x35acfc0_1 : [0,1]
RESULT: v0x346c9d0_1 : [0,1]
RESULT: v0x35ad200_1 : [0,2]
RESULT: v0x35ad2c0_1 : [0,3]
RESULT: v0x35a0820_1 : [123,777]
RESULT: v0x359a900_1 : [0,666]
RESULT: v0x35a01b0_1 : [0,2]
RESULT: v0x3596720_1 : [0,1]
RESULT: v0x35994a0_1 : [0,2]
RESULT: v0x35711f0_1 : [0,456]
RESULT: v0x3571720_1 : [0,123]
RESULT: v0x359e1f0_1 : [0,456]
RESULT: v0x35a22a0_1 : [0,3]
RESULT: v0x359e160_1 : [0,1]
RESULT: v0x35b1170_1 : [0,1]
