RESULT: v0x567e180_0 : [0,1]
RESULT: v0x567e340_0 : [0,1]
RESULT: v0x5b01950_0 : [0,1]
RESULT: v0x5b01b50_0 : [0,1]
RESULT: v0x5b01d50_0 : [0,1]
RESULT: v0x5b01f50_0 : [0,1]
RESULT: v0x567f140_0 : [0,1]
RESULT: v0x567f320_0 : [0,1]
RESULT: v0x567f520_0 : [0,1]
RESULT: v0x567f720_0 : [0,1]
RESULT: v0x567f920_0 : [1,1]
RESULT: v0x567fb20_0 : [-1/0,1/0]
RESULT: v0x567fd20_0 : [-1/0,1/0]
RESULT: v0x567ff20_0 : [0,2]
RESULT: v0x5680120_0 : [0,2]
RESULT: v0x5680320_0 : [0,2]
RESULT: v0x5680520_0 : [0,2]
RESULT: v0x5680720_0 : [0,2]
RESULT: v0x5680920_0 : [0,2]
RESULT: v0x5680b20_0 : [0,2]
RESULT: v0x5680d20_0 : [0,2]
RESULT: v0x5680f20_0 : [0,2]
RESULT: v0x5681120_0 : [0,2]
RESULT: v0x5681320_0 : [2,2]
