RESULT: v0x47797e0_0 : [0,1]
RESULT: v0x5cb60c0_1 : [0,1]
RESULT: v0x5186df0_1 : [0,1]
RESULT: v0x5cacb10_1 : [0,1]
RESULT: v0x5ea4840_1 : [0,1]
RESULT: v0x560b800_1 : [0,1]
RESULT: v0x4a374b0_1 : [0,1]
RESULT: v0x5cce9d0_1 : [0,1]
RESULT: v0x62ca400_1 : [0,1]
RESULT: v0x62dde60_1 : [0,1]
RESULT: v0x62df380_1 : [0,1]
RESULT: v0x5145850_1 : [0,1]
RESULT: v0x62e6620_1 : [0,1]
RESULT: v0x51366f0_1 : [0,1]
RESULT: v0x62ce0a0_1 : [-1/0,1/0]
RESULT: v0x62bda60_1 : [-1/0,1/0]
RESULT: v0x62cc620_1 : [0,2]
RESULT: v0x62dfd00_1 : [0,2]
RESULT: v0x51338b0_1 : [0,2]
RESULT: v0x62bf6c0_1 : [0,2]
RESULT: v0x623bca0_1 : [0,2]
RESULT: v0x6239c80_1 : [0,2]
RESULT: v0x62c1660_1 : [0,2]
RESULT: v0x62c4160_1 : [0,2]
RESULT: v0x62b80e0_1 : [0,2]
RESULT: v0x5e77bc0_1 : [0,2]
RESULT: v0x6257390_1 : [0,2]
RESULT: v0x5149bb0_1 : [0,2]
RESULT: v0x5138b90_1 : [0,2]
RESULT: v0x62b5e80_1 : [0,2]
