RESULT: v0x3de1fb0_1 : [3,3]
RESULT: v0x3cba500_1 : [0,1]
RESULT: v0x3de2450_1 : [0,1]
RESULT: v0x3cba740_1 : [0,1]
RESULT: v0x3d1e9d0_1 : [0,1]
RESULT: v0x3d1eb30_1 : [0,1]
RESULT: v0x3d1e850_1 : [0,1]
RESULT: v0x3d1e790_1 : [0,1]
RESULT: v0x3d1e550_1 : [0,1]
RESULT: v0x3d1e490_1 : [0,1]
RESULT: v0x3d1e250_1 : [0,1]
RESULT: v0x3d1e190_1 : [0,2]
RESULT: v0x3d1df50_1 : [0,3]
RESULT: v0x3d1de90_1 : [0,1]
RESULT: v0x3d1dc50_1 : [123,777]
RESULT: v0x3d1db90_1 : [0,666]
RESULT: v0x3d1d950_1 : [0,2]
RESULT: v0x3d24b60_1 : [0,1]
RESULT: v0x3d1d620_1 : [0,2]
RESULT: v0x3d1d560_1 : [0,456]
RESULT: v0x3d1d320_1 : [0,123]
RESULT: v0x3d1d260_1 : [0,456]
RESULT: v0x3d1d860_1 : [0,3]
RESULT: v0x3de2810_1 : [0,1]
RESULT: v0x3d24c60_1 : [0,1]
