RESULT: v0x40864e0_0 : [-1/0,1/0]
RESULT: v0xe47e840_0 : [-1/0,1/0]
RESULT: v0x47302a0_0 : [-1/0,1/0]
RESULT: v0x4203880_0 : [-1/0,1/0]
RESULT: v0x78cd3c0_0 : [27,1/0]
RESULT: v0x55148d0_0 : [-1/0,1/0]
RESULT: v0x83c2210_0 : [-1/0,1/0]
RESULT: v0x108119d0_0 : [0,0]
RESULT: v0x63b1e00_0 : [-1/0,1/0]
RESULT: v0x8504830_0 : [-1/0,1/0]
RESULT: v0x7bebc20_0 : [-1/0,1/0]
RESULT: v0x3f94330_0 : [67,1/0]
RESULT: v0x3f94430_0 : [0,1]
RESULT: v0x3f94530_0 : [-1/0,1/0]
RESULT: v0x3f94630_0 : [-1/0,1/0]
RESULT: v0x3f94730_0 : [-1/0,1/0]
RESULT: v0x3f94830_0 : [-1/0,1/0]
RESULT: v0x3f94930_0 : [0,1]
RESULT: v0x3f94a30_0 : [-1/0,1/0]
RESULT: v0x3f94b30_0 : [-1/0,1/0]
RESULT: v0x3f94c30_0 : [-1/0,1/0]
RESULT: v0x3f94d30_0 : [-1/0,1/0]
RESULT: v0x3f94e30_0 : [-1/0,1/0]
RESULT: v0x3f94f30_0 : [-1/0,1/0]
RESULT: v0x3f95030_0 : [-1/0,1/0]
RESULT: v0x5514d30_0 : [-1/0,1/0]
RESULT: v0x5514bd0_0 : [-1/0,1/0]
RESULT: v0x6e943b0_0 : [0,0]
RESULT: v0xae84fd0_0 : [-1/0,10]
RESULT: v0x44978c0_0 : [-1/0,1/0]
RESULT: v0x3f95330_0 : [-1/0,1/0]
