RESULT: v0x3cdf2b0_0 : [2,1/0]
RESULT: v0x3f1d2b0_0 : [0,1]
RESULT: v0x3f29c10_0 : [0,1]
RESULT: v0x3ce1fb0_0 : [123,777]
RESULT: v0x3e19a80_0 : [0,1]
RESULT: v0x3f3bc90_0 : [0,1]
RESULT: v0x3e9f5a0_0 : [0,1]
RESULT: v0x3f22510_0 : [0,2]
RESULT: v0x3f5d310_0 : [0,3]
RESULT: v0x3e261a0_0 : [0,1]
RESULT: v0x3f2db90_0 : [0,1]
RESULT: v0x3f64b70_0 : [0,1]
RESULT: v0x3ee6530_0 : [0,666]
RESULT: v0x3ea42d0_0 : [0,1]
RESULT: v0x3d02cb0_0 : [0,1]
RESULT: v0x3d323d0_0 : [0,2]
RESULT: v0x3f0b220_0 : [0,456]
RESULT: v0x3e1f5d0_0 : [0,123]
RESULT: v0x3d4fbb0_0 : [0,456]
RESULT: v0x3d7e060_0 : [0,2]
RESULT: v0x3ef2350_0 : [0,1]
RESULT: v0x3e1af00_0 : [0,1]
RESULT: v0x3e25f00_0 : [0,1]
RESULT: v0x3e25300_0 : [0,1]
