RESULT: v0x3a33050_1 : [-1/0,1/0]
RESULT: v0x3a15540_1 : [-1/0,1/0]
RESULT: v0x3ab6db0_1 : [-1/0,1/0]
RESULT: v0x3a376f0_1 : [-1/0,1/0]
RESULT: v0x3ac8f00_1 : [-1/0,1/0]
RESULT: v0x3ac2650_1 : [-1/0,1/0]
RESULT: v0x3d98890_1 : [-1/0,1/0]
RESULT: v0x3a02310_1 : [-1/0,1/0]
RESULT: v0x3a0af30_1 : [-1/0,1/0]
RESULT: v0x3a29e30_1 : [-1/0,1/0]
RESULT: v0x3a33290_1 : [-1/0,1/0]
RESULT: v0x3a27100_1 : [-1/0,1/0]
RESULT: v0x3a08e90_1 : [-1/0,1/0]
RESULT: v0x3a1b860_1 : [-1/0,1/0]
RESULT: v0x3a2e310_1 : [-1/0,1/0]
RESULT: v0x3a247e0_1 : [-1/0,1/0]
RESULT: v0x3a2d950_1 : [-1/0,1/0]
RESULT: v0x3a10230_1 : [-1/0,1/0]
RESULT: v0x3ab9900_1 : [-1/0,1/0]
RESULT: v0x3a075f0_1 : [-1/0,1/0]
RESULT: v0x39f4a40_1 : [-1/0,1/0]
RESULT: v0x3d986b0_1 : [-1/0,1/0]
RESULT: v0x3a13300_1 : [-1/0,1/0]
RESULT: v0x3a325d0_1 : [-1/0,1/0]
RESULT: v0x3a11dd0_1 : [-1/0,1/0]
RESULT: v0x3a2f230_1 : [-1/0,1/0]
RESULT: v0x3a12490_1 : [-1/0,1/0]
