RESULT: v0x5336e20_0 : [2,1/0]
RESULT: v0x5604a50_0 : [0,1]
RESULT: v0x55e74f0_0 : [123,123]
RESULT: v0x5494d50_0 : [0,0]
RESULT: v0x5364c00_0 : [0,1]
RESULT: v0x5348f40_0 : [0,2]
RESULT: v0x5570be0_0 : [0,3]
RESULT: v0x5620630_0 : [0,1]
RESULT: v0x53b3ba0_0 : [0,1]
RESULT: v0x5358aa0_0 : [0,666]
RESULT: v0x530a4a0_0 : [0,1]
RESULT: v0x5517380_0 : [0,1]
RESULT: v0x55bbc10_0 : [0,2]
RESULT: v0x5573640_0 : [0,456]
RESULT: v0x5484d80_0 : [0,1]
RESULT: v0x55f49b0_0 : [0,123]
RESULT: v0x5355850_0 : [0,1]
RESULT: v0x53448e0_0 : [0,1]
RESULT: v0x5861270_0 : [0,3]
RESULT: v0x54f9d70_0 : [0,1]
RESULT: v0x55f8650_0 : [0,1]
RESULT: v0x53d2900_0 : [0,1]
RESULT: v0x5496250_0 : [0,1]
RESULT: v0x55ba6d0_0 : [0,2]
RESULT: v0x55e4430_0 : [0,456]
