RESULT: v0x44bc8f0_0 : [1,2]
RESULT: v0x44bbc90_0 : [0,54]
RESULT: v0x44bb9f0_0 : [0,52]
RESULT: v0x44bb7f0_0 : [0,50]
RESULT: v0x44bbb90_0 : [0,53]
RESULT: v0x44bb8f0_0 : [0,51]
RESULT: v0x44bcbf0_0 : [-1/0,1/0]
RESULT: v0x93c3530_0 : [-1/0,1/0]
RESULT: v0x93c3630_0 : [-1/0,1/0]
RESULT: v0x93c3730_0 : [-1/0,1/0]
RESULT: v0x93c3830_0 : [0,1]
RESULT: v0x93c3930_0 : [0,1/0]
RESULT: v0xa172860_0 : [0,1/0]
RESULT: v0xa172960_0 : [-1/0,1/0]
RESULT: v0xa172a60_0 : [-1/0,1/0]
RESULT: v0xa172b60_0 : [-1/0,1/0]
RESULT: v0x93c41d0_0 : [-1/0,1/0]
RESULT: v0x93c42d0_0 : [-1/0,1/0]
RESULT: v0x93c43d0_0 : [-1/0,1/0]
RESULT: v0x93c44d0_0 : [-1/0,1/0]
RESULT: v0x93c45d0_0 : [-1/0,1/0]
RESULT: v0x93c46d0_0 : [-1/0,1/0]
