RESULT: v0x459e4f0_0 : [1,1/0]
RESULT: v0x48bb400_0 : [0,1]
RESULT: v0x46c5c00_0 : [0,1]
RESULT: v0x47e3640_0 : [123,777]
RESULT: v0x47e59c0_0 : [0,1]
RESULT: v0x4889700_0 : [0,1]
RESULT: v0x46d5da0_0 : [0,2]
RESULT: v0x49030a0_0 : [0,1]
RESULT: v0x48eba00_0 : [0,456]
RESULT: v0x48c8960_0 : [0,1]
RESULT: v0x4864a30_0 : [0,666]
RESULT: v0x47ed740_0 : [0,1]
RESULT: v0x4903bc0_0 : [0,2]
RESULT: v0x48b03e0_0 : [0,456]
RESULT: v0x48b9380_0 : [0,1]
RESULT: v0x4900e60_0 : [0,1]
RESULT: v0x46dc910_0 : [0,1]
RESULT: v0x47e94b0_0 : [0,123]
RESULT: v0x4895ce0_0 : [0,1]
RESULT: v0x48d16c0_0 : [0,3]
RESULT: v0x48b0a20_0 : [1,1]
RESULT: v0x48ecf00_0 : [1,1]
RESULT: v0x4583e20_0 : [-1/0,1/0]
RESULT: v0x4583b20_0 : [0,456]
RESULT: v0x4584c20_0 : [-1/0,1/0]
RESULT: v0x4584d20_0 : [0,456]
RESULT: v0x4584e20_0 : [0,1]
RESULT: v0x4583d20_0 : [0,1]
