RESULT: v0x38ff500_1 : [-1/0,1/0]
RESULT: v0x48dcf30_1 : [-1/0,1/0]
RESULT: v0x418dd20_1 : [-1/0,1/0]
RESULT: v0x418d900_1 : [-1/0,1/0]
RESULT: v0x418ccc0_1 : [-1/0,1/0]
RESULT: v0x418cc80_1 : [-1/0,1/0]
RESULT: v0x418bfa0_1 : [-1/0,1/0]
RESULT: v0x418bcc0_1 : [-1/0,1/0]
RESULT: v0x418bea0_1 : [-1/0,1/0]
RESULT: v0x418b060_1 : [-1/0,1/0]
RESULT: v0x418b0e0_1 : [-1/0,1/0]
RESULT: v0x4b16990_1 : [-1/0,1/0]
RESULT: v0x4b166d0_1 : [-1/0,1/0]
RESULT: v0x4b168b0_1 : [-1/0,1/0]
RESULT: v0x4b162f0_1 : [-1/0,1/0]
RESULT: v0x4b164b0_1 : [-1/0,1/0]
RESULT: v0x4b16010_1 : [-1/0,1/0]
RESULT: v0x4b16090_1 : [-1/0,1/0]
RESULT: v0x4b153c0_1 : [-1/0,1/0]
RESULT: v0x4b15380_1 : [-1/0,1/0]
RESULT: v0x4b146a0_1 : [-1/0,1/0]
RESULT: v0x4b143c0_1 : [-1/0,1/0]
RESULT: v0x4b145a0_1 : [-1/0,1/0]
RESULT: v0x4b13650_1 : [-1/0,1/0]
RESULT: v0x4b136d0_1 : [-1/0,1/0]
RESULT: v0x4b0d6b0_1 : [-1/0,1/0]
RESULT: v0x4b0d3f0_1 : [-1/0,1/0]
