RESULT: v0x3a388c0_0 : [0,1/0]
RESULT: v0x65481c0_1 : [0,1]
RESULT: v0x6c1f6d0_1 : [0,1]
RESULT: v0x5762b10_1 : [0,1]
RESULT: v0x5701230_1 : [0,1]
RESULT: v0x4d74ea0_1 : [0,1]
RESULT: v0x6c15680_1 : [0,1]
RESULT: v0x67e3a20_1 : [0,1]
RESULT: v0x67e44e0_1 : [0,1]
RESULT: v0x4d7b9a0_1 : [0,1]
RESULT: v0x574aa50_1 : [0,1]
RESULT: v0x6bd1ed0_1 : [-1/0,2]
RESULT: v0x6c241d0_1 : [-1/0,2]
RESULT: v0x67e6500_1 : [-1/0,2]
RESULT: v0x6957d20_1 : [-1/0,2]
RESULT: v0x4d74420_1 : [-1/0,2]
RESULT: v0x6538c20_1 : [-1/0,2]
RESULT: v0x6843320_1 : [-1/0,2]
RESULT: v0x60be290_1 : [-1/0,2]
RESULT: v0x56f7ce0_1 : [0,2]
RESULT: v0x6c87050_1 : [0,2]
RESULT: v0x4d69940_1 : [0,2]
