RESULT: v0x590b8d0_0 : [2,2]
RESULT: v0x4d2e7b0_0 : [0,0]
RESULT: v0x4c81a00_0 : [1,1]
RESULT: v0x581cd90_0 : [0,0]
RESULT: v0x55ce390_0 : [0,1]
RESULT: v0x52828b0_0 : [0,1]
RESULT: v0x53153e0_0 : [0,1]
RESULT: v0x55debd0_0 : [0,1]
RESULT: v0x4335440_0 : [-1/0,1/0]
RESULT: v0x549e0e0_0 : [40,80]
RESULT: v0x55f19b0_0 : [0,1]
RESULT: v0x58198b0_0 : [1,1]
RESULT: v0x5908170_0 : [0,1]
RESULT: v0x590b7d0_0 : [1,1]
RESULT: v0x5934380_0 : [1,1]
RESULT: v0x3971700_0 : [0,1]
RESULT: v0x3971800_0 : [0,1]
RESULT: v0x3971900_0 : [0,1]
RESULT: v0x3971a00_0 : [0,1]
RESULT: v0x3971b00_0 : [80,80]
RESULT: v0x3971c00_0 : [0,0]
RESULT: v0x3971d00_0 : [0,1]
RESULT: v0x3971e00_0 : [-1/0,1/0]
RESULT: v0x3971f00_0 : [0,1]
RESULT: v0x3972000_0 : [1,1]
RESULT: v0x3972100_0 : [1,1]
RESULT: v0x3972200_0 : [0,1]
RESULT: v0x3972300_0 : [0,1]
RESULT: v0x3972400_0 : [1,1]
RESULT: v0x616f460_0 : [0,0]
RESULT: v0x3972700_0 : [-1/0,1/0]
