RESULT: v0x4469b60_1 : [-1/0,11]
RESULT: v0x4c60720_1 : [-1/0,1/0]
RESULT: v0x469a0d0_1 : [-1/0,1/0]
RESULT: v0x43c9970_1 : [-1/0,1/0]
RESULT: v0x5220a20_1 : [-1/0,1/0]
RESULT: v0x485a650_1 : [-1/0,1/0]
RESULT: v0x49f5580_1 : [-1/0,1/0]
RESULT: v0x48afc80_1 : [-1/0,1/0]
RESULT: v0x44745c0_1 : [-1/0,1/0]
RESULT: v0x464f5a0_1 : [-1/0,1/0]
RESULT: v0x45cf430_1 : [-1/0,1/0]
RESULT: v0x4adacc0_1 : [-1/0,1/0]
RESULT: v0x48b4fc0_1 : [-1/0,1/0]
RESULT: v0x49f5540_1 : [-1/0,1/0]
RESULT: v0x4a40030_1 : [-1/0,1/0]
RESULT: v0x43b9840_1 : [-1/0,1/0]
