RESULT: v0x11abb1c0_0 : [-1/0,1/0]
RESULT: v0xf1e4960_0 : [-1/0,1/0]
RESULT: v0x4100930_0 : [-1/0,1/0]
RESULT: v0xf12a9e0_0 : [-1/0,1/0]
RESULT: v0xf130d70_0 : [67,1/0]
RESULT: v0x51d8340_0 : [-1/0,1/0]
RESULT: v0x5310bf0_0 : [-1/0,1/0]
RESULT: v0x7beb100_0 : [0,0]
RESULT: v0x11a4b880_0 : [-1/0,1/0]
RESULT: v0x4681190_0 : [-1/0,1/0]
RESULT: v0x11abb140_0 : [-1/0,1/0]
RESULT: v0x3fa3330_0 : [67,1/0]
RESULT: v0x3fa3430_0 : [-1/0,1/0]
RESULT: v0x3fa3530_0 : [-1/0,1/0]
RESULT: v0x3fa3630_0 : [-1/0,1/0]
RESULT: v0x3fa3730_0 : [-1/0,1/0]
RESULT: v0x3fa3830_0 : [0,1]
RESULT: v0x3fa3930_0 : [-1/0,1/0]
RESULT: v0x3fa3a30_0 : [-1/0,1/0]
RESULT: v0x3fa3b30_0 : [0,0]
RESULT: v0x3fa3c30_0 : [0,0]
RESULT: v0x3fa3d30_0 : [-1/0,1/0]
RESULT: v0x3fa3e30_0 : [-1/0,1/0]
RESULT: v0x3fa3f30_0 : [-1/0,1/0]
RESULT: v0x8222550_0 : [-1/0,1/0]
RESULT: v0x11926ff0_0 : [0,0]
RESULT: v0x963bbf0_0 : [-1/0,10]
RESULT: v0xac9ab20_0 : [-1/0,1/0]
RESULT: v0x11a4b900_0 : [-1/0,1/0]
RESULT: v0x3fa4230_0 : [-1/0,1/0]
