RESULT: v0x4bcb120_0 : [-1/0,1/0]
RESULT: v0x4bca1e0_0 : [-1/0,1/0]
RESULT: v0x4bcaf00_0 : [0,1]
RESULT: v0x4852620_0 : [-1/0,1/0]
RESULT: v0x47c3920_0 : [27,1/0]
RESULT: v0x4bc8ca0_0 : [-1/0,1/0]
RESULT: v0x4bca9c0_0 : [-1/0,1/0]
RESULT: v0x4bc9480_0 : [-1/0,1/0]
RESULT: v0x4bc45c0_0 : [0,0]
RESULT: v0x4851960_0 : [-1/0,1/0]
RESULT: v0x4bca720_0 : [-1/0,1/0]
RESULT: v0x478d2d0_0 : [67,1/0]
RESULT: v0x478d3d0_0 : [0,1]
RESULT: v0x478d4d0_0 : [-1/0,1/0]
RESULT: v0x478d5d0_0 : [-1/0,1/0]
RESULT: v0x478d6d0_0 : [-1/0,1/0]
RESULT: v0x478d7d0_0 : [-1/0,1/0]
RESULT: v0x478d8d0_0 : [0,1]
RESULT: v0x478d9d0_0 : [-1/0,1/0]
RESULT: v0x478dad0_0 : [-1/0,1/0]
RESULT: v0x478dbd0_0 : [-1/0,1/0]
RESULT: v0x478dcd0_0 : [0,0]
RESULT: v0x478ddd0_0 : [-1/0,1/0]
RESULT: v0x478ded0_0 : [-1/0,1/0]
RESULT: v0x478dfd0_0 : [-1/0,1/0]
RESULT: v0x4bc9220_0 : [-1/0,1/0]
RESULT: v0x4bc7800_0 : [-1/0,1/0]
RESULT: v0x48ec460_0 : [0,0]
RESULT: v0x4bc4f20_0 : [-1/0,10]
RESULT: v0x48518e0_0 : [-1/0,1/0]
RESULT: v0x478e2d0_0 : [-1/0,1/0]
