RESULT: v0x4bb34e0_1 : [3,3]
RESULT: v0x4bb3640_1 : [0,1]
RESULT: v0x4bb37c0_1 : [0,1]
RESULT: v0x4bb3a00_1 : [0,1]
RESULT: v0x4b7f820_1 : [0,1]
RESULT: v0x4b7f6a0_1 : [0,1]
RESULT: v0x4b7f5e0_1 : [0,1]
RESULT: v0x4a77640_1 : [0,1]
RESULT: v0x4a69cb0_1 : [0,1]
RESULT: v0x4a69d70_1 : [0,1]
RESULT: v0x4a69e30_1 : [0,1]
RESULT: v0x4a69ef0_1 : [0,1]
RESULT: v0x4a69fb0_1 : [0,1]
RESULT: v0x4a6a070_1 : [123,777]
RESULT: v0x4a53aa0_1 : [0,666]
RESULT: v0x4a56180_1 : [0,2]
RESULT: v0x4a2a550_1 : [0,1]
RESULT: v0x4a56f30_1 : [0,2]
RESULT: v0x4a5abe0_1 : [0,456]
RESULT: v0x4a5ef90_1 : [0,123]
RESULT: v0x4a5ab50_1 : [0,456]
RESULT: v0x4a6e320_1 : [0,3]
