RESULT: v0x44eaec0_1 : [3,3]
RESULT: v0x44eb0e0_1 : [0,1]
RESULT: v0x44e9600_1 : [0,1]
RESULT: v0x44e9760_1 : [0,1]
RESULT: v0x448cb10_1 : [0,1]
RESULT: v0x448c870_1 : [0,1]
RESULT: v0x448c6f0_1 : [0,1]
RESULT: v0x448c4b0_1 : [0,1]
RESULT: v0x4230340_1 : [0,1]
RESULT: v0x4230700_1 : [0,1]
RESULT: v0x4230ac0_1 : [0,1]
RESULT: v0x4230e80_1 : [0,1]
RESULT: v0x4231240_1 : [0,1]
RESULT: v0x4231600_1 : [0,2]
RESULT: v0x42319c0_1 : [0,3]
RESULT: v0x4231d80_1 : [123,777]
RESULT: v0x422c940_1 : [0,666]
RESULT: v0x424fe00_1 : [0,2]
RESULT: v0x4250000_1 : [0,1]
RESULT: v0x4257200_1 : [0,2]
RESULT: v0x4253680_1 : [0,456]
RESULT: v0x4364bf0_1 : [0,123]
RESULT: v0x4372aa0_1 : [0,456]
