RESULT: v0x42bb4d0_0 : [-1/0,1/0]
RESULT: v0x42ed730_0 : [0,1]
RESULT: v0x42fbe70_0 : [-1/0,1/0]
RESULT: v0x42fb830_0 : [-1/0,1/0]
RESULT: v0x42f42b0_0 : [-1/0,1/0]
RESULT: v0x42f00b0_0 : [-1/0,1/0]
RESULT: v0x42c8430_0 : [0,0]
RESULT: v0x40faaa0_0 : [67,1/0]
RESULT: v0x42fbaf0_0 : [67,1/0]
RESULT: v0x40faba0_0 : [0,1]
RESULT: v0x40faca0_0 : [0,1]
RESULT: v0x40fada0_0 : [-1/0,1/0]
RESULT: v0x40faea0_0 : [-1/0,1/0]
RESULT: v0x40fafa0_0 : [0,0]
RESULT: v0x40fb0a0_0 : [-1/0,1/0]
RESULT: v0x40fb1a0_0 : [-1/0,1/0]
RESULT: v0x42efdf0_0 : [-1/0,1/0]
RESULT: v0x40fb2a0_0 : [-1/0,1/0]
RESULT: v0x43009b0_0 : [-1/0,1/0]
RESULT: v0x40fb3a0_0 : [-1/0,1/0]
RESULT: v0x42f88d0_0 : [-1/0,1/0]
RESULT: v0x40fb4a0_0 : [-1/0,1/0]
RESULT: v0x40fb5a0_0 : [-1/0,1/0]
RESULT: v0x40fb6a0_0 : [-1/0,1/0]
RESULT: v0x40fb7a0_0 : [-1/0,1/0]
RESULT: v0x42ed9f0_0 : [-1/0,1/0]
RESULT: v0x42ff1d0_0 : [-1/0,1/0]
RESULT: v0x42e1f90_0 : [0,0]
RESULT: v0x42b7c70_0 : [-1/0,10]
RESULT: v0x4300d30_0 : [-1/0,1/0]
RESULT: v0x40fbaa0_0 : [-1/0,1/0]
