RESULT: v0x51182e0_0 : [0,1]
RESULT: v0x5a33da0_1 : [0,1]
RESULT: v0x5a32700_1 : [0,1]
RESULT: v0x5a0bc60_1 : [0,1]
RESULT: v0x5a0a520_1 : [0,1]
RESULT: v0x567e140_1 : [0,1]
RESULT: v0x55dd9c0_1 : [0,1]
RESULT: v0x5a034a0_1 : [0,1]
RESULT: v0x55cac50_1 : [0,1]
RESULT: v0x568c270_1 : [0,1]
RESULT: v0x539af10_1 : [0,1]
RESULT: v0x5a16360_1 : [-1/0,1/0]
RESULT: v0x5a0d6c0_1 : [-1/0,1/0]
RESULT: v0x5a049c0_1 : [0,2]
RESULT: v0x5398f40_1 : [0,2]
RESULT: v0x53a9b20_1 : [0,2]
RESULT: v0x53aaf20_1 : [0,2]
RESULT: v0x55d9fc0_1 : [0,2]
RESULT: v0x5a0cc60_1 : [0,2]
RESULT: v0x55db7d0_1 : [0,2]
RESULT: v0x5388e10_1 : [0,2]
RESULT: v0x55c42c0_1 : [0,2]
RESULT: v0x55cac10_1 : [0,2]
RESULT: v0x53c41d0_1 : [0,2]
