RESULT: v0x4e35fc0_0 : [0,1]
RESULT: v0x3c82380_0 : [0,1]
RESULT: v0x35c6810_0 : [0,1]
RESULT: v0x4e3d500_0 : [0,1]
RESULT: v0x4db1a80_0 : [0,1]
RESULT: v0x46052f0_0 : [0,1]
RESULT: v0x37aa280_0 : [0,1]
RESULT: v0x3c383a0_0 : [0,1]
RESULT: v0x4e26800_0 : [0,1]
RESULT: v0x4e25b80_0 : [0,1]
RESULT: v0x4a041f0_0 : [0,1]
RESULT: v0x49b9e80_0 : [0,1]
RESULT: v0x4e30bc0_0 : [0,1]
RESULT: v0x3c75950_0 : [1,1]
RESULT: v0x35a59f0_0 : [-1/0,1/0]
RESULT: v0x49bd620_0 : [-1/0,1/0]
RESULT: v0x4e314e0_0 : [0,2]
RESULT: v0x49fcdb0_0 : [0,2]
RESULT: v0x3caf1c0_0 : [0,2]
RESULT: v0x383bdb0_0 : [0,2]
RESULT: v0x35bd4e0_0 : [0,2]
RESULT: v0x3ca9a00_0 : [0,2]
RESULT: v0x3c57480_0 : [0,2]
RESULT: v0x3c858e0_0 : [0,2]
RESULT: v0x334b640_0 : [0,2]
RESULT: v0x3cbb860_0 : [0,2]
RESULT: v0x49b9080_0 : [0,2]
RESULT: v0x471a590_0 : [0,2]
RESULT: v0x4e215e0_0 : [0,2]
RESULT: v0x4d9a730_0 : [2,2]
