RESULT: v0x50a04e0_0 : [2,2]
RESULT: v0x50a00e0_0 : [1,1]
RESULT: v0x509fbe0_0 : [0,2]
RESULT: v0x50a05e0_0 : [0,1]
RESULT: v0x509f020_0 : [1,2]
RESULT: v0x509e320_0 : [0,1/0]
RESULT: v0x509e220_0 : [0,1/0]
RESULT: v0x509fae0_0 : [0,1]
RESULT: v0x509ffe0_0 : [0,1]
RESULT: v0x509f9e0_0 : [-1/0,6]
RESULT: v0x50a02e0_0 : [0,1]
RESULT: v0x50a06e0_0 : [0,1]
RESULT: v0x50a01e0_0 : [0,1]
RESULT: v0x509fee0_0 : [0,1/0]
RESULT: v0x509fce0_0 : [0,1]
RESULT: v0x509fde0_0 : [0,1]
RESULT: v0x50a07e0_0 : [-1/0,1/0]
RESULT: v0x50a03e0_0 : [-1/0,1/0]
RESULT: v0x6fead60_0 : [-1/0,1/0]
RESULT: v0x6feae60_0 : [0,0]
RESULT: v0x6e234a0_0 : [0,0]
RESULT: v0x6e235a0_0 : [-1/0,1/0]
RESULT: v0x6e236a0_0 : [0,0]
RESULT: v0x6f89b30_0 : [-1/0,1/0]
RESULT: v0x6f89c30_0 : [-1/0,1/0]
RESULT: v0x6f89d30_0 : [-1/0,1/0]
RESULT: v0x6c24960_0 : [-1/0,1/0]
RESULT: v0x6c24a60_0 : [1,1]
