RESULT: v0x4cb0060_1 : [3,3]
RESULT: v0x4cb01c0_1 : [0,1]
RESULT: v0x4cb0340_1 : [0,1]
RESULT: v0x4cb0580_1 : [0,1]
RESULT: v0x4c479d0_1 : [0,1]
RESULT: v0x4c47850_1 : [0,1]
RESULT: v0x4c476d0_1 : [0,1]
RESULT: v0x4c47490_1 : [0,1]
RESULT: v0x4b18120_1 : [0,1]
RESULT: v0x4b181e0_1 : [0,1]
RESULT: v0x49d9340_1 : [0,1]
RESULT: v0x4b18420_1 : [0,2]
RESULT: v0x4b184e0_1 : [0,3]
RESULT: v0x4b0b3d0_1 : [123,777]
RESULT: v0x4b0b490_1 : [0,666]
RESULT: v0x4b0b550_1 : [0,2]
RESULT: v0x4b01a40_1 : [0,1]
RESULT: v0x4b047e0_1 : [0,2]
RESULT: v0x4ad9000_1 : [0,456]
RESULT: v0x4ad9510_1 : [0,123]
RESULT: v0x4b09530_1 : [0,456]
RESULT: v0x4b0d4c0_1 : [0,3]
RESULT: v0x4b094a0_1 : [0,1]
RESULT: v0x4b1c550_1 : [0,1]
