RESULT: v0x726fad0_0 : [-1/0,1/0]
RESULT: v0x67f71a0_0 : [-1/0,1/0]
RESULT: v0xbdf6680_0 : [0,1]
RESULT: v0x67c4240_0 : [-1/0,1/0]
RESULT: v0x6f62020_0 : [27,1/0]
RESULT: v0x67f89e0_0 : [-1/0,1/0]
RESULT: v0x67f3df0_0 : [-1/0,1/0]
RESULT: v0x67f4050_0 : [-1/0,1/0]
RESULT: v0x67c42e0_0 : [0,0]
RESULT: v0x67dbba0_0 : [-1/0,1/0]
RESULT: v0x726f830_0 : [-1/0,1/0]
RESULT: v0x478d2d0_0 : [67,1/0]
RESULT: v0x478d3d0_0 : [0,1]
RESULT: v0x478d4d0_0 : [-1/0,1/0]
RESULT: v0x478d5d0_0 : [-1/0,1/0]
RESULT: v0x478d6d0_0 : [-1/0,1/0]
RESULT: v0x478d7d0_0 : [-1/0,1/0]
RESULT: v0x478d8d0_0 : [0,1]
RESULT: v0x478d9d0_0 : [-1/0,1/0]
RESULT: v0x478dad0_0 : [-1/0,1/0]
RESULT: v0x478dbd0_0 : [-1/0,1/0]
RESULT: v0x478dcd0_0 : [0,0]
RESULT: v0x478ddd0_0 : [-1/0,1/0]
RESULT: v0x478ded0_0 : [-1/0,1/0]
RESULT: v0x478dfd0_0 : [-1/0,1/0]
RESULT: v0xbdf66c0_0 : [-1/0,1/0]
RESULT: v0xda10730_0 : [-1/0,1/0]
RESULT: v0xbf3ef50_0 : [0,0]
RESULT: v0xbd4f140_0 : [-1/0,10]
RESULT: v0x734aed0_0 : [-1/0,1/0]
RESULT: v0x478e2d0_0 : [-1/0,1/0]
