RESULT: v0x4af6e90_0 : [0,1]
RESULT: v0x55c95e0_0 : [0,1]
RESULT: v0x55c97e0_0 : [0,1]
RESULT: v0x55c99e0_0 : [0,1]
RESULT: v0x55c9be0_0 : [0,1]
RESULT: v0x55c9de0_0 : [0,1]
RESULT: v0x55c9fe0_0 : [0,1]
RESULT: v0x55ca1e0_0 : [0,1]
RESULT: v0x55ca3e0_0 : [0,1]
RESULT: v0x4d21370_0 : [0,1]
RESULT: v0x4d21570_0 : [0,1]
RESULT: v0x4d21770_0 : [0,1]
RESULT: v0x4d21970_0 : [0,1]
RESULT: v0x4d21b70_0 : [1,1]
RESULT: v0x4d21d70_0 : [-1/0,1/0]
RESULT: v0x4d21f70_0 : [-1/0,1/0]
RESULT: v0x4d22170_0 : [0,2]
RESULT: v0x544f7a0_0 : [0,2]
RESULT: v0x544f9a0_0 : [0,2]
RESULT: v0x544fba0_0 : [0,2]
RESULT: v0x544fda0_0 : [0,2]
RESULT: v0x544ffa0_0 : [0,2]
RESULT: v0x54501a0_0 : [0,2]
RESULT: v0x54503a0_0 : [0,2]
RESULT: v0x54505a0_0 : [0,2]
RESULT: v0x4ac87f0_0 : [0,2]
RESULT: v0x4ac89f0_0 : [0,2]
RESULT: v0x4ac8bf0_0 : [0,2]
RESULT: v0x4ac8df0_0 : [0,2]
RESULT: v0x4ac8ff0_0 : [2,2]
