RESULT: v0x4d0c290_0 : [0,1]
RESULT: v0x55ed9f0_1 : [0,1]
RESULT: v0x55ed0f0_1 : [1,1]
RESULT: v0x6af2130_1 : [0,1]
RESULT: v0x6af2690_1 : [0,1]
RESULT: v0x568b9a0_1 : [0,1]
RESULT: v0x5edbc70_1 : [0,1]
RESULT: v0x58b57e0_1 : [0,1]
RESULT: v0x6c4a3c0_1 : [0,1]
RESULT: v0x4fefa10_1 : [0,1]
RESULT: v0x6c458a0_1 : [0,1]
RESULT: v0x6ed12c0_1 : [0,1]
RESULT: v0x5595330_1 : [0,1]
RESULT: v0x588a430_1 : [0,1]
RESULT: v0x58c68a0_1 : [0,2]
RESULT: v0x6c6e5d0_1 : [2,2]
RESULT: v0x6c70640_1 : [0,2]
RESULT: v0x58b4c60_1 : [0,2]
RESULT: v0x6c44240_1 : [0,2]
RESULT: v0x6069b50_1 : [0,2]
RESULT: v0x63d55d0_1 : [0,2]
RESULT: v0x4fac3a0_1 : [0,2]
RESULT: v0x527f830_1 : [0,2]
RESULT: v0x63c7950_1 : [0,2]
RESULT: v0x58c6ce0_1 : [0,2]
RESULT: v0x68ebbf0_1 : [0,2]
RESULT: v0x6d307a0_1 : [0,2]
RESULT: v0x58bd660_1 : [0,2]
