RESULT: v0x550ff20_0 : [-1/0,1/0]
RESULT: v0x57e9a40_0 : [-1/0,1/0]
RESULT: v0x57e9b80_0 : [-1/0,1/0]
RESULT: v0x57ea300_0 : [-1/0,1/0]
RESULT: v0x57ea1c0_0 : [-1/0,1/0]
RESULT: v0x57ea080_0 : [-1/0,1/0]
RESULT: v0x57e97c0_0 : [-1/0,1/0]
RESULT: v0x57e9680_0 : [-1/0,1/0]
RESULT: v0x57ea440_0 : [-1/0,1/0]
RESULT: v0x57e4b80_0 : [-1/0,1/0]
RESULT: v0x57e9400_0 : [-1/0,1/0]
RESULT: v0x57e92c0_0 : [-1/0,1/0]
RESULT: v0x57e9180_0 : [-1/0,1/0]
RESULT: v0x57e9040_0 : [-1/0,1/0]
RESULT: v0x57e8f00_0 : [-1/0,1/0]
RESULT: v0x57e8dc0_0 : [-1/0,1/0]
RESULT: v0x57e8c80_0 : [-1/0,1/0]
RESULT: v0x579d050_0 : [-1/0,1/0]
RESULT: v0x57de3c0_0 : [-1/0,1/0]
RESULT: v0x57c0500_0 : [-1/0,1/0]
RESULT: v0x5801dc0_0 : [-1/0,1/0]
RESULT: v0x57e9cc0_0 : [-1/0,1/0]
RESULT: v0x57e9540_0 : [-1/0,1/0]
RESULT: v0x57e9900_0 : [-1/0,1/0]
RESULT: v0x57e9e00_0 : [-1/0,1/0]
RESULT: v0x57e9f40_0 : [-1/0,1/0]
