RESULT: v0x43bd570_0 : [0,1]
RESULT: v0x5612470_0 : [-1/0,1/0]
RESULT: v0x8fd4ff0_0 : [-1/0,1/0]
RESULT: v0x4410730_0 : [-1/0,1/0]
RESULT: v0x8fdec60_0 : [-1/0,1/0]
RESULT: v0x8dac480_0 : [-1/0,1/0]
RESULT: v0x8f7f380_0 : [0,0]
RESULT: v0x40faaa0_0 : [67,1/0]
RESULT: v0x55a7e30_0 : [27,1/0]
RESULT: v0x40faba0_0 : [0,1]
RESULT: v0x40faca0_0 : [0,1]
RESULT: v0x40fada0_0 : [-1/0,1/0]
RESULT: v0x40faea0_0 : [-1/0,1/0]
RESULT: v0x40fafa0_0 : [-1/0,1/0]
RESULT: v0x40fb0a0_0 : [0,0]
RESULT: v0x40fb1a0_0 : [-1/0,1/0]
RESULT: v0x7397db0_0 : [-1/0,1/0]
RESULT: v0x40fb2a0_0 : [-1/0,1/0]
RESULT: v0x46562f0_0 : [-1/0,1/0]
RESULT: v0x40fb3a0_0 : [-1/0,1/0]
RESULT: v0x693d8b0_0 : [-1/0,1/0]
RESULT: v0x40fb4a0_0 : [-1/0,1/0]
RESULT: v0x40fb5a0_0 : [-1/0,1/0]
RESULT: v0x40fb6a0_0 : [-1/0,1/0]
RESULT: v0x40fb7a0_0 : [-1/0,1/0]
RESULT: v0x9e19280_0 : [-1/0,1/0]
RESULT: v0x6a546a0_0 : [-1/0,1/0]
RESULT: v0x494c3a0_0 : [0,0]
RESULT: v0x43d46a0_0 : [-1/0,10]
RESULT: v0x4d11740_0 : [-1/0,1/0]
RESULT: v0x40fbaa0_0 : [-1/0,1/0]
