RESULT: v0x95c5820_0 : [-1/0,1/0]
RESULT: v0x9ba9c40_0 : [-1/0,1/0]
RESULT: v0x110423f0_0 : [-1/0,1/0]
RESULT: v0xb3e6250_0 : [0,1]
RESULT: v0x95c5860_0 : [67,1/0]
RESULT: v0x86fb720_0 : [-1/0,1/0]
RESULT: v0x91a5080_0 : [-1/0,1/0]
RESULT: v0x862b420_0 : [0,0]
RESULT: v0x138457a0_0 : [-1/0,1/0]
RESULT: v0xa94a8d0_0 : [-1/0,1/0]
RESULT: v0xf14e430_0 : [-1/0,1/0]
RESULT: v0x3f94330_0 : [67,1/0]
RESULT: v0x3f94430_0 : [0,1]
RESULT: v0x3f94530_0 : [-1/0,1/0]
RESULT: v0x3f94630_0 : [-1/0,1/0]
RESULT: v0x3f94730_0 : [-1/0,1/0]
RESULT: v0x3f94830_0 : [-1/0,1/0]
RESULT: v0x3f94930_0 : [0,1]
RESULT: v0x3f94a30_0 : [-1/0,1/0]
RESULT: v0x3f94b30_0 : [-1/0,1/0]
RESULT: v0x3f94c30_0 : [0,0]
RESULT: v0x3f94d30_0 : [-1/0,1/0]
RESULT: v0x3f94e30_0 : [-1/0,1/0]
RESULT: v0x3f94f30_0 : [-1/0,1/0]
RESULT: v0x3f95030_0 : [-1/0,1/0]
RESULT: v0x91a5040_0 : [-1/0,1/0]
RESULT: v0x11cae8f0_0 : [-1/0,1/0]
RESULT: v0x9884180_0 : [0,0]
RESULT: v0x8be1a00_0 : [-1/0,10]
RESULT: v0x11cae930_0 : [-1/0,1/0]
RESULT: v0x3f95330_0 : [-1/0,1/0]
