RESULT: v0x4681ce0_0 : [0,2]
RESULT: v0x4684070_0 : [0,0]
RESULT: v0x73be5c0_0 : [0,1/0]
RESULT: v0xb017460_0 : [1,1]
RESULT: v0x6d0e240_0 : [1,1/0]
RESULT: v0xe2b36e0_0 : [0,1/0]
RESULT: v0x773e040_0 : [0,2]
RESULT: v0x46822b0_0 : [-1/0,2]
RESULT: v0x4684370_0 : [1,1/0]
RESULT: v0x4683c70_0 : [0,1/0]
RESULT: v0x46827b0_0 : [0,0]
RESULT: v0x4682e50_0 : [0,1/0]
RESULT: v0x4683e70_0 : [1,1]
RESULT: v0x4683f70_0 : [0,2]
RESULT: v0x4683d70_0 : [1,1]
RESULT: v0x4682c50_0 : [-1/0,1/0]
RESULT: v0x4682d50_0 : [-1/0,1/0]
RESULT: v0xaac97b0_0 : [-1/0,1/0]
RESULT: v0x9b06bd0_0 : [-1/0,1/0]
RESULT: v0x46839b0_0 : [-1/0,1/0]
RESULT: v0x46838b0_0 : [-1/0,1/0]
RESULT: v0x4684270_0 : [-1/0,1/0]
RESULT: v0x4684170_0 : [-1/0,1/0]
RESULT: v0x4684b70_0 : [0,1/0]
RESULT: v0x4684c70_0 : [0,1/0]
RESULT: v0x4684d70_0 : [1,1]
RESULT: v0x4684e70_0 : [0,2]
RESULT: v0x4684f70_0 : [-1/0,1/0]
RESULT: v0x4685070_0 : [-1/0,1/0]
RESULT: v0x4685170_0 : [1,1/0]
RESULT: v0x4685270_0 : [-1/0,1/0]
