RESULT: v0x4c20990_0 : [-1/0,1/0]
RESULT: v0x50f4eb0_0 : [-1/0,1/0]
RESULT: v0x50f4ff0_0 : [-1/0,1/0]
RESULT: v0x50f5770_0 : [-1/0,1/0]
RESULT: v0x50f5630_0 : [-1/0,1/0]
RESULT: v0x50f54f0_0 : [-1/0,1/0]
RESULT: v0x50f4c30_0 : [-1/0,1/0]
RESULT: v0x50f4af0_0 : [-1/0,1/0]
RESULT: v0x50f58b0_0 : [-1/0,1/0]
RESULT: v0x50f0130_0 : [-1/0,1/0]
RESULT: v0x50f59f0_0 : [-1/0,1/0]
RESULT: v0x50f4870_0 : [-1/0,1/0]
RESULT: v0x50f4730_0 : [-1/0,1/0]
RESULT: v0x50f45f0_0 : [-1/0,1/0]
RESULT: v0x50f44b0_0 : [-1/0,1/0]
RESULT: v0x50f4370_0 : [-1/0,1/0]
RESULT: v0x50f4230_0 : [-1/0,1/0]
RESULT: v0x50c0570_0 : [-1/0,1/0]
RESULT: v0x50e9970_0 : [-1/0,1/0]
RESULT: v0x50cbab0_0 : [-1/0,1/0]
RESULT: v0x510d370_0 : [-1/0,1/0]
RESULT: v0x50f49b0_0 : [-1/0,1/0]
RESULT: v0x50f4d70_0 : [-1/0,1/0]
RESULT: v0x50f5130_0 : [-1/0,1/0]
RESULT: v0x50f5270_0 : [-1/0,1/0]
RESULT: v0x50f53b0_0 : [-1/0,1/0]
