RESULT: v0x5425390_0 : [0,0]
RESULT: v0x5424e70_0 : [1,1]
RESULT: v0x5425a30_0 : [0,1]
RESULT: v0x53f9510_0 : [0,1]
RESULT: v0x5425170_0 : [40,120]
RESULT: v0x53f8040_0 : [0,1]
RESULT: v0x53fa090_0 : [0,1]
RESULT: v0x5426a50_0 : [0,1]
RESULT: v0x5426330_0 : [0,1]
RESULT: v0x5426690_0 : [1,1]
RESULT: v0x53f9ef0_0 : [1,1]
RESULT: v0x53f9bd0_0 : [1,1]
RESULT: v0x53f91a0_0 : [1,1]
RESULT: v0x5427320_0 : [1,1]
RESULT: v0x5425730_0 : [3,4]
RESULT: v0x3ec2b60_0 : [80,120]
RESULT: v0x3ec2c60_0 : [0,1]
RESULT: v0x3ec2d60_0 : [0,1]
RESULT: v0x3ec2e60_0 : [2,4]
RESULT: v0x3ec2f60_0 : [0,1]
RESULT: v0x3ec3060_0 : [1,1]
RESULT: v0x3ec3160_0 : [1,1]
RESULT: v0x3ec3260_0 : [0,1]
RESULT: v0x3ec3360_0 : [0,1]
RESULT: v0x3ec3460_0 : [1,1]
RESULT: v0x3ec3560_0 : [0,1]
RESULT: v0x3ec3660_0 : [0,1]
RESULT: v0x3ec3760_0 : [0,1]
RESULT: v0x3ec3860_0 : [0,1]
RESULT: v0x53f2bb0_0 : [1,3]
RESULT: v0x3ec4b60_0 : [3,5]
