RESULT: v0x425a840_0 : [-1/0,1/0]
RESULT: v0x44f74d0_0 : [-1/0,1/0]
RESULT: v0x45e8bc0_0 : [-1/0,1/0]
RESULT: v0x402a920_0 : [-1/0,1/0]
RESULT: v0x44f7e70_0 : [27,1/0]
RESULT: v0x44f4ad0_0 : [-1/0,1/0]
RESULT: v0x402a1c0_0 : [-1/0,1/0]
RESULT: v0x4029300_0 : [0,0]
RESULT: v0x42598c0_0 : [-1/0,1/0]
RESULT: v0x4259c00_0 : [-1/0,1/0]
RESULT: v0x4259f00_0 : [-1/0,1/0]
RESULT: v0x3fa3330_0 : [67,1/0]
RESULT: v0x3fa3430_0 : [-1/0,1/0]
RESULT: v0x3fa3530_0 : [-1/0,1/0]
RESULT: v0x3fa3630_0 : [-1/0,1/0]
RESULT: v0x3fa3730_0 : [-1/0,1/0]
RESULT: v0x3fa3830_0 : [0,1]
RESULT: v0x3fa3930_0 : [-1/0,1/0]
RESULT: v0x3fa3a30_0 : [-1/0,1/0]
RESULT: v0x3fa3b30_0 : [-1/0,1/0]
RESULT: v0x3fa3c30_0 : [-1/0,1/0]
RESULT: v0x3fa3d30_0 : [-1/0,1/0]
RESULT: v0x3fa3e30_0 : [-1/0,1/0]
RESULT: v0x3fa3f30_0 : [-1/0,1/0]
RESULT: v0x425acc0_0 : [-1/0,1/0]
RESULT: v0x4534670_0 : [0,0]
RESULT: v0x45d2ea0_0 : [-1/0,10]
RESULT: v0x4029740_0 : [-1/0,1/0]
RESULT: v0x42597c0_0 : [-1/0,1/0]
RESULT: v0x3fa4230_0 : [-1/0,1/0]
