RESULT: v0x4474530_1 : [4,4]
RESULT: v0x44503f0_1 : [0,1]
RESULT: v0x4442e20_1 : [0,1]
RESULT: v0x445f6d0_1 : [0,1]
RESULT: v0x44229f0_1 : [0,1]
RESULT: v0x4438010_1 : [0,1]
RESULT: v0x43f7310_1 : [0,1]
RESULT: v0x43df5d0_1 : [0,1]
RESULT: v0x4398700_1 : [0,1]
RESULT: v0x4369000_1 : [0,1]
RESULT: v0x4413650_1 : [0,1]
RESULT: v0x43dc930_1 : [0,1]
RESULT: v0x4231be0_1 : [0,1]
RESULT: v0x423d760_1 : [0,2]
RESULT: v0x41ce480_1 : [0,3]
RESULT: v0x4226ae0_1 : [0,1]
RESULT: v0x40ac4a0_1 : [123,777]
RESULT: v0x422db40_1 : [0,666]
RESULT: v0x41d2f40_1 : [0,2]
RESULT: v0x4223fc0_1 : [0,1]
RESULT: v0x4303090_1 : [0,2]
RESULT: v0x438b670_1 : [0,456]
RESULT: v0x43100f0_1 : [0,123]
RESULT: v0x419f5d0_1 : [0,456]
