RESULT: v0x43bde70_0 : [-1/0,1/0]
RESULT: v0x446dc20_0 : [-1/0,1/0]
RESULT: v0x4122c70_0 : [-1/0,1/0]
RESULT: v0x4084280_0 : [-1/0,1/0]
RESULT: v0x458ea70_0 : [27,1/0]
RESULT: v0x4122730_0 : [-1/0,1/0]
RESULT: v0x416c930_0 : [-1/0,1/0]
RESULT: v0x42525a0_0 : [1,1]
RESULT: v0x45e9c80_0 : [-1/0,1/0]
RESULT: v0x45f4f50_0 : [-1/0,1/0]
RESULT: v0x403d630_0 : [-1/0,1/0]
RESULT: v0x3f94330_0 : [67,1/0]
RESULT: v0x3f94430_0 : [0,1]
RESULT: v0x3f94530_0 : [-1/0,1/0]
RESULT: v0x3f94630_0 : [-1/0,1/0]
RESULT: v0x3f94730_0 : [-1/0,1/0]
RESULT: v0x3f94830_0 : [-1/0,1/0]
RESULT: v0x3f94930_0 : [0,1]
RESULT: v0x3f94a30_0 : [-1/0,1/0]
RESULT: v0x3f94b30_0 : [-1/0,1/0]
RESULT: v0x3f94c30_0 : [-1/0,1/0]
RESULT: v0x3f94d30_0 : [-1/0,1/0]
RESULT: v0x3f94e30_0 : [-1/0,1/0]
RESULT: v0x3f94f30_0 : [-1/0,1/0]
RESULT: v0x3f95030_0 : [-1/0,1/0]
RESULT: v0x41d0e40_0 : [-1/0,1/0]
RESULT: v0x416cab0_0 : [-1/0,1/0]
RESULT: v0x515e9a0_0 : [-1/0,1/0]
RESULT: v0x45e9c40_0 : [-1/0,10]
RESULT: v0x45d02b0_0 : [-1/0,1/0]
RESULT: v0x3f96330_0 : [-1/0,1/0]
