RESULT: v0x4ba39c0_0 : [0,0]
RESULT: v0x4ba35c0_0 : [0,0]
RESULT: v0x4ba2dc0_0 : [40,40]
RESULT: v0x4ba2ec0_0 : [0,0]
RESULT: v0x4ba2cc0_0 : [0,0]
RESULT: v0x4ba23c0_0 : [0,0]
RESULT: v0x4ba24c0_0 : [0,0]
RESULT: v0x4ba34c0_0 : [3,3]
RESULT: v0x4ba30c0_0 : [1,1]
RESULT: v0x4ba3ac0_0 : [1,1]
RESULT: v0x4ba38c0_0 : [0,0]
RESULT: v0x4ba37c0_0 : [1,1]
RESULT: v0x4ba36c0_0 : [0,0]
RESULT: v0x4ba33c0_0 : [1,1]
RESULT: v0x4ba32c0_0 : [1,1]
RESULT: v0x4ba31c0_0 : [1,1]
RESULT: v0x4ba2fc0_0 : [1,1]
RESULT: v0x4bc76c0_0 : [80,120]
RESULT: v0x4bc77c0_0 : [0,1]
RESULT: v0x4bc78c0_0 : [1,1]
RESULT: v0x4bc79c0_0 : [1,1]
RESULT: v0x4bc7ac0_0 : [0,1]
RESULT: v0x4bc7bc0_0 : [1,1]
RESULT: v0x4bc7dc0_0 : [1,1]
RESULT: v0x4bc7ec0_0 : [1,1]
RESULT: v0x4bc7fc0_0 : [1,1]
RESULT: v0x4bc80c0_0 : [0,1]
RESULT: v0x4bc81c0_0 : [0,1]
RESULT: v0x4bc82c0_0 : [1,1]
RESULT: v0x4bc7cc0_0 : [3,3]
RESULT: v0x4bc95c0_0 : [4,4]
RESULT: v0x4bc96c0_0 : [0,1/0]
RESULT: v0x4ba22c0_0 : [-1/0,1/0]
RESULT: v0x5dcf950_0 : [0,0]
