RESULT: v0x47797e0_0 : [0,1]
RESULT: v0x532ea00_1 : [0,1]
RESULT: v0x532e880_1 : [0,1]
RESULT: v0x5167290_1 : [0,1]
RESULT: v0x5eaf500_1 : [0,1]
RESULT: v0x514e8d0_1 : [0,1]
RESULT: v0x62d7380_1 : [0,1]
RESULT: v0x5cadf50_1 : [0,1]
RESULT: v0x5093950_1 : [0,1]
RESULT: v0x5cd9610_1 : [0,1]
RESULT: v0x623a8a0_1 : [0,1]
RESULT: v0x5185050_1 : [0,1]
RESULT: v0x62d0700_1 : [0,1]
RESULT: v0x5caa9b0_1 : [0,1]
RESULT: v0x5133470_1 : [-1/0,1/0]
RESULT: v0x5591410_1 : [-1/0,1/0]
RESULT: v0x62f0080_1 : [0,2]
RESULT: v0x512e110_1 : [0,2]
RESULT: v0x62de3c0_1 : [0,2]
RESULT: v0x4c6a080_1 : [0,2]
RESULT: v0x5ce0670_1 : [0,2]
RESULT: v0x5179db0_1 : [0,2]
RESULT: v0x54fd7f0_1 : [0,2]
RESULT: v0x5cdd0f0_1 : [0,2]
RESULT: v0x62dde60_1 : [0,2]
RESULT: v0x6fc6170_1 : [0,2]
RESULT: v0x4c63880_1 : [0,2]
RESULT: v0x62d6e20_1 : [0,2]
RESULT: v0x62d78a0_1 : [0,2]
RESULT: v0x62c9100_1 : [0,2]
