RESULT: v0x3f50b70_0 : [0,2]
RESULT: v0x5556020_1 : [0,1]
RESULT: v0x515e150_1 : [1,1]
RESULT: v0x516c100_1 : [0,1]
RESULT: v0x466d1d0_1 : [0,1]
RESULT: v0x515e270_1 : [0,1]
RESULT: v0x4f24660_1 : [0,1]
RESULT: v0x466ccc0_1 : [0,1]
RESULT: v0x3ffe4d0_1 : [0,1]
RESULT: v0x5044050_1 : [0,1]
RESULT: v0x5043cf0_1 : [0,1]
RESULT: v0x4085270_1 : [0,1]
RESULT: v0x40851b0_1 : [0,1]
RESULT: v0x6242e10_1 : [0,1]
RESULT: v0x40854b0_1 : [0,1]
RESULT: v0x3f8d400_1 : [0,2]
RESULT: v0x4774840_1 : [2,2]
RESULT: v0x6377ee0_1 : [0,2]
RESULT: v0x3f87ad0_1 : [0,2]
RESULT: v0x46cbd00_1 : [0,2]
RESULT: v0x429fb30_1 : [0,2]
RESULT: v0x3fa44e0_1 : [0,2]
RESULT: v0x45a44f0_1 : [0,2]
RESULT: v0x4237220_1 : [0,2]
RESULT: v0x513e7d0_1 : [0,2]
RESULT: v0x44c7da0_1 : [0,2]
RESULT: v0x422c6b0_1 : [0,2]
RESULT: v0x4225690_1 : [0,2]
RESULT: v0x4235270_1 : [0,2]
