RESULT: v0x5177570_0 : [0,1]
RESULT: v0x62caf60_0 : [0,1]
RESULT: v0x62bf9a0_0 : [0,1]
RESULT: v0x50fdef0_0 : [0,1]
RESULT: v0x5182e70_0 : [0,1]
RESULT: v0x6256070_0 : [0,1]
RESULT: v0x5155770_0 : [0,1]
RESULT: v0x5162290_0 : [0,1]
RESULT: v0x50f6950_0 : [0,1]
RESULT: v0x62c4f20_0 : [0,1]
RESULT: v0x62b9960_0 : [0,1]
RESULT: v0x62f6640_0 : [0,1]
RESULT: v0x51416b0_0 : [0,1]
RESULT: v0x5171870_0 : [0,1]
RESULT: v0x62e1020_0 : [-1/0,1/0]
RESULT: v0x512c090_0 : [-1/0,1/0]
RESULT: v0x512d5f0_0 : [0,2]
RESULT: v0x62b3920_0 : [0,2]
RESULT: v0x62a8e10_0 : [0,2]
RESULT: v0x5156210_0 : [0,2]
RESULT: v0x50f73f0_0 : [0,2]
RESULT: v0x5ccf790_0 : [0,2]
RESULT: v0x5135630_0 : [0,2]
RESULT: v0x560c340_0 : [0,2]
RESULT: v0x5e75c40_0 : [0,2]
RESULT: v0x5ea5e00_0 : [0,2]
RESULT: v0x51380f0_0 : [0,2]
RESULT: v0x51682b0_0 : [0,2]
RESULT: v0x5eb53e0_0 : [0,2]
RESULT: v0x4a5ebd0_0 : [0,2]
