RESULT: v0x4459d30_1 : [3,3]
RESULT: v0x42f2bb0_1 : [0,1]
RESULT: v0x4446860_1 : [0,1]
RESULT: v0x41e3700_1 : [0,1]
RESULT: v0x4388970_1 : [0,1]
RESULT: v0x43899d0_1 : [0,1]
RESULT: v0x41de060_1 : [0,1]
RESULT: v0x44592b0_1 : [0,1]
RESULT: v0x4389550_1 : [0,1]
RESULT: v0x4389610_1 : [0,1]
RESULT: v0x43893d0_1 : [0,1]
RESULT: v0x41dd8e0_1 : [0,1]
RESULT: v0x4459130_1 : [0,1]
RESULT: v0x4388f50_1 : [0,2]
RESULT: v0x4389010_1 : [0,3]
RESULT: v0x4459090_1 : [123,777]
RESULT: v0x4459050_1 : [0,666]
RESULT: v0x4388ad0_1 : [0,2]
RESULT: v0x4388a10_1 : [0,1]
RESULT: v0x4388730_1 : [0,2]
RESULT: v0x4388670_1 : [0,456]
RESULT: v0x4428910_1 : [0,123]
RESULT: v0x4428850_1 : [0,456]
RESULT: v0x4428610_1 : [0,3]
