RESULT: v0x41f86e0_0 : [-1/0,1/0]
RESULT: v0x41f89e0_0 : [-1/0,1/0]
RESULT: v0x41f9ae0_0 : [4464,4480]
RESULT: v0x41f9ce0_0 : [4496,4512]
RESULT: v0x41f8ce0_0 : [-1/0,1/0]
RESULT: v0x41f8ee0_0 : [768,768]
RESULT: v0x41fa2b0_0 : [3,4512]
RESULT: v0x41f97e0_0 : [4400,4560]
RESULT: v0x41f8be0_0 : [-1/0,1/0]
RESULT: v0x41f8ae0_0 : [-1/0,1/0]
RESULT: v0x41f73c0_0 : [-1/0,1/0]
RESULT: v0x41f74c0_0 : [-1/0,1/0]
RESULT: v0x41f6640_0 : [-1/0,1/0]
RESULT: v0x41f67f0_0 : [-1/0,1/0]
RESULT: v0x41f88e0_0 : [-1/0,1/0]
RESULT: v0x41f87e0_0 : [-1/0,1/0]
RESULT: v0x41f8de0_0 : [-1/0,1/0]
RESULT: v0x4494a00_1 : [-1/0,1/0]
RESULT: v0x43aae60_1 : [0,1/0]
RESULT: v0x43a1d20_1 : [4352,4560]
RESULT: v0x444ae70_1 : [-1/0,1/0]
RESULT: v0x43c6b90_1 : [-1/0,1/0]
