RESULT: v0x3866b70_1 : [-1/0,1/0]
RESULT: v0x3760100_1 : [-1/0,1/0]
RESULT: v0x3816cf0_1 : [-1/0,1/0]
RESULT: v0x395b610_1 : [-1/0,1/0]
RESULT: v0x385ea50_1 : [-1/0,1/0]
RESULT: v0x38f6340_1 : [-1/0,1/0]
RESULT: v0x38eb4e0_1 : [-1/0,1/0]
RESULT: v0x38cec00_1 : [-1/0,1/0]
RESULT: v0x38d7ca0_1 : [-1/0,1/0]
RESULT: v0x38e2490_1 : [-1/0,1/0]
RESULT: v0x38e3ad0_1 : [-1/0,1/0]
RESULT: v0x38d51a0_1 : [-1/0,1/0]
RESULT: v0x38b3c80_1 : [-1/0,1/0]
RESULT: v0x38e3b50_1 : [-1/0,1/0]
RESULT: v0x38c0d70_1 : [-1/0,1/0]
RESULT: v0x3865530_1 : [-1/0,1/0]
RESULT: v0x38e5a40_1 : [-1/0,1/0]
RESULT: v0x38e6580_1 : [-1/0,1/0]
RESULT: v0x38e1510_1 : [-1/0,1/0]
RESULT: v0x394be50_1 : [-1/0,1/0]
RESULT: v0x38476b0_1 : [-1/0,1/0]
RESULT: v0x36ffbc0_1 : [-1/0,1/0]
RESULT: v0x384c5e0_1 : [-1/0,1/0]
RESULT: v0x3833580_1 : [-1/0,1/0]
RESULT: v0x383c4a0_1 : [-1/0,1/0]
RESULT: v0x382d4f0_1 : [-1/0,1/0]
RESULT: v0x3700be0_1 : [-1/0,1/0]
RESULT: v0x38354e0_1 : [-1/0,1/0]
RESULT: v0x3842420_1 : [-1/0,1/0]
