RESULT: v0x54cadf0_0 : [3,10]
RESULT: v0x51d3e00_0 : [0,1]
RESULT: v0x44df470_0 : [0,1]
RESULT: v0x44f3f50_0 : [0,1]
RESULT: v0x45032e0_0 : [40,120]
RESULT: v0x44f4a10_0 : [0,1]
RESULT: v0x51d0160_0 : [0,1]
RESULT: v0x54d1a50_0 : [0,1]
RESULT: v0x4219be0_0 : [0,0]
RESULT: v0x517f570_0 : [1,1]
RESULT: v0x54c5910_0 : [1,1]
RESULT: v0x54c7050_0 : [1,1]
RESULT: v0x51c6e60_0 : [1,1]
RESULT: v0x44fd620_0 : [0,0]
RESULT: v0x55303c0_0 : [-1/0,1/0]
RESULT: v0x390cd30_0 : [80,120]
RESULT: v0x390ce30_0 : [0,1]
RESULT: v0x390cf30_0 : [0,1]
RESULT: v0x390d030_0 : [0,1]
RESULT: v0x390d130_0 : [0,1]
RESULT: v0x390d230_0 : [0,1]
RESULT: v0x390d330_0 : [0,1]
RESULT: v0x390d430_0 : [-1/0,1/0]
RESULT: v0x390d530_0 : [0,1]
RESULT: v0x390d630_0 : [1,1]
RESULT: v0x390d730_0 : [1,1]
RESULT: v0x390d830_0 : [0,1]
RESULT: v0x390d930_0 : [0,1]
RESULT: v0x390da30_0 : [1,1]
RESULT: v0x585d880_0 : [0,0]
RESULT: v0x390dd30_0 : [-1/0,1/0]
