RESULT: v0x5386560_0 : [2,1/0]
RESULT: v0x541dec0_0 : [0,1]
RESULT: v0x5495b10_0 : [0,1]
RESULT: v0x545aab0_0 : [123,123]
RESULT: v0x540ad40_0 : [0,0]
RESULT: v0x549ba50_0 : [0,1]
RESULT: v0x54180c0_0 : [0,2]
RESULT: v0x54e24f0_0 : [0,3]
RESULT: v0x5279a70_0 : [0,1]
RESULT: v0x5391eb0_0 : [0,1]
RESULT: v0x54afbd0_0 : [0,1]
RESULT: v0x53651d0_0 : [0,666]
RESULT: v0x54a4e70_0 : [0,1]
RESULT: v0x541e2e0_0 : [0,123]
RESULT: v0x52f0880_0 : [0,1]
RESULT: v0x54efdd0_0 : [0,1]
RESULT: v0x5399550_0 : [0,1]
RESULT: v0x54ed270_0 : [0,3]
RESULT: v0x53facb0_0 : [0,2]
RESULT: v0x54dc7d0_0 : [0,456]
RESULT: v0x53fcf90_0 : [0,1]
RESULT: v0x5399cd0_0 : [0,1]
RESULT: v0x540b640_0 : [0,123]
RESULT: v0x549adb0_0 : [0,1]
