RESULT: v0x52bdb50_0 : [2,2]
RESULT: v0x56afb60_0 : [0,0]
RESULT: v0x56e86b0_0 : [0,0]
RESULT: v0x5dfde20_0 : [0,1]
RESULT: v0x5666220_0 : [0,1]
RESULT: v0x5dc8c00_0 : [0,1]
RESULT: v0x560b030_0 : [40,80]
RESULT: v0x5dc5440_0 : [1,1]
RESULT: v0x5e01600_0 : [0,1]
RESULT: v0x5d63c30_0 : [0,1]
RESULT: v0x5a568a0_0 : [0,1]
RESULT: v0x5ddb000_0 : [1,1]
RESULT: v0x5dfa480_0 : [1,1]
RESULT: v0x5dbd300_0 : [1,1]
RESULT: v0x4c8a8b0_0 : [-1/0,1/0]
RESULT: v0x3ec2b60_0 : [80,80]
RESULT: v0x3ec2c60_0 : [0,0]
RESULT: v0x3ec2d60_0 : [0,1]
RESULT: v0x3ec2e60_0 : [-1/0,1/0]
RESULT: v0x3ec2f60_0 : [0,1]
RESULT: v0x3ec3060_0 : [1,1]
RESULT: v0x3ec3160_0 : [1,1]
RESULT: v0x3ec3260_0 : [0,1]
RESULT: v0x3ec3360_0 : [0,1]
RESULT: v0x3ec3460_0 : [1,1]
RESULT: v0x3ec3560_0 : [0,1]
RESULT: v0x3ec3660_0 : [0,1]
RESULT: v0x3ec3760_0 : [0,1]
RESULT: v0x3ec3860_0 : [0,1]
RESULT: v0x6346620_0 : [0,0]
RESULT: v0x3ec3b60_0 : [-1/0,1/0]
