RESULT: v0x3a388c0_0 : [0,1/0]
RESULT: v0x66af5d0_1 : [0,1]
RESULT: v0x688fc60_1 : [0,1]
RESULT: v0x4c95a10_1 : [0,1]
RESULT: v0x57c1770_1 : [0,1]
RESULT: v0x64d6680_1 : [0,1]
RESULT: v0x4daaed0_1 : [0,1]
RESULT: v0x5bbf100_1 : [0,1]
RESULT: v0x51b19f0_1 : [0,1]
RESULT: v0x64d4520_1 : [0,1]
RESULT: v0x63b9b40_1 : [0,1]
RESULT: v0x66ceea0_1 : [-1/0,2]
RESULT: v0x66cf3e0_1 : [-1/0,2]
RESULT: v0x6e097b0_1 : [-1/0,2]
RESULT: v0x6e051d0_1 : [-1/0,2]
RESULT: v0x6899df0_1 : [-1/0,2]
RESULT: v0x66ac330_1 : [-1/0,2]
RESULT: v0x5f9fd90_1 : [-1/0,2]
RESULT: v0x4daeef0_1 : [-1/0,2]
RESULT: v0x60f4020_1 : [0,2]
RESULT: v0x6761430_1 : [0,2]
RESULT: v0x64d45e0_1 : [0,2]
