RESULT: v0x410dab0_0 : [-1/0,1/0]
RESULT: v0x410d830_0 : [-1/0,1/0]
RESULT: v0x410d3d0_0 : [-1/0,1/0]
RESULT: v0x410d470_0 : [-1/0,1/0]
RESULT: v0x410d530_0 : [-1/0,1/0]
RESULT: v0x410da70_0 : [-1/0,1/0]
RESULT: v0x410db30_0 : [-1/0,1/0]
RESULT: v0x4086460_0 : [-1/0,1/0]
RESULT: v0x40b6540_0 : [-1/0,1/0]
RESULT: v0x410dbf0_0 : [-1/0,1/0]
RESULT: v0x410dcb0_0 : [-1/0,1/0]
RESULT: v0x410dd70_0 : [-1/0,1/0]
RESULT: v0x410de30_0 : [-1/0,1/0]
RESULT: v0x410def0_0 : [-1/0,1/0]
RESULT: v0x410dfb0_0 : [-1/0,1/0]
RESULT: v0x410e070_0 : [-1/0,1/0]
RESULT: v0x410e130_0 : [-1/0,1/0]
RESULT: v0x410e1f0_0 : [-1/0,1/0]
RESULT: v0x410e2b0_0 : [-1/0,1/0]
RESULT: v0x410e370_0 : [-1/0,1/0]
RESULT: v0x410d8f0_0 : [-1/0,1/0]
RESULT: v0x410d770_0 : [-1/0,1/0]
RESULT: v0x410d6b0_0 : [-1/0,1/0]
RESULT: v0x410d5f0_0 : [-1/0,1/0]
