RESULT: v0x4fb9900_0 : [-1/0,1/0]
RESULT: v0x4f130f0_0 : [-1/0,1/0]
RESULT: v0x4ed9920_0 : [-1/0,1/0]
RESULT: v0x5a6c7c0_0 : [-1/0,1/0]
RESULT: v0x5024690_0 : [-1/0,1/0]
RESULT: v0x50246d0_0 : [-1/0,1/0]
RESULT: v0x51a2c10_0 : [0,0]
RESULT: v0x4e8eda0_0 : [67,1/0]
RESULT: v0x5001940_0 : [27,1/0]
RESULT: v0x4e8eea0_0 : [0,1]
RESULT: v0x4e8efa0_0 : [0,1]
RESULT: v0x4e8f0a0_0 : [-1/0,1/0]
RESULT: v0x4e8f1a0_0 : [-1/0,1/0]
RESULT: v0x4e8f2a0_0 : [-1/0,1/0]
RESULT: v0x4e8f3a0_0 : [-1/0,1/0]
RESULT: v0x4e8f4a0_0 : [-1/0,1/0]
RESULT: v0x5c2f700_0 : [-1/0,1/0]
RESULT: v0x4e8f5a0_0 : [-1/0,1/0]
RESULT: v0x5564640_0 : [-1/0,1/0]
RESULT: v0x4e8f6a0_0 : [-1/0,1/0]
RESULT: v0x4ee9970_0 : [-1/0,1/0]
RESULT: v0x4e8f7a0_0 : [-1/0,1/0]
RESULT: v0x4e8f8a0_0 : [-1/0,1/0]
RESULT: v0x4e8f9a0_0 : [-1/0,1/0]
RESULT: v0x4e8faa0_0 : [-1/0,1/0]
RESULT: v0x55370a0_0 : [-1/0,1/0]
RESULT: v0x5c64830_0 : [-1/0,1/0]
RESULT: v0x555d400_0 : [0,0]
RESULT: v0x64975a0_0 : [-1/0,10]
RESULT: v0x6433920_0 : [-1/0,1/0]
RESULT: v0x4e8fda0_0 : [-1/0,1/0]
