RESULT: v0x3f98520_1 : [-1/0,2]
RESULT: v0x3f93650_1 : [-1/0,1/0]
RESULT: v0x3f93590_1 : [0,1]
RESULT: v0x3f98220_1 : [-1/0,1/0]
RESULT: v0x3f97d50_1 : [-1/0,1/0]
RESULT: v0x3f97bd0_1 : [-1/0,1/0]
RESULT: v0x3f97a50_1 : [-1/0,1/0]
RESULT: v0x3f978d0_1 : [-1/0,1/0]
RESULT: v0x3f97750_1 : [-1/0,1/0]
RESULT: v0x3f975d0_1 : [-1/0,1/0]
RESULT: v0x3f97450_1 : [-1/0,1/0]
RESULT: v0x3f972d0_1 : [0,1/0]
RESULT: v0x3f97150_1 : [-1/0,1/0]
RESULT: v0x3f96fd0_1 : [-1/0,1/0]
RESULT: v0x3f96e50_1 : [-1/0,1/0]
RESULT: v0x3f96cd0_1 : [-1/0,1/0]
