RESULT: v0x6564120_0 : [-1/0,1/0]
RESULT: v0x6568400_0 : [-1/0,1/0]
RESULT: v0x6567be0_0 : [-1/0,1/0]
RESULT: v0x6567f40_0 : [-1/0,1/0]
RESULT: v0x6565c20_0 : [27,1/0]
RESULT: v0x65645a0_0 : [-1/0,1/0]
RESULT: v0x65644e0_0 : [-1/0,1/0]
RESULT: v0x65642a0_0 : [-1/0,1/0]
RESULT: v0x6565b60_0 : [0,0]
RESULT: v0x6567b00_0 : [-1/0,1/0]
RESULT: v0x6565da0_0 : [-1/0,1/0]
RESULT: v0x391f010_0 : [-1/0,1/0]
RESULT: v0x391f110_0 : [-1/0,1/0]
RESULT: v0x391f210_0 : [-1/0,1/0]
RESULT: v0x391f310_0 : [-1/0,1/0]
RESULT: v0x391f410_0 : [67,1/0]
RESULT: v0x391f510_0 : [0,1]
RESULT: v0x391f610_0 : [0,1]
RESULT: v0x391f710_0 : [-1/0,1/0]
RESULT: v0x391f810_0 : [-1/0,1/0]
RESULT: v0x391f910_0 : [-1/0,1/0]
RESULT: v0x391fa10_0 : [-1/0,1/0]
RESULT: v0x391fb10_0 : [-1/0,1/0]
RESULT: v0x391fc10_0 : [-1/0,1/0]
RESULT: v0x391fd10_0 : [-1/0,1/0]
RESULT: v0x6567700_0 : [-1/0,1/0]
RESULT: v0x65684a0_0 : [-1/0,1/0]
RESULT: v0x4e3e850_0 : [0,0]
RESULT: v0x6565980_0 : [-1/0,10]
RESULT: v0x6565ce0_0 : [-1/0,1/0]
RESULT: v0x3920010_0 : [-1/0,1/0]
