RESULT: v0x4592b10_0 : [0,1]
RESULT: v0x4592e10_0 : [-1/0,1/0]
RESULT: v0x6cdb4f0_0 : [-1/0,1/0]
RESULT: v0x4592f10_0 : [-1/0,1]
RESULT: v0x4593110_0 : [0,1]
RESULT: v0x45924b0_0 : [0,1]
RESULT: v0x4592c10_0 : [0,1]
RESULT: v0x45926b0_0 : [0,1]
RESULT: v0x45935d0_0 : [0,1]
RESULT: v0x45922b0_0 : [1,1]
RESULT: v0x4592910_0 : [-1/0,1/0]
RESULT: v0x4592110_0 : [-1/0,1/0]
RESULT: v0x4593310_0 : [-1/0,1/0]
RESULT: v0x6cd7910_0 : [-1/0,1/0]
RESULT: v0x6cd7d30_0 : [-1/0,1/0]
RESULT: v0x6cdb910_0 : [-1/0,1/0]
RESULT: v0x4593210_0 : [-1/0,1/0]
RESULT: v0x6cd90d0_0 : [-1/0,1/0]
RESULT: v0x45936d0_0 : [-1/0,1/0]
RESULT: v0x4592d10_0 : [-1/0,1/0]
RESULT: v0x6cd9ff0_0 : [-1/0,1/0]
RESULT: v0x68e6ca0_0 : [-1/0,1/0]
RESULT: v0x5e28fe0_0 : [0,1]
RESULT: v0x5e1e500_0 : [-1/0,1/0]
RESULT: v0x6cf6a30_0 : [0,1]
RESULT: v0x5de7950_0 : [-1/0,1/0]
RESULT: v0x6d07fd0_0 : [0,1]
RESULT: v0x6d11550_0 : [0,1]
RESULT: v0x5e10f60_0 : [-1/0,1/0]
RESULT: v0x6cde9b0_0 : [-1/0,1]
RESULT: v0x6d03fb0_0 : [-1/0,1/0]
RESULT: v0x6ce69d0_0 : [0,1]
RESULT: v0x6c6d240_0 : [-1/0,1/0]
RESULT: v0x68d16c0_0 : [0,1]
RESULT: v0x6d3eb60_0 : [-1/0,1/0]
RESULT: v0x6ce29b0_0 : [0,0]
RESULT: v0x6cb1370_0 : [0,0]
RESULT: v0x681be10_0 : [0,0]
RESULT: v0x5e2cfc0_0 : [0,0]
RESULT: v0x6c6fce0_0 : [0,0]
RESULT: v0x45966a0_0 : [-1/0,1/0]
RESULT: v0x4594c70_0 : [-1/0,1/0]
RESULT: v0x4594d70_0 : [-1/0,1/0]
RESULT: v0x4594e70_0 : [-1/0,1/0]
