RESULT: v0x3a388c0_0 : [0,1/0]
RESULT: v0x6534400_1 : [0,1]
RESULT: v0x4e0d720_1 : [0,1]
RESULT: v0x574d5d0_1 : [0,1]
RESULT: v0x5b67160_1 : [0,1]
RESULT: v0x576b7c0_1 : [0,1]
RESULT: v0x6508640_1 : [0,1]
RESULT: v0x6c1a630_1 : [0,1]
RESULT: v0x5ce5ed0_1 : [0,1]
RESULT: v0x6c1c230_1 : [0,1]
RESULT: v0x6a01c70_1 : [0,1]
RESULT: v0x5cec180_1 : [-1/0,2]
RESULT: v0x574a050_1 : [-1/0,2]
RESULT: v0x6933080_1 : [-1/0,2]
RESULT: v0x574d710_1 : [-1/0,2]
RESULT: v0x6541ce0_1 : [-1/0,2]
RESULT: v0x66bb070_1 : [-1/0,2]
RESULT: v0x6c1c470_1 : [-1/0,2]
RESULT: v0x66cbaf0_1 : [-1/0,2]
RESULT: v0x56f0e60_1 : [0,2]
RESULT: v0x66b87d0_1 : [0,2]
RESULT: v0x4d7fcd0_1 : [0,2]
