RESULT: v0x5023800_0 : [-1/0,1/0]
RESULT: v0x52aca80_0 : [-1/0,1/0]
RESULT: v0x52ace40_0 : [-1/0,1/0]
RESULT: v0x52ac580_0 : [-1/0,1/0]
RESULT: v0x52ac6c0_0 : [-1/0,1/0]
RESULT: v0x52ac800_0 : [-1/0,1/0]
RESULT: v0x52ad0c0_0 : [-1/0,1/0]
RESULT: v0x52ad200_0 : [-1/0,1/0]
RESULT: v0x52ac440_0 : [-1/0,1/0]
RESULT: v0x5291780_0 : [-1/0,1/0]
RESULT: v0x52ac300_0 : [-1/0,1/0]
RESULT: v0x52ad480_0 : [-1/0,1/0]
RESULT: v0x52ad5c0_0 : [-1/0,1/0]
RESULT: v0x52ad700_0 : [-1/0,1/0]
RESULT: v0x52ad840_0 : [-1/0,1/0]
RESULT: v0x52ad980_0 : [-1/0,1/0]
RESULT: v0x52adac0_0 : [-1/0,1/0]
RESULT: v0x52ade80_0 : [-1/0,1/0]
RESULT: v0x52add40_0 : [-1/0,1/0]
RESULT: v0x52adfc0_0 : [-1/0,1/0]
RESULT: v0x5261800_0 : [-1/0,1/0]
RESULT: v0x52ad340_0 : [-1/0,1/0]
RESULT: v0x52acf80_0 : [-1/0,1/0]
RESULT: v0x52acbc0_0 : [-1/0,1/0]
RESULT: v0x52acd00_0 : [-1/0,1/0]
RESULT: v0x52ac940_0 : [-1/0,1/0]
