RESULT: v0x60981b0_0 : [-1/0,1/0]
RESULT: v0x60983b0_0 : [-1/0,1/0]
RESULT: v0x60990b0_0 : [789,789]
RESULT: v0x6097fb0_0 : [-1/0,1/0]
RESULT: v0x60982b0_0 : [-1/0,1/0]
RESULT: v0x60980b0_0 : [-1/0,1/0]
RESULT: v0x64dfaf0_1 : [2,2]
RESULT: v0x64df9b0_1 : [0,1]
RESULT: v0x64e0c70_1 : [0,1]
RESULT: v0x64de6f0_1 : [0,1]
RESULT: v0x64e0b30_1 : [0,1]
RESULT: v0x64e0770_1 : [0,1]
RESULT: v0x64e90f0_1 : [0,1]
RESULT: v0x64e81f0_1 : [0,1]
RESULT: v0x64e7e30_1 : [0,1]
RESULT: v0x64e7cf0_1 : [0,1]
RESULT: v0x64e72f0_1 : [0,1]
RESULT: v0x64e7a70_1 : [0,1]
RESULT: v0x64e7570_1 : [0,1]
RESULT: v0x64e76b0_1 : [0,2]
RESULT: v0x64ec430_1 : [0,3]
RESULT: v0x64e63f0_1 : [0,1]
RESULT: v0x64ec1b0_1 : [123,777]
RESULT: v0x64ebf30_1 : [0,666]
RESULT: v0x64eb530_1 : [0,2]
RESULT: v0x64ebcb0_1 : [0,1]
RESULT: v0x6502ff0_1 : [0,2]
RESULT: v0x6503130_1 : [0,456]
RESULT: v0x65020f0_1 : [0,123]
RESULT: v0x65011f0_1 : [0,456]
RESULT: v0x6506fb0_1 : [0,3]
