RESULT: v0x5666e30_0 : [0,1]
RESULT: v0x63e3430_0 : [0,1]
RESULT: v0x5f56e10_0 : [0,1]
RESULT: v0x4f3dcf0_0 : [0,1]
RESULT: v0x5f53250_0 : [0,1]
RESULT: v0x5f53130_0 : [0,1]
RESULT: v0x4f3ddf0_0 : [0,1]
RESULT: v0x4f3d340_0 : [0,1]
RESULT: v0x4fa63b0_0 : [0,1]
RESULT: v0x5f547f0_0 : [0,1]
RESULT: v0x5667be0_0 : [0,1]
RESULT: v0x56636a0_0 : [0,1]
RESULT: v0x56667d0_0 : [1,1]
RESULT: v0x5664c20_0 : [-1/0,1/0]
RESULT: v0x4fa3f10_0 : [-1/0,1/0]
RESULT: v0x5f530d0_0 : [0,2]
RESULT: v0x4fa49f0_0 : [0,2]
RESULT: v0x63e54a0_0 : [0,2]
RESULT: v0x5667cc0_0 : [0,2]
RESULT: v0x63e3cd0_0 : [0,2]
RESULT: v0x5f57bb0_0 : [0,2]
RESULT: v0x63e3370_0 : [0,2]
RESULT: v0x4fa47d0_0 : [0,2]
RESULT: v0x5663600_0 : [0,2]
RESULT: v0x640b470_0 : [0,2]
RESULT: v0x640b670_0 : [0,2]
RESULT: v0x640b870_0 : [0,2]
RESULT: v0x640ba70_0 : [2,2]
