RESULT: v0x62bb3c0_0 : [-1/0,1/0]
RESULT: v0x4f96460_0 : [-1/0,1/0]
RESULT: v0x5353320_0 : [-1/0,1/0]
RESULT: v0x42f3990_0 : [-1/0,1/0]
RESULT: v0x4f94c60_0 : [27,1/0]
RESULT: v0x46ae8f0_0 : [-1/0,1/0]
RESULT: v0x641d8d0_0 : [-1/0,1/0]
RESULT: v0x5316ee0_0 : [-1/0,1/0]
RESULT: v0x455a430_0 : [1,1]
RESULT: v0x5401ff0_0 : [-1/0,1/0]
RESULT: v0x62a4b90_0 : [-1/0,1/0]
RESULT: v0x4285070_0 : [67,1/0]
RESULT: v0x4285170_0 : [-1/0,1/0]
RESULT: v0x4285270_0 : [-1/0,1/0]
RESULT: v0x4285370_0 : [-1/0,1/0]
RESULT: v0x4285470_0 : [-1/0,1/0]
RESULT: v0x4285570_0 : [0,1]
RESULT: v0x4285670_0 : [-1/0,1/0]
RESULT: v0x4285770_0 : [-1/0,1/0]
RESULT: v0x4285870_0 : [-1/0,1/0]
RESULT: v0x4285970_0 : [-1/0,1/0]
RESULT: v0x4285a70_0 : [-1/0,1/0]
RESULT: v0x4285b70_0 : [-1/0,1/0]
RESULT: v0x4f24650_0 : [-1/0,1/0]
RESULT: v0x44f3510_0 : [-1/0,1/0]
RESULT: v0x43a27e0_0 : [-1/0,10]
RESULT: v0x4286e70_0 : [-1/0,1/0]
