RESULT: v0x4dc9790_0 : [-1/0,1/0]
RESULT: v0x4dc96d0_0 : [-1/0,1/0]
RESULT: v0x4dc84b0_0 : [-1/0,1/0]
RESULT: v0x4dca4d0_0 : [-1/0,1/0]
RESULT: v0x4dca5b0_0 : [-1/0,1/0]
RESULT: v0x4dca510_0 : [-1/0,1/0]
RESULT: v0x4dc93d0_0 : [-1/0,1/0]
RESULT: v0x4dca7d0_0 : [-1/0,1/0]
RESULT: v0x4dc9610_0 : [-1/0,1/0]
RESULT: v0x4dc9910_0 : [-1/0,1/0]
RESULT: v0x4dca730_0 : [-1/0,1/0]
RESULT: v0x4dca430_0 : [-1/0,1/0]
RESULT: v0x4dca2b0_0 : [-1/0,1/0]
RESULT: v0x4bc47e0_0 : [-1/0,1/0]
RESULT: v0x49f5460_0 : [-1/0,1/0]
RESULT: v0x4dcb010_0 : [-1/0,1/0]
RESULT: v0x4dc83f0_0 : [-1/0,1/0]
RESULT: v0x4dc9250_0 : [-1/0,1/0]
RESULT: v0x4dc8930_0 : [-1/0,1/0]
RESULT: v0x4dc9190_0 : [-1/0,1/0]
RESULT: v0x4dc86f0_0 : [-1/0,1/0]
RESULT: v0x4dc90d0_0 : [-1/0,1/0]
RESULT: v0x4dc8e90_0 : [-1/0,1/0]
RESULT: v0x4dc89f0_0 : [-1/0,1/0]
RESULT: v0x4dc8630_0 : [-1/0,1/0]
