RESULT: v0x3f48590_0 : [1,1/0]
RESULT: v0x3e1a4b0_0 : [0,1]
RESULT: v0x3f7def0_0 : [0,1]
RESULT: v0x3f8c130_0 : [123,777]
RESULT: v0x3f8f570_0 : [0,1]
RESULT: v0x3bdd560_0 : [0,1]
RESULT: v0x41fe2c0_0 : [0,1]
RESULT: v0x3ed26a0_0 : [0,1]
RESULT: v0x3f4ea50_0 : [0,2]
RESULT: v0x3fb4ed0_0 : [0,3]
RESULT: v0x3f5cff0_0 : [0,1]
RESULT: v0x3ebd8c0_0 : [0,1]
RESULT: v0x3bd2150_0 : [0,666]
RESULT: v0x3f328f0_0 : [0,2]
RESULT: v0x3fbc970_0 : [0,456]
RESULT: v0x3f17dd0_0 : [0,3]
RESULT: v0x3e4fe30_0 : [0,456]
RESULT: v0x3f31d90_0 : [0,1]
RESULT: v0x3f9dd30_0 : [0,2]
RESULT: v0x3f5bb50_0 : [0,1]
RESULT: v0x3e52740_0 : [0,1]
RESULT: v0x3fbac10_0 : [0,1]
RESULT: v0x3f9f6f0_0 : [0,123]
RESULT: v0x3e403d0_0 : [0,1]
