RESULT: v0x5812cf0_0 : [2,1/0]
RESULT: v0x5244650_0 : [-1/0,1/0]
RESULT: v0x5244850_0 : [-1/0,1/0]
RESULT: v0x54be120_0 : [0,1]
RESULT: v0x59ca910_0 : [0,1]
RESULT: v0x54b8ae0_0 : [0,1]
RESULT: v0x59cf2d0_0 : [0,3]
RESULT: v0x56ba730_0 : [0,1]
RESULT: v0x54eb870_0 : [0,3]
RESULT: v0x57872f0_0 : [0,2]
RESULT: v0x59b3b80_0 : [0,1]
RESULT: v0x54e9bb0_0 : [0,0]
RESULT: v0x5719930_0 : [456,456]
RESULT: v0x57d9b40_0 : [0,0]
RESULT: v0x59bb740_0 : [123,777]
RESULT: v0x574bf70_0 : [0,1]
RESULT: v0x573e370_0 : [0,1]
RESULT: v0x54e87b0_0 : [0,1]
RESULT: v0x56bb770_0 : [0,456]
RESULT: v0x54e2ef0_0 : [0,2]
RESULT: v0x5738e70_0 : [0,1]
RESULT: v0x54b9220_0 : [1,1]
RESULT: v0x578a130_0 : [456,456]
RESULT: v0x57b8a10_0 : [2,2]
RESULT: v0x56af6f0_0 : [0,123]
RESULT: v0x59d2bf0_0 : [0,1]
RESULT: v0x59c55b0_0 : [0,1]
RESULT: v0x5245550_0 : [789,789]
RESULT: v0x5244550_0 : [-1/0,1/0]
RESULT: v0x5244750_0 : [-1/0,1/0]
RESULT: v0x5244450_0 : [-1/0,1/0]
