RESULT: v0x44cbee0_0 : [-1/0,1/0]
RESULT: v0x47a3960_0 : [-1/0,1/0]
RESULT: v0x47a3aa0_0 : [-1/0,1/0]
RESULT: v0x47a4220_0 : [-1/0,1/0]
RESULT: v0x47a40e0_0 : [-1/0,1/0]
RESULT: v0x47a3fa0_0 : [-1/0,1/0]
RESULT: v0x47a36e0_0 : [-1/0,1/0]
RESULT: v0x47a35a0_0 : [-1/0,1/0]
RESULT: v0x47a4360_0 : [-1/0,1/0]
RESULT: v0x479eaa0_0 : [-1/0,1/0]
RESULT: v0x47a3320_0 : [-1/0,1/0]
RESULT: v0x47a31e0_0 : [-1/0,1/0]
RESULT: v0x47a30a0_0 : [-1/0,1/0]
RESULT: v0x47a2f60_0 : [-1/0,1/0]
RESULT: v0x47a2e20_0 : [-1/0,1/0]
RESULT: v0x47a2ce0_0 : [-1/0,1/0]
RESULT: v0x47a2ba0_0 : [-1/0,1/0]
RESULT: v0x4756f70_0 : [-1/0,1/0]
RESULT: v0x47982e0_0 : [-1/0,1/0]
RESULT: v0x47624b0_0 : [-1/0,1/0]
RESULT: v0x47bbce0_0 : [-1/0,1/0]
RESULT: v0x47a3460_0 : [-1/0,1/0]
RESULT: v0x47a3820_0 : [-1/0,1/0]
RESULT: v0x47a3be0_0 : [-1/0,1/0]
RESULT: v0x47a3d20_0 : [-1/0,1/0]
RESULT: v0x47a3e60_0 : [-1/0,1/0]
