RESULT: v0x64f7520_0 : [-1/0,1/0]
RESULT: v0xa68dfa0_0 : [-1/0,1/0]
RESULT: v0x9dd17f0_0 : [-1/0,1/0]
RESULT: v0x93f03b0_0 : [-1/0,1/0]
RESULT: v0x64f7780_0 : [27,1/0]
RESULT: v0xd94d020_0 : [-1/0,1/0]
RESULT: v0xd94cf20_0 : [-1/0,1/0]
RESULT: v0x132ccc10_0 : [0,0]
RESULT: v0x6e455c0_0 : [-1/0,1/0]
RESULT: v0x8def360_0 : [-1/0,1/0]
RESULT: v0x9bd1120_0 : [-1/0,1/0]
RESULT: v0x3f94330_0 : [67,1/0]
RESULT: v0x3f94430_0 : [0,1]
RESULT: v0x3f94530_0 : [-1/0,1/0]
RESULT: v0x3f94630_0 : [-1/0,1/0]
RESULT: v0x3f94730_0 : [-1/0,1/0]
RESULT: v0x3f94830_0 : [-1/0,1/0]
RESULT: v0x3f94930_0 : [0,1]
RESULT: v0x3f94a30_0 : [-1/0,1/0]
RESULT: v0x3f94b30_0 : [-1/0,1/0]
RESULT: v0x3f94c30_0 : [-1/0,1/0]
RESULT: v0x3f94d30_0 : [-1/0,1/0]
RESULT: v0x3f94e30_0 : [-1/0,1/0]
RESULT: v0x3f94f30_0 : [-1/0,1/0]
RESULT: v0x3f95030_0 : [-1/0,1/0]
RESULT: v0x40c7840_0 : [-1/0,1/0]
RESULT: v0x9bb1ca0_0 : [-1/0,1/0]
RESULT: v0xfaedb10_0 : [0,0]
RESULT: v0x106892d0_0 : [-1/0,10]
RESULT: v0x132c7b60_0 : [-1/0,1/0]
RESULT: v0x3f95330_0 : [-1/0,1/0]
