RESULT: v0x3db5360_0 : [2,1/0]
RESULT: v0x40ae930_0 : [0,1]
RESULT: v0x3f3a130_0 : [0,1]
RESULT: v0x3ee5f20_0 : [123,777]
RESULT: v0x40ac8f0_0 : [0,1]
RESULT: v0x40e43b0_0 : [0,1]
RESULT: v0x3f42530_0 : [2,2]
RESULT: v0x4084d60_0 : [1,1]
RESULT: v0x4091eb0_0 : [456,456]
RESULT: v0x406fb90_0 : [0,1]
RESULT: v0x40c7750_0 : [0,666]
RESULT: v0x3eaf610_0 : [0,1]
RESULT: v0x3ef0b10_0 : [0,2]
RESULT: v0x411fcb0_0 : [0,456]
RESULT: v0x40b5370_0 : [0,1]
RESULT: v0x40ae0d0_0 : [0,1]
RESULT: v0x40ac090_0 : [0,1]
RESULT: v0x3ffac10_0 : [0,123]
RESULT: v0x40f35b0_0 : [0,1]
RESULT: v0x409a8d0_0 : [0,3]
RESULT: v0x3ffa850_0 : [0,1]
RESULT: v0x3efa610_0 : [0,1]
RESULT: v0x3d9a260_0 : [-1/0,1/0]
RESULT: v0x3d99f60_0 : [456,456]
RESULT: v0x3d9b460_0 : [0,0]
RESULT: v0x3d9b560_0 : [0,456]
RESULT: v0x3d9b660_0 : [0,1]
RESULT: v0x3d9ba60_0 : [1,2]
RESULT: v0x3d9bb60_0 : [0,2]
RESULT: v0x3d9bc60_0 : [0,1]
RESULT: v0x3d9bd60_0 : [0,1]
RESULT: v0x3d9d360_0 : [0,0]
RESULT: v0x3d9d460_0 : [123,777]
RESULT: v0x3d9d560_0 : [0,0]
RESULT: v0x3d9d660_0 : [1,1]
RESULT: v0x3d9d760_0 : [1,3]
RESULT: v0x3d9d860_0 : [2,2]
RESULT: v0x3d9d960_0 : [1,1]
RESULT: v0x3d9da60_0 : [1,3]
RESULT: v0x3d9e460_0 : [0,0]
RESULT: v0x3d9e560_0 : [0,456]
RESULT: v0x3d9e660_0 : [0,0]
RESULT: v0x3d9e760_0 : [0,0]
RESULT: v0x3d9e860_0 : [2,2]
RESULT: v0x3d9e960_0 : [2,2]
RESULT: v0x3d9ea60_0 : [0,0]
RESULT: v0x3d9a160_0 : [0,0]
