RESULT: v0x3b203c0_0 : [-1/0,1/0]
RESULT: v0x3b53a00_0 : [-1/0,1/0]
RESULT: v0x3b20300_0 : [-1/0,1/0]
RESULT: v0x3b20540_0 : [-1/0,1/0]
RESULT: v0x3b1f940_0 : [-1/0,1/0]
RESULT: v0x3b21410_0 : [-1/0,1/0]
RESULT: v0x3b20180_0 : [-1/0,1/0]
RESULT: v0x3b200c0_0 : [-1/0,1/0]
RESULT: v0x3b20e40_0 : [-1/0,1/0]
RESULT: v0x3b214d0_0 : [-1/0,1/0]
RESULT: v0x3b77020_0 : [-1/0,1/0]
RESULT: v0x3b20480_0 : [-1/0,1/0]
RESULT: v0x3b1f880_0 : [-1/0,1/0]
RESULT: v0x3b1f640_0 : [-1/0,1/0]
RESULT: v0x3b1f700_0 : [-1/0,1/0]
RESULT: v0x3b1f580_0 : [-1/0,1/0]
RESULT: v0x3b1e980_0 : [-1/0,1/0]
RESULT: v0x3b1e8c0_0 : [-1/0,1/0]
RESULT: v0x3b1f040_0 : [-1/0,1/0]
RESULT: v0x3b1ef80_0 : [-1/0,1/0]
RESULT: v0x3b1f7c0_0 : [-1/0,1/0]
RESULT: v0x3b1f4c0_0 : [-1/0,1/0]
RESULT: v0x3b20600_0 : [-1/0,1/0]
RESULT: v0x3b20cc0_0 : [-1/0,1/0]
