RESULT: v0x438bc40_0 : [-1/0,1/0]
RESULT: v0x438bb80_0 : [-1/0,1/0]
RESULT: v0x438b700_0 : [-1/0,1/0]
RESULT: v0x438b7c0_0 : [-1/0,1/0]
RESULT: v0x438b880_0 : [-1/0,1/0]
RESULT: v0x438bdc0_0 : [-1/0,1/0]
RESULT: v0x438be80_0 : [-1/0,1/0]
RESULT: v0x438b640_0 : [-1/0,1/0]
RESULT: v0x4330460_0 : [-1/0,1/0]
RESULT: v0x4314db0_0 : [-1/0,1/0]
RESULT: v0x438b580_0 : [-1/0,1/0]
RESULT: v0x438c220_0 : [-1/0,1/0]
RESULT: v0x438c1e0_0 : [-1/0,1/0]
RESULT: v0x438c260_0 : [-1/0,1/0]
RESULT: v0x438c000_0 : [-1/0,1/0]
RESULT: v0x438c300_0 : [-1/0,1/0]
RESULT: v0x438c3c0_0 : [-1/0,1/0]
RESULT: v0x438c480_0 : [-1/0,1/0]
RESULT: v0x438c560_0 : [-1/0,1/0]
RESULT: v0x438c600_0 : [-1/0,1/0]
RESULT: v0x438bf40_0 : [-1/0,1/0]
RESULT: v0x438bac0_0 : [-1/0,1/0]
RESULT: v0x438ba00_0 : [-1/0,1/0]
RESULT: v0x438bd00_0 : [-1/0,1/0]
RESULT: v0x438b940_0 : [-1/0,1/0]
