RESULT: v0x517a970_1 : [3,3]
RESULT: v0x517aad0_1 : [0,1]
RESULT: v0x517ac50_1 : [0,1]
RESULT: v0x517ae90_1 : [0,1]
RESULT: v0x5112160_1 : [0,1]
RESULT: v0x5111fe0_1 : [0,1]
RESULT: v0x5111e60_1 : [0,1]
RESULT: v0x5111c20_1 : [0,1]
RESULT: v0x4fe2980_1 : [0,1]
RESULT: v0x4fe2a40_1 : [0,1]
RESULT: v0x4ea26d0_1 : [0,1]
RESULT: v0x4fe2c80_1 : [0,2]
RESULT: v0x4fe2d40_1 : [0,3]
RESULT: v0x4fd62a0_1 : [123,777]
RESULT: v0x4fd0200_1 : [0,666]
RESULT: v0x4fd5c70_1 : [0,2]
RESULT: v0x4fcc100_1 : [0,1]
RESULT: v0x4fcef20_1 : [0,2]
RESULT: v0x4fa56c0_1 : [0,456]
RESULT: v0x4fa5b50_1 : [0,123]
RESULT: v0x4fd3c70_1 : [0,456]
RESULT: v0x4fd7d20_1 : [0,3]
RESULT: v0x4fd3be0_1 : [0,1]
RESULT: v0x4fe6be0_1 : [0,1]
