RESULT: v0x3f12dc0_1 : [-1/0,2]
RESULT: v0x3f12b80_1 : [-1/0,1/0]
RESULT: v0x3f12a00_1 : [-1/0,1/0]
RESULT: v0x3f12880_1 : [-1/0,1/0]
RESULT: v0x3f12700_1 : [-1/0,1/0]
RESULT: v0x3f12230_1 : [-1/0,1/0]
RESULT: v0x3f120b0_1 : [0,1]
RESULT: v0x3f11f30_1 : [-1/0,1/0]
RESULT: v0x3f11db0_1 : [-1/0,1/0]
RESULT: v0x3f11c30_1 : [-1/0,1/0]
RESULT: v0x3f11ab0_1 : [-1/0,1/0]
RESULT: v0x3f11930_1 : [0,1/0]
RESULT: v0x3f117b0_1 : [-1/0,1/0]
RESULT: v0x3f11630_1 : [-1/0,1/0]
RESULT: v0x3f0ae40_1 : [-1/0,1/0]
RESULT: v0x3f11570_1 : [-1/0,1/0]
