RESULT: v0x624ce10_0 : [-1/0,1/0]
RESULT: v0x5b5eac0_0 : [-1/0,1/0]
RESULT: v0x43ba7a0_0 : [0,1]
RESULT: v0x4184bd0_0 : [-1/0,1/0]
RESULT: v0x38431d0_0 : [27,1/0]
RESULT: v0x407f3a0_0 : [-1/0,1/0]
RESULT: v0x619a700_0 : [-1/0,1/0]
RESULT: v0x5304310_0 : [0,0]
RESULT: v0x619a6c0_0 : [-1/0,1/0]
RESULT: v0x4053220_0 : [-1/0,1/0]
RESULT: v0x407f400_0 : [-1/0,1/0]
RESULT: v0x3f94330_0 : [67,1/0]
RESULT: v0x3f94430_0 : [0,1]
RESULT: v0x3f94530_0 : [-1/0,1/0]
RESULT: v0x3f94630_0 : [-1/0,1/0]
RESULT: v0x3f94730_0 : [-1/0,1/0]
RESULT: v0x3f94830_0 : [-1/0,1/0]
RESULT: v0x3f94930_0 : [0,1]
RESULT: v0x3f94a30_0 : [-1/0,1/0]
RESULT: v0x3f94b30_0 : [-1/0,1/0]
RESULT: v0x3f94c30_0 : [-1/0,1/0]
RESULT: v0x3f94d30_0 : [0,0]
RESULT: v0x3f94e30_0 : [-1/0,1/0]
RESULT: v0x3f94f30_0 : [-1/0,1/0]
RESULT: v0x3f95030_0 : [-1/0,1/0]
RESULT: v0x46cb030_0 : [-1/0,1/0]
RESULT: v0x64240b0_0 : [-1/0,1/0]
RESULT: v0x63e6790_0 : [0,0]
RESULT: v0x47bb290_0 : [-1/0,10]
RESULT: v0x64240f0_0 : [-1/0,1/0]
RESULT: v0x3f95330_0 : [-1/0,1/0]
