RESULT: v0x3befdb0_0 : [1,1/0]
RESULT: v0x3d4cb20_0 : [0,1]
RESULT: v0x3b8c900_0 : [0,1]
RESULT: v0x3dd9a40_0 : [123,777]
RESULT: v0x3d78e40_0 : [0,1]
RESULT: v0x3d660a0_0 : [0,1]
RESULT: v0x3dd2e80_0 : [0,2]
RESULT: v0x3ddc9e0_0 : [0,456]
RESULT: v0x3d75680_0 : [0,1]
RESULT: v0x3ce6660_0 : [0,1]
RESULT: v0x3dd7060_0 : [0,666]
RESULT: v0x3bdd450_0 : [0,1]
RESULT: v0x3d839e0_0 : [0,1]
RESULT: v0x3d7ee80_0 : [0,1]
RESULT: v0x3d88320_0 : [0,123]
RESULT: v0x3d52c20_0 : [0,1]
RESULT: v0x3d662a0_0 : [0,1]
RESULT: v0x3cac7d0_0 : [0,456]
RESULT: v0x3db7e20_0 : [0,2]
RESULT: v0x3db72c0_0 : [0,1]
RESULT: v0x3b59440_0 : [0,1]
RESULT: v0x3dd8a40_0 : [0,3]
RESULT: v0x3a4a690_0 : [-1/0,1/0]
RESULT: v0x3a4a390_0 : [0,456]
RESULT: v0x3a4a590_0 : [0,1]
