RESULT: v0x3b689e0_0 : [-1/0,1/0]
RESULT: v0x3b68c20_0 : [-1/0,1/0]
RESULT: v0x3b68320_0 : [-1/0,1/0]
RESULT: v0x3b686e0_0 : [-1/0,1/0]
RESULT: v0x3b683e0_0 : [-1/0,1/0]
RESULT: v0x3b67a20_0 : [-1/0,1/0]
RESULT: v0x3b68920_0 : [-1/0,1/0]
RESULT: v0x3b681c0_0 : [-1/0,1/0]
RESULT: v0x35c5040_0 : [-1/0,1/0]
RESULT: v0x3b68260_0 : [-1/0,1/0]
RESULT: v0x3b651c0_0 : [-1/0,1/0]
RESULT: v0x3bada40_0 : [-1/0,1/0]
RESULT: v0x3bb10d0_0 : [-1/0,1/0]
RESULT: v0x3b65280_0 : [-1/0,1/0]
RESULT: v0x3b680e0_0 : [-1/0,1/0]
RESULT: v0x3b67960_0 : [-1/0,1/0]
RESULT: v0x3b678a0_0 : [-1/0,1/0]
RESULT: v0x3b67720_0 : [-1/0,1/0]
RESULT: v0x3b66b90_0 : [-1/0,1/0]
RESULT: v0x3b66ad0_0 : [-1/0,1/0]
RESULT: v0x3b672a0_0 : [-1/0,1/0]
RESULT: v0x3b67200_0 : [-1/0,1/0]
RESULT: v0x3b88410_0 : [-1/0,1/0]
RESULT: v0x3b677c0_0 : [-1/0,1/0]
