RESULT: v0xa110490_0 : [-1/0,1/0]
RESULT: v0x1004bca0_0 : [-1/0,1/0]
RESULT: v0x116a5060_0 : [-1/0,1/0]
RESULT: v0x8f17b80_0 : [0,1]
RESULT: v0x400f1e0_0 : [67,1/0]
RESULT: v0x622fd20_0 : [-1/0,1/0]
RESULT: v0x4495360_0 : [-1/0,1/0]
RESULT: v0x8f17bc0_0 : [0,0]
RESULT: v0x78a3080_0 : [-1/0,1/0]
RESULT: v0x8dd76d0_0 : [-1/0,1/0]
RESULT: v0x88cbf90_0 : [-1/0,1/0]
RESULT: v0x3f94330_0 : [67,1/0]
RESULT: v0x3f94430_0 : [0,1]
RESULT: v0x3f94530_0 : [-1/0,1/0]
RESULT: v0x3f94630_0 : [-1/0,1/0]
RESULT: v0x3f94730_0 : [-1/0,1/0]
RESULT: v0x3f94830_0 : [-1/0,1/0]
RESULT: v0x3f94930_0 : [0,1]
RESULT: v0x3f94a30_0 : [-1/0,1/0]
RESULT: v0x3f94b30_0 : [-1/0,1/0]
RESULT: v0x3f94c30_0 : [0,0]
RESULT: v0x3f94d30_0 : [-1/0,1/0]
RESULT: v0x3f94e30_0 : [-1/0,1/0]
RESULT: v0x3f94f30_0 : [-1/0,1/0]
RESULT: v0x3f95030_0 : [-1/0,1/0]
RESULT: v0x44953a0_0 : [-1/0,1/0]
RESULT: v0x144e07c0_0 : [-1/0,1/0]
RESULT: v0x11c0fd70_0 : [0,0]
RESULT: v0x622fca0_0 : [-1/0,10]
RESULT: v0x400f160_0 : [-1/0,1/0]
RESULT: v0x3f95330_0 : [-1/0,1/0]
