RESULT: v0x50a05e0_0 : [0,1]
RESULT: v0x50a04e0_0 : [2,2]
RESULT: v0x50a00e0_0 : [1,1]
RESULT: v0x509f020_0 : [1,2]
RESULT: v0x509fbe0_0 : [0,2]
RESULT: v0x509e320_0 : [0,1/0]
RESULT: v0x509fae0_0 : [0,1]
RESULT: v0x509e220_0 : [0,1/0]
RESULT: v0x509fee0_0 : [0,1/0]
RESULT: v0x509f9e0_0 : [1,6]
RESULT: v0x50a06e0_0 : [0,1]
RESULT: v0x50a02e0_0 : [0,1]
RESULT: v0x50a01e0_0 : [0,1]
RESULT: v0x509ffe0_0 : [0,1]
RESULT: v0x509fce0_0 : [0,1]
RESULT: v0x509fde0_0 : [0,1]
RESULT: v0x50a07e0_0 : [-1/0,1/0]
RESULT: v0x50a03e0_0 : [-1/0,1/0]
RESULT: v0xb3670b0_0 : [-1/0,1/0]
RESULT: v0xb20f7c0_0 : [0,0]
RESULT: v0xb2142c0_0 : [0,0]
RESULT: v0x865ebe0_0 : [-1/0,1/0]
RESULT: v0xa79e5b0_0 : [0,0]
RESULT: v0xa78d470_0 : [-1/0,1/0]
RESULT: v0xa33cef0_0 : [-1/0,1/0]
RESULT: v0xb427ea0_0 : [-1/0,1/0]
RESULT: v0xb3ea4d0_0 : [-1/0,1/0]
RESULT: v0xb429ec0_0 : [1,1]
