RESULT: v0x46cb410_0 : [-1/0,1/0]
RESULT: v0x8b0eed0_0 : [-1/0,1/0]
RESULT: v0x5da59e0_0 : [0,1]
RESULT: v0x8b0ef10_0 : [-1/0,1/0]
RESULT: v0x6161a30_0 : [27,1/0]
RESULT: v0x7230940_0 : [-1/0,1/0]
RESULT: v0x6462440_0 : [-1/0,1/0]
RESULT: v0x45e7a80_0 : [0,0]
RESULT: v0x7257390_0 : [-1/0,1/0]
RESULT: v0x64f4030_0 : [-1/0,1/0]
RESULT: v0x46cb250_0 : [-1/0,1/0]
RESULT: v0x3fa3330_0 : [67,1/0]
RESULT: v0x3fa3430_0 : [-1/0,1/0]
RESULT: v0x3fa3530_0 : [-1/0,1/0]
RESULT: v0x3fa3630_0 : [-1/0,1/0]
RESULT: v0x3fa3730_0 : [-1/0,1/0]
RESULT: v0x3fa3830_0 : [0,1]
RESULT: v0x3fa3930_0 : [-1/0,1/0]
RESULT: v0x3fa3a30_0 : [-1/0,1/0]
RESULT: v0x3fa3b30_0 : [-1/0,1/0]
RESULT: v0x3fa3c30_0 : [0,0]
RESULT: v0x3fa3d30_0 : [-1/0,1/0]
RESULT: v0x3fa3e30_0 : [-1/0,1/0]
RESULT: v0x3fa3f30_0 : [-1/0,1/0]
RESULT: v0x4198be0_0 : [-1/0,1/0]
RESULT: v0x4085f80_0 : [0,0]
RESULT: v0x636c670_0 : [-1/0,10]
RESULT: v0x411ccb0_0 : [-1/0,1/0]
RESULT: v0x411cd30_0 : [-1/0,1/0]
RESULT: v0x3fa4230_0 : [-1/0,1/0]
