RESULT: v0x503b880_0 : [-1/0,1/0]
RESULT: v0x503b800_0 : [-1/0,1/0]
RESULT: v0x503b260_0 : [-1/0,1/0]
RESULT: v0x503b320_0 : [-1/0,1/0]
RESULT: v0x503b3e0_0 : [-1/0,1/0]
RESULT: v0x503b620_0 : [-1/0,1/0]
RESULT: v0x503b920_0 : [-1/0,1/0]
RESULT: v0x503b1a0_0 : [-1/0,1/0]
RESULT: v0x4fea9d0_0 : [-1/0,1/0]
RESULT: v0x4fcc170_0 : [-1/0,1/0]
RESULT: v0x503b100_0 : [-1/0,1/0]
RESULT: v0x503baa0_0 : [-1/0,1/0]
RESULT: v0x503bb60_0 : [-1/0,1/0]
RESULT: v0x503bc20_0 : [-1/0,1/0]
RESULT: v0x503bce0_0 : [-1/0,1/0]
RESULT: v0x503bda0_0 : [-1/0,1/0]
RESULT: v0x503be60_0 : [-1/0,1/0]
RESULT: v0x503bf20_0 : [-1/0,1/0]
RESULT: v0x503bfe0_0 : [-1/0,1/0]
RESULT: v0x503c0a0_0 : [-1/0,1/0]
RESULT: v0x503b9e0_0 : [-1/0,1/0]
RESULT: v0x503b840_0 : [-1/0,1/0]
RESULT: v0x503b560_0 : [-1/0,1/0]
RESULT: v0x503b4a0_0 : [-1/0,1/0]
