RESULT: v0x60981b0_0 : [-1/0,1/0]
RESULT: v0x60983b0_0 : [-1/0,1/0]
RESULT: v0x60990b0_0 : [789,789]
RESULT: v0x60980b0_0 : [-1/0,1/0]
RESULT: v0x60982b0_0 : [-1/0,1/0]
RESULT: v0x6097fb0_0 : [-1/0,1/0]
RESULT: v0x65c4030_1 : [3,3]
RESULT: v0x65c42b0_1 : [0,1]
RESULT: v0x65c4170_1 : [0,1]
RESULT: v0x65c39f0_1 : [0,1]
RESULT: v0x65c6d30_1 : [0,1]
RESULT: v0x65c52f0_1 : [0,1]
RESULT: v0x65c9670_1 : [0,1]
RESULT: v0x65cb330_1 : [0,1]
RESULT: v0x65cfa70_1 : [0,1]
RESULT: v0x65cfbb0_1 : [0,1]
RESULT: v0x65cf7f0_1 : [0,1]
RESULT: v0x65cceb0_1 : [0,1]
RESULT: v0x64acbf0_1 : [0,1]
RESULT: v0x64e9230_1 : [0,2]
RESULT: v0x64ec070_1 : [0,3]
RESULT: v0x65b6e30_1 : [0,1]
RESULT: v0x65b0df0_1 : [123,777]
RESULT: v0x64aa030_1 : [0,666]
RESULT: v0x656f3f0_1 : [0,2]
RESULT: v0x64ca830_1 : [0,1]
RESULT: v0x64e72f0_1 : [0,2]
RESULT: v0x64e7a70_1 : [0,456]
RESULT: v0x6598bb0_1 : [0,123]
RESULT: v0x65141b0_1 : [0,456]
RESULT: v0x65b02b0_1 : [0,3]
