RESULT: v0x43bde70_0 : [0,2]
RESULT: v0x43c5e80_0 : [0,0]
RESULT: v0x43bda70_0 : [0,1]
RESULT: v0x43bd570_0 : [0,2]
RESULT: v0x43c5b80_0 : [0,1]
RESULT: v0x43bc9b0_0 : [1,1]
RESULT: v0x43bbcb0_0 : [0,50]
RESULT: v0x43bdf70_0 : [0,1]
RESULT: v0x43bd470_0 : [0,1]
RESULT: v0x43bdb70_0 : [0,1]
RESULT: v0x43bc650_0 : [3,6]
RESULT: v0x43be170_0 : [-1/0,1/0]
RESULT: v0x43c5380_0 : [3,6]
RESULT: v0x43c6180_0 : [-1/0,1/0]
RESULT: v0x43c5a80_0 : [0,0]
RESULT: v0x43bd670_0 : [0,1]
RESULT: v0x43bd870_0 : [0,50]
RESULT: v0x43c5880_0 : [0,50]
RESULT: v0x43c5680_0 : [0,1]
RESULT: v0x43c5580_0 : [1,2]
RESULT: v0x43c5480_0 : [0,1]
RESULT: v0x43c5c80_0 : [0,0]
RESULT: v0x43c5980_0 : [0,0]
RESULT: v0x43c5780_0 : [0,0]
RESULT: v0x43c6080_0 : [0,0]
RESULT: v0x43c5f80_0 : [1,1]
RESULT: v0x43bd970_0 : [0,0]
RESULT: v0x43be070_0 : [0,0]
RESULT: v0x43bdc70_0 : [0,0]
RESULT: v0x43bd770_0 : [0,0]
RESULT: v0x43c5d80_0 : [-1/0,1/0]
RESULT: v0x43bdd70_0 : [-1/0,1/0]
RESULT: v0x53aba40_1 : [-1/0,1/0]
RESULT: v0x51e3ab0_1 : [0,50]
RESULT: v0x56f05b0_1 : [0,0]
RESULT: v0x56f7b50_1 : [1,1]
RESULT: v0x5391bd0_1 : [0,0]
RESULT: v0x56f3b50_1 : [-1/0,1/0]
