RESULT: v0x6a37e50_0 : [-1/0,1/0]
RESULT: v0x7e14a60_0 : [-1/0,1/0]
RESULT: v0x6aca580_0 : [-1/0,1/0]
RESULT: v0x8467b20_0 : [-1/0,1/0]
RESULT: v0x8b00590_0 : [27,1/0]
RESULT: v0xdac3e20_0 : [-1/0,1/0]
RESULT: v0x5fa7730_0 : [-1/0,1/0]
RESULT: v0xccb0b40_0 : [-1/0,1/0]
RESULT: v0x49ce650_0 : [0,0]
RESULT: v0x5956120_0 : [-1/0,1/0]
RESULT: v0xa7ba2e0_0 : [-1/0,1/0]
RESULT: v0x478d2d0_0 : [67,1/0]
RESULT: v0x478d3d0_0 : [0,1]
RESULT: v0x478d4d0_0 : [-1/0,1/0]
RESULT: v0x478d5d0_0 : [-1/0,1/0]
RESULT: v0x478d6d0_0 : [-1/0,1/0]
RESULT: v0x478d7d0_0 : [-1/0,1/0]
RESULT: v0x478d8d0_0 : [0,1]
RESULT: v0x478d9d0_0 : [-1/0,1/0]
RESULT: v0x478dad0_0 : [-1/0,1/0]
RESULT: v0x478dbd0_0 : [-1/0,1/0]
RESULT: v0x478dcd0_0 : [-1/0,1/0]
RESULT: v0x478ddd0_0 : [-1/0,1/0]
RESULT: v0x478ded0_0 : [-1/0,1/0]
RESULT: v0x478dfd0_0 : [-1/0,1/0]
RESULT: v0x5ebc8e0_0 : [-1/0,1/0]
RESULT: v0x6acaa80_0 : [-1/0,1/0]
RESULT: v0xacd7d30_0 : [0,0]
RESULT: v0x8ad11d0_0 : [-1/0,10]
RESULT: v0x8b2da10_0 : [-1/0,1/0]
RESULT: v0x478e2d0_0 : [-1/0,1/0]
