RESULT: v0x42603c0_0 : [-1/0,1/0]
RESULT: v0x11c0fc10_0 : [-1/0,1/0]
RESULT: v0xf2458c0_0 : [-1/0,1/0]
RESULT: v0xc5e35c0_0 : [-1/0,1/0]
RESULT: v0x4ea5c50_0 : [67,1/0]
RESULT: v0x1181f360_0 : [-1/0,1/0]
RESULT: v0x1217b0f0_0 : [-1/0,1/0]
RESULT: v0x842feb0_0 : [0,0]
RESULT: v0x4fee810_0 : [-1/0,1/0]
RESULT: v0x5582690_0 : [-1/0,1/0]
RESULT: v0x4260340_0 : [-1/0,1/0]
RESULT: v0x3fa3330_0 : [67,1/0]
RESULT: v0x3fa3430_0 : [-1/0,1/0]
RESULT: v0x3fa3530_0 : [-1/0,1/0]
RESULT: v0x3fa3630_0 : [-1/0,1/0]
RESULT: v0x3fa3730_0 : [-1/0,1/0]
RESULT: v0x3fa3830_0 : [0,1]
RESULT: v0x3fa3930_0 : [-1/0,1/0]
RESULT: v0x3fa3a30_0 : [-1/0,1/0]
RESULT: v0x3fa3b30_0 : [0,0]
RESULT: v0x3fa3c30_0 : [0,0]
RESULT: v0x3fa3d30_0 : [-1/0,1/0]
RESULT: v0x3fa3e30_0 : [-1/0,1/0]
RESULT: v0x3fa3f30_0 : [-1/0,1/0]
RESULT: v0x41aad10_0 : [-1/0,1/0]
RESULT: v0xa3844a0_0 : [0,0]
RESULT: v0xc5e3420_0 : [-1/0,10]
RESULT: v0x11595870_0 : [-1/0,1/0]
RESULT: v0x4fee890_0 : [-1/0,1/0]
RESULT: v0x3fa4230_0 : [-1/0,1/0]
