RESULT: v0x3b3cf50_1 : [4,4]
RESULT: v0x3ba9350_1 : [0,1]
RESULT: v0x3ba6890_1 : [0,1]
RESULT: v0x3b4ad10_1 : [0,1]
RESULT: v0x3b9bab0_1 : [0,1]
RESULT: v0x3bd5cd0_1 : [0,1]
RESULT: v0x3db4e40_1 : [0,1]
RESULT: v0x3b530f0_1 : [0,1]
RESULT: v0x3add5c0_1 : [0,1]
RESULT: v0x3a7bcf0_1 : [0,1]
RESULT: v0x3adf600_1 : [0,1]
RESULT: v0x3be1450_1 : [0,1]
RESULT: v0x39ab2c0_1 : [0,1]
RESULT: v0x39a8280_1 : [0,2]
RESULT: v0x3992620_1 : [0,3]
RESULT: v0x394bba0_1 : [0,1]
RESULT: v0x39acd40_1 : [123,777]
RESULT: v0x3a77690_1 : [0,666]
RESULT: v0x39aace0_1 : [0,2]
RESULT: v0x3949b20_1 : [0,1]
RESULT: v0x394abe0_1 : [0,2]
RESULT: v0x3b007b0_1 : [0,456]
RESULT: v0x3a85370_1 : [0,123]
RESULT: v0x3916830_1 : [0,456]
