RESULT: v0x3c55c10_1 : [-1/0,11]
RESULT: v0x3c26780_1 : [-1/0,1/0]
RESULT: v0x3be2420_1 : [0,1]
RESULT: v0x3c55b00_1 : [-1/0,1/0]
RESULT: v0x42ee850_1 : [-1/0,1/0]
RESULT: v0x3ce9fe0_1 : [-1/0,1/0]
RESULT: v0x3bae9e0_1 : [-1/0,1/0]
RESULT: v0x3c78720_1 : [-1/0,1/0]
RESULT: v0x3e3e450_1 : [-1/0,1/0]
RESULT: v0x3baece0_1 : [-1/0,1/0]
RESULT: v0x3bd1220_1 : [-1/0,1/0]
RESULT: v0x3b6d190_1 : [-1/0,1/0]
RESULT: v0x3c7f1e0_1 : [-1/0,1/0]
RESULT: v0x3e6ac50_1 : [-1/0,1/0]
RESULT: v0x3e6ae90_1 : [-1/0,1/0]
RESULT: v0x461e3a0_1 : [-1/0,1/0]
