RESULT: v0x37f4a10_0 : [-1/0,1/0]
RESULT: v0x12708ac0_0 : [8560,8641]
RESULT: v0x37f4c10_0 : [-1/0,1/0]
RESULT: v0x12200bc0_0 : [-1/0,1/0]
RESULT: v0x37f5210_0 : [-1/0,1/0]
RESULT: v0x37f4f10_0 : [-1/0,1/0]
RESULT: v0x37f5610_0 : [-1/0,1/0]
RESULT: v0xcd0a1a0_0 : [-1/0,1/0]
RESULT: v0x1262f960_0 : [-1/0,1/0]
RESULT: v0x552f7f0_0 : [-1/0,1/0]
RESULT: v0x1262f400_0 : [-1/0,1/0]
RESULT: v0x37f5310_0 : [-1/0,1/0]
RESULT: v0x37f4150_0 : [-1/0,1/0]
RESULT: v0x37f4610_0 : [-1/0,1/0]
