RESULT: v0xb118010_0 : [-1/0,1/0]
RESULT: v0xc7f0150_0 : [-1/0,1/0]
RESULT: v0x7b24e90_0 : [-1/0,1/0]
RESULT: v0x79862f0_0 : [-1/0,1/0]
RESULT: v0xa16e0f0_0 : [-1/0,1/0]
RESULT: v0xac80280_0 : [-1/0,1/0]
RESULT: v0x66f8d40_0 : [1,1]
RESULT: v0x4e8eda0_0 : [67,1/0]
RESULT: v0x73b6150_0 : [27,1/0]
RESULT: v0x4e8eea0_0 : [0,1]
RESULT: v0x4e8efa0_0 : [0,1]
RESULT: v0x4e8f0a0_0 : [-1/0,1/0]
RESULT: v0x4e8f1a0_0 : [-1/0,1/0]
RESULT: v0x4e8f2a0_0 : [-1/0,1/0]
RESULT: v0x4e8f3a0_0 : [-1/0,1/0]
RESULT: v0x4e8f4a0_0 : [-1/0,1/0]
RESULT: v0x7b24f30_0 : [-1/0,1/0]
RESULT: v0x4e8f5a0_0 : [-1/0,1/0]
RESULT: v0x5256600_0 : [-1/0,1/0]
RESULT: v0x4e8f6a0_0 : [-1/0,1/0]
RESULT: v0x7741d80_0 : [-1/0,1/0]
RESULT: v0x4e8f7a0_0 : [-1/0,1/0]
RESULT: v0x4e8f8a0_0 : [-1/0,1/0]
RESULT: v0x4e8f9a0_0 : [-1/0,1/0]
RESULT: v0x4e8faa0_0 : [-1/0,1/0]
RESULT: v0x607ec60_0 : [-1/0,1/0]
RESULT: v0x83541a0_0 : [-1/0,1/0]
RESULT: v0x6ca0c60_0 : [-1/0,1/0]
RESULT: v0xf13ceb0_0 : [-1/0,10]
RESULT: v0x5a53290_0 : [-1/0,1/0]
RESULT: v0x4e90da0_0 : [-1/0,1/0]
