RESULT: v0x4958280_0 : [-1/0,1/0]
RESULT: v0x4958780_0 : [-1/0,1/0]
RESULT: v0x4959380_0 : [789,789]
RESULT: v0x4958480_0 : [-1/0,1/0]
RESULT: v0x4958580_0 : [-1/0,1/0]
RESULT: v0x4958380_0 : [-1/0,1/0]
RESULT: v0x4ea27e0_1 : [3,3]
RESULT: v0x4ea31e0_1 : [0,1]
RESULT: v0x4ea2920_1 : [0,1]
RESULT: v0x4ea21a0_1 : [0,1]
RESULT: v0x4ea5260_1 : [0,1]
RESULT: v0x4ea40e0_1 : [0,1]
RESULT: v0x4ea76a0_1 : [0,1]
RESULT: v0x4ead320_1 : [0,1]
RESULT: v0x4eac420_1 : [0,1]
RESULT: v0x4eac7e0_1 : [0,1]
RESULT: v0x4eac1a0_1 : [0,1]
RESULT: v0x4eabde0_1 : [0,2]
RESULT: v0x4e54720_1 : [0,3]
RESULT: v0x4dc6d60_1 : [0,1]
RESULT: v0x4e73ee0_1 : [123,777]
RESULT: v0x4e54220_1 : [0,666]
RESULT: v0x4e81ae0_1 : [0,2]
RESULT: v0x4eb57a0_1 : [0,1]
RESULT: v0x4eb5520_1 : [0,2]
RESULT: v0x4e879e0_1 : [0,456]
RESULT: v0x4dbe3e0_1 : [0,123]
RESULT: v0x4d8dce0_1 : [0,456]
RESULT: v0x4e1e760_1 : [0,3]
RESULT: v0x4e2c860_1 : [0,1]
RESULT: v0x4bdefe0_1 : [0,1]
