RESULT: v0x415ef70_0 : [-1/0,1/0]
RESULT: v0x60f4720_0 : [-1/0,1/0]
RESULT: v0x464a3a0_0 : [-1/0,1/0]
RESULT: v0x3b1a4f0_0 : [-1/0,1/0]
RESULT: v0x3da41c0_0 : [67,1/0]
RESULT: v0x4f46ec0_0 : [-1/0,1/0]
RESULT: v0x4161240_0 : [-1/0,1/0]
RESULT: v0x5aafe50_0 : [-1/0,1/0]
RESULT: v0x40f0340_0 : [0,0]
RESULT: v0x3a318a0_0 : [-1/0,1/0]
RESULT: v0x3a4a860_0 : [-1/0,1/0]
RESULT: v0x391f010_0 : [-1/0,1/0]
RESULT: v0x391f110_0 : [-1/0,1/0]
RESULT: v0x391f210_0 : [-1/0,1/0]
RESULT: v0x391f310_0 : [-1/0,1/0]
RESULT: v0x391f410_0 : [67,1/0]
RESULT: v0x391f510_0 : [0,1]
RESULT: v0x391f610_0 : [0,1]
RESULT: v0x391f710_0 : [-1/0,1/0]
RESULT: v0x391f810_0 : [-1/0,1/0]
RESULT: v0x391f910_0 : [0,0]
RESULT: v0x391fa10_0 : [0,0]
RESULT: v0x391fb10_0 : [-1/0,1/0]
RESULT: v0x391fc10_0 : [-1/0,1/0]
RESULT: v0x391fd10_0 : [-1/0,1/0]
RESULT: v0x3fe6c10_0 : [-1/0,1/0]
RESULT: v0x3fb2740_0 : [-1/0,1/0]
RESULT: v0x4fe6850_0 : [0,0]
RESULT: v0x64c47f0_0 : [-1/0,10]
RESULT: v0x4cdc810_0 : [-1/0,1/0]
RESULT: v0x3920010_0 : [-1/0,1/0]
