RESULT: v0x509a6c0_1 : [3,3]
RESULT: v0x5056d50_1 : [0,1]
RESULT: v0x50a9cb0_1 : [0,1]
RESULT: v0x5098060_1 : [0,1]
RESULT: v0x5184f00_1 : [0,1]
RESULT: v0x5184d80_1 : [0,1]
RESULT: v0x5184cc0_1 : [0,1]
RESULT: v0x51849c0_1 : [0,1]
RESULT: v0x50978f0_1 : [0,1]
RESULT: v0x50979b0_1 : [0,1]
RESULT: v0x5097a70_1 : [0,1]
RESULT: v0x5097b30_1 : [0,1]
RESULT: v0x5097bf0_1 : [123,777]
RESULT: v0x4fa8b10_1 : [0,666]
RESULT: v0x5083970_1 : [0,2]
RESULT: v0x5078ff0_1 : [0,1]
RESULT: v0x5084610_1 : [0,2]
RESULT: v0x5088420_1 : [0,456]
RESULT: v0x508c600_1 : [0,123]
RESULT: v0x5088390_1 : [0,456]
RESULT: v0x50a06e0_1 : [0,3]
