RESULT: v0x6b5c460_0 : [0,0]
RESULT: v0x67b8a30_0 : [0,1]
RESULT: v0x5d18a00_0 : [1,2]
RESULT: v0x509f020_0 : [1,2]
RESULT: v0x6d39f10_0 : [1,1]
RESULT: v0x67b48a0_0 : [0,1]
RESULT: v0x67b87f0_0 : [2,6]
RESULT: v0x67c0c70_0 : [0,1]
RESULT: v0x5c21c70_0 : [0,1]
RESULT: v0x70f9a10_0 : [-1/0,1/0]
RESULT: v0x59367b0_0 : [0,1]
RESULT: v0x61337e0_0 : [0,1]
RESULT: v0x509e320_0 : [0,51]
RESULT: v0x509e220_0 : [0,50]
RESULT: v0x6809ed0_0 : [0,51]
RESULT: v0x5d5e7f0_0 : [0,1]
RESULT: v0x5ad9b60_0 : [0,1]
RESULT: v0x67c4c50_0 : [-1/0,1/0]
RESULT: v0x50a79f0_0 : [2,6]
RESULT: v0x50a7af0_0 : [0,1]
RESULT: v0x50a7bf0_0 : [1,2]
RESULT: v0x50a7cf0_0 : [0,1]
RESULT: v0x50a7df0_0 : [0,1]
RESULT: v0x50a7ef0_0 : [0,51]
RESULT: v0x50a7ff0_0 : [0,1]
RESULT: v0x50a80f0_0 : [0,1]
RESULT: v0x50a81f0_0 : [0,1]
RESULT: v0x50a82f0_0 : [0,1]
RESULT: v0x50a83f0_0 : [-1/0,1/0]
RESULT: v0x50a84f0_0 : [0,0]
RESULT: v0x50a85f0_0 : [1,1]
RESULT: v0x50a86f0_0 : [0,1]
RESULT: v0x50a87f0_0 : [-1/0,1/0]
RESULT: v0x509f620_0 : [-1/0,1/0]
RESULT: v0x509f320_0 : [-1/0,1/0]
RESULT: v0x50a89f0_0 : [-1/0,1/0]
RESULT: v0x7db7b40_0 : [-1/0,1/0]
RESULT: v0x7db7ca0_0 : [0,50]
RESULT: v0x7db7ea0_0 : [0,51]
RESULT: v0x7db80a0_0 : [0,2]
RESULT: v0x7db82a0_0 : [0,1]
RESULT: v0x7db84a0_0 : [1,1]
RESULT: v0x7db86a0_0 : [-1/0,1/0]
RESULT: v0x50a88f0_0 : [-1/0,1/0]
