RESULT: v0x6d8e7e0_0 : [-1/0,1/0]
RESULT: v0xc13e5a0_0 : [-1/0,1/0]
RESULT: v0x54fcec0_0 : [-1/0,1/0]
RESULT: v0x569b490_0 : [-1/0,1/0]
RESULT: v0x486e780_0 : [67,1/0]
RESULT: v0x6e10820_0 : [-1/0,1/0]
RESULT: v0x6d68b70_0 : [-1/0,1/0]
RESULT: v0x4b854a0_0 : [-1/0,1/0]
RESULT: v0x569b510_0 : [0,0]
RESULT: v0x85f0110_0 : [-1/0,1/0]
RESULT: v0x6e4d320_0 : [-1/0,1/0]
RESULT: v0x478d2d0_0 : [67,1/0]
RESULT: v0x478d3d0_0 : [0,1]
RESULT: v0x478d4d0_0 : [-1/0,1/0]
RESULT: v0x478d5d0_0 : [-1/0,1/0]
RESULT: v0x478d6d0_0 : [-1/0,1/0]
RESULT: v0x478d7d0_0 : [-1/0,1/0]
RESULT: v0x478d8d0_0 : [0,1]
RESULT: v0x478d9d0_0 : [-1/0,1/0]
RESULT: v0x478dad0_0 : [-1/0,1/0]
RESULT: v0x478dbd0_0 : [0,0]
RESULT: v0x478dcd0_0 : [0,0]
RESULT: v0x478ddd0_0 : [-1/0,1/0]
RESULT: v0x478ded0_0 : [-1/0,1/0]
RESULT: v0x478dfd0_0 : [-1/0,1/0]
RESULT: v0x54fcf00_0 : [-1/0,1/0]
RESULT: v0x518d200_0 : [-1/0,1/0]
RESULT: v0x7289730_0 : [0,0]
RESULT: v0x4e74910_0 : [-1/0,10]
RESULT: v0x4ad3cd0_0 : [-1/0,1/0]
RESULT: v0x478e2d0_0 : [-1/0,1/0]
