RESULT: v0x3eef7a0_1 : [3,3]
RESULT: v0x3eef6e0_1 : [0,1]
RESULT: v0x3eef620_1 : [0,1]
RESULT: v0x3db6330_1 : [0,1]
RESULT: v0x4002ba0_1 : [0,1]
RESULT: v0x4002b00_1 : [0,1]
RESULT: v0x4002ac0_1 : [0,1]
RESULT: v0x4002660_1 : [0,1]
RESULT: v0x3eefce0_1 : [0,1]
RESULT: v0x3eefda0_1 : [0,1]
RESULT: v0x3db94e0_1 : [0,1]
RESULT: v0x3eeffe0_1 : [123,777]
RESULT: v0x3ef00a0_1 : [0,666]
RESULT: v0x3ef0160_1 : [0,2]
RESULT: v0x3ed9c20_1 : [0,1]
RESULT: v0x3edc2c0_1 : [0,2]
RESULT: v0x3eaf6d0_1 : [0,456]
RESULT: v0x3edcff0_1 : [0,123]
RESULT: v0x3ee0df0_1 : [0,456]
RESULT: v0x3ee5060_1 : [0,3]
RESULT: v0x3ee0d60_1 : [0,1]
RESULT: v0x3ef8eb0_1 : [0,1]
