RESULT: v0x3946190_1 : [3,3]
RESULT: v0x38985f0_1 : [0,1]
RESULT: v0x389c440_1 : [0,1]
RESULT: v0x38a04d0_1 : [0,1]
RESULT: v0x38b0520_1 : [0,1]
RESULT: v0x39cd4c0_1 : [0,1]
RESULT: v0x390d170_1 : [0,1]
RESULT: v0x38e68d0_1 : [0,1]
RESULT: v0x38a2df0_1 : [0,1]
RESULT: v0x39cc2e0_1 : [0,1]
RESULT: v0x38a11b0_1 : [0,1]
RESULT: v0x3886740_1 : [0,1]
RESULT: v0x38f3590_1 : [0,1]
RESULT: v0x39066f0_1 : [0,2]
RESULT: v0x38f2010_1 : [0,3]
RESULT: v0x3895e90_1 : [0,1]
RESULT: v0x38eea50_1 : [123,777]
RESULT: v0x38ecf70_1 : [0,666]
RESULT: v0x3904bd0_1 : [0,2]
RESULT: v0x3909150_1 : [0,1]
RESULT: v0x38f6ff0_1 : [0,2]
RESULT: v0x38f7b50_1 : [0,456]
RESULT: v0x3a4e330_1 : [0,123]
RESULT: v0x39dae20_1 : [0,456]
