RESULT: v0x133683f0_0 : [-1/0,1/0]
RESULT: v0xfc55820_0 : [-1/0,1/0]
RESULT: v0x975fef0_0 : [0,1]
RESULT: v0x7544de0_0 : [-1/0,1/0]
RESULT: v0x5f5bb30_0 : [27,1/0]
RESULT: v0xe05ee60_0 : [-1/0,1/0]
RESULT: v0x46a79d0_0 : [-1/0,1/0]
RESULT: v0x1536dd90_0 : [0,0]
RESULT: v0x40e4cd0_0 : [-1/0,1/0]
RESULT: v0xd826f10_0 : [-1/0,1/0]
RESULT: v0x13368370_0 : [-1/0,1/0]
RESULT: v0x3fa3330_0 : [67,1/0]
RESULT: v0x3fa3430_0 : [-1/0,1/0]
RESULT: v0x3fa3530_0 : [-1/0,1/0]
RESULT: v0x3fa3630_0 : [-1/0,1/0]
RESULT: v0x3fa3730_0 : [-1/0,1/0]
RESULT: v0x3fa3830_0 : [0,1]
RESULT: v0x3fa3930_0 : [-1/0,1/0]
RESULT: v0x3fa3a30_0 : [-1/0,1/0]
RESULT: v0x3fa3b30_0 : [-1/0,1/0]
RESULT: v0x3fa3c30_0 : [0,0]
RESULT: v0x3fa3d30_0 : [-1/0,1/0]
RESULT: v0x3fa3e30_0 : [-1/0,1/0]
RESULT: v0x3fa3f30_0 : [-1/0,1/0]
RESULT: v0xf3c1110_0 : [-1/0,1/0]
RESULT: v0x7544d80_0 : [0,0]
RESULT: v0x1081b970_0 : [-1/0,10]
RESULT: v0xdba93c0_0 : [-1/0,1/0]
RESULT: v0x40e4d50_0 : [-1/0,1/0]
RESULT: v0x3fa4230_0 : [-1/0,1/0]
