RESULT: v0x64f4470_0 : [-1/0,1/0]
RESULT: v0x67f4140_0 : [-1/0,1/0]
RESULT: v0x1369f000_0 : [-1/0,1/0]
RESULT: v0x1369f2a0_0 : [-1/0,1/0]
RESULT: v0x64f45b0_0 : [27,1/0]
RESULT: v0x1369eec0_0 : [-1/0,1/0]
RESULT: v0x3cc7130_0 : [-1/0,1/0]
RESULT: v0x7241730_0 : [0,0]
RESULT: v0x1369ec40_0 : [-1/0,1/0]
RESULT: v0x67f4000_0 : [-1/0,1/0]
RESULT: v0x45884e0_0 : [-1/0,1/0]
RESULT: v0x3f94330_0 : [67,1/0]
RESULT: v0x3f94430_0 : [0,1]
RESULT: v0x3f94530_0 : [-1/0,1/0]
RESULT: v0x3f94630_0 : [-1/0,1/0]
RESULT: v0x3f94730_0 : [-1/0,1/0]
RESULT: v0x3f94830_0 : [-1/0,1/0]
RESULT: v0x3f94930_0 : [0,1]
RESULT: v0x3f94a30_0 : [-1/0,1/0]
RESULT: v0x3f94b30_0 : [-1/0,1/0]
RESULT: v0x3f94c30_0 : [-1/0,1/0]
RESULT: v0x3f94d30_0 : [-1/0,1/0]
RESULT: v0x3f94e30_0 : [-1/0,1/0]
RESULT: v0x3f94f30_0 : [-1/0,1/0]
RESULT: v0x3f95030_0 : [-1/0,1/0]
RESULT: v0x9eaa040_0 : [-1/0,1/0]
RESULT: v0x67f3de0_0 : [-1/0,1/0]
RESULT: v0x5f786d0_0 : [0,0]
RESULT: v0x67f45a0_0 : [-1/0,10]
RESULT: v0x64f43f0_0 : [-1/0,1/0]
RESULT: v0x3f95330_0 : [-1/0,1/0]
