RESULT: v0x9ca7ce0_0 : [-1/0,1/0]
RESULT: v0x78a2de0_0 : [-1/0,1/0]
RESULT: v0x1190c280_0 : [-1/0,1/0]
RESULT: v0x4801cd0_0 : [0,1]
RESULT: v0x11ceb8a0_0 : [67,1/0]
RESULT: v0x78a3060_0 : [-1/0,1/0]
RESULT: v0x119076c0_0 : [-1/0,1/0]
RESULT: v0xa529c90_0 : [0,0]
RESULT: v0x7065960_0 : [-1/0,1/0]
RESULT: v0x1190c300_0 : [-1/0,1/0]
RESULT: v0x11ceb5c0_0 : [-1/0,1/0]
RESULT: v0x3f94330_0 : [67,1/0]
RESULT: v0x3f94430_0 : [0,1]
RESULT: v0x3f94530_0 : [-1/0,1/0]
RESULT: v0x3f94630_0 : [-1/0,1/0]
RESULT: v0x3f94730_0 : [-1/0,1/0]
RESULT: v0x3f94830_0 : [-1/0,1/0]
RESULT: v0x3f94930_0 : [0,1]
RESULT: v0x3f94a30_0 : [-1/0,1/0]
RESULT: v0x3f94b30_0 : [-1/0,1/0]
RESULT: v0x3f94c30_0 : [0,0]
RESULT: v0x3f94d30_0 : [-1/0,1/0]
RESULT: v0x3f94e30_0 : [-1/0,1/0]
RESULT: v0x3f94f30_0 : [-1/0,1/0]
RESULT: v0x3f95030_0 : [-1/0,1/0]
RESULT: v0x6e55990_0 : [-1/0,1/0]
RESULT: v0x11a48420_0 : [-1/0,1/0]
RESULT: v0x11a4bb60_0 : [0,0]
RESULT: v0x1235de80_0 : [-1/0,10]
RESULT: v0x426a2a0_0 : [-1/0,1/0]
RESULT: v0x3f95330_0 : [-1/0,1/0]
