RESULT: v0x36a52f0_0 : [1,1]
RESULT: v0x36a33d0_0 : [3,3]
RESULT: v0x36a37d0_0 : [-1073741637,0]
RESULT: v0x36a36d0_0 : [-1073741637,0]
RESULT: v0x36a6ef0_0 : [1,6]
RESULT: v0x36a6bf0_0 : [-1/0,1/0]
RESULT: v0x36a70f0_0 : [-1073741637,259]
RESULT: v0x36a6cf0_0 : [0,259]
RESULT: v0x8add140_0 : [0,2]
RESULT: v0x36a57f0_0 : [-1/0,24]
RESULT: v0x36a31d0_0 : [0,1/0]
RESULT: v0x36b20e0_0 : [0,1]
RESULT: v0x36a55f0_0 : [0,0]
RESULT: v0x36a34d0_0 : [-1/0,1/0]
RESULT: v0x36baae0_1 : [0,0]
RESULT: v0x36c20e0_0 : [0,0]
RESULT: v0x8d51610_0 : [0,0]
RESULT: v0x36b34e0_1 : [1,3]
RESULT: v0x36b3be0_0 : [-1/0,1/0]
RESULT: v0x36b35e0_0 : [-1/0,1/0]
RESULT: v0x36b3ee0_0 : [-1/0,1/0]
RESULT: v0x36b3de0_0 : [-1/0,1/0]
RESULT: v0x36b3fe0_1 : [-1/0,1/0]
RESULT: v0x36bb1e0_0 : [-1/0,1/0]
RESULT: v0x36babe0_0 : [-1/0,1/0]
RESULT: v0x36bb4e0_0 : [-1/0,1/0]
RESULT: v0x36bb3e0_0 : [-1/0,1/0]
RESULT: v0x36bb5e0_1 : [-1/0,1/0]
RESULT: v0x36c23e0_0 : [0,0]
RESULT: v0x36c2fe0_0 : [-1/0,1/0]
RESULT: v0x36c2ee0_0 : [-1/0,1/0]
RESULT: v0x36c30e0_0 : [-1/0,1/0]
RESULT: v0x36c37e0_0 : [-1/0,1/0]
RESULT: v0x36c36e0_0 : [-1/0,1/0]
RESULT: v0x36c38e0_0 : [1,1]
RESULT: v0x36c3fe0_0 : [-1/0,1/0]
RESULT: v0x36c3ee0_0 : [-1/0,1/0]
RESULT: v0x36c43e0_0 : [-1/0,1/0]
RESULT: v0x36c4ae0_0 : [-1/0,1/0]
RESULT: v0x36c49e0_0 : [-1/0,1/0]
RESULT: v0x36c4be0_0 : [1,1]
RESULT: v0x36c4de0_0 : [-1/0,1/0]
RESULT: v0x36c4ce0_0 : [-1/0,1/0]
RESULT: v0x36c4ee0_0 : [-1/0,1/0]
