RESULT: v0x46d87e0_1 : [3,3]
RESULT: v0x46d8720_1 : [0,1]
RESULT: v0x46d8660_1 : [0,1]
RESULT: v0x459f4c0_1 : [0,1]
RESULT: v0x47ebbb0_1 : [0,1]
RESULT: v0x47ebb10_1 : [0,1]
RESULT: v0x47ebad0_1 : [0,1]
RESULT: v0x47eb670_1 : [0,1]
RESULT: v0x46d8d20_1 : [0,1]
RESULT: v0x46d8de0_1 : [0,1]
RESULT: v0x45a2670_1 : [0,1]
RESULT: v0x46d9020_1 : [123,777]
RESULT: v0x46d90e0_1 : [0,666]
RESULT: v0x46d91a0_1 : [0,2]
RESULT: v0x46c2c20_1 : [0,1]
RESULT: v0x46c5300_1 : [0,2]
RESULT: v0x4698e60_1 : [0,456]
RESULT: v0x46c5f30_1 : [0,123]
RESULT: v0x46c9d10_1 : [0,456]
RESULT: v0x46ce0a0_1 : [0,3]
RESULT: v0x46c9c80_1 : [0,1]
RESULT: v0x46e1ed0_1 : [0,1]
