RESULT: v0x5f7dbd0_0 : [0,1]
RESULT: v0x5f7dd90_0 : [0,1]
RESULT: v0x5f7df90_0 : [0,1]
RESULT: v0x5f7e190_0 : [0,1]
RESULT: v0x5f7e390_0 : [0,1]
RESULT: v0x5f7e590_0 : [0,1]
RESULT: v0x5f7e790_0 : [0,1]
RESULT: v0x5f7e990_0 : [0,1]
RESULT: v0x5f7eb90_0 : [0,1]
RESULT: v0x5f7ed90_0 : [0,1]
RESULT: v0x5f7ef90_0 : [0,1]
RESULT: v0x5f7f190_0 : [1,1]
RESULT: v0x5f7f390_0 : [-1/0,1/0]
RESULT: v0x5f7f590_0 : [-1/0,1/0]
RESULT: v0x5f7f790_0 : [0,2]
RESULT: v0x5f7f990_0 : [0,2]
RESULT: v0x5f7fb90_0 : [0,2]
RESULT: v0x5f7fd90_0 : [0,2]
RESULT: v0x5f7ff90_0 : [0,2]
RESULT: v0x5f80190_0 : [0,2]
RESULT: v0x5f80390_0 : [0,2]
RESULT: v0x5f80590_0 : [0,2]
RESULT: v0x5f80790_0 : [0,2]
RESULT: v0x5f80990_0 : [0,2]
RESULT: v0x5f80b90_0 : [0,2]
RESULT: v0x5f80d90_0 : [2,2]
