RESULT: v0x3e13700_0 : [1,1/0]
RESULT: v0x3c27c60_0 : [123,777]
RESULT: v0x3bd6cf0_0 : [0,1]
RESULT: v0x3da2ba0_0 : [0,1]
RESULT: v0x3da2a60_0 : [0,2]
RESULT: v0x3da2960_0 : [0,3]
RESULT: v0x3c1f9e0_0 : [0,1]
RESULT: v0x3c767b0_0 : [0,1]
RESULT: v0x3da3020_0 : [0,1]
RESULT: v0x3ebe760_0 : [0,666]
RESULT: v0x3da2ea0_0 : [1,1]
RESULT: v0x3da2920_0 : [1,1]
RESULT: v0x3bdd840_0 : [0,1]
RESULT: v0x3da28e0_0 : [0,1]
RESULT: v0x3e92160_0 : [0,456]
RESULT: v0x40e1f00_0 : [0,2]
RESULT: v0x3da3260_0 : [0,1]
RESULT: v0x3da0c40_0 : [0,1]
RESULT: v0x413c230_0 : [0,123]
RESULT: v0x3ebac00_0 : [0,1]
RESULT: v0x3e1cc60_0 : [0,1]
RESULT: v0x3e4fda0_0 : [0,3]
RESULT: v0x3c2a200_0 : [0,456]
RESULT: v0x3da2d20_0 : [0,1]
RESULT: v0x3eae5e0_0 : [0,2]
