RESULT: v0x3e4a030_0 : [1,2]
RESULT: v0x3e49230_0 : [0,52]
RESULT: v0x3e49030_0 : [0,50]
RESULT: v0x3e493d0_0 : [0,53]
RESULT: v0x3e49130_0 : [0,51]
RESULT: v0x3e4a330_0 : [-1/0,1/0]
RESULT: v0x718a610_0 : [-1/0,1/0]
RESULT: v0x718a710_0 : [-1/0,1/0]
RESULT: v0x718a810_0 : [-1/0,1/0]
RESULT: v0x718a910_0 : [0,1]
RESULT: v0x718aa10_0 : [0,1/0]
RESULT: v0x718ab10_0 : [0,53]
RESULT: v0x71819c0_0 : [-1/0,1/0]
RESULT: v0x7181ac0_0 : [-1/0,1/0]
RESULT: v0x7181bc0_0 : [-1/0,1/0]
RESULT: v0x7181cc0_0 : [-1/0,1/0]
RESULT: v0x718b3b0_0 : [-1/0,1/0]
RESULT: v0x718b4b0_0 : [-1/0,1/0]
RESULT: v0x718b5b0_0 : [-1/0,1/0]
RESULT: v0x718b6b0_0 : [-1/0,3]
RESULT: v0x718b7b0_0 : [-1/0,1/0]
