RESULT: v0x4ba1190_0 : [-1/0,1/0]
RESULT: v0x4ba10d0_0 : [-1/0,1/0]
RESULT: v0x4ba0b90_0 : [-1/0,1/0]
RESULT: v0x4ba0c50_0 : [-1/0,1/0]
RESULT: v0x4ba0d10_0 : [-1/0,1/0]
RESULT: v0x4ba0f50_0 : [-1/0,1/0]
RESULT: v0x4ba1250_0 : [-1/0,1/0]
RESULT: v0x4ba0ad0_0 : [-1/0,1/0]
RESULT: v0x4b34e40_0 : [-1/0,1/0]
RESULT: v0x4b19770_0 : [-1/0,1/0]
RESULT: v0x4ba0a30_0 : [-1/0,1/0]
RESULT: v0x4ba13d0_0 : [-1/0,1/0]
RESULT: v0x4ba1490_0 : [-1/0,1/0]
RESULT: v0x4ba1550_0 : [-1/0,1/0]
RESULT: v0x4ba1610_0 : [-1/0,1/0]
RESULT: v0x4ba16d0_0 : [-1/0,1/0]
RESULT: v0x4ba1790_0 : [-1/0,1/0]
RESULT: v0x4ba1850_0 : [-1/0,1/0]
RESULT: v0x4ba1910_0 : [-1/0,1/0]
RESULT: v0x4ba19d0_0 : [-1/0,1/0]
RESULT: v0x4ba1310_0 : [-1/0,1/0]
RESULT: v0x4ba1110_0 : [-1/0,1/0]
RESULT: v0x4ba0e90_0 : [-1/0,1/0]
RESULT: v0x4ba0dd0_0 : [-1/0,1/0]
