RESULT: v0x3570bb0_0 : [2,1/0]
RESULT: v0x36ab0e0_0 : [0,1]
RESULT: v0x37d7a50_0 : [0,1]
RESULT: v0x3800d50_0 : [123,777]
RESULT: v0x3746c10_0 : [0,1]
RESULT: v0x37f2590_0 : [0,1]
RESULT: v0x383d050_0 : [0,2]
RESULT: v0x37d0b90_0 : [0,3]
RESULT: v0x35b53f0_0 : [0,1]
RESULT: v0x36d9cf0_0 : [0,0]
RESULT: v0x376abc0_0 : [0,0]
RESULT: v0x37a83d0_0 : [456,456]
RESULT: v0x3604010_0 : [0,2]
RESULT: v0x347ecb0_0 : [0,456]
RESULT: v0x3638760_0 : [0,1]
RESULT: v0x37bef60_0 : [0,1]
RESULT: v0x37e1d10_0 : [1,1]
RESULT: v0x383bd50_0 : [3,3]
RESULT: v0x35acf00_0 : [2,2]
RESULT: v0x360db70_0 : [456,456]
RESULT: v0x3744db0_0 : [0,1]
RESULT: v0x36e1b10_0 : [1,1]
RESULT: v0x37f91f0_0 : [0,123]
RESULT: v0x35be050_0 : [0,1]
