RESULT: v0x39ebb00_1 : [3,3]
RESULT: v0x39eba40_1 : [0,1]
RESULT: v0x39eb980_1 : [0,1]
RESULT: v0x38b28e0_1 : [0,1]
RESULT: v0x3aff0f0_1 : [0,1]
RESULT: v0x3aff050_1 : [0,1]
RESULT: v0x3aff010_1 : [0,1]
RESULT: v0x3afebb0_1 : [0,1]
RESULT: v0x39ec040_1 : [0,1]
RESULT: v0x39ec100_1 : [0,1]
RESULT: v0x38b5a90_1 : [0,1]
RESULT: v0x39ec340_1 : [123,777]
RESULT: v0x39ec400_1 : [0,666]
RESULT: v0x39ec4c0_1 : [0,2]
RESULT: v0x39d5f20_1 : [0,1]
RESULT: v0x39d85c0_1 : [0,2]
RESULT: v0x39abed0_1 : [0,456]
RESULT: v0x39d91d0_1 : [0,123]
RESULT: v0x39dd010_1 : [0,456]
RESULT: v0x39e13c0_1 : [0,3]
RESULT: v0x39dcf80_1 : [0,1]
RESULT: v0x39f51f0_1 : [0,1]
