RESULT: v0x50b3e90_0 : [-1/0,1/0]
RESULT: v0x4ffed70_0 : [-1/0,1/0]
RESULT: v0x51f3de0_0 : [0,1]
RESULT: v0x50b26d0_0 : [0,1]
RESULT: v0x52778b0_0 : [-1/0,1/0]
RESULT: v0x50c3c20_0 : [-1/0,1/0]
RESULT: v0x50c3d00_0 : [0,0]
RESULT: v0x4e8eda0_0 : [67,1/0]
RESULT: v0x5077aa0_0 : [67,1/0]
RESULT: v0x4e8eea0_0 : [0,1]
RESULT: v0x4e8efa0_0 : [0,1]
RESULT: v0x4e8f0a0_0 : [-1/0,1/0]
RESULT: v0x4e8f1a0_0 : [-1/0,1/0]
RESULT: v0x4e8f2a0_0 : [0,0]
RESULT: v0x4e8f3a0_0 : [0,0]
RESULT: v0x4e8f4a0_0 : [-1/0,1/0]
RESULT: v0x4fb40d0_0 : [-1/0,1/0]
RESULT: v0x4e8f5a0_0 : [-1/0,1/0]
RESULT: v0x52868b0_0 : [-1/0,1/0]
RESULT: v0x4e8f6a0_0 : [-1/0,1/0]
RESULT: v0x5284150_0 : [-1/0,1/0]
RESULT: v0x4e8f7a0_0 : [-1/0,1/0]
RESULT: v0x4e8f8a0_0 : [-1/0,1/0]
RESULT: v0x4e8f9a0_0 : [-1/0,1/0]
RESULT: v0x4e8faa0_0 : [-1/0,1/0]
RESULT: v0x51ed730_0 : [-1/0,1/0]
RESULT: v0x50838b0_0 : [-1/0,1/0]
RESULT: v0x5086d10_0 : [0,0]
RESULT: v0x51f3f60_0 : [-1/0,10]
RESULT: v0x4fc27d0_0 : [-1/0,1/0]
RESULT: v0x4e8fda0_0 : [-1/0,1/0]
