RESULT: v0x39bf840_0 : [-1/0,1/0]
RESULT: v0x3aa27b0_0 : [-1/0,1/0]
RESULT: v0x3d695d0_0 : [-1/0,1/0]
RESULT: v0x3a1ec30_0 : [-1/0,1/0]
RESULT: v0x3a19690_0 : [-1/0,1/0]
RESULT: v0x39d0850_0 : [-1/0,1/0]
RESULT: v0x39197c0_0 : [-1/0,1/0]
RESULT: v0x3a81410_0 : [-1/0,1/0]
RESULT: v0x39ee850_0 : [-1/0,1/0]
RESULT: v0x39d87c0_0 : [-1/0,1/0]
RESULT: v0x3a44ec0_0 : [-1/0,1/0]
RESULT: v0x3a85e90_0 : [-1/0,1/0]
RESULT: v0x3a3cb60_0 : [-1/0,1/0]
RESULT: v0x3a195b0_0 : [1,1]
RESULT: v0x3aae060_0 : [-1/0,1/0]
RESULT: v0x39ee790_0 : [-1/0,1/0]
RESULT: v0x3a0d190_0 : [-1/0,1/0]
RESULT: v0x39fdf10_0 : [-1/0,1/0]
RESULT: v0x3a48a90_0 : [-1/0,1/0]
RESULT: v0x3ab7200_0 : [-1/0,1/0]
RESULT: v0x39dbca0_0 : [-1/0,1/0]
RESULT: v0x3a14e70_0 : [-1/0,1/0]
RESULT: v0x3a1a510_0 : [-1/0,1/0]
RESULT: v0x3a1a800_0 : [-1/0,1/0]
RESULT: v0x39e3b60_0 : [-1/0,1/0]
RESULT: v0x39dad20_0 : [-1/0,1/0]
RESULT: v0x3a0bef0_0 : [-1/0,1/0]
RESULT: v0x3aaa2c0_0 : [-1/0,1/0]
RESULT: v0x39c8520_0 : [-1/0,1/0]
RESULT: v0x39e6840_0 : [2,2]
