RESULT: v0x766d200_0 : [2,2]
RESULT: v0x8c32510_0 : [1,1]
RESULT: v0x8a593f0_0 : [0,1]
RESULT: v0x8c47990_0 : [0,1]
RESULT: v0x8c63c60_0 : [0,1]
RESULT: v0x8870820_0 : [0,1]
RESULT: v0x8c7e7c0_0 : [0,1]
RESULT: v0x8848c80_0 : [40,120]
RESULT: v0x8c6e260_0 : [0,1]
RESULT: v0x88367e0_0 : [0,1]
RESULT: v0x8c63d00_0 : [0,1]
RESULT: v0x8c63be0_0 : [0,1]
RESULT: v0x88708c0_0 : [0,1]
RESULT: v0x8848bc0_0 : [0,0]
RESULT: v0x8c17970_0 : [-1/0,1/0]
RESULT: v0x3ec2b60_0 : [80,120]
RESULT: v0x3ec2c60_0 : [0,1]
RESULT: v0x3ec2d60_0 : [0,1]
RESULT: v0x3ec2e60_0 : [-1/0,1/0]
RESULT: v0x3ec2f60_0 : [0,1]
RESULT: v0x3ec3060_0 : [0,1]
RESULT: v0x3ec3160_0 : [0,1]
RESULT: v0x3ec3260_0 : [0,1]
RESULT: v0x3ec3360_0 : [0,1]
RESULT: v0x3ec3460_0 : [0,1]
RESULT: v0x3ec3560_0 : [0,1]
RESULT: v0x3ec3660_0 : [0,1]
RESULT: v0x3ec3760_0 : [0,1]
RESULT: v0x3ec3860_0 : [0,1]
RESULT: v0x7f02180_0 : [-1/0,1/0]
RESULT: v0x3ec4b60_0 : [-1/0,1/0]
