RESULT: v0x4150550_0 : [0,2]
RESULT: v0x37f5690_0 : [1,1]
RESULT: v0x39c1f60_0 : [1,1]
RESULT: v0x3bb1180_0 : [-1/0,2]
RESULT: v0x4712680_0 : [-1/0,2]
RESULT: v0x4713ac0_0 : [1,1]
RESULT: v0x4270b00_0 : [-1/0,2]
RESULT: v0x38e0a90_0 : [-1/0,2]
RESULT: v0x4468a20_0 : [1,1]
RESULT: v0x4029ec0_0 : [1,1]
RESULT: v0x4467d40_0 : [-1/0,2]
RESULT: v0x3d32e60_0 : [0,1]
RESULT: v0x37f78b0_0 : [1,1]
RESULT: v0x37f79b0_0 : [-1/0,2]
RESULT: v0x37f7ab0_0 : [-1/0,2]
RESULT: v0x37f7eb0_0 : [1,1]
RESULT: v0x37f7fb0_0 : [-1/0,2]
RESULT: v0x37f80b0_0 : [-1/0,2]
RESULT: v0x37f8580_0 : [1,1]
RESULT: v0x37f8680_0 : [-1/0,2]
RESULT: v0x37f8780_0 : [-1/0,2]
RESULT: v0x37f8b80_0 : [1,1]
RESULT: v0x37f8c80_0 : [-1/0,2]
RESULT: v0x37f8d80_0 : [-1/0,2]
RESULT: v0x37f9080_0 : [1,1]
RESULT: v0x37f9180_0 : [-1/0,2]
RESULT: v0x37f9280_0 : [0,0]
RESULT: v0x37f9380_0 : [-1/0,1/0]
