RESULT: v0x3b44f00_0 : [-1/0,1/0]
RESULT: v0x3b45e50_0 : [-1/0,1/0]
RESULT: v0x3b443c0_0 : [-1/0,1/0]
RESULT: v0x3b44480_0 : [-1/0,1/0]
RESULT: v0x3b44c00_0 : [-1/0,1/0]
RESULT: v0x3b44e40_0 : [-1/0,1/0]
RESULT: v0x3b44d80_0 : [-1/0,1/0]
RESULT: v0x3b45610_0 : [-1/0,1/0]
RESULT: v0x3b45b50_0 : [-1/0,1/0]
RESULT: v0x3b45c10_0 : [-1/0,1/0]
RESULT: v0x3b9acf0_0 : [-1/0,1/0]
RESULT: v0x38c3340_0 : [-1/0,1/0]
RESULT: v0x3b45f10_0 : [-1/0,1/0]
RESULT: v0x3b44300_0 : [-1/0,1/0]
RESULT: v0x3b44000_0 : [-1/0,1/0]
RESULT: v0x3b43c60_0 : [-1/0,1/0]
RESULT: v0x3b43360_0 : [-1/0,1/0]
RESULT: v0x3b40d20_0 : [-1/0,1/0]
RESULT: v0x3b43660_0 : [-1/0,1/0]
RESULT: v0x3b435a0_0 : [-1/0,1/0]
RESULT: v0x3b43ba0_0 : [-1/0,1/0]
RESULT: v0x3b43a20_0 : [-1/0,1/0]
RESULT: v0x3b44b40_0 : [-1/0,1/0]
RESULT: v0x3b44fc0_0 : [-1/0,1/0]
