RESULT: v0x49f2e10_0 : [0,1]
RESULT: v0x4cb3fb0_1 : [0,1]
RESULT: v0x4cd8fc0_1 : [0,1]
RESULT: v0x502eb20_1 : [0,1]
RESULT: v0x4cc03c0_1 : [0,1]
RESULT: v0x4cb2810_1 : [0,1]
RESULT: v0x4cc4ea0_1 : [0,1]
RESULT: v0x4ca1130_1 : [0,1]
RESULT: v0x4ce3420_1 : [0,1]
RESULT: v0x5056ef0_1 : [0,1]
RESULT: v0x5bc3660_1 : [0,1]
RESULT: v0x4c99c30_1 : [0,1]
RESULT: v0x503c240_1 : [0,1]
RESULT: v0x5c443e0_1 : [-1/0,1/0]
RESULT: v0x50098c0_1 : [-1/0,1/0]
RESULT: v0x4cc0220_1 : [0,2]
RESULT: v0x4c8dd00_1 : [0,2]
RESULT: v0x503bd60_1 : [0,2]
RESULT: v0x502d980_1 : [0,2]
RESULT: v0x4ccc450_1 : [0,2]
RESULT: v0x503cde0_1 : [0,2]
RESULT: v0x502f7a0_1 : [0,2]
RESULT: v0x4d00e90_1 : [0,2]
RESULT: v0x5039880_1 : [0,2]
RESULT: v0x4a4d8e0_1 : [0,2]
RESULT: v0x4a3fec0_1 : [0,2]
RESULT: v0x5bc9860_1 : [0,2]
RESULT: v0x4cc93e0_1 : [0,2]
