RESULT: v0x7db84f0_0 : [-1/0,1/0]
RESULT: v0x4ea5420_0 : [-1/0,1/0]
RESULT: v0x735e540_0 : [0,1]
RESULT: v0x73b0400_0 : [-1/0,1/0]
RESULT: v0x7994610_0 : [-1/0,1/0]
RESULT: v0x5858af0_0 : [-1/0,1/0]
RESULT: v0xa9058e0_0 : [0,0]
RESULT: v0x4e8eda0_0 : [67,1/0]
RESULT: v0x75cf1e0_0 : [27,1/0]
RESULT: v0x4e8eea0_0 : [0,1]
RESULT: v0x4e8efa0_0 : [0,1]
RESULT: v0x4e8f0a0_0 : [-1/0,1/0]
RESULT: v0x4e8f1a0_0 : [-1/0,1/0]
RESULT: v0x4e8f2a0_0 : [-1/0,1/0]
RESULT: v0x4e8f3a0_0 : [0,0]
RESULT: v0x4e8f4a0_0 : [-1/0,1/0]
RESULT: v0x5b4b070_0 : [-1/0,1/0]
RESULT: v0x4e8f5a0_0 : [-1/0,1/0]
RESULT: v0x73bd090_0 : [-1/0,1/0]
RESULT: v0x4e8f6a0_0 : [-1/0,1/0]
RESULT: v0xbd7c8d0_0 : [-1/0,1/0]
RESULT: v0x4e8f7a0_0 : [-1/0,1/0]
RESULT: v0x4e8f8a0_0 : [-1/0,1/0]
RESULT: v0x4e8f9a0_0 : [-1/0,1/0]
RESULT: v0x4e8faa0_0 : [-1/0,1/0]
RESULT: v0x501cb20_0 : [-1/0,1/0]
RESULT: v0x73bd130_0 : [-1/0,1/0]
RESULT: v0x7352370_0 : [0,0]
RESULT: v0x7364cf0_0 : [-1/0,10]
RESULT: v0x69cd340_0 : [-1/0,1/0]
RESULT: v0x4e8fda0_0 : [-1/0,1/0]
