RESULT: v0x4c84b10_0 : [2,1/0]
RESULT: v0x4fa1f20_0 : [0,1]
RESULT: v0x4ca88b0_0 : [0,1]
RESULT: v0x4ca9450_0 : [123,777]
RESULT: v0x4f695a0_0 : [0,1]
RESULT: v0x4dbed30_0 : [0,1]
RESULT: v0x4ca71e0_0 : [2,2]
RESULT: v0x4f65740_0 : [1,1]
RESULT: v0x4dcaf20_0 : [456,456]
RESULT: v0x4f71200_0 : [0,1]
RESULT: v0x4dcc400_0 : [0,666]
RESULT: v0x4ecd1a0_0 : [0,1]
RESULT: v0x4db8dd0_0 : [0,2]
RESULT: v0x4f9ff80_0 : [0,456]
RESULT: v0x4f6fca0_0 : [0,1]
RESULT: v0x4feaee0_0 : [0,1]
RESULT: v0x4dc9450_0 : [0,1]
RESULT: v0x4fc2c20_0 : [0,123]
RESULT: v0x4f7c7c0_0 : [0,1]
RESULT: v0x4ed4be0_0 : [0,3]
RESULT: v0x4dbd2b0_0 : [0,1]
RESULT: v0x4f606e0_0 : [0,1]
RESULT: v0x4c6d2f0_0 : [0,0]
RESULT: v0x4c6d3f0_0 : [0,456]
RESULT: v0x4c6c9f0_0 : [-1/0,1/0]
RESULT: v0x4c6c6f0_0 : [456,456]
RESULT: v0x4c6d7f0_0 : [0,2]
RESULT: v0x4c6d8f0_0 : [0,1]
RESULT: v0x4c6d9f0_0 : [0,1]
RESULT: v0x4c6daf0_0 : [1,2]
RESULT: v0x4c6f0f0_0 : [0,0]
RESULT: v0x4c6f1f0_0 : [0,456]
RESULT: v0x4c6f2f0_0 : [0,0]
RESULT: v0x4c6f3f0_0 : [0,0]
RESULT: v0x4c6f4f0_0 : [2,2]
RESULT: v0x4c6f5f0_0 : [1,1]
RESULT: v0x4c6f6f0_0 : [1,3]
RESULT: v0x4c6f7f0_0 : [2,2]
RESULT: v0x4c6f8f0_0 : [2,2]
RESULT: v0x4c6f9f0_0 : [0,0]
RESULT: v0x4c6c8f0_0 : [0,0]
