RESULT: v0x386f7a0_0 : [0,0]
RESULT: v0x3af7850_1 : [0,1]
RESULT: v0x3af6010_1 : [0,1]
RESULT: v0x3af9ec0_1 : [0,1]
RESULT: v0x3afd4e0_1 : [0,1]
RESULT: v0x3add2b0_1 : [0,1]
RESULT: v0x3af1070_1 : [0,1]
RESULT: v0x3ae5060_1 : [0,1]
RESULT: v0x3ae5d90_1 : [0,1]
RESULT: v0x3ad1ce0_1 : [0,1]
RESULT: v0x3ab8320_1 : [0,1]
RESULT: v0x3ad9270_1 : [-1/0,1/0]
RESULT: v0x3add6f0_1 : [-1/0,1/0]
RESULT: v0x3d1aaa0_1 : [0,2]
RESULT: v0x3d1adc0_1 : [0,2]
RESULT: v0x3d1b620_1 : [0,2]
RESULT: v0x3d1b980_1 : [0,2]
RESULT: v0x3d1d2e0_1 : [0,2]
RESULT: v0x3d21280_1 : [0,2]
RESULT: v0x3adc1d0_1 : [0,2]
RESULT: v0x3d14c30_1 : [0,2]
RESULT: v0x3d14fb0_1 : [0,2]
RESULT: v0x3d159b0_1 : [0,2]
RESULT: v0x3d22af0_1 : [0,0]
