RESULT: v0x5661560_0 : [1,1]
RESULT: v0x5013700_0 : [-1/0,1/0]
RESULT: v0x6c07390_0 : [-1/0,1/0]
RESULT: v0x7319130_0 : [-1/0,1/0]
RESULT: v0x5fb8f50_0 : [-1/0,1/0]
RESULT: v0x631c930_0 : [-1/0,1/0]
RESULT: v0x804aab0_0 : [-1/0,1/0]
RESULT: v0x4e8eda0_0 : [67,1/0]
RESULT: v0x6242710_0 : [27,1/0]
RESULT: v0x4e8eea0_0 : [0,1]
RESULT: v0x4e8efa0_0 : [0,1]
RESULT: v0x4e8f0a0_0 : [-1/0,1/0]
RESULT: v0x4e8f1a0_0 : [-1/0,1/0]
RESULT: v0x4e8f2a0_0 : [-1/0,1/0]
RESULT: v0x4e8f3a0_0 : [-1/0,1/0]
RESULT: v0x4e8f4a0_0 : [-1/0,1/0]
RESULT: v0x9f84ff0_0 : [-1/0,1/0]
RESULT: v0x4e8f5a0_0 : [-1/0,1/0]
RESULT: v0xa6c5d80_0 : [-1/0,1/0]
RESULT: v0x4e8f6a0_0 : [-1/0,1/0]
RESULT: v0xf6e8960_0 : [-1/0,1/0]
RESULT: v0x4e8f7a0_0 : [-1/0,1/0]
RESULT: v0x4e8f8a0_0 : [-1/0,1/0]
RESULT: v0x4e8f9a0_0 : [-1/0,1/0]
RESULT: v0x4e8faa0_0 : [-1/0,1/0]
RESULT: v0x62461a0_0 : [-1/0,1/0]
RESULT: v0xb051180_0 : [-1/0,1/0]
RESULT: v0x591bbc0_0 : [-1/0,1/0]
RESULT: v0x5ab3df0_0 : [-1/0,10]
RESULT: v0x631c9f0_0 : [-1/0,1/0]
RESULT: v0x4e90da0_0 : [-1/0,1/0]
