RESULT: v0x5522050_1 : [3,3]
RESULT: v0x55221b0_1 : [0,1]
RESULT: v0x5522330_1 : [0,1]
RESULT: v0x5522570_1 : [0,1]
RESULT: v0x54b1a10_1 : [0,1]
RESULT: v0x54b1890_1 : [0,1]
RESULT: v0x54b1710_1 : [0,1]
RESULT: v0x54b14d0_1 : [0,1]
RESULT: v0x5382220_1 : [0,1]
RESULT: v0x53822e0_1 : [0,1]
RESULT: v0x52433b0_1 : [0,1]
RESULT: v0x5382520_1 : [0,2]
RESULT: v0x53825e0_1 : [0,3]
RESULT: v0x53754d0_1 : [123,777]
RESULT: v0x5375590_1 : [0,666]
RESULT: v0x5375650_1 : [0,2]
RESULT: v0x536bc40_1 : [0,1]
RESULT: v0x536e980_1 : [0,2]
RESULT: v0x5363ba0_1 : [0,456]
RESULT: v0x5364070_1 : [0,123]
RESULT: v0x5373630_1 : [0,456]
RESULT: v0x53775c0_1 : [0,3]
RESULT: v0x53735a0_1 : [0,1]
RESULT: v0x5386650_1 : [0,1]
