RESULT: v0x3949e50_0 : [2,1/0]
RESULT: v0x39a6b40_0 : [0,1]
RESULT: v0x3934650_0 : [0,1]
RESULT: v0x359c4d0_0 : [0,1]
RESULT: v0x3620a70_0 : [0,1]
RESULT: v0x3779720_0 : [0,1]
RESULT: v0x3599af0_0 : [1,1]
RESULT: v0x393b210_0 : [0,1]
RESULT: v0x393b130_0 : [0,1]
RESULT: v0x39350f0_0 : [0,1]
RESULT: v0x394e730_0 : [123,777]
RESULT: v0x394fc90_0 : [0,666]
RESULT: v0x394d470_0 : [2,2]
RESULT: v0x378e430_0 : [0,1]
RESULT: v0x3621f50_0 : [456,456]
RESULT: v0x3932700_0 : [0,123]
RESULT: v0x394ddd0_0 : [3,3]
RESULT: v0x39875a0_0 : [0,1]
RESULT: v0x3937310_0 : [1,1]
RESULT: v0x33bc440_0 : [0,0]
RESULT: v0x33bc540_0 : [0,456]
RESULT: v0x33bbb40_0 : [-1/0,1/0]
RESULT: v0x33bb840_0 : [456,456]
RESULT: v0x33bba40_0 : [0,0]
RESULT: v0x33bcc40_0 : [1,1]
RESULT: v0x33bd240_0 : [0,456]
RESULT: v0x33bd340_0 : [0,0]
