RESULT: v0x42fa6f0_1 : [3,3]
RESULT: v0x4206670_1 : [0,1]
RESULT: v0x42e7200_1 : [0,1]
RESULT: v0x41b4910_1 : [0,1]
RESULT: v0x4228eb0_1 : [0,1]
RESULT: v0x4229f10_1 : [0,1]
RESULT: v0x407e0a0_1 : [0,1]
RESULT: v0x42f9c70_1 : [0,1]
RESULT: v0x4229a90_1 : [0,1]
RESULT: v0x4229b50_1 : [0,1]
RESULT: v0x4229910_1 : [0,1]
RESULT: v0x407d920_1 : [0,1]
RESULT: v0x42f9af0_1 : [0,1]
RESULT: v0x4229490_1 : [0,2]
RESULT: v0x4229550_1 : [0,3]
RESULT: v0x42f9a50_1 : [123,777]
RESULT: v0x42f9a10_1 : [0,666]
RESULT: v0x4229010_1 : [0,2]
RESULT: v0x4228f50_1 : [0,1]
RESULT: v0x4228c70_1 : [0,2]
RESULT: v0x4228bb0_1 : [0,456]
RESULT: v0x4228970_1 : [0,123]
RESULT: v0x42288b0_1 : [0,456]
RESULT: v0x4228670_1 : [0,3]
