RESULT: v0xbd6bd30_0 : [-1/0,1/0]
RESULT: v0x8f4ae40_0 : [-1/0,1/0]
RESULT: v0x976c140_0 : [-1/0,1/0]
RESULT: v0x56fbdc0_0 : [-1/0,1/0]
RESULT: v0x8b4e400_0 : [-1/0,1/0]
RESULT: v0x83a0590_0 : [-1/0,1/0]
RESULT: v0x9a3ce50_0 : [1,1]
RESULT: v0x40faaa0_0 : [67,1/0]
RESULT: v0x567e760_0 : [27,1/0]
RESULT: v0x40faba0_0 : [0,1]
RESULT: v0x40faca0_0 : [0,1]
RESULT: v0x40fada0_0 : [-1/0,1/0]
RESULT: v0x40faea0_0 : [-1/0,1/0]
RESULT: v0x40fafa0_0 : [-1/0,1/0]
RESULT: v0x40fb0a0_0 : [-1/0,1/0]
RESULT: v0x40fb1a0_0 : [-1/0,1/0]
RESULT: v0x5a98d80_0 : [-1/0,1/0]
RESULT: v0x40fb2a0_0 : [-1/0,1/0]
RESULT: v0x9f224b0_0 : [-1/0,1/0]
RESULT: v0x40fb3a0_0 : [-1/0,1/0]
RESULT: v0x44752f0_0 : [-1/0,1/0]
RESULT: v0x40fb4a0_0 : [-1/0,1/0]
RESULT: v0x40fb5a0_0 : [-1/0,1/0]
RESULT: v0x40fb6a0_0 : [-1/0,1/0]
RESULT: v0x40fb7a0_0 : [-1/0,1/0]
RESULT: v0x58f85d0_0 : [-1/0,1/0]
RESULT: v0x41368a0_0 : [-1/0,1/0]
RESULT: v0x6681980_0 : [-1/0,1/0]
RESULT: v0x93fab40_0 : [-1/0,10]
RESULT: v0x87d1f50_0 : [-1/0,1/0]
RESULT: v0x40fcaa0_0 : [-1/0,1/0]
