RESULT: v0x4c9bcc0_1 : [4,4]
RESULT: v0x4c82740_1 : [0,1]
RESULT: v0x4cbdec0_1 : [0,1]
RESULT: v0x4c42fa0_1 : [0,1]
RESULT: v0x4c7d1c0_1 : [0,1]
RESULT: v0x4972090_1 : [0,1]
RESULT: v0x4c731e0_1 : [0,1]
RESULT: v0x4ca1e40_1 : [0,1]
RESULT: v0x4c58640_1 : [0,1]
RESULT: v0x4c26470_1 : [0,1]
RESULT: v0x4c9de20_1 : [123,777]
RESULT: v0x496ab00_1 : [0,666]
RESULT: v0x4cbff60_1 : [0,2]
RESULT: v0x4c69c40_1 : [0,1]
RESULT: v0x49df9f0_1 : [0,2]
RESULT: v0x4cd2ac0_1 : [0,456]
RESULT: v0x4c2a4a0_1 : [0,123]
RESULT: v0x4c711e0_1 : [0,456]
RESULT: v0x4c94880_1 : [0,3]
RESULT: v0x4cabe20_1 : [0,1]
RESULT: v0x4beb720_1 : [0,1]
