RESULT: v0x50a04e0_0 : [0,2]
RESULT: v0x50a84f0_0 : [0,0]
RESULT: v0x509fbe0_0 : [0,2]
RESULT: v0x50a7af0_0 : [0,1]
RESULT: v0x50a7bf0_0 : [1,2]
RESULT: v0x50a85f0_0 : [1,1]
RESULT: v0x50a80f0_0 : [0,0]
RESULT: v0x50a81f0_0 : [0,1]
RESULT: v0x509f020_0 : [1,1]
RESULT: v0x50a82f0_0 : [0,1]
RESULT: v0x50a79f0_0 : [0,6]
RESULT: v0x509e320_0 : [0,51]
RESULT: v0x509e220_0 : [0,50]
RESULT: v0x50a7ff0_0 : [0,1]
RESULT: v0x50a86f0_0 : [0,1]
RESULT: v0x50a87f0_0 : [-1/0,1/0]
RESULT: v0x50a7cf0_0 : [0,1]
RESULT: v0x50a7ef0_0 : [0,51]
RESULT: v0x50a7df0_0 : [0,1]
RESULT: v0x509fee0_0 : [0,51]
RESULT: v0x509f9e0_0 : [0,6]
RESULT: v0x50a07e0_0 : [-1/0,1/0]
RESULT: v0x50a02e0_0 : [0,1]
RESULT: v0x50a01e0_0 : [0,1]
RESULT: v0x50a06e0_0 : [0,1]
RESULT: v0x509ffe0_0 : [0,1]
RESULT: v0x509fae0_0 : [0,1]
RESULT: v0x50a05e0_0 : [0,1]
RESULT: v0x50a00e0_0 : [0,1]
RESULT: v0x509fde0_0 : [0,1]
RESULT: v0x509fce0_0 : [0,1]
RESULT: v0x50a83f0_0 : [-1/0,1/0]
RESULT: v0x50a03e0_0 : [-1/0,1/0]
RESULT: v0x509f320_0 : [-1/0,1/0]
RESULT: v0x70c36d0_1 : [-1/0,1/0]
RESULT: v0x5d631d0_1 : [0,50]
RESULT: v0x6ce8f80_1 : [0,51]
RESULT: v0x6c62260_1 : [0,1]
RESULT: v0x70c0c10_1 : [1,1]
RESULT: v0x6ca8e50_1 : [0,0]
RESULT: v0x6cd39c0_1 : [-1/0,1/0]
