RESULT: v0x3be1a50_1 : [3,3]
RESULT: v0x3acb8b0_1 : [0,1]
RESULT: v0x3acf700_1 : [0,1]
RESULT: v0x3ad3790_1 : [0,1]
RESULT: v0x3ae37e0_1 : [0,1]
RESULT: v0x39add10_1 : [0,1]
RESULT: v0x3ad1790_1 : [0,1]
RESULT: v0x3b1ecd0_1 : [0,1]
RESULT: v0x3b2a7b0_1 : [0,1]
RESULT: v0x3b296f0_1 : [0,1]
RESULT: v0x3ad1510_1 : [0,1]
RESULT: v0x3b82730_1 : [0,1]
RESULT: v0x3b30f30_1 : [0,1]
RESULT: v0x3b2bed0_1 : [0,2]
RESULT: v0x3b34f70_1 : [0,3]
RESULT: v0x3b293d0_1 : [0,1]
RESULT: v0x3b3ba70_1 : [123,777]
RESULT: v0x3b3bfb0_1 : [0,666]
RESULT: v0x3b2c930_1 : [0,2]
RESULT: v0x399f6d0_1 : [0,1]
RESULT: v0x3b202b0_1 : [0,2]
RESULT: v0x3a943f0_1 : [0,456]
RESULT: v0x3c89370_1 : [0,123]
RESULT: v0x3c0df30_1 : [0,456]
