RESULT: v0x47b7fd0_0 : [0,1/0]
RESULT: v0x47b7ed0_0 : [1,3]
RESULT: v0x47b4ed0_0 : [1,1]
RESULT: v0x47b4ad0_0 : [0,1]
RESULT: v0x47b47d0_0 : [0,1]
RESULT: v0x47b51d0_0 : [-1/0,1/0]
RESULT: v0x47b42d0_0 : [0,0]
RESULT: v0x47b4bd0_0 : [1,1]
RESULT: v0x47b45d0_0 : [0,1]
RESULT: v0x47b46d0_0 : [1,1]
RESULT: v0x47a66d0_0 : [0,1]
RESULT: v0x47a67d0_0 : [0,1]
RESULT: v0x47a64d0_0 : [0,0]
RESULT: v0x47b49d0_0 : [0,1]
RESULT: v0x47b4cd0_0 : [0,1]
RESULT: v0x47b41d0_0 : [80,160]
RESULT: v0x47b48d0_0 : [0,1]
RESULT: v0x47a6dd0_0 : [0,1]
RESULT: v0x47b4dd0_0 : [0,1]
RESULT: v0x47a61d0_0 : [3,10]
RESULT: v0x47a6ed0_0 : [0,1]
RESULT: v0x47a62d0_0 : [40,80]
RESULT: v0x47a69d0_0 : [0,1]
RESULT: v0x47a6ad0_0 : [0,1]
RESULT: v0x47a63d0_0 : [0,0]
RESULT: v0x47a6bd0_0 : [1,1]
RESULT: v0x47a6fd0_0 : [1,1]
RESULT: v0x47a6cd0_0 : [1,1]
RESULT: v0x47a68d0_0 : [1,1]
RESULT: v0x47a65d0_0 : [-1/0,1/0]
RESULT: v0x47b44d0_0 : [-1/0,1/0]
RESULT: v0x47b43d0_0 : [-1/0,1/0]
RESULT: v0x63bb840_1 : [2,2]
