RESULT: v0x509c8e0_0 : [0,1]
RESULT: v0x3cdef20_0 : [0,1]
RESULT: v0x43714c0_0 : [0,1]
RESULT: v0x4ea3520_0 : [0,1]
RESULT: v0x4bfde80_0 : [0,1]
RESULT: v0x4e97700_0 : [0,1]
RESULT: v0x3d22cb0_0 : [0,1]
RESULT: v0x3cdb330_0 : [0,1]
RESULT: v0x4ebc7c0_0 : [0,1]
RESULT: v0x51506d0_0 : [0,1]
RESULT: v0x4357b10_0 : [1,1]
RESULT: v0x4bf50f0_0 : [-1/0,1/0]
RESULT: v0x3ce7610_0 : [-1/0,1/0]
RESULT: v0x3afa120_0 : [0,2]
RESULT: v0x5142270_0 : [0,2]
RESULT: v0x5073e20_0 : [0,2]
RESULT: v0x509e700_0 : [0,2]
RESULT: v0x4eb2210_0 : [0,2]
RESULT: v0x3ada5b0_0 : [0,2]
RESULT: v0x5073360_0 : [0,2]
RESULT: v0x39b3230_0 : [0,2]
RESULT: v0x3cc46e0_0 : [0,2]
RESULT: v0x5046df0_0 : [0,2]
RESULT: v0x52d6880_0 : [2,2]
