RESULT: v0x440f060_0 : [0,1]
RESULT: v0x4eb1fb0_0 : [0,1]
RESULT: v0x5355230_0 : [0,1]
RESULT: v0x4ec86d0_0 : [0,1]
RESULT: v0x440d040_0 : [0,1]
RESULT: v0x53620c0_0 : [0,1]
RESULT: v0x4400950_0 : [0,1]
RESULT: v0x439bc00_0 : [0,1]
RESULT: v0x536f470_0 : [0,1]
RESULT: v0x40e5db0_0 : [1,1]
RESULT: v0x439aac0_0 : [-1/0,1/0]
RESULT: v0x4ebc240_0 : [-1/0,1/0]
RESULT: v0x5362dc0_0 : [0,2]
RESULT: v0x536fb00_0 : [0,2]
RESULT: v0x431f5e0_0 : [0,2]
RESULT: v0x430d850_0 : [0,2]
RESULT: v0x4e99b40_0 : [0,2]
RESULT: v0x4e995e0_0 : [0,2]
RESULT: v0x3f9a890_0 : [0,2]
RESULT: v0x5a26280_0 : [0,2]
RESULT: v0x55127a0_0 : [0,2]
RESULT: v0x53e5290_0 : [2,2]
