RESULT: v0x48ba6e0_0 : [-1/0,1/0]
RESULT: v0x48babe0_0 : [-1/0,1/0]
RESULT: v0x48bb7e0_0 : [789,789]
RESULT: v0x48ba7e0_0 : [-1/0,1/0]
RESULT: v0x48baae0_0 : [-1/0,1/0]
RESULT: v0x48ba8e0_0 : [-1/0,1/0]
RESULT: v0x4eee220_1 : [2,2]
RESULT: v0x4eef120_1 : [0,1]
RESULT: v0x4eaf160_1 : [0,1]
RESULT: v0x4ef4c60_1 : [0,1]
RESULT: v0x4ef70a0_1 : [0,1]
RESULT: v0x4ef75a0_1 : [0,1]
RESULT: v0x4ef76e0_1 : [0,1]
RESULT: v0x4ef7320_1 : [0,1]
RESULT: v0x4ef6060_1 : [0,1]
RESULT: v0x4ef6ce0_1 : [0,1]
RESULT: v0x4ef58e0_1 : [0,1]
RESULT: v0x4ef5a20_1 : [0,1]
RESULT: v0x4ef5b60_1 : [0,2]
RESULT: v0x4ef5ca0_1 : [0,3]
RESULT: v0x4efb420_1 : [0,1]
RESULT: v0x4ef48a0_1 : [123,777]
RESULT: v0x4efaca0_1 : [0,666]
RESULT: v0x4efa660_1 : [0,2]
RESULT: v0x4ecee20_1 : [0,1]
RESULT: v0x4ef9b20_1 : [0,2]
RESULT: v0x4f10960_1 : [0,456]
RESULT: v0x4f10aa0_1 : [0,123]
RESULT: v0x4f101e0_1 : [0,456]
RESULT: v0x4f0fe20_1 : [0,3]
RESULT: v0x4f147e0_1 : [0,1]
