RESULT: v0x48f4f30_1 : [4,4]
RESULT: v0x48f59f0_1 : [0,1]
RESULT: v0x4906ff0_1 : [0,1]
RESULT: v0x4950fb0_1 : [0,1]
RESULT: v0x48fc1f0_1 : [0,1]
RESULT: v0x491e330_1 : [0,1]
RESULT: v0x48f81d0_1 : [0,1]
RESULT: v0x495f3d0_1 : [0,1]
RESULT: v0x4882a40_1 : [0,1]
RESULT: v0x47eefa0_1 : [0,1]
RESULT: v0x48c2210_1 : [0,1]
RESULT: v0x4920510_1 : [0,1]
RESULT: v0x47292f0_1 : [0,1]
RESULT: v0x4592000_1 : [0,2]
RESULT: v0x4712bd0_1 : [0,3]
RESULT: v0x4594ab0_1 : [0,1]
RESULT: v0x458b4a0_1 : [123,777]
RESULT: v0x4716bf0_1 : [0,666]
RESULT: v0x46b39f0_1 : [0,2]
RESULT: v0x4709570_1 : [0,1]
RESULT: v0x47191f0_1 : [0,2]
RESULT: v0x486a8f0_1 : [0,456]
RESULT: v0x47f7360_1 : [0,123]
RESULT: v0x4686840_1 : [0,456]
