RESULT: v0x3f50b70_0 : [0,2]
RESULT: v0x44cadb0_1 : [0,1]
RESULT: v0x5146c10_1 : [1,1]
RESULT: v0x44d3ab0_1 : [0,1]
RESULT: v0x515e750_1 : [0,1]
RESULT: v0x5179950_1 : [0,1]
RESULT: v0x5545db0_1 : [0,1]
RESULT: v0x5176510_1 : [0,1]
RESULT: v0x516dff0_1 : [0,1]
RESULT: v0x516a720_1 : [0,1]
RESULT: v0x516a560_1 : [0,1]
RESULT: v0x44d3b50_1 : [0,1]
RESULT: v0x44c8c20_1 : [0,1]
RESULT: v0x44d29b0_1 : [0,1]
RESULT: v0x5156e90_1 : [0,1]
RESULT: v0x50629d0_1 : [0,2]
RESULT: v0x423bbf0_1 : [2,2]
RESULT: v0x421afb0_1 : [0,2]
RESULT: v0x5542b90_1 : [0,2]
RESULT: v0x553fd50_1 : [0,2]
RESULT: v0x5134f90_1 : [0,2]
RESULT: v0x44c7ea0_1 : [0,2]
RESULT: v0x55456f0_1 : [0,2]
RESULT: v0x55454f0_1 : [0,2]
RESULT: v0x4236ec0_1 : [0,2]
RESULT: v0x4202b00_1 : [0,2]
RESULT: v0x44d3290_1 : [0,2]
RESULT: v0x44cb4a0_1 : [0,2]
RESULT: v0x4452020_1 : [0,2]
