RESULT: v0x639ac90_0 : [-1/0,1/0]
RESULT: v0x639ae90_0 : [-1/0,1/0]
RESULT: v0x902f5b0_0 : [-1/0,1/0]
RESULT: v0x639a810_0 : [-1/0,1/0]
RESULT: v0x639d150_0 : [27,1/0]
RESULT: v0x639aed0_0 : [-1/0,1/0]
RESULT: v0x639acd0_0 : [-1/0,1/0]
RESULT: v0x639e120_0 : [-1/0,1/0]
RESULT: v0x639d9b0_0 : [0,0]
RESULT: v0x639a990_0 : [-1/0,1/0]
RESULT: v0x639ceb0_0 : [-1/0,1/0]
RESULT: v0x391f010_0 : [-1/0,1/0]
RESULT: v0x391f110_0 : [-1/0,1/0]
RESULT: v0x391f210_0 : [-1/0,1/0]
RESULT: v0x391f310_0 : [-1/0,1/0]
RESULT: v0x391f410_0 : [67,1/0]
RESULT: v0x391f510_0 : [0,1]
RESULT: v0x391f610_0 : [0,1]
RESULT: v0x391f710_0 : [-1/0,1/0]
RESULT: v0x391f810_0 : [-1/0,1/0]
RESULT: v0x391f910_0 : [-1/0,1/0]
RESULT: v0x391fa10_0 : [-1/0,1/0]
RESULT: v0x391fb10_0 : [-1/0,1/0]
RESULT: v0x391fc10_0 : [-1/0,1/0]
RESULT: v0x391fd10_0 : [-1/0,1/0]
RESULT: v0x639d490_0 : [-1/0,1/0]
RESULT: v0x639d630_0 : [-1/0,1/0]
RESULT: v0x45872b0_0 : [0,0]
RESULT: v0x902f4d0_0 : [-1/0,10]
RESULT: v0x639cd10_0 : [-1/0,1/0]
RESULT: v0x3920010_0 : [-1/0,1/0]
