RESULT: v0x8039e40_0 : [-1/0,1/0]
RESULT: v0x80f2670_0 : [-1/0,1/0]
RESULT: v0x80f2770_0 : [-1/0,1/0]
RESULT: v0x80f2870_0 : [-1/0,1/0]
RESULT: v0x80f2970_0 : [-1/0,1/0]
RESULT: v0x80f2a70_0 : [-1/0,1/0]
RESULT: v0x80f2b70_0 : [-1/0,1/0]
RESULT: v0x80f2c70_0 : [-1/0,1/0]
RESULT: v0x8136be0_0 : [-1/0,1/0]
RESULT: v0x8136ce0_0 : [-1/0,1/0]
RESULT: v0x8136de0_0 : [-1/0,1/0]
RESULT: v0x8136ee0_0 : [-1/0,1/0]
RESULT: v0x8136fe0_0 : [-1/0,1/0]
RESULT: v0x81370e0_0 : [-1/0,1/0]
RESULT: v0x81371e0_0 : [1,2]
RESULT: v0x81372e0_0 : [2,2]
RESULT: v0x81373e0_0 : [0,0]
RESULT: v0x81374e0_0 : [-1/0,1/0]
RESULT: v0x81375e0_0 : [-1/0,1/0]
RESULT: v0x8137f00_0 : [-1/0,1/0]
RESULT: v0x8138000_0 : [-1/0,1/0]
