RESULT: v0x44bc8f0_0 : [0,0]
RESULT: v0x4a10f60_0 : [-1/0,1/0]
RESULT: v0x4e38c00_0 : [0,6]
RESULT: v0x48ecf80_0 : [0,4]
RESULT: v0x4a14f70_0 : [0,4]
RESULT: v0x48e3990_0 : [0,4]
RESULT: v0x485efa0_0 : [0,54]
RESULT: v0x47086c0_0 : [0,1/0]
RESULT: v0x4e255d0_0 : [0,1]
RESULT: v0x4a139b0_0 : [0,1]
RESULT: v0x4e432c0_0 : [-1/0,1/0]
RESULT: v0x4e2f100_0 : [0,0]
RESULT: v0x4e37140_0 : [1,2]
RESULT: v0x4e13eb0_0 : [0,1]
RESULT: v0x4e270b0_0 : [1,1]
RESULT: v0x472bef0_0 : [0,0]
RESULT: v0x44bcfb0_0 : [0,0]
RESULT: v0x44bcbf0_0 : [0,0]
RESULT: v0x44bbc90_0 : [0,0]
RESULT: v0x44bbb90_0 : [0,0]
RESULT: v0x44bb9f0_0 : [0,0]
RESULT: v0x44bb8f0_0 : [0,0]
RESULT: v0x44bb7f0_0 : [0,0]
RESULT: v0x44c52c0_0 : [0,6]
RESULT: v0x44c53c0_0 : [0,1]
RESULT: v0x44c54c0_0 : [1,2]
RESULT: v0x44c55c0_0 : [0,1]
RESULT: v0x44c56c0_0 : [0,1/0]
RESULT: v0x44c57c0_0 : [0,54]
RESULT: v0x44c58c0_0 : [0,4]
RESULT: v0x44c59c0_0 : [0,0]
RESULT: v0x44c5ac0_0 : [0,1]
RESULT: v0x44c5bc0_0 : [0,4]
RESULT: v0x44c5cc0_0 : [-1/0,1/0]
RESULT: v0x44c5dc0_0 : [0,0]
RESULT: v0x44c5ec0_0 : [1,1]
RESULT: v0x44c5fc0_0 : [0,4]
RESULT: v0x44c60c0_0 : [-1/0,1/0]
RESULT: v0x44c62c0_0 : [-1/0,1/0]
RESULT: v0x57ccfd0_0 : [-1/0,1/0]
RESULT: v0x57cd130_0 : [0,50]
RESULT: v0x57cd330_0 : [0,51]
RESULT: v0x57cd530_0 : [0,52]
RESULT: v0x57cd730_0 : [0,53]
RESULT: v0x57cd930_0 : [0,54]
RESULT: v0x57cdb30_0 : [0,2]
RESULT: v0x57cdd30_0 : [1,1]
RESULT: v0x57cdf30_0 : [1,1]
RESULT: v0x57ce130_0 : [0,0]
RESULT: v0x44c61c0_0 : [-1/0,1/0]
