RESULT: v0x51182e0_0 : [0,0]
RESULT: v0x55dc8d0_1 : [0,1]
RESULT: v0x55db610_1 : [0,1]
RESULT: v0x55db550_1 : [0,1]
RESULT: v0x55dbe70_1 : [0,1]
RESULT: v0x55e24c0_1 : [0,1]
RESULT: v0x55e2280_1 : [0,1]
RESULT: v0x55e21c0_1 : [0,1]
RESULT: v0x55e1e00_1 : [0,1]
RESULT: v0x55e3480_1 : [0,1]
RESULT: v0x55e3180_1 : [0,1]
RESULT: v0x5388750_1 : [-1/0,1/0]
RESULT: v0x5388350_1 : [-1/0,1/0]
RESULT: v0x5383600_1 : [0,2]
RESULT: v0x5380930_1 : [0,2]
RESULT: v0x5167ad0_1 : [0,2]
RESULT: v0x539c0d0_1 : [0,2]
RESULT: v0x539bf30_1 : [0,2]
RESULT: v0x539a790_1 : [0,2]
RESULT: v0x5399220_1 : [0,2]
RESULT: v0x53b48c0_1 : [0,2]
RESULT: v0x53af340_1 : [0,2]
RESULT: v0x53982c0_1 : [0,2]
RESULT: v0x53b0cd0_1 : [0,0]
