RESULT: v0x3c33bc0_0 : [1,1/0]
RESULT: v0x3d6d8f0_0 : [0,1]
RESULT: v0x3d8d910_0 : [0,1]
RESULT: v0x3c2dd50_0 : [123,777]
RESULT: v0x3d18810_0 : [0,1]
RESULT: v0x3d1eaa0_0 : [0,1]
RESULT: v0x3d64a00_0 : [0,1]
RESULT: v0x3d1bcb0_0 : [0,2]
RESULT: v0x3cb9200_0 : [0,3]
RESULT: v0x3ca2af0_0 : [0,1]
RESULT: v0x3c389f0_0 : [0,1]
RESULT: v0x3d5b5d0_0 : [0,1]
RESULT: v0x3aed610_0 : [0,666]
RESULT: v0x3d302b0_0 : [0,1]
RESULT: v0x3cf7130_0 : [0,1]
RESULT: v0x3c34c40_0 : [0,2]
RESULT: v0x3cfcc10_0 : [0,456]
RESULT: v0x3cb3100_0 : [0,123]
RESULT: v0x3d0e720_0 : [0,456]
RESULT: v0x3d56d90_0 : [0,2]
RESULT: v0x3d3ddf0_0 : [0,1]
RESULT: v0x3d7b8f0_0 : [0,1]
RESULT: v0x3cfdf10_0 : [0,1]
RESULT: v0x3d356f0_0 : [0,1]
