RESULT: v0x5e27310_0 : [0,1]
RESULT: v0x5e28cb0_0 : [0,0]
RESULT: v0x91125f0_0 : [1,1]
RESULT: v0x94a76e0_0 : [4,10]
RESULT: v0x91945e0_0 : [80,200]
RESULT: v0x94a6c00_0 : [0,1]
RESULT: v0x90e6660_0 : [0,1]
RESULT: v0x90ecde0_0 : [0,1]
RESULT: v0x919a660_0 : [0,0]
RESULT: v0x823b280_0 : [1,1]
RESULT: v0x9117950_0 : [1,1]
RESULT: v0x9466230_0 : [1,1]
RESULT: v0x945b330_0 : [0,0]
RESULT: v0x44496e0_0 : [80,200]
RESULT: v0x44497e0_0 : [0,1]
RESULT: v0x44498e0_0 : [0,1]
RESULT: v0x44499e0_0 : [0,0]
RESULT: v0x4449ae0_0 : [1,1]
RESULT: v0x4449be0_0 : [0,1]
RESULT: v0x4449ce0_0 : [0,1]
RESULT: v0x4449de0_0 : [1,1]
RESULT: v0x4449ee0_0 : [1,1]
RESULT: v0x4449fe0_0 : [0,0]
RESULT: v0x444a0e0_0 : [0,1]
RESULT: v0x444a1e0_0 : [1,1]
RESULT: v0x947ab10_0 : [0,0]
RESULT: v0x444a4e0_0 : [1,2]
