RESULT: v0x4f0f470_0 : [-1/0,1/0]
RESULT: v0x4f0f3f0_0 : [-1/0,1/0]
RESULT: v0x4f0ee50_0 : [-1/0,1/0]
RESULT: v0x4f0ef10_0 : [-1/0,1/0]
RESULT: v0x4f0efd0_0 : [-1/0,1/0]
RESULT: v0x4f0f210_0 : [-1/0,1/0]
RESULT: v0x4f0f510_0 : [-1/0,1/0]
RESULT: v0x4f0ed90_0 : [-1/0,1/0]
RESULT: v0x4ed02e0_0 : [-1/0,1/0]
RESULT: v0x4e9ff50_0 : [-1/0,1/0]
RESULT: v0x4f0ecf0_0 : [-1/0,1/0]
RESULT: v0x4f0f690_0 : [-1/0,1/0]
RESULT: v0x4f0f750_0 : [-1/0,1/0]
RESULT: v0x4f0f810_0 : [-1/0,1/0]
RESULT: v0x4f0f8d0_0 : [-1/0,1/0]
RESULT: v0x4f0f990_0 : [-1/0,1/0]
RESULT: v0x4f0fa50_0 : [-1/0,1/0]
RESULT: v0x4f0fb10_0 : [-1/0,1/0]
RESULT: v0x4f0fbd0_0 : [-1/0,1/0]
RESULT: v0x4f0fc90_0 : [-1/0,1/0]
RESULT: v0x4f0f5d0_0 : [-1/0,1/0]
RESULT: v0x4f0f430_0 : [-1/0,1/0]
RESULT: v0x4f0f150_0 : [-1/0,1/0]
RESULT: v0x4f0f090_0 : [-1/0,1/0]
