RESULT: v0x32d6eb0_0 : [0,1/0]
RESULT: v0x449e170_1 : [0,1]
RESULT: v0x3e9f780_1 : [0,1]
RESULT: v0x5c8c330_1 : [0,1]
RESULT: v0x37cda10_1 : [0,1]
RESULT: v0x5c9d0f0_1 : [0,1]
RESULT: v0x5c87ad0_1 : [0,1]
RESULT: v0x4490650_1 : [0,1]
RESULT: v0x5d54c50_1 : [0,1]
RESULT: v0x4db3ac0_1 : [0,1]
RESULT: v0x4da4fa0_1 : [0,1/0]
RESULT: v0x4d919c0_1 : [0,1/0]
RESULT: v0x4da6440_1 : [-1/0,2]
RESULT: v0x5ca6490_1 : [-1/0,2]
RESULT: v0x5c84350_1 : [-1/0,2]
RESULT: v0x5ca0f10_1 : [-1/0,2]
RESULT: v0x5c82350_1 : [-1/0,2]
RESULT: v0x418fdb0_1 : [-1/0,2]
RESULT: v0x37c77f0_1 : [-1/0,2]
RESULT: v0x4d9a340_1 : [0,2]
RESULT: v0x4da0e40_1 : [0,2]
RESULT: v0x4d97880_1 : [0,2]
RESULT: v0x4da23c0_1 : [0,2]
RESULT: v0x4d9ce40_1 : [0,2]
