RESULT: v0x3d29090_1 : [-1/0,1/0]
RESULT: v0x3d0b580_1 : [-1/0,1/0]
RESULT: v0x3d07e10_1 : [-1/0,1/0]
RESULT: v0x3d9ef10_1 : [-1/0,1/0]
RESULT: v0x3be5150_1 : [-1/0,1/0]
RESULT: v0x3d08b40_1 : [-1/0,1/0]
RESULT: v0x3bdc840_1 : [-1/0,1/0]
RESULT: v0x3cfca20_1 : [-1/0,1/0]
RESULT: v0x3d9c800_1 : [-1/0,1/0]
RESULT: v0x3d295d0_1 : [-1/0,1/0]
RESULT: v0x3ced170_1 : [-1/0,1/0]
RESULT: v0x3d289d0_1 : [-1/0,1/0]
RESULT: v0x3c2de30_1 : [-1/0,1/0]
RESULT: v0x3d2bb50_1 : [-1/0,1/0]
RESULT: v0x3d25270_1 : [-1/0,1/0]
RESULT: v0x3d1d680_1 : [-1/0,1/0]
RESULT: v0x3d1bd40_1 : [-1/0,1/0]
RESULT: v0x3d2d5b0_1 : [-1/0,1/0]
RESULT: v0x3d24350_1 : [-1/0,1/0]
RESULT: v0x3d02cf0_1 : [-1/0,1/0]
RESULT: v0x3d0b400_1 : [-1/0,1/0]
RESULT: v0x3d38b60_1 : [-1/0,1/0]
RESULT: v0x3d1bae0_1 : [-1/0,1/0]
RESULT: v0x3d2be50_1 : [-1/0,1/0]
RESULT: v0x3d2d7f0_1 : [-1/0,1/0]
RESULT: v0x3d23990_1 : [-1/0,1/0]
RESULT: v0x3d9ee50_1 : [-1/0,1/0]
