RESULT: v0x431b800_0 : [0,0]
RESULT: v0x431b900_0 : [0,0]
RESULT: v0x431ba00_0 : [0,0]
RESULT: v0x431c700_0 : [0,0]
RESULT: v0x431ca00_0 : [0,0]
RESULT: v0x431cd00_0 : [0,0]
RESULT: v0x48c9420_0 : [0,6]
RESULT: v0x48c1d80_0 : [0,1]
RESULT: v0x4a13750_0 : [1,2]
RESULT: v0x49f65a0_0 : [0,1]
RESULT: v0x4a13850_0 : [0,2]
RESULT: v0x4a1a3b0_0 : [0,52]
RESULT: v0x4a14290_0 : [0,2]
RESULT: v0x4a135b0_0 : [0,0]
RESULT: v0x4a14810_0 : [0,1]
RESULT: v0x4a14890_0 : [0,2]
RESULT: v0x4a14910_0 : [-1/0,1/0]
RESULT: v0x4a1c1f0_0 : [0,0]
RESULT: v0x4a0bcd0_0 : [1,1]
RESULT: v0x4a14190_0 : [0,2]
RESULT: v0x4a04cf0_0 : [-1/0,1/0]
RESULT: v0x43250d0_0 : [0,6]
RESULT: v0x43251d0_0 : [0,1]
RESULT: v0x43252d0_0 : [1,2]
RESULT: v0x43253d0_0 : [0,1]
RESULT: v0x43254d0_0 : [0,2]
RESULT: v0x43255d0_0 : [0,52]
RESULT: v0x43256d0_0 : [0,2]
RESULT: v0x43257d0_0 : [0,0]
RESULT: v0x43258d0_0 : [0,1]
RESULT: v0x43259d0_0 : [0,2]
RESULT: v0x4325ad0_0 : [-1/0,1/0]
RESULT: v0x4325bd0_0 : [0,0]
RESULT: v0x4325cd0_0 : [1,1]
RESULT: v0x4325dd0_0 : [0,2]
RESULT: v0x4325ed0_0 : [-1/0,1/0]
RESULT: v0x43260d0_0 : [-1/0,1/0]
RESULT: v0x4f3be70_0 : [-1/0,1/0]
RESULT: v0x4f3bfd0_0 : [0,50]
RESULT: v0x4f3c1d0_0 : [0,51]
RESULT: v0x4f3c3d0_0 : [0,52]
RESULT: v0x4f3c5d0_0 : [0,2]
RESULT: v0x4f3c7d0_0 : [1,1]
RESULT: v0x4f3c9d0_0 : [1,1]
RESULT: v0x4efe110_0 : [0,0]
RESULT: v0x4325fd0_0 : [-1/0,1/0]
