RESULT: v0x41be8f0_0 : [-1/0,1/0]
RESULT: v0xa7770e0_0 : [-1/0,1/0]
RESULT: v0x11d5fad0_0 : [0,1]
RESULT: v0xeff4e70_0 : [-1/0,1/0]
RESULT: v0x11916090_0 : [27,1/0]
RESULT: v0x41be4f0_0 : [-1/0,1/0]
RESULT: v0x72af2b0_0 : [-1/0,1/0]
RESULT: v0xeff4eb0_0 : [0,0]
RESULT: v0x11d5fb50_0 : [-1/0,1/0]
RESULT: v0x45aea00_0 : [-1/0,1/0]
RESULT: v0x41be870_0 : [-1/0,1/0]
RESULT: v0x3f94330_0 : [67,1/0]
RESULT: v0x3f94430_0 : [0,1]
RESULT: v0x3f94530_0 : [-1/0,1/0]
RESULT: v0x3f94630_0 : [-1/0,1/0]
RESULT: v0x3f94730_0 : [-1/0,1/0]
RESULT: v0x3f94830_0 : [-1/0,1/0]
RESULT: v0x3f94930_0 : [0,1]
RESULT: v0x3f94a30_0 : [-1/0,1/0]
RESULT: v0x3f94b30_0 : [-1/0,1/0]
RESULT: v0x3f94c30_0 : [-1/0,1/0]
RESULT: v0x3f94d30_0 : [0,0]
RESULT: v0x3f94e30_0 : [-1/0,1/0]
RESULT: v0x3f94f30_0 : [-1/0,1/0]
RESULT: v0x3f95030_0 : [-1/0,1/0]
RESULT: v0x72af2f0_0 : [-1/0,1/0]
RESULT: v0x8780530_0 : [-1/0,1/0]
RESULT: v0xaed6b80_0 : [0,0]
RESULT: v0x128d9650_0 : [-1/0,10]
RESULT: v0x8780570_0 : [-1/0,1/0]
RESULT: v0x3f95330_0 : [-1/0,1/0]
