RESULT: v0x4a21ca0_0 : [2,1/0]
RESULT: v0x4aca6e0_0 : [123,777]
RESULT: v0x47fda30_0 : [0,1]
RESULT: v0x49c1a90_0 : [0,1]
RESULT: v0x49c1910_0 : [0,2]
RESULT: v0x49c1610_0 : [0,3]
RESULT: v0x4aa6be0_0 : [0,1]
RESULT: v0x4a58900_0 : [0,0]
RESULT: v0x49c1f10_0 : [0,0]
RESULT: v0x4a84a60_0 : [456,456]
RESULT: v0x49c1d90_0 : [0,1]
RESULT: v0x49c1550_0 : [0,1]
RESULT: v0x48045c0_0 : [0,1]
RESULT: v0x49c1490_0 : [0,1]
RESULT: v0x4a63280_0 : [0,456]
RESULT: v0x4a57400_0 : [0,2]
RESULT: v0x49c2150_0 : [0,1]
RESULT: v0x49bfb30_0 : [0,1]
RESULT: v0x4804b00_0 : [0,123]
RESULT: v0x4a376a0_0 : [0,1]
RESULT: v0x4a71f40_0 : [0,1]
RESULT: v0x4a51790_0 : [0,3]
RESULT: v0x46c81e0_0 : [456,456]
RESULT: v0x49c1c10_0 : [1,1]
RESULT: v0x4aa6ee0_0 : [2,2]
