RESULT: v0x9bcf100_0 : [-1/0,1/0]
RESULT: v0x58d5980_0 : [-1/0,1/0]
RESULT: v0x43c04d0_0 : [0,1]
RESULT: v0x5b9e500_0 : [-1/0,1/0]
RESULT: v0x9bced20_0 : [27,1/0]
RESULT: v0xa345440_0 : [-1/0,1/0]
RESULT: v0x58d5520_0 : [-1/0,1/0]
RESULT: v0x5b9e620_0 : [0,0]
RESULT: v0x9be66c0_0 : [-1/0,1/0]
RESULT: v0x43c0550_0 : [-1/0,1/0]
RESULT: v0xa345580_0 : [-1/0,1/0]
RESULT: v0x3f94330_0 : [67,1/0]
RESULT: v0x3f94430_0 : [0,1]
RESULT: v0x3f94530_0 : [-1/0,1/0]
RESULT: v0x3f94630_0 : [-1/0,1/0]
RESULT: v0x3f94730_0 : [-1/0,1/0]
RESULT: v0x3f94830_0 : [-1/0,1/0]
RESULT: v0x3f94930_0 : [0,1]
RESULT: v0x3f94a30_0 : [-1/0,1/0]
RESULT: v0x3f94b30_0 : [-1/0,1/0]
RESULT: v0x3f94c30_0 : [-1/0,1/0]
RESULT: v0x3f94d30_0 : [0,0]
RESULT: v0x3f94e30_0 : [-1/0,1/0]
RESULT: v0x3f94f30_0 : [-1/0,1/0]
RESULT: v0x3f95030_0 : [-1/0,1/0]
RESULT: v0x58d55c0_0 : [-1/0,1/0]
RESULT: v0xdd608c0_0 : [-1/0,1/0]
RESULT: v0x43c09f0_0 : [0,0]
RESULT: v0xa503410_0 : [-1/0,10]
RESULT: v0xdd607e0_0 : [-1/0,1/0]
RESULT: v0x3f95330_0 : [-1/0,1/0]
