RESULT: v0x37e9130_0 : [2,1/0]
RESULT: v0x39a92d0_0 : [0,1]
RESULT: v0x391ebf0_0 : [0,1]
RESULT: v0x391c9a0_0 : [123,777]
RESULT: v0x3a38280_0 : [0,1]
RESULT: v0x3974690_0 : [0,1]
RESULT: v0x39ebf20_0 : [0,1]
RESULT: v0x3a276a0_0 : [0,2]
RESULT: v0x3a59080_0 : [0,3]
RESULT: v0x3a2d7e0_0 : [0,1]
RESULT: v0x39ff600_0 : [0,0]
RESULT: v0x3a89c00_0 : [0,0]
RESULT: v0x37cc690_0 : [456,456]
RESULT: v0x3a1aea0_0 : [1,1]
RESULT: v0x391e9b0_0 : [1,1]
RESULT: v0x3876bf0_0 : [0,2]
RESULT: v0x39734f0_0 : [0,456]
RESULT: v0x3a0a4c0_0 : [0,0]
RESULT: v0x39d2b00_0 : [456,456]
RESULT: v0x3a42f00_0 : [2,2]
RESULT: v0x3a02aa0_0 : [1,1]
RESULT: v0x3a13980_0 : [0,0]
RESULT: v0x391bc20_0 : [0,0]
RESULT: v0x3a18d20_0 : [0,1]
