RESULT: v0x32d6eb0_0 : [0,1/0]
RESULT: v0x3eada40_1 : [0,1]
RESULT: v0x49fc0a0_1 : [0,1]
RESULT: v0x45ac090_1 : [0,1]
RESULT: v0x44af7b0_1 : [0,1]
RESULT: v0x4aa7a20_1 : [0,1]
RESULT: v0x449b670_1 : [0,1]
RESULT: v0x41778f0_1 : [0,1]
RESULT: v0x44b1770_1 : [0,1]
RESULT: v0x5750a70_1 : [0,1]
RESULT: v0x45808f0_1 : [0,1/0]
RESULT: v0x449c870_1 : [0,1/0]
RESULT: v0x44ad2f0_1 : [-1/0,2]
RESULT: v0x4415cc0_1 : [-1/0,2]
RESULT: v0x3413d70_1 : [-1/0,2]
RESULT: v0x4a3f680_1 : [-1/0,2]
RESULT: v0x5754990_1 : [-1/0,2]
RESULT: v0x37892c0_1 : [-1/0,2]
RESULT: v0x46a3490_1 : [-1/0,2]
RESULT: v0x34252c0_1 : [0,2]
RESULT: v0x5092f00_1 : [0,2]
RESULT: v0x4494070_1 : [0,2]
RESULT: v0x4a3d390_1 : [0,2]
RESULT: v0x3552730_1 : [0,2]
