RESULT: v0x43adec0_0 : [1,1/0]
RESULT: v0x435e530_0 : [0,1]
RESULT: v0x3de3190_0 : [0,1]
RESULT: v0x4190920_0 : [0,1]
RESULT: v0x3fa82a0_0 : [0,1]
RESULT: v0x41a3fe0_0 : [0,1]
RESULT: v0x4361ab0_0 : [0,1]
RESULT: v0x43951e0_0 : [0,1]
RESULT: v0x41b5520_0 : [0,1]
RESULT: v0x401f100_0 : [0,1]
RESULT: v0x3f0b1a0_0 : [123,777]
RESULT: v0x41b0a40_0 : [0,666]
RESULT: v0x3f94ec0_0 : [0,2]
RESULT: v0x4343110_0 : [0,1]
RESULT: v0x3f956e0_0 : [0,456]
RESULT: v0x4390700_0 : [0,123]
RESULT: v0x433e470_0 : [0,3]
RESULT: v0x433e4f0_0 : [0,1]
RESULT: v0x434e610_0 : [0,1]
RESULT: v0x3dc36c0_0 : [-1/0,1/0]
RESULT: v0x3dc33c0_0 : [0,456]
RESULT: v0x3dc35c0_0 : [0,1]
