RESULT: v0x3d1ac30_0 : [1,1/0]
RESULT: v0x3d14010_0 : [0,1]
RESULT: v0x3b4a430_0 : [0,1]
RESULT: v0x3d0a9d0_0 : [0,1]
RESULT: v0x3b6fb70_0 : [0,1]
RESULT: v0x3d0f550_0 : [0,1]
RESULT: v0x3d26b70_0 : [1,1]
RESULT: v0x39411d0_0 : [0,1]
RESULT: v0x3d6b800_0 : [0,1]
RESULT: v0x3acdfa0_0 : [0,1]
RESULT: v0x3b41920_0 : [123,777]
RESULT: v0x3d55720_0 : [0,666]
RESULT: v0x3948980_0 : [0,2]
RESULT: v0x3d08c70_0 : [0,1]
RESULT: v0x3b58f90_0 : [0,456]
RESULT: v0x3b73b90_0 : [0,123]
RESULT: v0x3a63210_0 : [3,3]
RESULT: v0x3916660_0 : [0,1]
RESULT: v0x39c9810_0 : [0,1]
RESULT: v0x37871b0_0 : [-1/0,1/0]
RESULT: v0x37872b0_0 : [0,456]
RESULT: v0x3786cb0_0 : [-1/0,1/0]
RESULT: v0x37869b0_0 : [0,456]
RESULT: v0x3786bb0_0 : [0,1]
