RESULT: v0x4ede1e0_0 : [2,1/0]
RESULT: v0x48ba6e0_0 : [-1/0,1/0]
RESULT: v0x48babe0_0 : [-1/0,1/0]
RESULT: v0x4d50bd0_0 : [0,1]
RESULT: v0x4bcfe80_0 : [0,1]
RESULT: v0x4f36f20_0 : [0,1]
RESULT: v0x4bd48a0_0 : [0,3]
RESULT: v0x4fd51a0_0 : [0,1]
RESULT: v0x4fdb4e0_0 : [0,3]
RESULT: v0x4bc8340_0 : [0,2]
RESULT: v0x4d1b5c0_0 : [0,1]
RESULT: v0x4eb1820_0 : [0,1]
RESULT: v0x4fd0c60_0 : [0,666]
RESULT: v0x4ef5b60_0 : [0,1]
RESULT: v0x4d23160_0 : [123,123]
RESULT: v0x4fd9fa0_0 : [0,0]
RESULT: v0x4fdaf70_0 : [0,1]
RESULT: v0x4ec3020_0 : [0,1]
RESULT: v0x4fc8ba0_0 : [0,456]
RESULT: v0x4f2ca20_0 : [0,2]
RESULT: v0x4f83460_0 : [0,1]
RESULT: v0x4ed54a0_0 : [0,1]
RESULT: v0x4ef9760_0 : [0,456]
RESULT: v0x4f5cea0_0 : [0,2]
RESULT: v0x4fb5aa0_0 : [0,123]
RESULT: v0x4bd81c0_0 : [0,1]
RESULT: v0x4f19f60_0 : [0,1]
RESULT: v0x48bb7e0_0 : [789,789]
RESULT: v0x48ba8e0_0 : [-1/0,1/0]
RESULT: v0x48baae0_0 : [-1/0,1/0]
RESULT: v0x48ba7e0_0 : [-1/0,1/0]
