RESULT: v0x4deed90_0 : [2,2]
RESULT: v0x4e12d30_0 : [0,1]
RESULT: v0x4e0fdb0_0 : [40,120]
RESULT: v0x4e06f40_0 : [4,4]
RESULT: v0x4e188e0_0 : [0,1]
RESULT: v0x4a03940_0 : [0,1]
RESULT: v0x430dbc0_0 : [0,1]
RESULT: v0x4dee890_0 : [0,1]
RESULT: v0x4def300_0 : [1,1]
RESULT: v0x4a417b0_0 : [1,1]
RESULT: v0x49cdc80_0 : [1,1]
RESULT: v0x4a4d720_0 : [1,1]
RESULT: v0x4a61490_0 : [0,0]
RESULT: v0x4201b90_0 : [80,120]
RESULT: v0x4201c90_0 : [1,1]
RESULT: v0x4201d90_0 : [0,1]
RESULT: v0x4201e90_0 : [0,1]
RESULT: v0x4201f90_0 : [1,1]
RESULT: v0x4202090_0 : [0,0]
RESULT: v0x4202190_0 : [3,4]
RESULT: v0x4202290_0 : [1,1]
RESULT: v0x4202390_0 : [1,1]
RESULT: v0x4202490_0 : [0,1]
RESULT: v0x4202590_0 : [0,1]
RESULT: v0x4202690_0 : [1,1]
RESULT: v0x55fe410_0 : [0,0]
RESULT: v0x4202990_0 : [4,5]
