RESULT: v0x4bee190_0 : [1,1/0]
RESULT: v0x4a2d8b0_0 : [0,1]
RESULT: v0x4bf3410_0 : [0,1]
RESULT: v0x48db740_0 : [0,1]
RESULT: v0x4870870_0 : [0,1]
RESULT: v0x4a4cf50_0 : [0,1]
RESULT: v0x4c03490_0 : [0,1]
RESULT: v0x4a35910_0 : [0,1]
RESULT: v0x4a44f10_0 : [0,1]
RESULT: v0x4a76f70_0 : [0,1]
RESULT: v0x4c41570_0 : [1,1]
RESULT: v0x4c06a10_0 : [0,1]
RESULT: v0x48e3ae0_0 : [1,1]
RESULT: v0x4c02d50_0 : [123,777]
RESULT: v0x4a52ff0_0 : [0,666]
RESULT: v0x4873440_0 : [0,2]
RESULT: v0x4817160_0 : [0,1]
RESULT: v0x4c0c170_0 : [0,456]
RESULT: v0x4c1c2b0_0 : [0,123]
RESULT: v0x4697de0_0 : [-1/0,1/0]
RESULT: v0x4697ae0_0 : [0,456]
RESULT: v0x46989e0_0 : [-1/0,1/0]
RESULT: v0x4698ae0_0 : [0,456]
RESULT: v0x4697ce0_0 : [0,1]
