RESULT: v0x3c0bf30_0 : [0,1]
RESULT: v0x3c35500_0 : [-1/0,1/0]
RESULT: v0x3beac90_0 : [-1/0,1/0]
RESULT: v0x3cb5b20_0 : [-1/0,1/0]
RESULT: v0x3bf3ff0_0 : [27,1/0]
RESULT: v0x3a2ae70_0 : [-1/0,1/0]
RESULT: v0x3a96b70_0 : [-1/0,1/0]
RESULT: v0x3cb8e70_0 : [-1/0,1/0]
RESULT: v0x3951e20_0 : [0,0]
RESULT: v0x3a8c070_0 : [-1/0,1/0]
RESULT: v0x3aeab30_0 : [-1/0,1/0]
RESULT: v0x391f010_0 : [-1/0,1/0]
RESULT: v0x391f110_0 : [-1/0,1/0]
RESULT: v0x391f210_0 : [-1/0,1/0]
RESULT: v0x391f310_0 : [-1/0,1/0]
RESULT: v0x391f410_0 : [67,1/0]
RESULT: v0x391f510_0 : [0,1]
RESULT: v0x391f610_0 : [0,1]
RESULT: v0x391f710_0 : [-1/0,1/0]
RESULT: v0x391f810_0 : [-1/0,1/0]
RESULT: v0x391f910_0 : [-1/0,1/0]
RESULT: v0x391fa10_0 : [0,0]
RESULT: v0x391fb10_0 : [-1/0,1/0]
RESULT: v0x391fc10_0 : [-1/0,1/0]
RESULT: v0x391fd10_0 : [-1/0,1/0]
RESULT: v0x3c4c5c0_0 : [-1/0,1/0]
RESULT: v0x3a8f2a0_0 : [-1/0,1/0]
RESULT: v0x3c83080_0 : [0,0]
RESULT: v0x39a1670_0 : [-1/0,10]
RESULT: v0x3c3be90_0 : [-1/0,1/0]
RESULT: v0x3920010_0 : [-1/0,1/0]
