RESULT: v0x628f0c0_0 : [2,2]
RESULT: v0x627fe00_0 : [0,0]
RESULT: v0x6281500_0 : [0,1]
RESULT: v0x4f89bd0_0 : [0,1]
RESULT: v0x62e7c90_0 : [0,1]
RESULT: v0x626d8c0_0 : [0,1]
RESULT: v0x5e35450_0 : [40,120]
RESULT: v0x60d95c0_0 : [0,1]
RESULT: v0x628bb00_0 : [0,1]
RESULT: v0x623a030_0 : [1,1]
RESULT: v0x627bba0_0 : [1,1]
RESULT: v0x60f72e0_0 : [1,1]
RESULT: v0x6284fb0_0 : [1,1]
RESULT: v0x6293060_0 : [1,1]
RESULT: v0x5e34c10_0 : [4,4]
RESULT: v0x47b41d0_0 : [80,120]
RESULT: v0x47b42d0_0 : [0,1]
RESULT: v0x47b43d0_0 : [0,1]
RESULT: v0x47b44d0_0 : [3,4]
RESULT: v0x47b45d0_0 : [0,1]
RESULT: v0x47b46d0_0 : [1,1]
RESULT: v0x47b47d0_0 : [1,1]
RESULT: v0x47b48d0_0 : [0,1]
RESULT: v0x47b49d0_0 : [0,1]
RESULT: v0x47b4ad0_0 : [1,1]
RESULT: v0x47b4bd0_0 : [1,1]
RESULT: v0x47b4cd0_0 : [0,1]
RESULT: v0x47b4dd0_0 : [0,1]
RESULT: v0x47b4ed0_0 : [1,1]
RESULT: v0x6594a70_0 : [2,3]
RESULT: v0x47b61d0_0 : [4,5]
