RESULT: v0x4d0c290_0 : [0,1]
RESULT: v0x567d410_1 : [0,1]
RESULT: v0x5687280_1 : [1,1]
RESULT: v0x58bf740_1 : [0,1]
RESULT: v0x58b7120_1 : [0,1]
RESULT: v0x64592b0_1 : [0,1]
RESULT: v0x628cda0_1 : [0,1]
RESULT: v0x4d60280_1 : [0,1]
RESULT: v0x646d030_1 : [0,1]
RESULT: v0x5203ec0_1 : [0,1]
RESULT: v0x6463530_1 : [0,1]
RESULT: v0x58e0340_1 : [0,1]
RESULT: v0x6289940_1 : [0,1]
RESULT: v0x63d3a70_1 : [0,1]
RESULT: v0x58b52c0_1 : [0,2]
RESULT: v0x58b32c0_1 : [2,2]
RESULT: v0x5d025b0_1 : [0,2]
RESULT: v0x4f16850_1 : [0,2]
RESULT: v0x4dacef0_1 : [0,2]
RESULT: v0x5677110_1 : [0,2]
RESULT: v0x68dd090_1 : [0,2]
RESULT: v0x58b9f60_1 : [0,2]
RESULT: v0x5687360_1 : [0,2]
RESULT: v0x56909a0_1 : [0,2]
RESULT: v0x4fd0ad0_1 : [0,2]
RESULT: v0x58b89a0_1 : [0,2]
RESULT: v0x591dee0_1 : [0,2]
RESULT: v0x618fb90_1 : [0,2]
