RESULT: v0x4214740_1 : [-1/0,1/0]
RESULT: v0x3f5aa40_1 : [-1/0,1/0]
RESULT: v0x41338f0_1 : [-1/0,1/0]
RESULT: v0x412d1f0_1 : [-1/0,1/0]
RESULT: v0x412d390_1 : [-1/0,1/0]
RESULT: v0x412ce10_1 : [-1/0,1/0]
RESULT: v0x412cf70_1 : [-1/0,1/0]
RESULT: v0x412cad0_1 : [-1/0,1/0]
RESULT: v0x412cb90_1 : [-1/0,1/0]
RESULT: v0x412bd40_1 : [-1/0,1/0]
RESULT: v0x412bcc0_1 : [-1/0,1/0]
RESULT: v0x412b040_1 : [-1/0,1/0]
RESULT: v0x412ad60_1 : [-1/0,1/0]
RESULT: v0x412af00_1 : [-1/0,1/0]
RESULT: v0x412a100_1 : [-1/0,1/0]
RESULT: v0x412a180_1 : [-1/0,1/0]
RESULT: v0x4123d40_1 : [-1/0,1/0]
RESULT: v0x4123a80_1 : [-1/0,1/0]
RESULT: v0x4123c20_1 : [-1/0,1/0]
RESULT: v0x41236a0_1 : [-1/0,1/0]
RESULT: v0x4123800_1 : [-1/0,1/0]
RESULT: v0x4123360_1 : [-1/0,1/0]
RESULT: v0x4123420_1 : [-1/0,1/0]
RESULT: v0x4122800_1 : [-1/0,1/0]
RESULT: v0x41227c0_1 : [-1/0,1/0]
RESULT: v0x3f62170_1 : [-1/0,1/0]
RESULT: v0x3f61e90_1 : [-1/0,1/0]
