RESULT: v0x420d860_0 : [0,1/0]
RESULT: v0x4171e40_0 : [0,1]
RESULT: v0x4178700_0 : [0,1]
RESULT: v0x3f80b20_0 : [123,777]
RESULT: v0x3f591f0_0 : [0,1]
RESULT: v0x420b620_0 : [0,1]
RESULT: v0x418fbc0_0 : [0,1]
RESULT: v0x41cb340_0 : [0,2]
RESULT: v0x41951b0_0 : [0,3]
RESULT: v0x3e3c360_0 : [0,1]
RESULT: v0x41bc060_0 : [0,1]
RESULT: v0x409e240_0 : [0,1]
RESULT: v0x4115de0_0 : [0,666]
RESULT: v0x41327b0_0 : [0,1]
RESULT: v0x416ff00_0 : [0,1]
RESULT: v0x4218460_0 : [0,2]
RESULT: v0x3f774d0_0 : [0,456]
RESULT: v0x40abac0_0 : [0,123]
RESULT: v0x41303f0_0 : [0,456]
RESULT: v0x40a7080_0 : [0,2]
RESULT: v0x41fb500_0 : [0,1]
RESULT: v0x41a0080_0 : [0,1]
RESULT: v0x41751e0_0 : [0,1]
RESULT: v0x41be080_0 : [0,1]
