RESULT: v0x3ae8cc0_0 : [-1/0,1/0]
RESULT: v0x3a8a780_0 : [-1/0,1/0]
RESULT: v0x3a5cf90_0 : [-1/0,1/0]
RESULT: v0x39905f0_0 : [-1/0,1/0]
RESULT: v0x3991f50_0 : [-1/0,1/0]
RESULT: v0x39f4dd0_0 : [-1/0,1/0]
RESULT: v0x3a07930_0 : [-1/0,1/0]
RESULT: v0x3a16810_0 : [-1/0,1/0]
RESULT: v0x3af9940_0 : [-1/0,1/0]
RESULT: v0x3a0aa90_0 : [-1/0,1/0]
RESULT: v0x3a077b0_0 : [-1/0,1/0]
RESULT: v0x399f210_0 : [-1/0,1/0]
RESULT: v0x3995c60_0 : [-1/0,1/0]
RESULT: v0x38af0b0_0 : [1,1]
RESULT: v0x3af8fc0_0 : [-1/0,1/0]
RESULT: v0x3afab20_0 : [-1/0,1/0]
RESULT: v0x39d40a0_0 : [-1/0,1/0]
RESULT: v0x39e4710_0 : [-1/0,1/0]
RESULT: v0x39e1ad0_0 : [-1/0,1/0]
RESULT: v0x3a08910_0 : [-1/0,1/0]
RESULT: v0x39ae670_0 : [-1/0,1/0]
RESULT: v0x3992910_0 : [-1/0,1/0]
RESULT: v0x3990470_0 : [-1/0,1/0]
RESULT: v0x3997710_0 : [-1/0,1/0]
RESULT: v0x39e4590_0 : [-1/0,1/0]
RESULT: v0x3a35ac0_0 : [-1/0,1/0]
RESULT: v0x3a8ba80_0 : [-1/0,1/0]
RESULT: v0x3a89700_0 : [-1/0,1/0]
RESULT: v0x3a5f570_0 : [-1/0,1/0]
RESULT: v0x3a83400_0 : [2,2]
