RESULT: v0x49c2730_0 : [0,1]
RESULT: v0x558c930_1 : [0,1]
RESULT: v0x5e52030_1 : [0,1]
RESULT: v0x5592fc0_1 : [0,1]
RESULT: v0x4c4fc50_1 : [0,1]
RESULT: v0x4eb80d0_1 : [0,1]
RESULT: v0x5e4d1f0_1 : [0,1]
RESULT: v0x558b650_1 : [0,1]
RESULT: v0x4c78b40_1 : [0,1]
RESULT: v0x5e4c450_1 : [0,1]
RESULT: v0x4c87060_1 : [0,1]
RESULT: v0x4eb37b0_1 : [0,1]
RESULT: v0x672e0d0_1 : [-1/0,1/0]
RESULT: v0x5e4b430_1 : [-1/0,1/0]
RESULT: v0x4c89af0_1 : [0,2]
RESULT: v0x672e2d0_1 : [0,2]
RESULT: v0x672e010_1 : [0,2]
RESULT: v0x672dc10_1 : [0,2]
RESULT: v0x4e92cd0_1 : [0,2]
RESULT: v0x60d33c0_1 : [0,2]
RESULT: v0x5e53a70_1 : [0,2]
RESULT: v0x6712bd0_1 : [0,2]
RESULT: v0x4c666f0_1 : [0,2]
RESULT: v0x4c4fd70_1 : [0,2]
RESULT: v0x5e49290_1 : [0,2]
RESULT: v0x5e460b0_1 : [0,2]
