RESULT: v0x32d6eb0_0 : [0,1]
RESULT: v0x416f070_1 : [0,1]
RESULT: v0x4178650_1 : [0,1]
RESULT: v0x4181040_1 : [0,1]
RESULT: v0x417fc60_1 : [0,1]
RESULT: v0x4181ce0_1 : [0,1]
RESULT: v0x4181f00_1 : [0,1]
RESULT: v0x417ef40_1 : [0,1]
RESULT: v0x3ee2280_1 : [0,1]
RESULT: v0x3ed7910_1 : [0,1]
RESULT: v0x4183a60_1 : [0,1]
RESULT: v0x442d960_1 : [0,1]
RESULT: v0x416ebb0_1 : [0,2]
RESULT: v0x37d1e00_1 : [0,2]
RESULT: v0x4186ec0_1 : [0,2]
RESULT: v0x4178850_1 : [0,2]
RESULT: v0x418d5e0_1 : [0,2]
RESULT: v0x4189ae0_1 : [0,2]
RESULT: v0x3ec1830_1 : [0,2]
RESULT: v0x44216a0_1 : [0,2]
RESULT: v0x4187b80_1 : [0,2]
RESULT: v0x4174990_1 : [0,2]
RESULT: v0x3ee24c0_1 : [0,2]
RESULT: v0x354e010_1 : [0,2]
