RESULT: v0x3cacd50_0 : [2,1/0]
RESULT: v0x3efb3b0_0 : [0,1]
RESULT: v0x3f56c50_0 : [123,777]
RESULT: v0x3f486b0_0 : [0,1]
RESULT: v0x41bf950_0 : [0,1]
RESULT: v0x3e5f530_0 : [0,2]
RESULT: v0x3e74080_0 : [0,3]
RESULT: v0x3f57f10_0 : [0,1]
RESULT: v0x3c9b8f0_0 : [0,1]
RESULT: v0x3f546b0_0 : [0,0]
RESULT: v0x3d06600_0 : [1,1]
RESULT: v0x3c93c30_0 : [0,1]
RESULT: v0x3c9c3f0_0 : [0,2]
RESULT: v0x3f11bd0_0 : [0,456]
RESULT: v0x3f5a9d0_0 : [0,1]
RESULT: v0x3f28790_0 : [0,123]
RESULT: v0x3cb1080_0 : [0,1]
RESULT: v0x3cf7fa0_0 : [0,1]
RESULT: v0x3f7b3f0_0 : [0,3]
RESULT: v0x3e60eb0_0 : [0,1]
RESULT: v0x3de1c00_0 : [0,1]
RESULT: v0x3f19290_0 : [0,1]
RESULT: v0x3f1a850_0 : [0,1]
RESULT: v0x3ecfd00_0 : [0,2]
RESULT: v0x3f28890_0 : [0,456]
RESULT: v0x3b474f0_0 : [2,2]
RESULT: v0x3b475f0_0 : [2,2]
RESULT: v0x3b476f0_0 : [1,1]
RESULT: v0x3b477f0_0 : [0,1]
RESULT: v0x3b478f0_0 : [1,3]
RESULT: v0x3b47df0_0 : [0,0]
RESULT: v0x3b47ef0_0 : [123,777]
RESULT: v0x3b47ff0_0 : [0,0]
