RESULT: v0x3c3f230_0 : [-1/0,1/0]
RESULT: v0x3c3f3b0_0 : [-1/0,1/0]
RESULT: v0x3c3f470_0 : [-1/0,1/0]
RESULT: v0x3c83ab0_0 : [-1/0,1/0]
RESULT: v0x3c3f5d0_0 : [-1/0,1/0]
RESULT: v0x3c427c0_0 : [-1/0,1/0]
RESULT: v0x3c42700_0 : [-1/0,1/0]
RESULT: v0x3c44920_0 : [-1/0,1/0]
RESULT: v0x3c426c0_0 : [-1/0,1/0]
RESULT: v0x3c43480_0 : [-1/0,1/0]
RESULT: v0x3c454c0_0 : [-1/0,1/0]
RESULT: v0x3c96e30_0 : [-1/0,1/0]
RESULT: v0x3c3f530_0 : [-1/0,1/0]
RESULT: v0x3c3e3f0_0 : [-1/0,1/0]
RESULT: v0x3c3e330_0 : [-1/0,1/0]
RESULT: v0x3c3ead0_0 : [-1/0,1/0]
RESULT: v0x3c3e950_0 : [-1/0,1/0]
RESULT: v0x3c3f0b0_0 : [-1/0,1/0]
RESULT: v0x3c3eff0_0 : [-1/0,1/0]
RESULT: v0x3c3f2f0_0 : [-1/0,1/0]
RESULT: v0x3c3ec50_0 : [-1/0,1/0]
RESULT: v0x3c3f170_0 : [-1/0,1/0]
RESULT: v0x3c3eb90_0 : [-1/0,1/0]
RESULT: v0x3c41a00_0 : [-1/0,1/0]
RESULT: v0x3c41ac0_0 : [-1/0,1/0]
