RESULT: v0x4ce7be0_1 : [3,3]
RESULT: v0x4ce7b20_1 : [0,1]
RESULT: v0x4ce7a60_1 : [0,1]
RESULT: v0x4baef50_1 : [0,1]
RESULT: v0x4dfb010_1 : [0,1]
RESULT: v0x4dfaf70_1 : [0,1]
RESULT: v0x4dfaf30_1 : [0,1]
RESULT: v0x4dfaad0_1 : [0,1]
RESULT: v0x4ce8120_1 : [0,1]
RESULT: v0x4ce81e0_1 : [0,1]
RESULT: v0x4bb2100_1 : [0,1]
RESULT: v0x4ce8420_1 : [123,777]
RESULT: v0x4ce84e0_1 : [0,666]
RESULT: v0x4ce85a0_1 : [0,2]
RESULT: v0x4cd1b80_1 : [0,1]
RESULT: v0x4cd4260_1 : [0,2]
RESULT: v0x4ca3f00_1 : [0,456]
RESULT: v0x4cd4e50_1 : [0,123]
RESULT: v0x4cd8cd0_1 : [0,456]
RESULT: v0x4cdd040_1 : [0,3]
RESULT: v0x4cd8c40_1 : [0,1]
RESULT: v0x4cf12d0_1 : [0,1]
