RESULT: v0x6e656f0_0 : [1,1]
RESULT: v0x6e65630_0 : [0,0]
RESULT: v0x6e655f0_0 : [40,40]
RESULT: v0x6e654f0_0 : [1,1]
RESULT: v0x4ba24c0_0 : [-1/0,1/0]
RESULT: v0x6ae3750_0 : [0,0]
RESULT: v0x5db78f0_0 : [0,0]
RESULT: v0x6cf9660_0 : [0,0]
RESULT: v0x6420000_0 : [0,0]
RESULT: v0x55e6c00_0 : [1,1]
RESULT: v0x6e653f0_0 : [1,1]
RESULT: v0x6ae3230_0 : [1,1]
RESULT: v0x625eb20_0 : [1,1]
RESULT: v0x64038e0_0 : [0,0]
RESULT: v0x6e63e70_0 : [1,1]
RESULT: v0x4ba22c0_0 : [-1/0,1/0]
RESULT: v0x6cfd3c0_0 : [4,4]
RESULT: v0x4ba23c0_0 : [-1/0,1/0]
RESULT: v0x4bb86c0_0 : [80,80]
RESULT: v0x4bb87c0_0 : [0,0]
RESULT: v0x4bb88c0_0 : [1,1]
RESULT: v0x4bb89c0_0 : [0,0]
RESULT: v0x4bb8ac0_0 : [0,0]
RESULT: v0x4bb8bc0_0 : [1,1]
RESULT: v0x4bb8cc0_0 : [0,0]
RESULT: v0x4bb8dc0_0 : [4,4]
RESULT: v0x4bb8ec0_0 : [1,1]
RESULT: v0x4bb8fc0_0 : [1,1]
RESULT: v0x4bb90c0_0 : [1,1]
RESULT: v0x4bb91c0_0 : [1,1]
RESULT: v0x4bb92c0_0 : [0,0]
RESULT: v0x4bb93c0_0 : [1,1]
RESULT: v0x7765ec0_0 : [0,0]
RESULT: v0x4bb96c0_0 : [5,5]
