RESULT: v0x3e5a780_0 : [0,0]
RESULT: v0x40fb320_1 : [0,1]
RESULT: v0x40fb020_1 : [0,1]
RESULT: v0x40fe7c0_1 : [0,1]
RESULT: v0x40fe700_1 : [0,1]
RESULT: v0x40bad00_1 : [0,1]
RESULT: v0x40ba6c0_1 : [0,1]
RESULT: v0x40b9b00_1 : [0,1]
RESULT: v0x40b79e0_1 : [0,1]
RESULT: v0x40b04d0_1 : [0,1]
RESULT: v0x3f6e9f0_1 : [-1/0,1/0]
RESULT: v0x40d1b10_1 : [-1/0,1/0]
RESULT: v0x40ca330_1 : [0,2]
RESULT: v0x40ca650_1 : [0,2]
RESULT: v0x40cb0d0_1 : [0,2]
RESULT: v0x40d0370_1 : [0,2]
RESULT: v0x40d2ba0_1 : [0,2]
RESULT: v0x40d6a40_1 : [0,2]
RESULT: v0x40bee00_1 : [0,2]
RESULT: v0x40d7a00_1 : [0,2]
RESULT: v0x40d8500_1 : [0,2]
RESULT: v0x40ddf30_1 : [0,0]
