RESULT: v0x3f3a880_0 : [2,1/0]
RESULT: v0x421b6a0_0 : [0,1]
RESULT: v0x41a47a0_0 : [0,1]
RESULT: v0x422ac80_0 : [0,1]
RESULT: v0x41c7de0_0 : [0,1]
RESULT: v0x41c12e0_0 : [0,0]
RESULT: v0x40c3450_0 : [1,1]
RESULT: v0x3fdcb10_0 : [0,1]
RESULT: v0x3be8ed0_0 : [0,1]
RESULT: v0x41ae780_0 : [0,0]
RESULT: v0x423f8a0_0 : [0,1]
RESULT: v0x41a1d80_0 : [1,1]
RESULT: v0x4230d60_0 : [123,777]
RESULT: v0x419c610_0 : [456,456]
RESULT: v0x3fc4090_0 : [2,2]
RESULT: v0x4234d80_0 : [0,1]
RESULT: v0x423ada0_0 : [456,456]
RESULT: v0x3e21b50_0 : [0,123]
RESULT: v0x3fbbf90_0 : [3,3]
RESULT: v0x3bd4740_0 : [0,0]
RESULT: v0x3bd4840_0 : [0,0]
RESULT: v0x3bd4140_0 : [-1/0,1/0]
RESULT: v0x3bd3e40_0 : [456,456]
RESULT: v0x3bd4040_0 : [0,0]
RESULT: v0x3bd4f40_0 : [1,1]
RESULT: v0x3bd5540_0 : [0,0]
RESULT: v0x3bd5640_0 : [0,0]
