RESULT: v0x3fbc5a0_0 : [-1/0,1/0]
RESULT: v0x3fb9db0_0 : [-1/0,1/0]
RESULT: v0x3fbdbb0_0 : [-1/0,1/0]
RESULT: v0x3fbc660_0 : [-1/0,1/0]
RESULT: v0x3fbdc70_0 : [-1/0,1/0]
RESULT: v0x3fbce30_0 : [-1/0,1/0]
RESULT: v0x3fbcfb0_0 : [-1/0,1/0]
RESULT: v0x3fb9e70_0 : [-1/0,1/0]
RESULT: v0x3fbc720_0 : [-1/0,1/0]
RESULT: v0x3fe5d60_0 : [-1/0,1/0]
RESULT: v0x3fbdd30_0 : [-1/0,1/0]
RESULT: v0x3fbd370_0 : [-1/0,1/0]
RESULT: v0x3ff8a20_0 : [-1/0,1/0]
RESULT: v0x3fbc2a0_0 : [-1/0,1/0]
RESULT: v0x3fb9f30_0 : [-1/0,1/0]
RESULT: v0x3fbbdd0_0 : [-1/0,1/0]
RESULT: v0x3fbbd10_0 : [-1/0,1/0]
RESULT: v0x3fbbc50_0 : [-1/0,1/0]
RESULT: v0x3fbbb90_0 : [-1/0,1/0]
RESULT: v0x3fbaef0_0 : [-1/0,1/0]
RESULT: v0x3fbab50_0 : [-1/0,1/0]
RESULT: v0x3fbb1f0_0 : [-1/0,1/0]
RESULT: v0x3fbb130_0 : [-1/0,1/0]
RESULT: v0x3fbbad0_0 : [-1/0,1/0]
