RESULT: v0x3c80850_0 : [1,1/0]
RESULT: v0x3d63870_0 : [123,777]
RESULT: v0x3af2800_0 : [0,1]
RESULT: v0x3cb6840_0 : [0,1]
RESULT: v0x3cb66c0_0 : [0,2]
RESULT: v0x3cb63c0_0 : [0,3]
RESULT: v0x3d7b130_0 : [0,1]
RESULT: v0x3d710d0_0 : [0,1]
RESULT: v0x3cb6cc0_0 : [0,1]
RESULT: v0x3d59a70_0 : [0,666]
RESULT: v0x3cb6b40_0 : [1,1]
RESULT: v0x3cb6300_0 : [1,1]
RESULT: v0x3af9310_0 : [0,1]
RESULT: v0x3cb6240_0 : [0,1]
RESULT: v0x3da6030_0 : [0,456]
RESULT: v0x3ffd8f0_0 : [0,2]
RESULT: v0x3cb6f00_0 : [0,1]
RESULT: v0x3cb48e0_0 : [0,1]
RESULT: v0x3d2e6f0_0 : [0,123]
RESULT: v0x3d33f50_0 : [0,1]
RESULT: v0x3da1290_0 : [0,1]
RESULT: v0x3d1c6f0_0 : [0,3]
RESULT: v0x3b00190_0 : [0,456]
RESULT: v0x3cb69c0_0 : [0,1]
RESULT: v0x3d7b4b0_0 : [0,2]
