RESULT: v0x3fbeb10_0 : [0,1]
RESULT: v0x3fbee10_0 : [-1/0,1/0]
RESULT: v0x6ab9530_0 : [0,0]
RESULT: v0x6ab8030_0 : [-1/0,1/0]
RESULT: v0x3fc1ba0_0 : [-1/0,1/0]
RESULT: v0x3fbef10_0 : [-1/0,1]
RESULT: v0x3fbf110_0 : [0,1]
RESULT: v0x3fbe4b0_0 : [0,1]
RESULT: v0x3fbec10_0 : [0,1]
RESULT: v0x3fbe6b0_0 : [0,1]
RESULT: v0x3fbf5d0_0 : [0,1]
RESULT: v0x3fbe2b0_0 : [1,1]
RESULT: v0x3fbe910_0 : [-1/0,1/0]
RESULT: v0x3fbe110_0 : [-1/0,1/0]
RESULT: v0x3fbf310_0 : [-1/0,1/0]
RESULT: v0x3fc11a0_0 : [-1/0,1/0]
RESULT: v0x3fc12a0_0 : [-1/0,1/0]
RESULT: v0x3fc1ca0_0 : [-1/0,1/0]
RESULT: v0x3fbf210_0 : [-1/0,1/0]
RESULT: v0x3fc1fa0_0 : [-1/0,1/0]
RESULT: v0x3fbf6d0_0 : [-1/0,1/0]
RESULT: v0x3fbed10_0 : [-1/0,1/0]
RESULT: v0x3fc16a0_0 : [-1/0,1/0]
RESULT: v0x6a70d50_0 : [-1/0,1/0]
RESULT: v0x50fb590_0 : [0,1]
RESULT: v0x6a96eb0_0 : [-1/0,1/0]
RESULT: v0x674f020_0 : [0,1]
RESULT: v0x5027880_0 : [-1/0,1/0]
RESULT: v0x50f5550_0 : [0,1]
RESULT: v0x6a858b0_0 : [0,1]
RESULT: v0x6a6ed30_0 : [-1/0,1/0]
RESULT: v0x6ab9a90_0 : [-1/0,1]
RESULT: v0x5843950_0 : [-1/0,1/0]
RESULT: v0x5814240_0 : [0,1]
RESULT: v0x6a7f870_0 : [-1/0,1/0]
RESULT: v0x493d810_0 : [0,1]
RESULT: v0x6ac9070_0 : [0,0]
RESULT: v0x5800c30_0 : [0,0]
RESULT: v0x6a903b0_0 : [0,0]
RESULT: v0x50c7e40_0 : [0,0]
