RESULT: v0x7a5a990_0 : [1,1]
RESULT: v0x7b7d960_0 : [0,0]
RESULT: v0x7b7dbc0_0 : [40,40]
RESULT: v0x796c330_0 : [0,0]
RESULT: v0x4ba24c0_0 : [0,0]
RESULT: v0x7b7dd80_0 : [1,1]
RESULT: v0x7967390_0 : [0,0]
RESULT: v0x7825a50_0 : [0,0]
RESULT: v0x7967610_0 : [1,1]
RESULT: v0x796c750_0 : [0,0]
RESULT: v0x796dbe0_0 : [0,0]
RESULT: v0x796e5e0_0 : [1,1]
RESULT: v0x796d960_0 : [1,1]
RESULT: v0x7b7e6a0_0 : [1,1]
RESULT: v0x7b7e820_0 : [1,1]
RESULT: v0x4ba22c0_0 : [-1/0,1/0]
RESULT: v0x4ba23c0_0 : [-1/0,1/0]
RESULT: v0x796c5b0_0 : [4,4]
RESULT: v0x4bc76c0_0 : [80,80]
RESULT: v0x4bc77c0_0 : [1,1]
RESULT: v0x4bc78c0_0 : [0,0]
RESULT: v0x4bc79c0_0 : [0,0]
RESULT: v0x4bc7ac0_0 : [1,1]
RESULT: v0x4bc7bc0_0 : [0,0]
RESULT: v0x4bc7cc0_0 : [4,4]
RESULT: v0x4bc7dc0_0 : [1,1]
RESULT: v0x4bc7ec0_0 : [1,1]
RESULT: v0x4bc7fc0_0 : [1,1]
RESULT: v0x4bc80c0_0 : [1,1]
RESULT: v0x4bc81c0_0 : [0,0]
RESULT: v0x4bc82c0_0 : [1,1]
RESULT: v0x7c735f0_0 : [0,0]
RESULT: v0x4bc85c0_0 : [5,5]
