RESULT: v0x4551180_0 : [0,1]
RESULT: v0x4f62cb0_1 : [0,1]
RESULT: v0x6255290_1 : [0,1]
RESULT: v0x5f7c760_1 : [0,1]
RESULT: v0x6254890_1 : [0,1]
RESULT: v0x5f6f8b0_1 : [0,1]
RESULT: v0x5f90820_1 : [0,1]
RESULT: v0x5f7d820_1 : [0,1]
RESULT: v0x5f878c0_1 : [0,1]
RESULT: v0x5f82320_1 : [0,1]
RESULT: v0x5f89ea0_1 : [0,1]
RESULT: v0x5f90e80_1 : [0,1]
RESULT: v0x5f7bc80_1 : [0,1]
RESULT: v0x570ca70_1 : [0,2]
RESULT: v0x5748960_1 : [0,2]
RESULT: v0x5922820_1 : [0,2]
RESULT: v0x50a6fc0_1 : [0,2]
RESULT: v0x596b9c0_1 : [0,2]
RESULT: v0x571ced0_1 : [0,2]
RESULT: v0x5479340_1 : [0,2]
RESULT: v0x50a7ae0_1 : [0,2]
RESULT: v0x56f6d70_1 : [0,2]
RESULT: v0x45768e0_1 : [0,2]
RESULT: v0x547d4a0_1 : [0,2]
RESULT: v0x5713a10_1 : [0,2]
RESULT: v0x5f82c20_1 : [0,2]
