RESULT: v0x4eb42a0_0 : [-1/0,1/0]
RESULT: v0x419ab80_0 : [-1/0,1/0]
RESULT: v0x46dd070_0 : [-1/0,1/0]
RESULT: v0x448e290_0 : [-1/0,1/0]
RESULT: v0x4ea7ec0_0 : [-1/0,1/0]
RESULT: v0x4ea8040_0 : [-1/0,1/0]
RESULT: v0x49f1330_0 : [0,0]
RESULT: v0x40faaa0_0 : [67,1/0]
RESULT: v0x42e87d0_0 : [27,1/0]
RESULT: v0x40faba0_0 : [0,1]
RESULT: v0x40faca0_0 : [0,1]
RESULT: v0x40fada0_0 : [-1/0,1/0]
RESULT: v0x40faea0_0 : [-1/0,1/0]
RESULT: v0x40fafa0_0 : [-1/0,1/0]
RESULT: v0x40fb0a0_0 : [-1/0,1/0]
RESULT: v0x40fb1a0_0 : [-1/0,1/0]
RESULT: v0x4cc2990_0 : [-1/0,1/0]
RESULT: v0x40fb2a0_0 : [-1/0,1/0]
RESULT: v0x44979c0_0 : [-1/0,1/0]
RESULT: v0x40fb3a0_0 : [-1/0,1/0]
RESULT: v0x4ea7cc0_0 : [-1/0,1/0]
RESULT: v0x40fb4a0_0 : [-1/0,1/0]
RESULT: v0x40fb5a0_0 : [-1/0,1/0]
RESULT: v0x40fb6a0_0 : [-1/0,1/0]
RESULT: v0x40fb7a0_0 : [-1/0,1/0]
RESULT: v0x45018d0_0 : [-1/0,1/0]
RESULT: v0x4eb34c0_0 : [-1/0,1/0]
RESULT: v0x4e9e6c0_0 : [0,0]
RESULT: v0x42e86b0_0 : [-1/0,10]
RESULT: v0x4eb3140_0 : [-1/0,1/0]
RESULT: v0x40fbaa0_0 : [-1/0,1/0]
