RESULT: v0x4fddc10_0 : [0,1/0]
RESULT: v0x502aac0_0 : [0,1]
RESULT: v0x5220da0_0 : [0,1]
RESULT: v0x5172fb0_0 : [123,777]
RESULT: v0x51c2840_0 : [0,1]
RESULT: v0x50fa6f0_0 : [0,1]
RESULT: v0x5218100_0 : [0,2]
RESULT: v0x5210ac0_0 : [0,3]
RESULT: v0x525cde0_0 : [0,1]
RESULT: v0x50f9620_0 : [0,1]
RESULT: v0x5100cc0_0 : [0,1]
RESULT: v0x50f2f10_0 : [0,666]
RESULT: v0x52386c0_0 : [0,2]
RESULT: v0x5164b20_0 : [0,456]
RESULT: v0x5058170_0 : [0,1]
RESULT: v0x51f4120_0 : [0,1]
RESULT: v0x50f69c0_0 : [0,1]
RESULT: v0x4fdb9d0_0 : [0,3]
RESULT: v0x4fc23a0_0 : [0,2]
RESULT: v0x4fd6a80_0 : [0,456]
RESULT: v0x5164640_0 : [0,1]
RESULT: v0x5101440_0 : [0,1]
RESULT: v0x5171b80_0 : [0,123]
RESULT: v0x5225000_0 : [0,1]
