RESULT: v0x3e53100_1 : [3,3]
RESULT: v0x3cedfa0_1 : [0,1]
RESULT: v0x3e3fbf0_1 : [0,1]
RESULT: v0x3d774f0_1 : [0,1]
RESULT: v0x3d81da0_1 : [0,1]
RESULT: v0x3d82e00_1 : [0,1]
RESULT: v0x3bd5e40_1 : [0,1]
RESULT: v0x3e52680_1 : [0,1]
RESULT: v0x3d82980_1 : [0,1]
RESULT: v0x3d82a40_1 : [0,1]
RESULT: v0x3d82800_1 : [0,1]
RESULT: v0x3bd56c0_1 : [0,1]
RESULT: v0x3e52500_1 : [0,1]
RESULT: v0x3d82380_1 : [0,2]
RESULT: v0x3d82440_1 : [0,3]
RESULT: v0x3e52460_1 : [123,777]
RESULT: v0x3e52420_1 : [0,666]
RESULT: v0x3d81f00_1 : [0,2]
RESULT: v0x3d81e40_1 : [0,1]
RESULT: v0x3d81b60_1 : [0,2]
RESULT: v0x3d81aa0_1 : [0,456]
RESULT: v0x3e21ca0_1 : [0,123]
RESULT: v0x3e21be0_1 : [0,456]
RESULT: v0x3e219a0_1 : [0,3]
