RESULT: v0x42565e0_1 : [-1/0,2]
RESULT: v0x4256160_1 : [-1/0,1/0]
RESULT: v0x4255e60_1 : [-1/0,1/0]
RESULT: v0x42560a0_1 : [-1/0,1/0]
RESULT: v0x4255ce0_1 : [-1/0,1/0]
RESULT: v0x4255c00_1 : [-1/0,1/0]
RESULT: v0x42559e0_1 : [0,1]
RESULT: v0x4255860_1 : [-1/0,1/0]
RESULT: v0x42556e0_1 : [-1/0,1/0]
RESULT: v0x4255560_1 : [-1/0,1/0]
RESULT: v0x42553e0_1 : [-1/0,1/0]
RESULT: v0x4255260_1 : [0,1/0]
RESULT: v0x42550e0_1 : [-1/0,1/0]
RESULT: v0x4254f60_1 : [-1/0,1/0]
RESULT: v0x4254de0_1 : [-1/0,1/0]
RESULT: v0x4254c60_1 : [-1/0,1/0]
