RESULT: v0x1263fdf0_0 : [-1/0,1/0]
RESULT: v0x163177f0_0 : [-1/0,1/0]
RESULT: v0x4152bc0_0 : [-1/0,1/0]
RESULT: v0x8e35eb0_0 : [-1/0,1/0]
RESULT: v0xfbbdc10_0 : [27,1/0]
RESULT: v0xa9a7b50_0 : [-1/0,1/0]
RESULT: v0x4a01840_0 : [-1/0,1/0]
RESULT: v0x15c3ced0_0 : [1,1]
RESULT: v0x44f32d0_0 : [-1/0,1/0]
RESULT: v0x89fa070_0 : [-1/0,1/0]
RESULT: v0x14377700_0 : [-1/0,1/0]
RESULT: v0x3f94330_0 : [67,1/0]
RESULT: v0x3f94430_0 : [0,1]
RESULT: v0x3f94530_0 : [-1/0,1/0]
RESULT: v0x3f94630_0 : [-1/0,1/0]
RESULT: v0x3f94730_0 : [-1/0,1/0]
RESULT: v0x3f94830_0 : [-1/0,1/0]
RESULT: v0x3f94930_0 : [0,1]
RESULT: v0x3f94a30_0 : [-1/0,1/0]
RESULT: v0x3f94b30_0 : [-1/0,1/0]
RESULT: v0x3f94c30_0 : [-1/0,1/0]
RESULT: v0x3f94d30_0 : [-1/0,1/0]
RESULT: v0x3f94e30_0 : [-1/0,1/0]
RESULT: v0x3f94f30_0 : [-1/0,1/0]
RESULT: v0x3f95030_0 : [-1/0,1/0]
RESULT: v0x52260e0_0 : [-1/0,1/0]
RESULT: v0x74de160_0 : [-1/0,1/0]
RESULT: v0x12167b40_0 : [-1/0,1/0]
RESULT: v0xfc55900_0 : [-1/0,10]
RESULT: v0x1077c0d0_0 : [-1/0,1/0]
RESULT: v0x3f96330_0 : [-1/0,1/0]
