RESULT: v0x61b62d0_0 : [-1/0,1/0]
RESULT: v0x4b77ec0_0 : [-1/0,1/0]
RESULT: v0xa0a9870_0 : [0,1]
RESULT: v0x4ec1030_0 : [-1/0,1/0]
RESULT: v0xafa5530_0 : [27,1/0]
RESULT: v0x6b02090_0 : [-1/0,1/0]
RESULT: v0x95cd7f0_0 : [-1/0,1/0]
RESULT: v0x5176a10_0 : [-1/0,1/0]
RESULT: v0x4ec10d0_0 : [0,0]
RESULT: v0x5687b60_0 : [-1/0,1/0]
RESULT: v0x6b02550_0 : [-1/0,1/0]
RESULT: v0x478d2d0_0 : [67,1/0]
RESULT: v0x478d3d0_0 : [0,1]
RESULT: v0x478d4d0_0 : [-1/0,1/0]
RESULT: v0x478d5d0_0 : [-1/0,1/0]
RESULT: v0x478d6d0_0 : [-1/0,1/0]
RESULT: v0x478d7d0_0 : [-1/0,1/0]
RESULT: v0x478d8d0_0 : [0,1]
RESULT: v0x478d9d0_0 : [-1/0,1/0]
RESULT: v0x478dad0_0 : [-1/0,1/0]
RESULT: v0x478dbd0_0 : [-1/0,1/0]
RESULT: v0x478dcd0_0 : [0,0]
RESULT: v0x478ddd0_0 : [-1/0,1/0]
RESULT: v0x478ded0_0 : [-1/0,1/0]
RESULT: v0x478dfd0_0 : [-1/0,1/0]
RESULT: v0xa0a98b0_0 : [-1/0,1/0]
RESULT: v0x75b0a80_0 : [-1/0,1/0]
RESULT: v0xc66bb50_0 : [0,0]
RESULT: v0x53eb390_0 : [-1/0,10]
RESULT: v0x6e41390_0 : [-1/0,1/0]
RESULT: v0x478e2d0_0 : [-1/0,1/0]
