RESULT: v0x1193e650_0 : [1,1]
RESULT: v0xf4db730_0 : [-1/0,1/0]
RESULT: v0x4167950_0 : [-1/0,1/0]
RESULT: v0x9a264b0_0 : [-1/0,1/0]
RESULT: v0x45e19d0_0 : [-1/0,1/0]
RESULT: v0x51ca490_0 : [27,1/0]
RESULT: v0x984ca50_0 : [-1/0,1/0]
RESULT: v0x754cfa0_0 : [-1/0,1/0]
RESULT: v0x4259e20_0 : [-1/0,1/0]
RESULT: v0x9a26750_0 : [-1/0,1/0]
RESULT: v0x9a26530_0 : [-1/0,1/0]
RESULT: v0x3fa3330_0 : [67,1/0]
RESULT: v0x3fa3430_0 : [-1/0,1/0]
RESULT: v0x3fa3530_0 : [-1/0,1/0]
RESULT: v0x3fa3630_0 : [-1/0,1/0]
RESULT: v0x3fa3730_0 : [-1/0,1/0]
RESULT: v0x3fa3830_0 : [0,1]
RESULT: v0x3fa3930_0 : [-1/0,1/0]
RESULT: v0x3fa3a30_0 : [-1/0,1/0]
RESULT: v0x3fa3b30_0 : [-1/0,1/0]
RESULT: v0x3fa3c30_0 : [-1/0,1/0]
RESULT: v0x3fa3d30_0 : [-1/0,1/0]
RESULT: v0x3fa3e30_0 : [-1/0,1/0]
RESULT: v0x3fa3f30_0 : [-1/0,1/0]
RESULT: v0x1341dbd0_0 : [-1/0,1/0]
RESULT: v0x151a44d0_0 : [-1/0,1/0]
RESULT: v0x754cf60_0 : [-1/0,10]
RESULT: v0x45e1d30_0 : [-1/0,1/0]
RESULT: v0x81bd730_0 : [-1/0,1/0]
RESULT: v0x3fa5230_0 : [-1/0,1/0]
