RESULT: v0x49f2e10_0 : [0,1]
RESULT: v0x4cb11b0_1 : [0,1]
RESULT: v0x5026f00_1 : [0,1]
RESULT: v0x4cc2320_1 : [0,1]
RESULT: v0x4ec3de0_1 : [0,1]
RESULT: v0x5036f40_1 : [0,1]
RESULT: v0x5c0e2d0_1 : [0,1]
RESULT: v0x59de4d0_1 : [0,1]
RESULT: v0x4cad160_1 : [0,1]
RESULT: v0x4ebccc0_1 : [0,1]
RESULT: v0x4cd4560_1 : [0,1]
RESULT: v0x4f0cc30_1 : [0,1]
RESULT: v0x4ca5720_1 : [0,1]
RESULT: v0x4cdc080_1 : [-1/0,1/0]
RESULT: v0x4cdeb80_1 : [-1/0,1/0]
RESULT: v0x4cdd340_1 : [0,2]
RESULT: v0x4cb1fd0_1 : [0,2]
RESULT: v0x4cc8c20_1 : [0,2]
RESULT: v0x4eb47a0_1 : [0,2]
RESULT: v0x4c98490_1 : [0,2]
RESULT: v0x4b47160_1 : [0,2]
RESULT: v0x4ec73e0_1 : [0,2]
RESULT: v0x4cc05e0_1 : [0,2]
RESULT: v0x5c10d90_1 : [0,2]
RESULT: v0x5c0e810_1 : [0,2]
RESULT: v0x5bc7840_1 : [0,2]
RESULT: v0x5027440_1 : [0,2]
RESULT: v0x504b1c0_1 : [0,2]
