RESULT: v0x448f520_1 : [3,3]
RESULT: v0x4378ba0_1 : [0,1]
RESULT: v0x437c9f0_1 : [0,1]
RESULT: v0x4380a80_1 : [0,1]
RESULT: v0x4390ad0_1 : [0,1]
RESULT: v0x4383900_1 : [0,1]
RESULT: v0x42512c0_1 : [0,1]
RESULT: v0x43d8420_1 : [0,1]
RESULT: v0x43edfc0_1 : [0,1]
RESULT: v0x4253c00_1 : [0,1]
RESULT: v0x43d2c60_1 : [0,1]
RESULT: v0x442fe00_1 : [0,1]
RESULT: v0x43eabc0_1 : [0,1]
RESULT: v0x43dbaa0_1 : [0,2]
RESULT: v0x43d64e0_1 : [0,3]
RESULT: v0x437f920_1 : [0,1]
RESULT: v0x4379e00_1 : [123,777]
RESULT: v0x43e3040_1 : [0,666]
RESULT: v0x43dfaa0_1 : [0,2]
RESULT: v0x43ed0c0_1 : [0,1]
RESULT: v0x42578a0_1 : [0,2]
RESULT: v0x43819a0_1 : [0,456]
RESULT: v0x452e750_1 : [0,123]
RESULT: v0x44bb320_1 : [0,456]
