RESULT: v0x11d7ea60_0 : [-1/0,1/0]
RESULT: v0x4831010_0 : [-1/0,1/0]
RESULT: v0x91ed800_0 : [0,1]
RESULT: v0xb39dd60_0 : [-1/0,1/0]
RESULT: v0x7662b50_0 : [27,1/0]
RESULT: v0x9db9820_0 : [-1/0,1/0]
RESULT: v0x8e02300_0 : [-1/0,1/0]
RESULT: v0xdc08270_0 : [0,0]
RESULT: v0x85b9100_0 : [-1/0,1/0]
RESULT: v0xa5097f0_0 : [-1/0,1/0]
RESULT: v0x11d7e9e0_0 : [-1/0,1/0]
RESULT: v0x3fa3330_0 : [67,1/0]
RESULT: v0x3fa3430_0 : [-1/0,1/0]
RESULT: v0x3fa3530_0 : [-1/0,1/0]
RESULT: v0x3fa3630_0 : [-1/0,1/0]
RESULT: v0x3fa3730_0 : [-1/0,1/0]
RESULT: v0x3fa3830_0 : [0,1]
RESULT: v0x3fa3930_0 : [-1/0,1/0]
RESULT: v0x3fa3a30_0 : [-1/0,1/0]
RESULT: v0x3fa3b30_0 : [-1/0,1/0]
RESULT: v0x3fa3c30_0 : [0,0]
RESULT: v0x3fa3d30_0 : [-1/0,1/0]
RESULT: v0x3fa3e30_0 : [-1/0,1/0]
RESULT: v0x3fa3f30_0 : [-1/0,1/0]
RESULT: v0x9dda970_0 : [-1/0,1/0]
RESULT: v0x1393c000_0 : [0,0]
RESULT: v0x143a8300_0 : [-1/0,10]
RESULT: v0x425c930_0 : [-1/0,1/0]
RESULT: v0x85b9180_0 : [-1/0,1/0]
RESULT: v0x3fa4230_0 : [-1/0,1/0]
