RESULT: v0x68f4bb0_0 : [0,2]
RESULT: v0x67d8c10_0 : [0,1]
RESULT: v0x6dd1d50_0 : [0,0]
RESULT: v0x6d25d60_0 : [0,1]
RESULT: v0x44bc8f0_0 : [1,2]
RESULT: v0x69a1bd0_0 : [-1/0,1/0]
RESULT: v0x6df0740_0 : [0,3]
RESULT: v0x683a690_0 : [0,1/0]
RESULT: v0x6dcda60_0 : [0,0]
RESULT: v0x68cd3a0_0 : [0,0]
RESULT: v0x6904c50_0 : [0,4]
RESULT: v0x67f4d10_0 : [0,1]
RESULT: v0x6dcfa00_0 : [0,1/0]
RESULT: v0x6d39380_0 : [0,54]
RESULT: v0x6dd0e40_0 : [0,1]
RESULT: v0x6dd1ed0_0 : [0,1]
RESULT: v0x44bbc90_0 : [0,53]
RESULT: v0x44bb9f0_0 : [0,52]
RESULT: v0x44bb8f0_0 : [0,51]
RESULT: v0x44bbb90_0 : [0,53]
RESULT: v0x44bb7f0_0 : [0,50]
RESULT: v0x44bcbf0_0 : [-1/0,1/0]
RESULT: v0x68d1140_0 : [1,1]
RESULT: v0x7acf8d0_0 : [0,4]
RESULT: v0x6322700_0 : [50,54]
RESULT: v0x47e4950_0 : [0,4]
RESULT: v0x7aea470_0 : [0,0]
RESULT: v0x7b03ab0_0 : [1,1]
RESULT: v0x6749850_0 : [0,1]
RESULT: v0x7804970_0 : [0,1]
RESULT: v0x7acadf0_0 : [0,1/0]
RESULT: v0x47664b0_0 : [-1/0,1/0]
RESULT: v0x496d790_0 : [0,2]
RESULT: v0x630bb70_0 : [0,1]
RESULT: v0x44be3b0_0 : [-1/0,1/0]
