RESULT: v0x709fb80_0 : [0,1]
RESULT: v0x709fd20_0 : [0,1]
RESULT: v0x709ff20_0 : [0,1]
RESULT: v0x70a0120_0 : [0,1]
RESULT: v0x70a0320_0 : [0,1]
RESULT: v0x70a0520_0 : [0,1]
RESULT: v0x70a0720_0 : [0,1]
RESULT: v0x70a0920_0 : [0,1]
RESULT: v0x70a0b20_0 : [0,1]
RESULT: v0x70a0d20_0 : [0,1]
RESULT: v0x70a0f20_0 : [0,1]
RESULT: v0x70a1120_0 : [0,1]
RESULT: v0x70a1320_0 : [0,1]
RESULT: v0x70a1520_0 : [1,1]
RESULT: v0x70a1720_0 : [0,2]
RESULT: v0x70a1920_0 : [0,2]
RESULT: v0x70a1b20_0 : [0,2]
RESULT: v0x70a1d20_0 : [0,2]
RESULT: v0x70a1f20_0 : [0,2]
RESULT: v0x70a2120_0 : [0,2]
RESULT: v0x70a2320_0 : [0,2]
RESULT: v0x70a2520_0 : [0,2]
RESULT: v0x70a2720_0 : [0,2]
RESULT: v0x70a2920_0 : [0,2]
RESULT: v0x70bab50_0 : [0,2]
RESULT: v0x70bad50_0 : [0,2]
RESULT: v0x70baf50_0 : [0,2]
RESULT: v0x70bb150_0 : [2,2]
