RESULT: v0x44619b0_0 : [1,1/0]
RESULT: v0x4378320_0 : [0,1]
RESULT: v0x43e70f0_0 : [0,1]
RESULT: v0x43b3910_0 : [123,777]
RESULT: v0x446bfd0_0 : [0,1]
RESULT: v0x41b9cf0_0 : [0,1]
RESULT: v0x43d6510_0 : [0,1]
RESULT: v0x4424990_0 : [0,1]
RESULT: v0x43d9ed0_0 : [0,2]
RESULT: v0x443f330_0 : [0,3]
RESULT: v0x436f0e0_0 : [0,1]
RESULT: v0x44227b0_0 : [0,1]
RESULT: v0x43d60f0_0 : [0,666]
RESULT: v0x446da30_0 : [0,2]
RESULT: v0x444f910_0 : [0,456]
RESULT: v0x4371950_0 : [0,3]
RESULT: v0x42285b0_0 : [0,456]
RESULT: v0x44031d0_0 : [0,1]
RESULT: v0x42185f0_0 : [0,2]
RESULT: v0x4419e30_0 : [0,1]
RESULT: v0x43eff90_0 : [0,1]
RESULT: v0x43fe5f0_0 : [0,1]
RESULT: v0x4452390_0 : [0,123]
RESULT: v0x435b810_0 : [0,1]
