RESULT: v0x5252de0_1 : [3,3]
RESULT: v0x515ea10_1 : [0,1]
RESULT: v0x523f8f0_1 : [0,1]
RESULT: v0x50f7a00_1 : [0,1]
RESULT: v0x5220150_1 : [0,1]
RESULT: v0x52211b0_1 : [0,1]
RESULT: v0x4fd7ad0_1 : [0,1]
RESULT: v0x5252360_1 : [0,1]
RESULT: v0x5220d30_1 : [0,1]
RESULT: v0x5220df0_1 : [0,1]
RESULT: v0x5220bb0_1 : [0,1]
RESULT: v0x4fd7350_1 : [0,1]
RESULT: v0x52521e0_1 : [0,1]
RESULT: v0x5220730_1 : [0,2]
RESULT: v0x52207f0_1 : [0,3]
RESULT: v0x5252140_1 : [123,777]
RESULT: v0x5252100_1 : [0,666]
RESULT: v0x52202b0_1 : [0,2]
RESULT: v0x52201f0_1 : [0,1]
RESULT: v0x5064050_1 : [0,2]
RESULT: v0x5063f90_1 : [0,456]
RESULT: v0x5063d50_1 : [0,123]
RESULT: v0x5063c90_1 : [0,456]
RESULT: v0x5063a50_1 : [0,3]
