RESULT: v0x436a200_0 : [-1/0,1/0]
RESULT: v0x3cd1c00_0 : [-1/0,1/0]
RESULT: v0xb2240d0_0 : [-1/0,1/0]
RESULT: v0x458b2e0_0 : [-1/0,1/0]
RESULT: v0x436a1c0_0 : [67,1/0]
RESULT: v0x47b18e0_0 : [-1/0,1/0]
RESULT: v0xa3adc00_0 : [-1/0,1/0]
RESULT: v0x458b320_0 : [0,0]
RESULT: v0xa3adb80_0 : [-1/0,1/0]
RESULT: v0x47b1360_0 : [-1/0,1/0]
RESULT: v0x47b1960_0 : [-1/0,1/0]
RESULT: v0x3f94330_0 : [67,1/0]
RESULT: v0x3f94430_0 : [0,1]
RESULT: v0x3f94530_0 : [-1/0,1/0]
RESULT: v0x3f94630_0 : [-1/0,1/0]
RESULT: v0x3f94730_0 : [-1/0,1/0]
RESULT: v0x3f94830_0 : [-1/0,1/0]
RESULT: v0x3f94930_0 : [0,1]
RESULT: v0x3f94a30_0 : [-1/0,1/0]
RESULT: v0x3f94b30_0 : [-1/0,1/0]
RESULT: v0x3f94c30_0 : [0,0]
RESULT: v0x3f94d30_0 : [0,0]
RESULT: v0x3f94e30_0 : [-1/0,1/0]
RESULT: v0x3f94f30_0 : [-1/0,1/0]
RESULT: v0x3f95030_0 : [-1/0,1/0]
RESULT: v0xa3adbc0_0 : [-1/0,1/0]
RESULT: v0x424c2e0_0 : [-1/0,1/0]
RESULT: v0x6264f60_0 : [0,0]
RESULT: v0x5da90e0_0 : [-1/0,10]
RESULT: v0x424c2a0_0 : [-1/0,1/0]
RESULT: v0x3f95330_0 : [-1/0,1/0]
