RESULT: v0x49b0550_0 : [1,1]
RESULT: v0x63040d0_0 : [0,2]
RESULT: v0x6d8db70_0 : [1,1]
RESULT: v0x55103b0_0 : [0,2]
RESULT: v0x6c2c770_0 : [-1/0,2]
RESULT: v0x3592b60_0 : [1,1]
RESULT: v0x50b6c80_0 : [1,1]
RESULT: v0x54cba90_0 : [-1/0,2]
RESULT: v0x55118b0_0 : [-1/0,2]
RESULT: v0x4dc3c20_0 : [1,1]
RESULT: v0x5513a10_0 : [-1/0,2]
RESULT: v0x6d8af90_0 : [1,1]
RESULT: v0x6c28570_0 : [-1/0,2]
RESULT: v0x6d5a4a0_0 : [1,1]
RESULT: v0x46efbe0_0 : [-1/0,2]
RESULT: v0x6ddbd80_0 : [1,1]
RESULT: v0x5512c50_0 : [0,1]
RESULT: v0x6deb130_0 : [-1/0,2]
RESULT: v0x35963f0_0 : [1,1]
RESULT: v0x35964f0_0 : [-1/0,2]
RESULT: v0x35965f0_0 : [-1/0,2]
RESULT: v0x35969f0_0 : [1,1]
RESULT: v0x3596af0_0 : [-1/0,2]
RESULT: v0x3596bf0_0 : [-1/0,2]
RESULT: v0x3596ff0_0 : [1,1]
RESULT: v0x35970f0_0 : [-1/0,2]
RESULT: v0x35956c0_0 : [-1/0,2]
RESULT: v0x3597740_0 : [1,1]
RESULT: v0x3597840_0 : [-1/0,2]
RESULT: v0x3597940_0 : [-1/0,2]
RESULT: v0x3597d40_0 : [1,1]
RESULT: v0x3597e40_0 : [-1/0,2]
RESULT: v0x3597f40_0 : [-1/0,2]
RESULT: v0x3598340_0 : [1,1]
RESULT: v0x3598440_0 : [-1/0,2]
RESULT: v0x3598540_0 : [0,2]
RESULT: v0x3598940_0 : [1,1]
RESULT: v0x3598a40_0 : [0,2]
RESULT: v0x3598b40_0 : [0,2]
RESULT: v0x3598e40_0 : [1,1]
RESULT: v0x3598f40_0 : [0,2]
RESULT: v0x3599040_0 : [0,0]
RESULT: v0x3599140_0 : [-1/0,1/0]
