RESULT: v0xd47d2a0_0 : [-1/0,1/0]
RESULT: v0x8375870_0 : [-1/0,1/0]
RESULT: v0xb04f3c0_0 : [0,1]
RESULT: v0x834be50_0 : [-1/0,1/0]
RESULT: v0x836baa0_0 : [-1/0,1/0]
RESULT: v0xa6cfaf0_0 : [-1/0,1/0]
RESULT: v0x836a460_0 : [0,0]
RESULT: v0x4e8eda0_0 : [67,1/0]
RESULT: v0xc5211c0_0 : [27,1/0]
RESULT: v0x4e8eea0_0 : [0,1]
RESULT: v0x4e8efa0_0 : [0,1]
RESULT: v0x4e8f0a0_0 : [-1/0,1/0]
RESULT: v0x4e8f1a0_0 : [-1/0,1/0]
RESULT: v0x4e8f2a0_0 : [-1/0,1/0]
RESULT: v0x4e8f3a0_0 : [0,0]
RESULT: v0x4e8f4a0_0 : [-1/0,1/0]
RESULT: v0x836ba40_0 : [-1/0,1/0]
RESULT: v0x4e8f5a0_0 : [-1/0,1/0]
RESULT: v0x4f39c00_0 : [-1/0,1/0]
RESULT: v0x4e8f6a0_0 : [-1/0,1/0]
RESULT: v0xb17cd50_0 : [-1/0,1/0]
RESULT: v0x4e8f7a0_0 : [-1/0,1/0]
RESULT: v0x4e8f8a0_0 : [-1/0,1/0]
RESULT: v0x4e8f9a0_0 : [-1/0,1/0]
RESULT: v0x4e8faa0_0 : [-1/0,1/0]
RESULT: v0x686dad0_0 : [-1/0,1/0]
RESULT: v0x66ef950_0 : [-1/0,1/0]
RESULT: v0x5be9230_0 : [0,0]
RESULT: v0xd436930_0 : [-1/0,10]
RESULT: v0x54feb90_0 : [-1/0,1/0]
RESULT: v0x4e8fda0_0 : [-1/0,1/0]
