RESULT: v0x491d380_0 : [-1/0,1/0]
RESULT: v0x509b9f0_0 : [-1/0,1/0]
RESULT: v0x4c56780_0 : [-1/0,1/0]
RESULT: v0x47e10a0_0 : [-1/0,1/0]
RESULT: v0x4c53820_0 : [67,1/0]
RESULT: v0x4866550_0 : [-1/0,1/0]
RESULT: v0x4c30f90_0 : [-1/0,1/0]
RESULT: v0x4c56ae0_0 : [-1/0,1/0]
RESULT: v0x47e1120_0 : [0,0]
RESULT: v0x4980db0_0 : [-1/0,1/0]
RESULT: v0x491d0e0_0 : [-1/0,1/0]
RESULT: v0x478d2d0_0 : [67,1/0]
RESULT: v0x478d3d0_0 : [0,1]
RESULT: v0x478d4d0_0 : [-1/0,1/0]
RESULT: v0x478d5d0_0 : [-1/0,1/0]
RESULT: v0x478d6d0_0 : [-1/0,1/0]
RESULT: v0x478d7d0_0 : [-1/0,1/0]
RESULT: v0x478d8d0_0 : [0,1]
RESULT: v0x478d9d0_0 : [-1/0,1/0]
RESULT: v0x478dad0_0 : [-1/0,1/0]
RESULT: v0x478dbd0_0 : [0,0]
RESULT: v0x478dcd0_0 : [0,0]
RESULT: v0x478ddd0_0 : [-1/0,1/0]
RESULT: v0x478ded0_0 : [-1/0,1/0]
RESULT: v0x478dfd0_0 : [-1/0,1/0]
RESULT: v0x5141de0_0 : [-1/0,1/0]
RESULT: v0x54086f0_0 : [-1/0,1/0]
RESULT: v0x51754b0_0 : [0,0]
RESULT: v0x4980650_0 : [-1/0,10]
RESULT: v0x5408530_0 : [-1/0,1/0]
RESULT: v0x478e2d0_0 : [-1/0,1/0]
