RESULT: v0x3e4b4f0_0 : [0,2]
RESULT: v0x3e4a030_0 : [1,2]
RESULT: v0x3e4abf0_0 : [0,2]
RESULT: v0x3e4a9f0_0 : [-1/0,1/0]
RESULT: v0x3e4b1f0_0 : [0,1]
RESULT: v0x3e4b2f0_0 : [0,1/0]
RESULT: v0x3e4b6f0_0 : [0,3]
RESULT: v0x3e4aff0_0 : [0,1/0]
RESULT: v0x3e4adf0_0 : [0,1/0]
RESULT: v0x3e4aef0_0 : [0,53]
RESULT: v0x3e4b7f0_0 : [-1/0,1/0]
RESULT: v0x3e4aaf0_0 : [0,1]
RESULT: v0x3e4b0f0_0 : [0,1]
RESULT: v0x3e4b5f0_0 : [0,1]
RESULT: v0x3e4acf0_0 : [0,1]
RESULT: v0x3e49230_0 : [0,52]
RESULT: v0x3e49030_0 : [0,50]
RESULT: v0x3e493d0_0 : [0,53]
RESULT: v0x3e49130_0 : [0,51]
RESULT: v0x3e4b3f0_0 : [-1/0,1/0]
RESULT: v0x3e4a330_0 : [-1/0,1/0]
RESULT: v0x7b75c90_0 : [-1/0,1/0]
RESULT: v0x7b75d90_0 : [0,0]
RESULT: v0x7b75e90_0 : [0,0]
RESULT: v0x7b75f90_0 : [-1/0,1/0]
RESULT: v0x7b76090_0 : [0,0]
RESULT: v0x7b76190_0 : [-1/0,1/0]
RESULT: v0x7b76290_0 : [-1/0,1/0]
RESULT: v0x7b76390_0 : [-1/0,1/0]
RESULT: v0x7b76490_0 : [-1/0,1/0]
RESULT: v0x7b76590_0 : [1,1]
