RESULT: v0x419c980_1 : [-1/0,11]
RESULT: v0x419cd40_1 : [-1/0,1/0]
RESULT: v0x419cfc0_1 : [-1/0,1/0]
RESULT: v0x419d240_1 : [-1/0,1/0]
RESULT: v0x419d4c0_1 : [-1/0,1/0]
RESULT: v0x419d740_1 : [-1/0,1/0]
RESULT: v0x419d9c0_1 : [-1/0,1/0]
RESULT: v0x419dc40_1 : [-1/0,1/0]
RESULT: v0x419dec0_1 : [-1/0,1/0]
RESULT: v0x419e140_1 : [-1/0,1/0]
RESULT: v0x419e3c0_1 : [-1/0,1/0]
