RESULT: v0x392a980_1 : [3,3]
RESULT: v0x3a8e030_1 : [0,1]
RESULT: v0x3a8e270_1 : [0,1]
RESULT: v0x3a8e4b0_1 : [0,1]
RESULT: v0x38b1ac0_1 : [0,1]
RESULT: v0x3913e00_1 : [0,1]
RESULT: v0x391d960_1 : [0,1]
RESULT: v0x38b1180_1 : [0,1]
RESULT: v0x392ca80_1 : [0,1]
RESULT: v0x387c750_1 : [0,1]
RESULT: v0x390d840_1 : [0,1]
RESULT: v0x3791200_1 : [0,1]
RESULT: v0x3928a40_1 : [0,1]
RESULT: v0x3913360_1 : [0,2]
RESULT: v0x38b3ea0_1 : [0,3]
RESULT: v0x38b0c40_1 : [0,1]
RESULT: v0x3916900_1 : [123,777]
RESULT: v0x37866a0_1 : [0,666]
RESULT: v0x3927fa0_1 : [0,2]
RESULT: v0x38b5eb0_1 : [0,1]
RESULT: v0x3790cc0_1 : [0,2]
RESULT: v0x3923a00_1 : [0,456]
RESULT: v0x38b4ca0_1 : [0,123]
RESULT: v0x3b47ae0_1 : [0,456]
RESULT: v0x3b163c0_1 : [0,3]
