RESULT: v0x3b38fd0_1 : [3,3]
RESULT: v0x3cb9d80_1 : [0,1]
RESULT: v0x3cb9fc0_1 : [0,1]
RESULT: v0x3cba200_1 : [0,1]
RESULT: v0x3add8a0_1 : [0,1]
RESULT: v0x3b37070_1 : [0,1]
RESULT: v0x3b3ebb0_1 : [0,1]
RESULT: v0x3ae0f90_1 : [0,1]
RESULT: v0x3b52d30_1 : [0,1]
RESULT: v0x3aafee0_1 : [0,1]
RESULT: v0x3b3d650_1 : [0,1]
RESULT: v0x3b4e790_1 : [0,1]
RESULT: v0x3b55d70_1 : [0,1]
RESULT: v0x3c30800_1 : [0,2]
RESULT: v0x3adfcf0_1 : [0,3]
RESULT: v0x3adcf60_1 : [0,1]
RESULT: v0x39b49e0_1 : [123,777]
RESULT: v0x3b52290_1 : [0,666]
RESULT: v0x3b3cbb0_1 : [0,2]
RESULT: v0x3ae1cc0_1 : [0,1]
RESULT: v0x3b36090_1 : [0,2]
RESULT: v0x3b62e80_1 : [0,456]
RESULT: v0x3b390d0_1 : [0,123]
RESULT: v0x3db3c30_1 : [0,456]
RESULT: v0x3dbf1f0_1 : [0,3]
