RESULT: v0x3a388c0_0 : [0,1]
RESULT: v0x46f52d0_1 : [0,1]
RESULT: v0x42d5b80_1 : [0,1]
RESULT: v0x3c9de20_1 : [0,1]
RESULT: v0x42bf450_1 : [0,1]
RESULT: v0x3a55200_1 : [0,1]
RESULT: v0x42d2a40_1 : [0,1]
RESULT: v0x42f7320_1 : [0,1]
RESULT: v0x42ccb00_1 : [0,1]
RESULT: v0x3ccb070_1 : [0,1]
RESULT: v0x4700990_1 : [0,1]
RESULT: v0x4523190_1 : [0,2]
RESULT: v0x3cc50c0_1 : [0,2]
RESULT: v0x4705350_1 : [0,2]
RESULT: v0x4568ab0_1 : [0,2]
RESULT: v0x42dac30_1 : [0,2]
RESULT: v0x42c0a40_1 : [0,2]
RESULT: v0x42e3770_1 : [0,2]
RESULT: v0x42cbb00_1 : [0,2]
RESULT: v0x46f6310_1 : [0,2]
RESULT: v0x46fd410_1 : [0,2]
RESULT: v0x42dc760_1 : [0,2]
