RESULT: v0x585a540_0 : [-1/0,1/0]
RESULT: v0x7d91440_0 : [-1/0,1/0]
RESULT: v0x6512be0_0 : [0,1]
RESULT: v0x651fc90_0 : [0,1]
RESULT: v0x5028d10_0 : [-1/0,1/0]
RESULT: v0x64a9070_0 : [-1/0,1/0]
RESULT: v0x64c8200_0 : [0,0]
RESULT: v0x4e8eda0_0 : [67,1/0]
RESULT: v0x51447d0_0 : [67,1/0]
RESULT: v0x4e8eea0_0 : [0,1]
RESULT: v0x4e8efa0_0 : [0,1]
RESULT: v0x4e8f0a0_0 : [-1/0,1/0]
RESULT: v0x4e8f1a0_0 : [-1/0,1/0]
RESULT: v0x4e8f2a0_0 : [0,0]
RESULT: v0x4e8f3a0_0 : [0,0]
RESULT: v0x4e8f4a0_0 : [-1/0,1/0]
RESULT: v0x71afc20_0 : [-1/0,1/0]
RESULT: v0x4e8f5a0_0 : [-1/0,1/0]
RESULT: v0x51a31e0_0 : [-1/0,1/0]
RESULT: v0x4e8f6a0_0 : [-1/0,1/0]
RESULT: v0x5835310_0 : [-1/0,1/0]
RESULT: v0x4e8f7a0_0 : [-1/0,1/0]
RESULT: v0x4e8f8a0_0 : [-1/0,1/0]
RESULT: v0x4e8f9a0_0 : [-1/0,1/0]
RESULT: v0x4e8faa0_0 : [-1/0,1/0]
RESULT: v0x7b0f340_0 : [-1/0,1/0]
RESULT: v0x71b3040_0 : [-1/0,1/0]
RESULT: v0x5537840_0 : [0,0]
RESULT: v0x60221b0_0 : [-1/0,10]
RESULT: v0x7b1c0a0_0 : [-1/0,1/0]
RESULT: v0x4e8fda0_0 : [-1/0,1/0]
