RESULT: v0x4668900_0 : [-1/0,1/0]
RESULT: v0x4668840_0 : [-1/0,1/0]
RESULT: v0x45e2680_0 : [-1/0,1/0]
RESULT: v0x46684a0_0 : [-1/0,1/0]
RESULT: v0x4668540_0 : [-1/0,1/0]
RESULT: v0x4668b40_0 : [-1/0,1/0]
RESULT: v0x4668c00_0 : [-1/0,1/0]
RESULT: v0x46109d0_0 : [-1/0,1/0]
RESULT: v0x4668cc0_0 : [-1/0,1/0]
RESULT: v0x4668d80_0 : [-1/0,1/0]
RESULT: v0x4668e40_0 : [-1/0,1/0]
RESULT: v0x4668f00_0 : [-1/0,1/0]
RESULT: v0x4668fc0_0 : [-1/0,1/0]
RESULT: v0x4669080_0 : [-1/0,1/0]
RESULT: v0x4669140_0 : [-1/0,1/0]
RESULT: v0x4669200_0 : [-1/0,1/0]
RESULT: v0x46692c0_0 : [-1/0,1/0]
RESULT: v0x4669380_0 : [-1/0,1/0]
RESULT: v0x4669440_0 : [-1/0,1/0]
RESULT: v0x46689c0_0 : [-1/0,1/0]
RESULT: v0x4668780_0 : [-1/0,1/0]
RESULT: v0x46686c0_0 : [-1/0,1/0]
RESULT: v0x4668b80_0 : [-1/0,1/0]
RESULT: v0x4668600_0 : [-1/0,1/0]
