RESULT: v0x49c2730_0 : [0,0]
RESULT: v0x4c43ca0_1 : [0,1]
RESULT: v0x4c7f8a0_1 : [0,1]
RESULT: v0x4c3a1e0_1 : [0,1]
RESULT: v0x4c92bd0_1 : [0,1]
RESULT: v0x4c74df0_1 : [0,1]
RESULT: v0x4c77540_1 : [0,1]
RESULT: v0x4c92b10_1 : [0,1]
RESULT: v0x4c5b920_1 : [0,1]
RESULT: v0x4c6cfb0_1 : [0,1]
RESULT: v0x4c6d730_1 : [0,1]
RESULT: v0x4c518b0_1 : [0,1]
RESULT: v0x4c53040_1 : [-1/0,1/0]
RESULT: v0x49e0a20_1 : [-1/0,1/0]
RESULT: v0x4c47cc0_1 : [0,2]
RESULT: v0x4c70800_1 : [0,2]
RESULT: v0x4c48400_1 : [0,2]
RESULT: v0x4ea20d0_1 : [0,2]
RESULT: v0x4c5d4d0_1 : [0,2]
RESULT: v0x4ebcdf0_1 : [0,2]
RESULT: v0x4eb9740_1 : [0,2]
RESULT: v0x4eb3a90_1 : [0,2]
RESULT: v0x4ea8150_1 : [0,2]
RESULT: v0x4eb4740_1 : [0,2]
RESULT: v0x4eb5680_1 : [0,2]
RESULT: v0x4c49c20_1 : [0,0]
