RESULT: v0x3ce68c0_1 : [3,3]
RESULT: v0x3ce6a20_1 : [0,1]
RESULT: v0x3ce6ba0_1 : [0,1]
RESULT: v0x3ce6de0_1 : [0,1]
RESULT: v0x3cb2a00_1 : [0,1]
RESULT: v0x3cb2880_1 : [0,1]
RESULT: v0x3cb27c0_1 : [0,1]
RESULT: v0x3baa850_1 : [0,1]
RESULT: v0x3b9cee0_1 : [0,1]
RESULT: v0x3b9cfa0_1 : [0,1]
RESULT: v0x3b9d060_1 : [0,1]
RESULT: v0x3b9d120_1 : [0,1]
RESULT: v0x3b9d1e0_1 : [0,1]
RESULT: v0x3b9d2a0_1 : [123,777]
RESULT: v0x3b86bd0_1 : [0,666]
RESULT: v0x3b892b0_1 : [0,2]
RESULT: v0x3b7edc0_1 : [0,1]
RESULT: v0x3b8a000_1 : [0,2]
RESULT: v0x3b8ddf0_1 : [0,456]
RESULT: v0x3b92160_1 : [0,123]
RESULT: v0x3b8dd60_1 : [0,456]
RESULT: v0x3ba15f0_1 : [0,3]
