RESULT: v0x3588810_1 : [3,3]
RESULT: v0x359e760_1 : [0,1]
RESULT: v0x35a24d0_1 : [0,1]
RESULT: v0x35a6520_1 : [0,1]
RESULT: v0x35b6590_1 : [0,1]
RESULT: v0x35f8300_1 : [0,1]
RESULT: v0x35f32a0_1 : [0,1]
RESULT: v0x360f440_1 : [0,1]
RESULT: v0x35a1640_1 : [0,1]
RESULT: v0x36d3670_1 : [0,1]
RESULT: v0x3610cc0_1 : [0,1]
RESULT: v0x3653fc0_1 : [0,1]
RESULT: v0x3613020_1 : [0,1]
RESULT: v0x35f3320_1 : [0,2]
RESULT: v0x35683b0_1 : [0,3]
RESULT: v0x35fce60_1 : [0,1]
RESULT: v0x35a5800_1 : [123,777]
RESULT: v0x347a790_1 : [0,666]
RESULT: v0x35a8d80_1 : [0,2]
RESULT: v0x35fe8e0_1 : [0,1]
RESULT: v0x35f9880_1 : [0,2]
RESULT: v0x3474770_1 : [0,456]
RESULT: v0x375c430_1 : [0,123]
RESULT: v0x36e1050_1 : [0,456]
