RESULT: v0x4443700_1 : [-1/0,2]
RESULT: v0x443fff0_1 : [-1/0,1/0]
RESULT: v0x443f170_1 : [0,1]
RESULT: v0x443e8f0_1 : [-1/0,1/0]
RESULT: v0x443e690_1 : [-1/0,1/0]
RESULT: v0x443e550_1 : [-1/0,1/0]
RESULT: v0x443da10_1 : [-1/0,1/0]
RESULT: v0x443de10_1 : [-1/0,1/0]
RESULT: v0x443e3b0_1 : [-1/0,1/0]
RESULT: v0x443e1d0_1 : [-1/0,1/0]
RESULT: v0x443e070_1 : [-1/0,1/0]
RESULT: v0x443ded0_1 : [-1/0,1/0]
RESULT: v0x443dbb0_1 : [-1/0,1/0]
RESULT: v0x443e830_1 : [-1/0,1/0]
RESULT: v0x443c910_1 : [-1/0,1/0]
RESULT: v0x443c810_1 : [-1/0,1/0]
