RESULT: v0x417faf0_0 : [-1/0,1/0]
RESULT: v0x417f690_0 : [-1/0,1/0]
RESULT: v0x3cbea60_0 : [-1/0,1/0]
RESULT: v0x3cbeea0_0 : [-1/0,1/0]
RESULT: v0x8671480_0 : [27,1/0]
RESULT: v0xad32d00_0 : [-1/0,1/0]
RESULT: v0x4158d90_0 : [-1/0,1/0]
RESULT: v0xe121150_0 : [0,0]
RESULT: v0x55789d0_0 : [-1/0,1/0]
RESULT: v0x417fb30_0 : [-1/0,1/0]
RESULT: v0xb1e2cf0_0 : [-1/0,1/0]
RESULT: v0x3fa3330_0 : [67,1/0]
RESULT: v0x3fa3430_0 : [-1/0,1/0]
RESULT: v0x3fa3530_0 : [-1/0,1/0]
RESULT: v0x3fa3630_0 : [-1/0,1/0]
RESULT: v0x3fa3730_0 : [-1/0,1/0]
RESULT: v0x3fa3830_0 : [0,1]
RESULT: v0x3fa3930_0 : [-1/0,1/0]
RESULT: v0x3fa3a30_0 : [-1/0,1/0]
RESULT: v0x3fa3b30_0 : [-1/0,1/0]
RESULT: v0x3fa3c30_0 : [-1/0,1/0]
RESULT: v0x3fa3d30_0 : [-1/0,1/0]
RESULT: v0x3fa3e30_0 : [-1/0,1/0]
RESULT: v0x3fa3f30_0 : [-1/0,1/0]
RESULT: v0x46d6050_0 : [-1/0,1/0]
RESULT: v0x1626b190_0 : [0,0]
RESULT: v0xee38ff0_0 : [-1/0,10]
RESULT: v0x10812e30_0 : [-1/0,1/0]
RESULT: v0x409eff0_0 : [-1/0,1/0]
RESULT: v0x3fa4230_0 : [-1/0,1/0]
