RESULT: v0x7621b10_0 : [-1/0,1/0]
RESULT: v0xd7cd170_0 : [-1/0,1/0]
RESULT: v0xf4523c0_0 : [-1/0,1/0]
RESULT: v0x7621410_0 : [-1/0,1/0]
RESULT: v0xf514110_0 : [-1/0,1/0]
RESULT: v0xd61b3e0_0 : [-1/0,1/0]
RESULT: v0xf88e950_0 : [-1/0,1/0]
RESULT: v0xf513fd0_0 : [-1/0,1/0]
RESULT: v0x3c61640_0 : [-1/0,1/0]
RESULT: v0xd69fb90_0 : [-1/0,1/0]
RESULT: v0xd69d0b0_0 : [-1/0,1/0]
RESULT: v0xf3267f0_0 : [-1/0,1/0]
RESULT: v0xf5024b0_0 : [-1/0,1/0]
RESULT: v0xd679fb0_0 : [-1/0,1/0]
RESULT: v0x1058cc00_0 : [-1/0,1/0]
RESULT: v0xf514150_0 : [-1/0,1/0]
RESULT: v0xd031af0_0 : [-1/0,1/0]
RESULT: v0xf5144f0_0 : [-1/0,1/0]
RESULT: v0xf5147b0_0 : [-1/0,1/0]
RESULT: v0xf5148f0_0 : [-1/0,1/0]
RESULT: v0xcbcd3b0_0 : [-1/0,1/0]
RESULT: v0x76234f0_0 : [-1/0,1/0]
RESULT: v0x761f750_0 : [-1/0,1/0]
RESULT: v0xc6564d0_0 : [-1/0,1/0]
RESULT: v0xd4b1b40_0 : [-1/0,1/0]
RESULT: v0xbcb8ad0_0 : [-1/0,1/0]
