RESULT: v0x4582350_0 : [0,1]
RESULT: v0x48684e0_1 : [0,1]
RESULT: v0x485d0a0_1 : [0,1]
RESULT: v0x48596b0_1 : [0,1]
RESULT: v0x484d110_1 : [0,1]
RESULT: v0x4d69990_1 : [0,1]
RESULT: v0x4a696c0_1 : [0,1]
RESULT: v0x4873ea0_1 : [0,1]
RESULT: v0x483f1e0_1 : [0,1]
RESULT: v0x4d73190_1 : [0,1]
RESULT: v0x4862180_1 : [0,1]
RESULT: v0x4824ba0_1 : [0,1]
RESULT: v0x4d6e0d0_1 : [0,1]
RESULT: v0x4866fe0_1 : [-1/0,1/0]
RESULT: v0x4a95ba0_1 : [-1/0,1/0]
RESULT: v0x4848ef0_1 : [0,2]
RESULT: v0x4ab46c0_1 : [0,2]
RESULT: v0x483bda0_1 : [0,2]
RESULT: v0x5219d90_1 : [0,2]
RESULT: v0x5d74b30_1 : [0,2]
RESULT: v0x4a2f740_1 : [0,2]
RESULT: v0x5ceb560_1 : [0,2]
RESULT: v0x5bf7050_1 : [0,2]
RESULT: v0x5d75d30_1 : [0,2]
RESULT: v0x4a2f3e0_1 : [0,2]
RESULT: v0x5d74530_1 : [0,2]
RESULT: v0x4869520_1 : [0,2]
RESULT: v0x4aa0ba0_1 : [0,2]
