RESULT: v0x51182e0_0 : [0,1]
RESULT: v0x55df940_1 : [0,1]
RESULT: v0x5395640_1 : [0,1]
RESULT: v0x5393750_1 : [0,1]
RESULT: v0x53881c0_1 : [0,1]
RESULT: v0x55d9620_1 : [0,1]
RESULT: v0x5a18cc0_1 : [0,1]
RESULT: v0x56813e0_1 : [0,1]
RESULT: v0x55c7a80_1 : [0,1]
RESULT: v0x5a005e0_1 : [0,1]
RESULT: v0x53cfcf0_1 : [0,1]
RESULT: v0x51622b0_1 : [-1/0,1/0]
RESULT: v0x539d160_1 : [-1/0,1/0]
RESULT: v0x5a25c30_1 : [0,2]
RESULT: v0x5a27380_1 : [0,2]
RESULT: v0x538d920_1 : [0,2]
RESULT: v0x55e1440_1 : [0,2]
RESULT: v0x5a30030_1 : [0,2]
RESULT: v0x55d2390_1 : [0,2]
RESULT: v0x5d779d0_1 : [0,2]
RESULT: v0x56a9020_1 : [0,2]
RESULT: v0x568c220_1 : [0,2]
RESULT: v0x567d160_1 : [0,2]
RESULT: v0x60f6400_1 : [0,2]
