RESULT: v0x32d6eb0_0 : [0,0]
RESULT: v0x3549940_1 : [0,1]
RESULT: v0x341c140_1 : [0,1]
RESULT: v0x354df50_1 : [0,1]
RESULT: v0x3558620_1 : [0,1]
RESULT: v0x37b6d30_1 : [0,1]
RESULT: v0x36513d0_1 : [0,1]
RESULT: v0x364ce30_1 : [0,1]
RESULT: v0x3580ef0_1 : [0,1]
RESULT: v0x3576060_1 : [0,1]
RESULT: v0x37bb470_1 : [0,1]
RESULT: v0x37b8c30_1 : [0,1]
RESULT: v0x3653d10_1 : [0,2]
RESULT: v0x37df550_1 : [0,2]
RESULT: v0x37de710_1 : [0,2]
RESULT: v0x3587840_1 : [0,2]
RESULT: v0x37d4cd0_1 : [0,2]
RESULT: v0x37d9d80_1 : [0,2]
RESULT: v0x37da560_1 : [0,2]
RESULT: v0x37da8e0_1 : [0,2]
RESULT: v0x3667050_1 : [0,2]
RESULT: v0x37c7350_1 : [0,2]
RESULT: v0x37c07b0_1 : [0,2]
RESULT: v0x363bb70_1 : [0,0]
