RESULT: v0x4cb0100_0 : [2,1/0]
RESULT: v0x4da46a0_0 : [0,1]
RESULT: v0x4d2a190_0 : [0,1]
RESULT: v0x4d15c40_0 : [123,777]
RESULT: v0x4d86f00_0 : [0,1]
RESULT: v0x4c3b970_0 : [0,1]
RESULT: v0x4d153e0_0 : [0,2]
RESULT: v0x4d52920_0 : [0,3]
RESULT: v0x4cbafe0_0 : [0,1]
RESULT: v0x4c45040_0 : [0,0]
RESULT: v0x4d21f80_0 : [0,0]
RESULT: v0x4d23300_0 : [456,456]
RESULT: v0x4b10c90_0 : [0,2]
RESULT: v0x4b78270_0 : [0,456]
RESULT: v0x4c1b610_0 : [0,1]
RESULT: v0x4d54b40_0 : [0,1]
RESULT: v0x4d29330_0 : [1,1]
RESULT: v0x4d70220_0 : [3,3]
RESULT: v0x4d12720_0 : [2,2]
RESULT: v0x4cae540_0 : [456,456]
RESULT: v0x4cb00a0_0 : [0,1]
RESULT: v0x4c4ce60_0 : [1,1]
RESULT: v0x4d529a0_0 : [0,123]
RESULT: v0x4c36c90_0 : [0,1]
