RESULT: v0x4d15990_1 : [3,3]
RESULT: v0x4bf2f30_1 : [0,1]
RESULT: v0x4d15e30_1 : [0,1]
RESULT: v0x4d15830_1 : [0,1]
RESULT: v0x4c797f0_1 : [0,1]
RESULT: v0x4c79950_1 : [0,1]
RESULT: v0x4c79670_1 : [0,1]
RESULT: v0x4c795b0_1 : [0,1]
RESULT: v0x4c79370_1 : [0,1]
RESULT: v0x4c792b0_1 : [0,1]
RESULT: v0x4c79070_1 : [0,1]
RESULT: v0x4c78fb0_1 : [0,2]
RESULT: v0x4c78d70_1 : [0,3]
RESULT: v0x4c78cb0_1 : [0,1]
RESULT: v0x4c78a70_1 : [123,777]
RESULT: v0x4c789b0_1 : [0,666]
RESULT: v0x4c78770_1 : [0,2]
RESULT: v0x4c77a40_1 : [0,1]
RESULT: v0x4c78440_1 : [0,2]
RESULT: v0x4c78380_1 : [0,456]
RESULT: v0x4c78140_1 : [0,123]
RESULT: v0x4c78080_1 : [0,456]
RESULT: v0x4c78680_1 : [0,3]
RESULT: v0x4d161f0_1 : [0,1]
RESULT: v0x4c77b40_1 : [0,1]
