RESULT: v0x3a6e860_0 : [-1/0,1/0]
RESULT: v0x46b5220_0 : [-1/0,1/0]
RESULT: v0x53717e0_0 : [-1/0,1/0]
RESULT: v0x6f60a40_0 : [-1/0,1/0]
RESULT: v0x8c10b80_0 : [27,1/0]
RESULT: v0x396b750_0 : [-1/0,1/0]
RESULT: v0x6056120_0 : [-1/0,1/0]
RESULT: v0x91346a0_0 : [-1/0,1/0]
RESULT: v0x88c3df0_0 : [1,1]
RESULT: v0x3b75040_0 : [-1/0,1/0]
RESULT: v0x46adf30_0 : [-1/0,1/0]
RESULT: v0x391f010_0 : [-1/0,1/0]
RESULT: v0x391f110_0 : [-1/0,1/0]
RESULT: v0x391f210_0 : [-1/0,1/0]
RESULT: v0x391f310_0 : [-1/0,1/0]
RESULT: v0x391f410_0 : [67,1/0]
RESULT: v0x391f510_0 : [0,1]
RESULT: v0x391f610_0 : [0,1]
RESULT: v0x391f710_0 : [-1/0,1/0]
RESULT: v0x391f810_0 : [-1/0,1/0]
RESULT: v0x391f910_0 : [-1/0,1/0]
RESULT: v0x391fa10_0 : [-1/0,1/0]
RESULT: v0x391fb10_0 : [-1/0,1/0]
RESULT: v0x391fc10_0 : [-1/0,1/0]
RESULT: v0x391fd10_0 : [-1/0,1/0]
RESULT: v0x5ba0560_0 : [-1/0,1/0]
RESULT: v0x54685f0_0 : [-1/0,1/0]
RESULT: v0x3a7aef0_0 : [-1/0,1/0]
RESULT: v0x3948eb0_0 : [-1/0,10]
RESULT: v0x7754ad0_0 : [-1/0,1/0]
RESULT: v0x3921010_0 : [-1/0,1/0]
