RESULT: v0x41287e0_0 : [1,1/0]
RESULT: v0x410a3a0_0 : [0,1]
RESULT: v0x4161c60_0 : [0,1]
RESULT: v0x411c480_0 : [0,1]
RESULT: v0x3d8a300_0 : [0,1]
RESULT: v0x4129a40_0 : [0,1]
RESULT: v0x3d86db0_0 : [0,1]
RESULT: v0x412cfa0_0 : [0,1]
RESULT: v0x3df7c90_0 : [0,1]
RESULT: v0x3e91600_0 : [0,1]
RESULT: v0x3dc5940_0 : [0,1]
RESULT: v0x4135000_0 : [0,1]
RESULT: v0x3bc80d0_0 : [0,1]
RESULT: v0x415df80_0 : [123,777]
RESULT: v0x3f4bea0_0 : [0,666]
RESULT: v0x41285c0_0 : [0,2]
RESULT: v0x412d100_0 : [0,1]
RESULT: v0x4113b40_0 : [0,456]
RESULT: v0x41186a0_0 : [0,123]
RESULT: v0x3bb3180_0 : [-1/0,1/0]
RESULT: v0x3bb2e80_0 : [0,456]
RESULT: v0x3bb3080_0 : [0,1]
