RESULT: v0x3e37530_0 : [-1/0,1/0]
RESULT: v0x410abb0_0 : [-1/0,1/0]
RESULT: v0x410acf0_0 : [-1/0,1/0]
RESULT: v0x410b470_0 : [-1/0,1/0]
RESULT: v0x410b330_0 : [-1/0,1/0]
RESULT: v0x410b1f0_0 : [-1/0,1/0]
RESULT: v0x410a930_0 : [-1/0,1/0]
RESULT: v0x410a7f0_0 : [-1/0,1/0]
RESULT: v0x410b5b0_0 : [-1/0,1/0]
RESULT: v0x4105cf0_0 : [-1/0,1/0]
RESULT: v0x410a570_0 : [-1/0,1/0]
RESULT: v0x410a430_0 : [-1/0,1/0]
RESULT: v0x410a2f0_0 : [-1/0,1/0]
RESULT: v0x410a1b0_0 : [-1/0,1/0]
RESULT: v0x410a070_0 : [-1/0,1/0]
RESULT: v0x4109f30_0 : [-1/0,1/0]
RESULT: v0x4109df0_0 : [-1/0,1/0]
RESULT: v0x40be1e0_0 : [-1/0,1/0]
RESULT: v0x40ff530_0 : [-1/0,1/0]
RESULT: v0x40e1670_0 : [-1/0,1/0]
RESULT: v0x4122f30_0 : [-1/0,1/0]
RESULT: v0x410ae30_0 : [-1/0,1/0]
RESULT: v0x410a6b0_0 : [-1/0,1/0]
RESULT: v0x410aa70_0 : [-1/0,1/0]
RESULT: v0x410af70_0 : [-1/0,1/0]
RESULT: v0x410b0b0_0 : [-1/0,1/0]
