RESULT: v0x43d33f0_0 : [2,1/0]
RESULT: v0x4438c50_0 : [0,1]
RESULT: v0x4471910_0 : [0,1]
RESULT: v0x430d7b0_0 : [123,777]
RESULT: v0x4303b30_0 : [0,1]
RESULT: v0x44742f0_0 : [0,1]
RESULT: v0x43ffcf0_0 : [0,1]
RESULT: v0x4468b70_0 : [0,2]
RESULT: v0x430cce0_0 : [0,3]
RESULT: v0x4472c10_0 : [0,1]
RESULT: v0x444e030_0 : [0,1]
RESULT: v0x422ff80_0 : [1,1]
RESULT: v0x4313d80_0 : [0,0]
RESULT: v0x430efb0_0 : [1,1]
RESULT: v0x43e2710_0 : [1,1]
RESULT: v0x447f0d0_0 : [0,2]
RESULT: v0x4458f70_0 : [0,456]
RESULT: v0x43101b0_0 : [0,123]
RESULT: v0x44376b0_0 : [0,456]
RESULT: v0x42362c0_0 : [0,2]
RESULT: v0x444f530_0 : [0,1]
RESULT: v0x447d050_0 : [0,1]
RESULT: v0x4315580_0 : [0,1]
RESULT: v0x430b360_0 : [0,1]
RESULT: v0x407cf20_0 : [2,2]
RESULT: v0x407d020_0 : [0,456]
RESULT: v0x407d120_0 : [-1/0,1/0]
RESULT: v0x407d220_0 : [1,1]
RESULT: v0x407d320_0 : [2,2]
RESULT: v0x407d420_0 : [1,1]
RESULT: v0x407d920_0 : [0,0]
RESULT: v0x407da20_0 : [123,777]
RESULT: v0x407db20_0 : [0,0]
