RESULT: v0x3efaf30_1 : [3,3]
RESULT: v0x3efb090_1 : [0,1]
RESULT: v0x3efb210_1 : [0,1]
RESULT: v0x3efb450_1 : [0,1]
RESULT: v0x3ec7150_1 : [0,1]
RESULT: v0x3ec6fd0_1 : [0,1]
RESULT: v0x3ec6f10_1 : [0,1]
RESULT: v0x3dbf1a0_1 : [0,1]
RESULT: v0x3db1820_1 : [0,1]
RESULT: v0x3db18e0_1 : [0,1]
RESULT: v0x3db19a0_1 : [0,1]
RESULT: v0x3db1a60_1 : [0,1]
RESULT: v0x3db1b20_1 : [0,1]
RESULT: v0x3db1be0_1 : [123,777]
RESULT: v0x3d9aa90_1 : [0,666]
RESULT: v0x3d9d0d0_1 : [0,2]
RESULT: v0x3c85860_1 : [0,1]
RESULT: v0x3d90b80_1 : [0,2]
RESULT: v0x3da2330_1 : [0,456]
RESULT: v0x3da6ac0_1 : [0,123]
RESULT: v0x3da22a0_1 : [0,456]
RESULT: v0x3db5f30_1 : [0,3]
