RESULT: v0x43f16d0_1 : [4,4]
RESULT: v0x438d3f0_1 : [0,1]
RESULT: v0x43808d0_1 : [0,1]
RESULT: v0x4373db0_1 : [0,1]
RESULT: v0x43eacb0_1 : [0,1]
RESULT: v0x4391490_1 : [0,1]
RESULT: v0x43c00f0_1 : [0,1]
RESULT: v0x4406e30_1 : [0,1]
RESULT: v0x4380950_1 : [0,1]
RESULT: v0x43e97d0_1 : [0,1]
RESULT: v0x436fe10_1 : [123,777]
RESULT: v0x431b050_1 : [0,666]
RESULT: v0x43c2110_1 : [0,2]
RESULT: v0x43250b0_1 : [0,1]
RESULT: v0x439bfb0_1 : [0,2]
RESULT: v0x43ef810_1 : [0,456]
RESULT: v0x4406390_1 : [0,123]
RESULT: v0x43e0230_1 : [0,456]
RESULT: v0x437feb0_1 : [0,3]
RESULT: v0x43e9750_1 : [0,1]
RESULT: v0x43dcc30_1 : [0,1]
