RESULT: v0x4724b10_1 : [3,3]
RESULT: v0x4724c70_1 : [0,1]
RESULT: v0x4724df0_1 : [0,1]
RESULT: v0x4725030_1 : [0,1]
RESULT: v0x46bc5a0_1 : [0,1]
RESULT: v0x46bc420_1 : [0,1]
RESULT: v0x46bc2a0_1 : [0,1]
RESULT: v0x46bc060_1 : [0,1]
RESULT: v0x458cb20_1 : [0,1]
RESULT: v0x458cbe0_1 : [0,1]
RESULT: v0x444df20_1 : [0,1]
RESULT: v0x458ce20_1 : [0,2]
RESULT: v0x458cee0_1 : [0,3]
RESULT: v0x457fdd0_1 : [123,777]
RESULT: v0x457fe90_1 : [0,666]
RESULT: v0x457ff50_1 : [0,2]
RESULT: v0x4576460_1 : [0,1]
RESULT: v0x4579200_1 : [0,2]
RESULT: v0x454d390_1 : [0,456]
RESULT: v0x454da00_1 : [0,123]
RESULT: v0x457df30_1 : [0,456]
RESULT: v0x4581ec0_1 : [0,3]
RESULT: v0x457dea0_1 : [0,1]
RESULT: v0x4590f50_1 : [0,1]
