RESULT: v0x4582350_0 : [0,1]
RESULT: v0x5d67580_1 : [0,1]
RESULT: v0x574a7a0_1 : [0,1]
RESULT: v0x60047e0_1 : [0,1]
RESULT: v0x58a90c0_1 : [0,1]
RESULT: v0x521f540_1 : [0,1]
RESULT: v0x4851250_1 : [0,1]
RESULT: v0x4a48380_1 : [0,1]
RESULT: v0x4848a30_1 : [0,1]
RESULT: v0x484f490_1 : [0,1]
RESULT: v0x4854890_1 : [0,1]
RESULT: v0x485de70_1 : [0,1]
RESULT: v0x4831910_1 : [0,1]
RESULT: v0x4a98c00_1 : [-1/0,1/0]
RESULT: v0x4a891e0_1 : [-1/0,1/0]
RESULT: v0x4d66fc0_1 : [0,2]
RESULT: v0x48574f0_1 : [0,2]
RESULT: v0x4aa7240_1 : [0,2]
RESULT: v0x485c780_1 : [0,2]
RESULT: v0x485d320_1 : [0,2]
RESULT: v0x4853210_1 : [0,2]
RESULT: v0x4852a90_1 : [0,2]
RESULT: v0x5ceb940_1 : [0,2]
RESULT: v0x5d6aa30_1 : [0,2]
RESULT: v0x6005a10_1 : [0,2]
RESULT: v0x5d59b80_1 : [0,2]
RESULT: v0x63ef6b0_1 : [0,2]
RESULT: v0x6002ef0_1 : [0,2]
