RESULT: v0x41f9a90_0 : [4,10]
RESULT: v0x4201c90_0 : [0,1]
RESULT: v0x4202690_0 : [0,1]
RESULT: v0x4202290_0 : [0,1]
RESULT: v0x4201f90_0 : [0,1]
RESULT: v0x41fa290_0 : [0,1]
RESULT: v0x4202990_0 : [0,2]
RESULT: v0x41fa090_0 : [0,0]
RESULT: v0x41fa190_0 : [-1/0,1/0]
RESULT: v0x4202190_0 : [-1/0,1/0]
RESULT: v0x4201d90_0 : [0,1]
RESULT: v0x41f9c90_0 : [0,1]
RESULT: v0x4202590_0 : [0,1]
RESULT: v0x4202490_0 : [0,1]
RESULT: v0x4201b90_0 : [80,280]
RESULT: v0x41f9b90_0 : [0,200]
RESULT: v0x4201e90_0 : [0,1]
RESULT: v0x41f9e90_0 : [0,1]
RESULT: v0x4202390_0 : [0,1]
RESULT: v0x41fa490_0 : [0,1]
RESULT: v0x41fa590_0 : [0,1]
RESULT: v0x41fa690_0 : [0,1]
RESULT: v0x41f9d90_0 : [0,1]
RESULT: v0x41f9f90_0 : [0,1]
RESULT: v0x41fa390_0 : [0,1]
RESULT: v0xa32e3d0_1 : [3,3]
