RESULT: v0x5035430_0 : [-1/0,1/0]
RESULT: v0x4f91210_0 : [-1/0,1/0]
RESULT: v0x5218ac0_0 : [-1/0,1/0]
RESULT: v0x5023090_0 : [-1/0,1/0]
RESULT: v0x4ee45d0_0 : [-1/0,1/0]
RESULT: v0x50a9050_0 : [-1/0,1/0]
RESULT: v0x4faa0c0_0 : [1,1]
RESULT: v0x4e8eda0_0 : [67,1/0]
RESULT: v0x5043aa0_0 : [27,1/0]
RESULT: v0x4e8eea0_0 : [0,1]
RESULT: v0x4e8efa0_0 : [0,1]
RESULT: v0x4e8f0a0_0 : [-1/0,1/0]
RESULT: v0x4e8f1a0_0 : [-1/0,1/0]
RESULT: v0x4e8f2a0_0 : [-1/0,1/0]
RESULT: v0x4e8f3a0_0 : [-1/0,1/0]
RESULT: v0x4e8f4a0_0 : [-1/0,1/0]
RESULT: v0x51b9640_0 : [-1/0,1/0]
RESULT: v0x4e8f5a0_0 : [-1/0,1/0]
RESULT: v0x5044530_0 : [-1/0,1/0]
RESULT: v0x4e8f6a0_0 : [-1/0,1/0]
RESULT: v0x5305750_0 : [-1/0,1/0]
RESULT: v0x4e8f7a0_0 : [-1/0,1/0]
RESULT: v0x4e8f8a0_0 : [-1/0,1/0]
RESULT: v0x4e8f9a0_0 : [-1/0,1/0]
RESULT: v0x4e8faa0_0 : [-1/0,1/0]
RESULT: v0x4f0beb0_0 : [-1/0,1/0]
RESULT: v0x4fa96c0_0 : [-1/0,1/0]
RESULT: v0x5321f10_0 : [-1/0,1/0]
RESULT: v0x5330720_0 : [-1/0,10]
RESULT: v0x50a4040_0 : [-1/0,1/0]
RESULT: v0x4e90da0_0 : [-1/0,1/0]
