RESULT: v0x3d42cd0_1 : [4,4]
RESULT: v0x3cab200_1 : [0,1]
RESULT: v0x3d381d0_1 : [0,1]
RESULT: v0x3cb3a00_1 : [0,1]
RESULT: v0x3cbda60_1 : [0,1]
RESULT: v0x3d58ab0_1 : [0,1]
RESULT: v0x3d9cd30_1 : [0,1]
RESULT: v0x3d83ab0_1 : [0,1]
RESULT: v0x3cbb1c0_1 : [0,1]
RESULT: v0x3d33630_1 : [0,1]
RESULT: v0x3d9c4d0_1 : [0,1]
RESULT: v0x3d637a0_1 : [0,1]
RESULT: v0x3b5a210_1 : [0,1]
RESULT: v0x3af1510_1 : [0,2]
RESULT: v0x3ae2940_1 : [0,3]
RESULT: v0x3af5530_1 : [0,1]
RESULT: v0x39cda50_1 : [123,777]
RESULT: v0x3b45590_1 : [0,666]
RESULT: v0x3af9530_1 : [0,2]
RESULT: v0x3aec990_1 : [0,1]
RESULT: v0x3ad7e20_1 : [0,2]
RESULT: v0x3ca5f70_1 : [0,456]
RESULT: v0x3c32a20_1 : [0,123]
RESULT: v0x3ae2700_1 : [0,456]
