RESULT: v0x42de350_0 : [0,0]
RESULT: v0x45a7d70_1 : [0,1]
RESULT: v0x45ac970_1 : [0,1]
RESULT: v0x459fab0_1 : [0,1]
RESULT: v0x458c490_1 : [0,1]
RESULT: v0x458b7d0_1 : [0,1]
RESULT: v0x458c090_1 : [0,1]
RESULT: v0x4580900_1 : [0,1]
RESULT: v0x45694e0_1 : [0,1]
RESULT: v0x457ea50_1 : [0,1]
RESULT: v0x457ee10_1 : [0,1]
RESULT: v0x45849b0_1 : [0,1]
RESULT: v0x4545030_1 : [0,1]
RESULT: v0x4567df0_1 : [-1/0,1/0]
RESULT: v0x456a410_1 : [-1/0,1/0]
RESULT: v0x456f280_1 : [0,2]
RESULT: v0x45b5d00_1 : [0,2]
RESULT: v0x45a8800_1 : [0,2]
RESULT: v0x45a8f90_1 : [0,2]
RESULT: v0x45947a0_1 : [0,2]
RESULT: v0x4594a20_1 : [0,2]
RESULT: v0x459aee0_1 : [0,2]
RESULT: v0x4586b90_1 : [0,2]
RESULT: v0x4579940_1 : [0,2]
RESULT: v0x4442410_1 : [0,2]
RESULT: v0x4441ed0_1 : [0,2]
RESULT: v0x45c8620_1 : [0,2]
RESULT: v0x45c8860_1 : [0,0]
