RESULT: v0x41e5570_0 : [2,1/0]
RESULT: v0x4179eb0_0 : [0,1]
RESULT: v0x4089070_0 : [0,1]
RESULT: v0x3f9e280_0 : [123,777]
RESULT: v0x4090300_0 : [0,1]
RESULT: v0x4112ed0_0 : [0,1]
RESULT: v0x41a1c50_0 : [0,1]
RESULT: v0x41d08b0_0 : [0,2]
RESULT: v0x4191150_0 : [0,3]
RESULT: v0x3f5a2b0_0 : [0,1]
RESULT: v0x410f940_0 : [0,0]
RESULT: v0x418e930_0 : [0,0]
RESULT: v0x41d6110_0 : [456,456]
RESULT: v0x40906c0_0 : [1,1]
RESULT: v0x41749f0_0 : [1,1]
RESULT: v0x4198af0_0 : [0,2]
RESULT: v0x3f597e0_0 : [0,456]
RESULT: v0x4171e50_0 : [0,0]
RESULT: v0x4149af0_0 : [456,456]
RESULT: v0x4082310_0 : [2,2]
RESULT: v0x4192670_0 : [1,1]
RESULT: v0x4151010_0 : [0,0]
RESULT: v0x41b56b0_0 : [0,0]
RESULT: v0x4141cd0_0 : [0,1]
