RESULT: v0x4029cc0_0 : [-1/0,1/0]
RESULT: v0x4956aa0_0 : [-1/0,1/0]
RESULT: v0x4685d70_0 : [-1/0,1/0]
RESULT: v0xe61dec0_0 : [0,1]
RESULT: v0x97d0ea0_0 : [67,1/0]
RESULT: v0x5b9edd0_0 : [-1/0,1/0]
RESULT: v0x13ecf660_0 : [-1/0,1/0]
RESULT: v0x5b9eab0_0 : [0,0]
RESULT: v0x7482180_0 : [-1/0,1/0]
RESULT: v0x13ecf6a0_0 : [-1/0,1/0]
RESULT: v0x40297c0_0 : [-1/0,1/0]
RESULT: v0x3fa3330_0 : [67,1/0]
RESULT: v0x3fa3430_0 : [-1/0,1/0]
RESULT: v0x3fa3530_0 : [-1/0,1/0]
RESULT: v0x3fa3630_0 : [-1/0,1/0]
RESULT: v0x3fa3730_0 : [-1/0,1/0]
RESULT: v0x3fa3830_0 : [0,1]
RESULT: v0x3fa3930_0 : [-1/0,1/0]
RESULT: v0x3fa3a30_0 : [-1/0,1/0]
RESULT: v0x3fa3b30_0 : [0,0]
RESULT: v0x3fa3c30_0 : [-1/0,1/0]
RESULT: v0x3fa3d30_0 : [-1/0,1/0]
RESULT: v0x3fa3e30_0 : [-1/0,1/0]
RESULT: v0x3fa3f30_0 : [-1/0,1/0]
RESULT: v0xe61de00_0 : [-1/0,1/0]
RESULT: v0x5996a30_0 : [0,0]
RESULT: v0x5b9eb30_0 : [-1/0,10]
RESULT: v0x41e7f90_0 : [-1/0,1/0]
RESULT: v0x7458cb0_0 : [-1/0,1/0]
RESULT: v0x3fa4230_0 : [-1/0,1/0]
