RESULT: v0x51c5830_0 : [-1/0,1/0]
RESULT: v0x51c58f0_0 : [-1/0,1/0]
RESULT: v0x51c59b0_0 : [-1/0,1/0]
RESULT: v0x51c5ef0_0 : [-1/0,1/0]
RESULT: v0x51c5fb0_0 : [-1/0,1/0]
RESULT: v0x5121580_0 : [-1/0,1/0]
RESULT: v0x5121680_0 : [-1/0,1/0]
RESULT: v0x5121780_0 : [1,1]
RESULT: v0x5121880_0 : [0,1]
RESULT: v0x5121980_0 : [-1/0,1/0]
RESULT: v0x51c5770_0 : [-1/0,1/0]
RESULT: v0x51c5d70_0 : [-1/0,1/0]
RESULT: v0x51c5cb0_0 : [-1/0,1/0]
RESULT: v0x5121e80_0 : [0,0]
RESULT: v0x5121f80_0 : [-1/0,1/0]
RESULT: v0x5122080_0 : [0,0]
RESULT: v0x516cd10_0 : [-1/0,1/0]
RESULT: v0x513f060_0 : [-1/0,1/0]
RESULT: v0x51c56b0_0 : [-1/0,1/0]
RESULT: v0x51c62f0_0 : [-1/0,1/0]
RESULT: v0x51c62b0_0 : [-1/0,1/0]
RESULT: v0x51c6370_0 : [-1/0,1/0]
RESULT: v0x51c6130_0 : [-1/0,1/0]
RESULT: v0x51c6430_0 : [-1/0,1/0]
RESULT: v0x51c64f0_0 : [-1/0,1/0]
RESULT: v0x51c65b0_0 : [-1/0,1/0]
RESULT: v0x51c6690_0 : [-1/0,1/0]
RESULT: v0x51c6730_0 : [-1/0,1/0]
RESULT: v0x51c6070_0 : [-1/0,1/0]
RESULT: v0x51c5b30_0 : [-1/0,1/0]
RESULT: v0x51c5bf0_0 : [-1/0,1/0]
RESULT: v0x51c5e30_0 : [-1/0,1/0]
RESULT: v0x51c5a70_0 : [-1/0,1/0]
