RESULT: v0x4600fe0_0 : [0,0]
RESULT: v0x488fd70_1 : [0,1]
RESULT: v0x4894f30_1 : [0,1]
RESULT: v0x48835c0_1 : [0,1]
RESULT: v0x48732c0_1 : [0,1]
RESULT: v0x4862d20_1 : [0,1]
RESULT: v0x473e560_1 : [0,1]
RESULT: v0x487bea0_1 : [0,1]
RESULT: v0x47347d0_1 : [0,1]
RESULT: v0x48829c0_1 : [0,1]
RESULT: v0x489fa60_1 : [-1/0,1/0]
RESULT: v0x4a57520_1 : [-1/0,1/0]
RESULT: v0x4899c00_1 : [0,2]
RESULT: v0x4742070_1 : [0,2]
RESULT: v0x4857f60_1 : [0,2]
RESULT: v0x4a69580_1 : [0,2]
RESULT: v0x4a6aa30_1 : [0,2]
RESULT: v0x4a21930_1 : [0,2]
RESULT: v0x4a62c40_1 : [0,2]
RESULT: v0x4a656c0_1 : [0,2]
RESULT: v0x4a692e0_1 : [0,2]
RESULT: v0x4a69600_1 : [0,0]
