RESULT: v0x533b860_0 : [2,1/0]
RESULT: v0x52d3090_0 : [0,1]
RESULT: v0x533ee20_0 : [0,1]
RESULT: v0x53a9c60_0 : [123,777]
RESULT: v0x537b7c0_0 : [0,1]
RESULT: v0x53184e0_0 : [0,1]
RESULT: v0x55b2100_0 : [0,1]
RESULT: v0x532e120_0 : [0,1]
RESULT: v0x53b0540_0 : [0,2]
RESULT: v0x5171dd0_0 : [0,3]
RESULT: v0x52d49b0_0 : [0,1]
RESULT: v0x53a2d00_0 : [1,1]
RESULT: v0x5129340_0 : [0,0]
RESULT: v0x55ff0c0_0 : [0,2]
RESULT: v0x53a8660_0 : [0,456]
RESULT: v0x4fdfb10_0 : [3,3]
RESULT: v0x53b3bc0_0 : [0,456]
RESULT: v0x53720c0_0 : [0,1]
RESULT: v0x53afce0_0 : [0,2]
RESULT: v0x537e700_0 : [0,1]
RESULT: v0x53bcfe0_0 : [0,1]
RESULT: v0x530f340_0 : [1,1]
RESULT: v0x5396f60_0 : [0,123]
RESULT: v0x5345fe0_0 : [0,1]
RESULT: v0x4fb6280_0 : [2,2]
RESULT: v0x4fb6380_0 : [0,1]
RESULT: v0x4fb6480_0 : [3,3]
RESULT: v0x4fb6580_0 : [2,2]
RESULT: v0x4fb6680_0 : [1,1]
RESULT: v0x4fb6b80_0 : [0,0]
RESULT: v0x4fb6c80_0 : [123,777]
RESULT: v0x4fb6d80_0 : [0,0]
