RESULT: v0x4fa4ce0_0 : [-1/0,1/0]
RESULT: v0x5287c20_0 : [-1/0,1/0]
RESULT: v0x5287d60_0 : [-1/0,1/0]
RESULT: v0x52884e0_0 : [-1/0,1/0]
RESULT: v0x52883a0_0 : [-1/0,1/0]
RESULT: v0x5288260_0 : [-1/0,1/0]
RESULT: v0x52879a0_0 : [-1/0,1/0]
RESULT: v0x5287860_0 : [-1/0,1/0]
RESULT: v0x5288620_0 : [-1/0,1/0]
RESULT: v0x5282ea0_0 : [-1/0,1/0]
RESULT: v0x5288760_0 : [-1/0,1/0]
RESULT: v0x52875e0_0 : [-1/0,1/0]
RESULT: v0x52874a0_0 : [-1/0,1/0]
RESULT: v0x5287360_0 : [-1/0,1/0]
RESULT: v0x5287220_0 : [-1/0,1/0]
RESULT: v0x52870e0_0 : [-1/0,1/0]
RESULT: v0x5286fa0_0 : [-1/0,1/0]
RESULT: v0x523b3b0_0 : [-1/0,1/0]
RESULT: v0x527c6e0_0 : [-1/0,1/0]
RESULT: v0x525e820_0 : [-1/0,1/0]
RESULT: v0x52a00e0_0 : [-1/0,1/0]
RESULT: v0x5287ea0_0 : [-1/0,1/0]
RESULT: v0x5287720_0 : [-1/0,1/0]
RESULT: v0x5287ae0_0 : [-1/0,1/0]
RESULT: v0x5287fe0_0 : [-1/0,1/0]
RESULT: v0x5288120_0 : [-1/0,1/0]
