RESULT: v0x49f2e10_0 : [0,0]
RESULT: v0x4ea7820_1 : [0,1]
RESULT: v0x4b55370_1 : [0,1]
RESULT: v0x4c8bd60_1 : [0,1]
RESULT: v0x4cc2dc0_1 : [0,1]
RESULT: v0x501ded0_1 : [0,1]
RESULT: v0x501f450_1 : [0,1]
RESULT: v0x502bb20_1 : [0,1]
RESULT: v0x4cc1100_1 : [0,1]
RESULT: v0x4cce460_1 : [0,1]
RESULT: v0x5034040_1 : [0,1]
RESULT: v0x4cb5030_1 : [0,1]
RESULT: v0x4ebe0c0_1 : [0,1]
RESULT: v0x4caa610_1 : [-1/0,1/0]
RESULT: v0x503a5e0_1 : [-1/0,1/0]
RESULT: v0x4f0d6a0_1 : [0,2]
RESULT: v0x4cbc200_1 : [0,2]
RESULT: v0x4cc8120_1 : [0,2]
RESULT: v0x4eae630_1 : [0,2]
RESULT: v0x5052240_1 : [0,2]
RESULT: v0x503b120_1 : [0,2]
RESULT: v0x503ff80_1 : [0,2]
RESULT: v0x4f0d720_1 : [0,2]
RESULT: v0x503a340_1 : [0,2]
RESULT: v0x503ae00_1 : [0,2]
RESULT: v0x5034420_1 : [0,2]
RESULT: v0x5024840_1 : [0,2]
RESULT: v0x4cc4ea0_1 : [0,0]
