RESULT: v0x672ce50_0 : [0,1]
RESULT: v0x672d010_0 : [0,1]
RESULT: v0x672d210_0 : [0,1]
RESULT: v0x672d410_0 : [0,1]
RESULT: v0x672d610_0 : [0,1]
RESULT: v0x672d810_0 : [0,1]
RESULT: v0x672da10_0 : [0,1]
RESULT: v0x672dc10_0 : [0,1]
RESULT: v0x672de10_0 : [0,1]
RESULT: v0x672e010_0 : [0,1]
RESULT: v0x672e210_0 : [0,1]
RESULT: v0x672e410_0 : [1,1]
RESULT: v0x672e610_0 : [-1/0,1/0]
RESULT: v0x672e810_0 : [-1/0,1/0]
RESULT: v0x672ea10_0 : [0,2]
RESULT: v0x672ec10_0 : [0,2]
RESULT: v0x672ee10_0 : [0,2]
RESULT: v0x672f010_0 : [0,2]
RESULT: v0x672f210_0 : [0,2]
RESULT: v0x672f410_0 : [0,2]
RESULT: v0x672f610_0 : [0,2]
RESULT: v0x672f810_0 : [0,2]
RESULT: v0x672fa10_0 : [0,2]
RESULT: v0x672fc10_0 : [0,2]
RESULT: v0x672fe10_0 : [0,2]
RESULT: v0x6730010_0 : [2,2]
