RESULT: v0x3be9380_0 : [-1/0,1/0]
RESULT: v0x3c996f0_0 : [0,1]
RESULT: v0x4799b70_0 : [-1/0,1/0]
RESULT: v0x4e92390_0 : [-1/0,1/0]
RESULT: v0x3fdde10_0 : [67,1/0]
RESULT: v0x46e3f30_0 : [-1/0,1/0]
RESULT: v0x3b59310_0 : [-1/0,1/0]
RESULT: v0x3e843f0_0 : [-1/0,1/0]
RESULT: v0x476edb0_0 : [0,0]
RESULT: v0x3b287d0_0 : [-1/0,1/0]
RESULT: v0x3f9ece0_0 : [-1/0,1/0]
RESULT: v0x391f010_0 : [-1/0,1/0]
RESULT: v0x391f110_0 : [-1/0,1/0]
RESULT: v0x391f210_0 : [-1/0,1/0]
RESULT: v0x391f310_0 : [-1/0,1/0]
RESULT: v0x391f410_0 : [67,1/0]
RESULT: v0x391f510_0 : [0,1]
RESULT: v0x391f610_0 : [0,1]
RESULT: v0x391f710_0 : [-1/0,1/0]
RESULT: v0x391f810_0 : [-1/0,1/0]
RESULT: v0x391f910_0 : [0,0]
RESULT: v0x391fa10_0 : [-1/0,1/0]
RESULT: v0x391fb10_0 : [-1/0,1/0]
RESULT: v0x391fc10_0 : [-1/0,1/0]
RESULT: v0x391fd10_0 : [-1/0,1/0]
RESULT: v0x3a12480_0 : [-1/0,1/0]
RESULT: v0x3c863c0_0 : [-1/0,1/0]
RESULT: v0x64c7190_0 : [0,0]
RESULT: v0x4056b20_0 : [-1/0,10]
RESULT: v0x47af750_0 : [-1/0,1/0]
RESULT: v0x3920010_0 : [-1/0,1/0]
