RESULT: v0xa366100_0 : [-1/0,1/0]
RESULT: v0xbc5dc30_0 : [-1/0,1/0]
RESULT: v0x8143f30_0 : [-1/0,1/0]
RESULT: v0x83d7fb0_0 : [-1/0,1/0]
RESULT: v0x919e850_0 : [27,1/0]
RESULT: v0x11d34120_0 : [-1/0,1/0]
RESULT: v0x8ca8080_0 : [-1/0,1/0]
RESULT: v0x6077eb0_0 : [1,1]
RESULT: v0xabcd270_0 : [-1/0,1/0]
RESULT: v0x11d2af80_0 : [-1/0,1/0]
RESULT: v0x10c49330_0 : [-1/0,1/0]
RESULT: v0x3fa3330_0 : [67,1/0]
RESULT: v0x3fa3430_0 : [-1/0,1/0]
RESULT: v0x3fa3530_0 : [-1/0,1/0]
RESULT: v0x3fa3630_0 : [-1/0,1/0]
RESULT: v0x3fa3730_0 : [-1/0,1/0]
RESULT: v0x3fa3830_0 : [0,1]
RESULT: v0x3fa3930_0 : [-1/0,1/0]
RESULT: v0x3fa3a30_0 : [-1/0,1/0]
RESULT: v0x3fa3b30_0 : [-1/0,1/0]
RESULT: v0x3fa3c30_0 : [-1/0,1/0]
RESULT: v0x3fa3d30_0 : [-1/0,1/0]
RESULT: v0x3fa3e30_0 : [-1/0,1/0]
RESULT: v0x3fa3f30_0 : [-1/0,1/0]
RESULT: v0xabe87a0_0 : [-1/0,1/0]
RESULT: v0x429cc30_0 : [-1/0,1/0]
RESULT: v0xbc5dbb0_0 : [-1/0,10]
RESULT: v0x456af30_0 : [-1/0,1/0]
RESULT: v0xf498d90_0 : [-1/0,1/0]
RESULT: v0x3fa5230_0 : [-1/0,1/0]
