RESULT: v0xf3847d0_0 : [-1/0,1/0]
RESULT: v0x4b6c1b0_0 : [-1/0,1/0]
RESULT: v0x7082b20_0 : [0,1]
RESULT: v0x11a4b4b0_0 : [-1/0,1/0]
RESULT: v0x144d0b60_0 : [27,1/0]
RESULT: v0x8c82550_0 : [-1/0,1/0]
RESULT: v0x4024cf0_0 : [-1/0,1/0]
RESULT: v0x11a4b5d0_0 : [0,0]
RESULT: v0x82a5e40_0 : [-1/0,1/0]
RESULT: v0x38c82c0_0 : [-1/0,1/0]
RESULT: v0x1338fe50_0 : [-1/0,1/0]
RESULT: v0x3f94330_0 : [67,1/0]
RESULT: v0x3f94430_0 : [0,1]
RESULT: v0x3f94530_0 : [-1/0,1/0]
RESULT: v0x3f94630_0 : [-1/0,1/0]
RESULT: v0x3f94730_0 : [-1/0,1/0]
RESULT: v0x3f94830_0 : [-1/0,1/0]
RESULT: v0x3f94930_0 : [0,1]
RESULT: v0x3f94a30_0 : [-1/0,1/0]
RESULT: v0x3f94b30_0 : [-1/0,1/0]
RESULT: v0x3f94c30_0 : [-1/0,1/0]
RESULT: v0x3f94d30_0 : [0,0]
RESULT: v0x3f94e30_0 : [-1/0,1/0]
RESULT: v0x3f94f30_0 : [-1/0,1/0]
RESULT: v0x3f95030_0 : [-1/0,1/0]
RESULT: v0x4492b10_0 : [-1/0,1/0]
RESULT: v0x417fb30_0 : [-1/0,1/0]
RESULT: v0xa3845a0_0 : [0,0]
RESULT: v0x4640830_0 : [-1/0,10]
RESULT: v0x1216ca80_0 : [-1/0,1/0]
RESULT: v0x3f95330_0 : [-1/0,1/0]
