RESULT: v0x4769240_0 : [-1/0,1/0]
RESULT: v0x4e6e1c0_0 : [-1/0,1/0]
RESULT: v0x3a11100_0 : [-1/0,1/0]
RESULT: v0x4f2cbd0_0 : [-1/0,1/0]
RESULT: v0x47504a0_0 : [67,1/0]
RESULT: v0x3a1f910_0 : [-1/0,1/0]
RESULT: v0x46a1fb0_0 : [-1/0,1/0]
RESULT: v0x3a96550_0 : [-1/0,1/0]
RESULT: v0x47b2690_0 : [0,0]
RESULT: v0x47b0170_0 : [-1/0,1/0]
RESULT: v0x4f0afd0_0 : [-1/0,1/0]
RESULT: v0x391f010_0 : [-1/0,1/0]
RESULT: v0x391f110_0 : [-1/0,1/0]
RESULT: v0x391f210_0 : [-1/0,1/0]
RESULT: v0x391f310_0 : [-1/0,1/0]
RESULT: v0x391f410_0 : [67,1/0]
RESULT: v0x391f510_0 : [0,1]
RESULT: v0x391f610_0 : [0,1]
RESULT: v0x391f710_0 : [-1/0,1/0]
RESULT: v0x391f810_0 : [-1/0,1/0]
RESULT: v0x391f910_0 : [0,0]
RESULT: v0x391fa10_0 : [0,0]
RESULT: v0x391fb10_0 : [-1/0,1/0]
RESULT: v0x391fc10_0 : [-1/0,1/0]
RESULT: v0x391fd10_0 : [-1/0,1/0]
RESULT: v0x47691c0_0 : [-1/0,1/0]
RESULT: v0x4775940_0 : [-1/0,1/0]
RESULT: v0x477d850_0 : [0,0]
RESULT: v0x4063c20_0 : [-1/0,10]
RESULT: v0x3fb4f90_0 : [-1/0,1/0]
RESULT: v0x3920010_0 : [-1/0,1/0]
