RESULT: v0x718fd30_0 : [-1/0,1/0]
RESULT: v0x586e710_0 : [0,1]
RESULT: v0x5394780_0 : [-1/0,1/0]
RESULT: v0x7a87960_0 : [-1/0,1/0]
RESULT: v0x4c92c90_0 : [-1/0,1/0]
RESULT: v0x48ebc80_0 : [-1/0,1/0]
RESULT: v0x3e1bc20_0 : [0,0]
RESULT: v0x40faaa0_0 : [67,1/0]
RESULT: v0xa058430_0 : [67,1/0]
RESULT: v0x40faba0_0 : [0,1]
RESULT: v0x40faca0_0 : [0,1]
RESULT: v0x40fada0_0 : [-1/0,1/0]
RESULT: v0x40faea0_0 : [-1/0,1/0]
RESULT: v0x40fafa0_0 : [0,0]
RESULT: v0x40fb0a0_0 : [-1/0,1/0]
RESULT: v0x40fb1a0_0 : [-1/0,1/0]
RESULT: v0x4c91b70_0 : [-1/0,1/0]
RESULT: v0x40fb2a0_0 : [-1/0,1/0]
RESULT: v0x48e9980_0 : [-1/0,1/0]
RESULT: v0x40fb3a0_0 : [-1/0,1/0]
RESULT: v0x647df60_0 : [-1/0,1/0]
RESULT: v0x40fb4a0_0 : [-1/0,1/0]
RESULT: v0x40fb5a0_0 : [-1/0,1/0]
RESULT: v0x40fb6a0_0 : [-1/0,1/0]
RESULT: v0x40fb7a0_0 : [-1/0,1/0]
RESULT: v0x707ae60_0 : [-1/0,1/0]
RESULT: v0x70846d0_0 : [-1/0,1/0]
RESULT: v0x719a660_0 : [0,0]
RESULT: v0x46ba150_0 : [-1/0,10]
RESULT: v0x647bee0_0 : [-1/0,1/0]
RESULT: v0x40fbaa0_0 : [-1/0,1/0]
