RESULT: v0x552d170_0 : [-1/0,1/0]
RESULT: v0x55309b0_0 : [-1/0,1/0]
RESULT: v0x5530ab0_0 : [-1/0,1/0]
RESULT: v0x5530bb0_0 : [-1/0,1/0]
RESULT: v0x5530cb0_0 : [-1/0,1/0]
RESULT: v0x5530db0_0 : [-1/0,1/0]
RESULT: v0x5530eb0_0 : [-1/0,1/0]
RESULT: v0x5530fb0_0 : [-1/0,1/0]
RESULT: v0x55310b0_0 : [-1/0,1/0]
RESULT: v0x55311b0_0 : [-1/0,1/0]
RESULT: v0x55312b0_0 : [-1/0,1/0]
RESULT: v0x55313b0_0 : [-1/0,1/0]
RESULT: v0x55314b0_0 : [-1/0,1/0]
RESULT: v0x55315b0_0 : [-1/0,1/0]
RESULT: v0x55316b0_0 : [-1/0,1/0]
RESULT: v0x55317b0_0 : [1,2]
RESULT: v0x52abcd0_0 : [2,2]
RESULT: v0x52908f0_0 : [0,0]
RESULT: v0x52ac650_0 : [-1/0,1/0]
RESULT: v0x514f4b0_0 : [-1/0,1/0]
RESULT: v0x55755e0_0 : [-1/0,1/0]
RESULT: v0x55756e0_0 : [-1/0,1/0]
