RESULT: v0x7c74a10_0 : [0,1]
RESULT: v0x87eda70_0 : [-1/0,1/0]
RESULT: v0x4c04200_0 : [-1/0,1/0]
RESULT: v0x7e51f90_0 : [-1/0,1/0]
RESULT: v0x64c45b0_0 : [27,1/0]
RESULT: v0x4f447c0_0 : [-1/0,1/0]
RESULT: v0x4f3e0d0_0 : [-1/0,1/0]
RESULT: v0x39f26e0_0 : [-1/0,1/0]
RESULT: v0x78eb120_0 : [0,0]
RESULT: v0x63941b0_0 : [-1/0,1/0]
RESULT: v0x53fc420_0 : [-1/0,1/0]
RESULT: v0x391f010_0 : [-1/0,1/0]
RESULT: v0x391f110_0 : [-1/0,1/0]
RESULT: v0x391f210_0 : [-1/0,1/0]
RESULT: v0x391f310_0 : [-1/0,1/0]
RESULT: v0x391f410_0 : [67,1/0]
RESULT: v0x391f510_0 : [0,1]
RESULT: v0x391f610_0 : [0,1]
RESULT: v0x391f710_0 : [-1/0,1/0]
RESULT: v0x391f810_0 : [-1/0,1/0]
RESULT: v0x391f910_0 : [-1/0,1/0]
RESULT: v0x391fa10_0 : [0,0]
RESULT: v0x391fb10_0 : [-1/0,1/0]
RESULT: v0x391fc10_0 : [-1/0,1/0]
RESULT: v0x391fd10_0 : [-1/0,1/0]
RESULT: v0x4f0cc40_0 : [-1/0,1/0]
RESULT: v0x53719a0_0 : [-1/0,1/0]
RESULT: v0x902f310_0 : [0,0]
RESULT: v0x4e8d310_0 : [-1/0,10]
RESULT: v0x8016cd0_0 : [-1/0,1/0]
RESULT: v0x3920010_0 : [-1/0,1/0]
