RESULT: v0x52353a0_0 : [-1/0,1/0]
RESULT: v0x52352e0_0 : [-1/0,1/0]
RESULT: v0x5235520_0 : [-1/0,1/0]
RESULT: v0x52355e0_0 : [-1/0,1/0]
RESULT: v0x515de30_0 : [-1/0,1/0]
RESULT: v0x5234fe0_0 : [-1/0,1/0]
RESULT: v0x5234f20_0 : [-1/0,1/0]
RESULT: v0x5234e60_0 : [-1/0,1/0]
RESULT: v0x51d3780_0 : [-1/0,1/0]
RESULT: v0x5235760_0 : [-1/0,1/0]
RESULT: v0x5235820_0 : [-1/0,1/0]
RESULT: v0x52358e0_0 : [-1/0,1/0]
RESULT: v0x52359a0_0 : [-1/0,1/0]
RESULT: v0x5235c80_0 : [-1/0,1/0]
RESULT: v0x5235c40_0 : [-1/0,1/0]
RESULT: v0x5235cc0_0 : [-1/0,1/0]
RESULT: v0x5235a60_0 : [-1/0,1/0]
RESULT: v0x5235d60_0 : [-1/0,1/0]
RESULT: v0x5235e40_0 : [-1/0,1/0]
RESULT: v0x5235ee0_0 : [-1/0,1/0]
RESULT: v0x52356a0_0 : [-1/0,1/0]
RESULT: v0x5235220_0 : [-1/0,1/0]
RESULT: v0x5235460_0 : [-1/0,1/0]
RESULT: v0x5235160_0 : [-1/0,1/0]
RESULT: v0x52350a0_0 : [-1/0,1/0]
