RESULT: v0x9142b00_0 : [-1/0,1/0]
RESULT: v0x5ee25a0_0 : [-1/0,1/0]
RESULT: v0x7229db0_0 : [-1/0,1/0]
RESULT: v0x40aa770_0 : [-1/0,1/0]
RESULT: v0x9142a80_0 : [67,1/0]
RESULT: v0x11c00f70_0 : [-1/0,1/0]
RESULT: v0x5ee22a0_0 : [-1/0,1/0]
RESULT: v0xa09e290_0 : [0,0]
RESULT: v0x5ee2200_0 : [-1/0,1/0]
RESULT: v0x147b73a0_0 : [-1/0,1/0]
RESULT: v0x4495200_0 : [-1/0,1/0]
RESULT: v0x3f94330_0 : [67,1/0]
RESULT: v0x3f94430_0 : [0,1]
RESULT: v0x3f94530_0 : [-1/0,1/0]
RESULT: v0x3f94630_0 : [-1/0,1/0]
RESULT: v0x3f94730_0 : [-1/0,1/0]
RESULT: v0x3f94830_0 : [-1/0,1/0]
RESULT: v0x3f94930_0 : [0,1]
RESULT: v0x3f94a30_0 : [-1/0,1/0]
RESULT: v0x3f94b30_0 : [-1/0,1/0]
RESULT: v0x3f94c30_0 : [0,0]
RESULT: v0x3f94d30_0 : [0,0]
RESULT: v0x3f94e30_0 : [-1/0,1/0]
RESULT: v0x3f94f30_0 : [-1/0,1/0]
RESULT: v0x3f95030_0 : [-1/0,1/0]
RESULT: v0x5ee2300_0 : [-1/0,1/0]
RESULT: v0x11d2c200_0 : [-1/0,1/0]
RESULT: v0x4158640_0 : [0,0]
RESULT: v0xac91fe0_0 : [-1/0,10]
RESULT: v0x11d2c1a0_0 : [-1/0,1/0]
RESULT: v0x3f95330_0 : [-1/0,1/0]
