RESULT: v0x514c450_0 : [0,0]
RESULT: v0x542f340_1 : [0,1]
RESULT: v0x5219050_1 : [0,1]
RESULT: v0x5434820_1 : [0,1]
RESULT: v0x54353a0_1 : [0,1]
RESULT: v0x5423980_1 : [0,1]
RESULT: v0x5423d40_1 : [0,1]
RESULT: v0x54245e0_1 : [0,1]
RESULT: v0x5419b20_1 : [0,1]
RESULT: v0x5419e60_1 : [0,1]
RESULT: v0x5412220_1 : [0,1]
RESULT: v0x54077c0_1 : [0,1]
RESULT: v0x5408680_1 : [0,1]
RESULT: v0x54006b0_1 : [0,1]
RESULT: v0x5400a10_1 : [0,2]
RESULT: v0x53f5640_1 : [0,2]
RESULT: v0x53f61e0_1 : [0,2]
RESULT: v0x53eea00_1 : [0,2]
RESULT: v0x53db6a0_1 : [0,2]
RESULT: v0x53dc620_1 : [0,2]
RESULT: v0x53dd4f0_1 : [0,2]
RESULT: v0x53e2360_1 : [0,2]
RESULT: v0x5426480_1 : [0,2]
RESULT: v0x542c0d0_1 : [0,2]
RESULT: v0x54311b0_1 : [0,2]
RESULT: v0x5431710_1 : [0,2]
RESULT: v0x5435220_1 : [0,2]
RESULT: v0x516dc60_1 : [0,0]
