RESULT: v0x94ab4f0_0 : [0,1]
RESULT: v0x5032590_0 : [-1/0,1/0]
RESULT: v0x5664400_0 : [-1/0,1/0]
RESULT: v0xba67d30_0 : [-1/0,1/0]
RESULT: v0x46f5620_0 : [-1/0,1/0]
RESULT: v0x9d967a0_0 : [-1/0,1/0]
RESULT: v0x92f4040_0 : [0,0]
RESULT: v0x40faaa0_0 : [67,1/0]
RESULT: v0x8ed0850_0 : [27,1/0]
RESULT: v0x40faba0_0 : [0,1]
RESULT: v0x40faca0_0 : [0,1]
RESULT: v0x40fada0_0 : [-1/0,1/0]
RESULT: v0x40faea0_0 : [-1/0,1/0]
RESULT: v0x40fafa0_0 : [-1/0,1/0]
RESULT: v0x40fb0a0_0 : [0,0]
RESULT: v0x40fb1a0_0 : [-1/0,1/0]
RESULT: v0x6ed9600_0 : [-1/0,1/0]
RESULT: v0x40fb2a0_0 : [-1/0,1/0]
RESULT: v0x7e6c4e0_0 : [-1/0,1/0]
RESULT: v0x40fb3a0_0 : [-1/0,1/0]
RESULT: v0x59d6a10_0 : [-1/0,1/0]
RESULT: v0x40fb4a0_0 : [-1/0,1/0]
RESULT: v0x40fb5a0_0 : [-1/0,1/0]
RESULT: v0x40fb6a0_0 : [-1/0,1/0]
RESULT: v0x40fb7a0_0 : [-1/0,1/0]
RESULT: v0x69b20d0_0 : [-1/0,1/0]
RESULT: v0x54d08a0_0 : [-1/0,1/0]
RESULT: v0x5a0fb80_0 : [0,0]
RESULT: v0xa2240f0_0 : [-1/0,10]
RESULT: v0x4e63fd0_0 : [-1/0,1/0]
RESULT: v0x40fbaa0_0 : [-1/0,1/0]
