RESULT: v0x51930e0_0 : [-1/0,1/0]
RESULT: v0x5193020_0 : [-1/0,1/0]
RESULT: v0x5193320_0 : [-1/0,1/0]
RESULT: v0x51933e0_0 : [-1/0,1/0]
RESULT: v0x5192d20_0 : [-1/0,1/0]
RESULT: v0x5192c80_0 : [-1/0,1/0]
RESULT: v0x510a200_0 : [-1/0,1/0]
RESULT: v0x51da700_0 : [-1/0,1/0]
RESULT: v0x51934a0_0 : [-1/0,1/0]
RESULT: v0x5193560_0 : [-1/0,1/0]
RESULT: v0x5193620_0 : [-1/0,1/0]
RESULT: v0x51936e0_0 : [-1/0,1/0]
RESULT: v0x51937a0_0 : [-1/0,1/0]
RESULT: v0x5193860_0 : [-1/0,1/0]
RESULT: v0x5193920_0 : [-1/0,1/0]
RESULT: v0x51939e0_0 : [-1/0,1/0]
RESULT: v0x5193aa0_0 : [-1/0,1/0]
RESULT: v0x5193b60_0 : [-1/0,1/0]
RESULT: v0x5193c20_0 : [-1/0,1/0]
RESULT: v0x51931a0_0 : [-1/0,1/0]
RESULT: v0x5192f60_0 : [-1/0,1/0]
RESULT: v0x5193360_0 : [-1/0,1/0]
RESULT: v0x5192ea0_0 : [-1/0,1/0]
RESULT: v0x5192de0_0 : [-1/0,1/0]
