RESULT: v0x44bc8f0_0 : [1,2]
RESULT: v0x44bbc90_0 : [0,54]
RESULT: v0x44bb9f0_0 : [0,52]
RESULT: v0x44bb7f0_0 : [0,50]
RESULT: v0x44bbb90_0 : [0,53]
RESULT: v0x44bb8f0_0 : [0,51]
RESULT: v0x44bcbf0_0 : [-1/0,1/0]
RESULT: v0x88b61c0_0 : [-1/0,1/0]
RESULT: v0x88b62c0_0 : [-1/0,1/0]
RESULT: v0x88b63c0_0 : [-1/0,1/0]
RESULT: v0x88b64c0_0 : [0,1]
RESULT: v0x88b65c0_0 : [0,1/0]
RESULT: v0x88ad590_0 : [0,1/0]
RESULT: v0x88ad690_0 : [-1/0,1/0]
RESULT: v0x88ad790_0 : [-1/0,1/0]
RESULT: v0x88ad890_0 : [-1/0,1/0]
RESULT: v0x88b6ea0_0 : [-1/0,1/0]
RESULT: v0x88b6fa0_0 : [-1/0,1/0]
RESULT: v0x88b70a0_0 : [-1/0,1/0]
RESULT: v0x88b71a0_0 : [-1/0,1/0]
RESULT: v0x88b72a0_0 : [-1/0,1/0]
RESULT: v0x88b73a0_0 : [-1/0,1/0]
