RESULT: v0x4647070_0 : [-1/0,1/0]
RESULT: v0x4226120_0 : [-1/0,1/0]
RESULT: v0x4594d40_0 : [-1/0,1/0]
RESULT: v0x42591e0_0 : [-1/0,1/0]
RESULT: v0x404b740_0 : [27,1/0]
RESULT: v0x4657c60_0 : [-1/0,1/0]
RESULT: v0x47b0840_0 : [-1/0,1/0]
RESULT: v0x406dd90_0 : [1,1]
RESULT: v0x46f2670_0 : [-1/0,1/0]
RESULT: v0x46fcc60_0 : [-1/0,1/0]
RESULT: v0x41b3c40_0 : [-1/0,1/0]
RESULT: v0x3fa3330_0 : [67,1/0]
RESULT: v0x3fa3430_0 : [-1/0,1/0]
RESULT: v0x3fa3530_0 : [-1/0,1/0]
RESULT: v0x3fa3630_0 : [-1/0,1/0]
RESULT: v0x3fa3730_0 : [-1/0,1/0]
RESULT: v0x3fa3830_0 : [0,1]
RESULT: v0x3fa3930_0 : [-1/0,1/0]
RESULT: v0x3fa3a30_0 : [-1/0,1/0]
RESULT: v0x3fa3b30_0 : [-1/0,1/0]
RESULT: v0x3fa3c30_0 : [-1/0,1/0]
RESULT: v0x3fa3d30_0 : [-1/0,1/0]
RESULT: v0x3fa3e30_0 : [-1/0,1/0]
RESULT: v0x3fa3f30_0 : [-1/0,1/0]
RESULT: v0x41bd260_0 : [-1/0,1/0]
RESULT: v0x4121aa0_0 : [-1/0,1/0]
RESULT: v0x468e1e0_0 : [-1/0,10]
RESULT: v0x46ce800_0 : [-1/0,1/0]
RESULT: v0x45eace0_0 : [-1/0,1/0]
RESULT: v0x3fa5230_0 : [-1/0,1/0]
