RESULT: v0x378e050_0 : [1,1/0]
RESULT: v0x3add790_0 : [0,1]
RESULT: v0x390f5a0_0 : [0,1]
RESULT: v0x3a79cf0_0 : [123,777]
RESULT: v0x3a63950_0 : [0,1]
RESULT: v0x3ac51d0_0 : [0,1]
RESULT: v0x38c2d30_0 : [0,2]
RESULT: v0x3992190_0 : [0,1]
RESULT: v0x3aa5b50_0 : [0,456]
RESULT: v0x3a43770_0 : [0,1]
RESULT: v0x38ccdc0_0 : [0,666]
RESULT: v0x3a6b170_0 : [0,1]
RESULT: v0x3a83e30_0 : [0,2]
RESULT: v0x3a826f0_0 : [0,456]
RESULT: v0x3a61890_0 : [0,1]
RESULT: v0x3a92810_0 : [0,1]
RESULT: v0x3ab16d0_0 : [0,1]
RESULT: v0x3a9b2b0_0 : [0,123]
RESULT: v0x3ac5c30_0 : [1,1]
RESULT: v0x3adb330_0 : [3,3]
RESULT: v0x39d3b40_0 : [0,1]
RESULT: v0x3799cf0_0 : [0,1]
RESULT: v0x3773b10_0 : [-1/0,1/0]
RESULT: v0x3773810_0 : [0,456]
RESULT: v0x3774910_0 : [-1/0,1/0]
RESULT: v0x3774a10_0 : [0,456]
RESULT: v0x3774b10_0 : [0,1]
RESULT: v0x3774f10_0 : [1,2]
RESULT: v0x3775010_0 : [0,2]
RESULT: v0x3775110_0 : [0,1]
RESULT: v0x3775210_0 : [0,1]
RESULT: v0x3773a10_0 : [0,1]
