RESULT: v0x4c4f570_1 : [3,3]
RESULT: v0x4c4f6d0_1 : [0,1]
RESULT: v0x4c4f850_1 : [0,1]
RESULT: v0x4c4fa90_1 : [0,1]
RESULT: v0x4c1b690_1 : [0,1]
RESULT: v0x4c1b510_1 : [0,1]
RESULT: v0x4c1b490_1 : [0,1]
RESULT: v0x4b134b0_1 : [0,1]
RESULT: v0x4b05b30_1 : [0,1]
RESULT: v0x4b05bf0_1 : [0,1]
RESULT: v0x4b05cb0_1 : [0,1]
RESULT: v0x4b05d70_1 : [0,1]
RESULT: v0x4b05e30_1 : [0,1]
RESULT: v0x4b05ef0_1 : [123,777]
RESULT: v0x4aef5b0_1 : [0,666]
RESULT: v0x4af1c90_1 : [0,2]
RESULT: v0x4ac51f0_1 : [0,1]
RESULT: v0x4af2840_1 : [0,2]
RESULT: v0x4af6640_1 : [0,456]
RESULT: v0x4afadb0_1 : [0,123]
RESULT: v0x4af65b0_1 : [0,456]
RESULT: v0x4b0a240_1 : [0,3]
