RESULT: v0x43207b0_0 : [-1/0,1/0]
RESULT: v0x71f6fa0_0 : [0,1]
RESULT: v0x542bbe0_0 : [-1/0,1/0]
RESULT: v0x65a0a50_0 : [-1/0,1/0]
RESULT: v0xa081ea0_0 : [-1/0,1/0]
RESULT: v0x72440f0_0 : [-1/0,1/0]
RESULT: v0x589c750_0 : [0,0]
RESULT: v0x40faaa0_0 : [67,1/0]
RESULT: v0x5250790_0 : [67,1/0]
RESULT: v0x40faba0_0 : [0,1]
RESULT: v0x40faca0_0 : [0,1]
RESULT: v0x40fada0_0 : [-1/0,1/0]
RESULT: v0x40faea0_0 : [-1/0,1/0]
RESULT: v0x40fafa0_0 : [0,0]
RESULT: v0x40fb0a0_0 : [-1/0,1/0]
RESULT: v0x40fb1a0_0 : [-1/0,1/0]
RESULT: v0x7398d40_0 : [-1/0,1/0]
RESULT: v0x40fb2a0_0 : [-1/0,1/0]
RESULT: v0x5256780_0 : [-1/0,1/0]
RESULT: v0x40fb3a0_0 : [-1/0,1/0]
RESULT: v0x5559fc0_0 : [-1/0,1/0]
RESULT: v0x40fb4a0_0 : [-1/0,1/0]
RESULT: v0x40fb5a0_0 : [-1/0,1/0]
RESULT: v0x40fb6a0_0 : [-1/0,1/0]
RESULT: v0x40fb7a0_0 : [-1/0,1/0]
RESULT: v0x524e170_0 : [-1/0,1/0]
RESULT: v0x6979400_0 : [-1/0,1/0]
RESULT: v0x4716690_0 : [0,0]
RESULT: v0x94b29b0_0 : [-1/0,10]
RESULT: v0x5626e80_0 : [-1/0,1/0]
RESULT: v0x40fbaa0_0 : [-1/0,1/0]
