RESULT: v0xa184da0_0 : [-1/0,1/0]
RESULT: v0x814e050_0 : [-1/0,1/0]
RESULT: v0x5729e90_0 : [0,1]
RESULT: v0x43102c0_0 : [-1/0,1/0]
RESULT: v0x814e090_0 : [27,1/0]
RESULT: v0x9de2e10_0 : [-1/0,1/0]
RESULT: v0x5b03ab0_0 : [-1/0,1/0]
RESULT: v0x5c1ad50_0 : [-1/0,1/0]
RESULT: v0x58b1df0_0 : [0,0]
RESULT: v0x44c7210_0 : [-1/0,1/0]
RESULT: v0x4562860_0 : [-1/0,1/0]
RESULT: v0x4285070_0 : [67,1/0]
RESULT: v0x4285170_0 : [-1/0,1/0]
RESULT: v0x4285270_0 : [-1/0,1/0]
RESULT: v0x4285370_0 : [-1/0,1/0]
RESULT: v0x4285470_0 : [-1/0,1/0]
RESULT: v0x4285570_0 : [0,1]
RESULT: v0x4285670_0 : [-1/0,1/0]
RESULT: v0x4285770_0 : [-1/0,1/0]
RESULT: v0x4285870_0 : [0,0]
RESULT: v0x4285970_0 : [-1/0,1/0]
RESULT: v0x4285a70_0 : [-1/0,1/0]
RESULT: v0x4285b70_0 : [-1/0,1/0]
RESULT: v0x4c1c490_0 : [-1/0,1/0]
RESULT: v0x62bafc0_0 : [0,0]
RESULT: v0x42a8fc0_0 : [-1/0,10]
RESULT: v0x4285e70_0 : [-1/0,1/0]
