RESULT: v0x4d17250_0 : [-1/0,1/0]
RESULT: v0x4d17310_0 : [-1/0,1/0]
RESULT: v0x4d173d0_0 : [-1/0,1/0]
RESULT: v0x4d17910_0 : [-1/0,1/0]
RESULT: v0x4d179d0_0 : [-1/0,1/0]
RESULT: v0x4c90ab0_0 : [-1/0,1/0]
RESULT: v0x4d17790_0 : [-1/0,1/0]
RESULT: v0x4d176d0_0 : [-1/0,1/0]
RESULT: v0x4cbe900_0 : [-1/0,1/0]
RESULT: v0x4d17b50_0 : [-1/0,1/0]
RESULT: v0x4d17c10_0 : [-1/0,1/0]
RESULT: v0x4d17cd0_0 : [-1/0,1/0]
RESULT: v0x4d17d90_0 : [-1/0,1/0]
RESULT: v0x4d18010_0 : [-1/0,1/0]
RESULT: v0x4d17fd0_0 : [-1/0,1/0]
RESULT: v0x4d18090_0 : [-1/0,1/0]
RESULT: v0x4d17e50_0 : [-1/0,1/0]
RESULT: v0x4d18150_0 : [-1/0,1/0]
RESULT: v0x4d18230_0 : [-1/0,1/0]
RESULT: v0x4d182d0_0 : [-1/0,1/0]
RESULT: v0x4d17a90_0 : [-1/0,1/0]
RESULT: v0x4d17550_0 : [-1/0,1/0]
RESULT: v0x4d17610_0 : [-1/0,1/0]
RESULT: v0x4d17850_0 : [-1/0,1/0]
RESULT: v0x4d17490_0 : [-1/0,1/0]
