RESULT: v0x4442940_0 : [-1/0,1/0]
RESULT: v0x5389360_0 : [-1/0,1/0]
RESULT: v0x4b7a550_0 : [-1/0,1/0]
RESULT: v0x60ba610_0 : [-1/0,1/0]
RESULT: v0x53777d0_0 : [27,1/0]
RESULT: v0x60ba570_0 : [-1/0,1/0]
RESULT: v0x47c0210_0 : [-1/0,1/0]
RESULT: v0x60d03a0_0 : [-1/0,1/0]
RESULT: v0x5c1a930_0 : [1,1]
RESULT: v0x4341640_0 : [-1/0,1/0]
RESULT: v0x531ea30_0 : [-1/0,1/0]
RESULT: v0x4285070_0 : [67,1/0]
RESULT: v0x4285170_0 : [-1/0,1/0]
RESULT: v0x4285270_0 : [-1/0,1/0]
RESULT: v0x4285370_0 : [-1/0,1/0]
RESULT: v0x4285470_0 : [-1/0,1/0]
RESULT: v0x4285570_0 : [0,1]
RESULT: v0x4285670_0 : [-1/0,1/0]
RESULT: v0x4285770_0 : [-1/0,1/0]
RESULT: v0x4285870_0 : [-1/0,1/0]
RESULT: v0x4285970_0 : [-1/0,1/0]
RESULT: v0x4285a70_0 : [-1/0,1/0]
RESULT: v0x4285b70_0 : [-1/0,1/0]
RESULT: v0x6022870_0 : [-1/0,1/0]
RESULT: v0x530ba80_0 : [-1/0,1/0]
RESULT: v0x5c0f150_0 : [-1/0,10]
RESULT: v0x4286e70_0 : [-1/0,1/0]
