RESULT: v0x431dbc0_0 : [0,2]
RESULT: v0x431d7c0_0 : [0,1]
RESULT: v0x431d2c0_0 : [0,2]
RESULT: v0x431c700_0 : [1,2]
RESULT: v0x431dcc0_0 : [0,1]
RESULT: v0x431d1c0_0 : [0,1]
RESULT: v0x431d9c0_0 : [0,2]
RESULT: v0x431d0c0_0 : [-1/0,6]
RESULT: v0x431d8c0_0 : [0,1]
RESULT: v0x431ba00_0 : [0,1/0]
RESULT: v0x431ddc0_0 : [0,1/0]
RESULT: v0x431dec0_0 : [-1/0,1/0]
RESULT: v0x431d6c0_0 : [0,2]
RESULT: v0x431b900_0 : [0,1/0]
RESULT: v0x431b800_0 : [0,50]
RESULT: v0x431d5c0_0 : [0,1/0]
RESULT: v0x431d4c0_0 : [0,2]
RESULT: v0x431d3c0_0 : [0,1]
RESULT: v0x431dac0_0 : [-1/0,1/0]
RESULT: v0x7632800_0 : [-1/0,1/0]
RESULT: v0x76cf860_0 : [0,0]
RESULT: v0x75a6d90_0 : [0,0]
RESULT: v0x76fc4a0_0 : [-1/0,1/0]
RESULT: v0x591c3c0_0 : [0,0]
RESULT: v0x82518d0_0 : [-1/0,1/0]
RESULT: v0x76fa480_0 : [-1/0,1/0]
RESULT: v0x768eb40_0 : [-1/0,1/0]
RESULT: v0x75e0f90_0 : [-1/0,1/0]
RESULT: v0x76eb940_0 : [1,1]
