RESULT: v0x490dfc0_0 : [0,1]
RESULT: v0x4e5e810_0 : [-1/0,1/0]
RESULT: v0x60b7eb0_0 : [-1/0,1/0]
RESULT: v0x417d240_0 : [-1/0,1/0]
RESULT: v0x42538b0_0 : [-1/0,1/0]
RESULT: v0x6086770_0 : [-1/0,1/0]
RESULT: v0x4e1a620_0 : [0,0]
RESULT: v0x40faaa0_0 : [67,1/0]
RESULT: v0x561cea0_0 : [27,1/0]
RESULT: v0x40faba0_0 : [0,1]
RESULT: v0x40faca0_0 : [0,1]
RESULT: v0x40fada0_0 : [-1/0,1/0]
RESULT: v0x40faea0_0 : [-1/0,1/0]
RESULT: v0x40fafa0_0 : [-1/0,1/0]
RESULT: v0x40fb0a0_0 : [0,0]
RESULT: v0x40fb1a0_0 : [-1/0,1/0]
RESULT: v0x4e61850_0 : [-1/0,1/0]
RESULT: v0x40fb2a0_0 : [-1/0,1/0]
RESULT: v0x69db900_0 : [-1/0,1/0]
RESULT: v0x40fb3a0_0 : [-1/0,1/0]
RESULT: v0x4662860_0 : [-1/0,1/0]
RESULT: v0x40fb4a0_0 : [-1/0,1/0]
RESULT: v0x40fb5a0_0 : [-1/0,1/0]
RESULT: v0x40fb6a0_0 : [-1/0,1/0]
RESULT: v0x40fb7a0_0 : [-1/0,1/0]
RESULT: v0x4a0a310_0 : [-1/0,1/0]
RESULT: v0x55603d0_0 : [-1/0,1/0]
RESULT: v0x4ef2b80_0 : [0,0]
RESULT: v0x4302750_0 : [-1/0,10]
RESULT: v0x4f04d30_0 : [-1/0,1/0]
RESULT: v0x40fbaa0_0 : [-1/0,1/0]
