RESULT: (v0x50f0710_0:REAL) : [0,1/0]
RESULT: (v0x50f0910_0:REAL) : [0,1]
RESULT: (v0x50f0b10_0:REAL) : [0,1]
RESULT: (v0x50f0d10_0:REAL) : [0,1]
RESULT: (v0x50f0f10_0:REAL) : [0,1]
RESULT: (v0x50f1110_0:REAL) : [0,1]
RESULT: (v0x50f1310_0:REAL) : [0,1]
RESULT: (v0x50f1510_0:REAL) : [0,1]
RESULT: (v0x50f1710_0:REAL) : [0,1]
RESULT: (v0x50f1910_0:REAL) : [0,1]
RESULT: (v0x50f1b10_0:REAL) : [0,1]
RESULT: (v0x50f1d10_0:REAL) : [0,1]
RESULT: (v0x50f1f10_0:REAL) : [0,1]
RESULT: (v0x50f2110_0:REAL) : [0,2]
RESULT: (v0x50f2310_0:REAL) : [0,3]
RESULT: (v0x50f2510_0:REAL) : [123,777]
RESULT: (v0x50f2710_0:REAL) : [0,666]
RESULT: (v0x50f2910_0:REAL) : [0,2]
RESULT: (v0x50f2b10_0:REAL) : [0,1]
RESULT: (v0x50f2d10_0:REAL) : [0,2]
RESULT: (v0x50e9750_0:REAL) : [0,456]
RESULT: (v0x50e9950_0:REAL) : [0,123]
RESULT: (v0x50e9b50_0:REAL) : [0,456]
RESULT: (v0x50dcd50_0:REAL) : [0,3]
