RESULT: (v0x4681770_0:REAL) : [1,1/0]
RESULT: (v0x4681970_0:REAL) : [0,1]
RESULT: (v0x4681b70_0:REAL) : [0,1]
RESULT: (v0x4681d70_0:REAL) : [0,1]
RESULT: (v0x4681f70_0:REAL) : [0,1]
RESULT: (v0x4682170_0:REAL) : [0,1]
RESULT: (v0x4682370_0:REAL) : [0,1]
RESULT: (v0x4682570_0:REAL) : [0,1]
RESULT: (v0x4682770_0:REAL) : [0,1]
RESULT: (v0x4682970_0:REAL) : [0,1]
RESULT: (v0x4682b70_0:REAL) : [0,1]
RESULT: (v0x4682d70_0:REAL) : [0,1]
RESULT: (v0x4682f70_0:REAL) : [0,1]
RESULT: (v0x4683170_0:REAL) : [0,2]
RESULT: (v0x4683370_0:REAL) : [0,3]
RESULT: (v0x4683570_0:REAL) : [123,777]
RESULT: (v0x4683770_0:REAL) : [0,0]
RESULT: (v0x4683970_0:REAL) : [0,2]
RESULT: (v0x4683b70_0:REAL) : [0,1]
RESULT: (v0x4683d70_0:REAL) : [0,2]
RESULT: (v0x467a7b0_0:REAL) : [0,456]
RESULT: (v0x467a9b0_0:REAL) : [0,123]
RESULT: (v0x467abb0_0:REAL) : [0,456]
RESULT: (v0x466d400_0:REAL) : [1,3]
RESULT: (v0x46501f0_0:REAL) : [2,2]
RESULT: (v0x46502f0_0:REAL) : [0,1]
RESULT: (v0x46503f0_0:REAL) : [0,3]
RESULT: (v0x46504f0_0:REAL) : [2,2]
RESULT: (v0x46505f0_0:REAL) : [1,1]
RESULT: (v0x4650af0_0:REAL) : [0,0]
RESULT: (v0x4650bf0_0:REAL) : [123,777]
RESULT: (v0x4650cf0_0:REAL) : [0,0]
