RESULT: (v0x321f6a0_0:REAL) : [1,1/0]
RESULT: (v0x321f8a0_0:REAL) : [0,1]
RESULT: (v0x321faa0_0:REAL) : [0,1]
RESULT: (v0x321fca0_0:REAL) : [0,1]
RESULT: (v0x321fea0_0:REAL) : [0,1]
RESULT: (v0x32200a0_0:REAL) : [0,1]
RESULT: (v0x32202a0_0:REAL) : [0,1]
RESULT: (v0x32204a0_0:REAL) : [0,1]
RESULT: (v0x32168e0_0:REAL) : [0,1]
RESULT: (v0x3216ae0_0:REAL) : [0,1]
RESULT: (v0x3216ce0_0:REAL) : [0,1]
RESULT: (v0x3216ee0_0:REAL) : [0,1]
RESULT: (v0x32170c0_0:REAL) : [0,1]
RESULT: (v0x32214a0_0:REAL) : [0,2]
RESULT: (v0x32216a0_0:REAL) : [0,3]
RESULT: (v0x32218a0_0:REAL) : [0,1]
RESULT: (v0x3221aa0_0:REAL) : [123,777]
RESULT: (v0x3221ca0_0:REAL) : [0,666]
RESULT: (v0x3221ea0_0:REAL) : [0,2]
RESULT: (v0x32220a0_0:REAL) : [0,1]
RESULT: (v0x32222a0_0:REAL) : [0,2]
RESULT: (v0x32224a0_0:REAL) : [0,456]
RESULT: (v0x32226a0_0:REAL) : [0,123]
RESULT: (v0x320a490_0:REAL) : [0,456]
