RESULT: (v0x4bd6940_0:REAL) : [0,1]
RESULT: (v0x4be9c30_0:REAL) : [0,1]
RESULT: (v0x4be94a0_0:REAL) : [0,1]
RESULT: (v0x4befc00_0:REAL) : [0,1]
RESULT: (v0x4befe00_0:REAL) : [0,1]
RESULT: (v0x4bf0000_0:REAL) : [0,1]
RESULT: (v0x4befa00_0:REAL) : [0,1]
RESULT: (v0x4bf04c0_0:REAL) : [0,1]
RESULT: (v0x4bf06c0_0:REAL) : [0,1]
RESULT: (v0x4bf08c0_0:REAL) : [0,1]
RESULT: (v0x4bf0ac0_0:REAL) : [0,1]
RESULT: (v0x4bf0cc0_0:REAL) : [0,1]
RESULT: (v0x4bf0ec0_0:REAL) : [1,1]
RESULT: (v0x4bf10c0_0:REAL) : [-1/0,1/0]
RESULT: (v0x4bf12c0_0:REAL) : [-1/0,1/0]
RESULT: (v0x4bf14c0_0:REAL) : [0,2]
RESULT: (v0x4bf16c0_0:REAL) : [0,2]
RESULT: (v0x4bf18c0_0:REAL) : [0,2]
RESULT: (v0x4bf0200_0:REAL) : [0,2]
RESULT: (v0x4bf1d90_0:REAL) : [0,2]
RESULT: (v0x4bf1f90_0:REAL) : [0,2]
RESULT: (v0x4bf2190_0:REAL) : [0,2]
RESULT: (v0x4bf2390_0:REAL) : [0,2]
RESULT: (v0x4bf2590_0:REAL) : [0,2]
RESULT: (v0x4bf2790_0:REAL) : [0,2]
RESULT: (v0x4bf2990_0:REAL) : [0,2]
RESULT: (v0x4bf2b90_0:REAL) : [0,2]
RESULT: (v0x4bedf10_0:REAL) : [2,2]
