RESULT: (v0x4e6ed10_0:REAL) : [789,789]
RESULT: (v0x53db910_0:REAL) : [1,1/0]
RESULT: (v0x53dbb10_0:REAL) : [0,1]
RESULT: (v0x53dbd10_0:REAL) : [0,1]
RESULT: (v0x53dbf10_0:REAL) : [0,1]
RESULT: (v0x53dc110_0:REAL) : [0,1]
RESULT: (v0x53dc310_0:REAL) : [0,1]
RESULT: (v0x53dc510_0:REAL) : [0,1]
RESULT: (v0x53dc710_0:REAL) : [0,1]
RESULT: (v0x53dc910_0:REAL) : [0,1]
RESULT: (v0x53dcb10_0:REAL) : [0,1]
RESULT: (v0x53dcd10_0:REAL) : [0,1]
RESULT: (v0x53dcf10_0:REAL) : [0,1]
RESULT: (v0x53dd110_0:REAL) : [0,1]
RESULT: (v0x53dd310_0:REAL) : [0,2]
RESULT: (v0x53dd510_0:REAL) : [0,3]
RESULT: (v0x53dd710_0:REAL) : [0,1]
RESULT: (v0x53dd910_0:REAL) : [123,777]
RESULT: (v0x53ddb10_0:REAL) : [0,666]
RESULT: (v0x53ddd10_0:REAL) : [0,2]
RESULT: (v0x53ddf10_0:REAL) : [0,1]
RESULT: (v0x53de110_0:REAL) : [0,2]
RESULT: (v0x53de310_0:REAL) : [1,456]
RESULT: (v0x53de510_0:REAL) : [0,123]
RESULT: (v0x53de710_0:REAL) : [0,456]
RESULT: (v0x53de910_0:REAL) : [0,3]
