RESULT: (v0x40c3ab0_0:REAL) : [0,0]
RESULT: (v0x3c06ed0_0:REAL) : [0,0]
RESULT: (v0x3c08d50_0:REAL) : [-1/0,1/0]
RESULT: (v0x3aff4a0_0:REAL) : [-1/0,1/0]
RESULT: (v0x3c08f50_0:REAL) : [-1/0,1/0]
RESULT: (v0x3c08780_0:REAL) : [-1/0,1/0]
RESULT: (v0x3c08680_0:REAL) : [-1/0,1/0]
RESULT: (v0x3c09350_0:REAL) : [-1/0,1/0]
RESULT: (v0x3c08580_0:REAL) : [-1/0,1/0]
RESULT: (v0x3c09650_0:REAL) : [-1/0,1/0]
RESULT: (v0x3c09950_0:REAL) : [-1/0,1/0]
RESULT: (v0x3c08280_0:REAL) : [-1/0,1/0]
RESULT: (v0x3c09c50_0:REAL) : [-1/0,1/0]
RESULT: (v0x3c08080_0:REAL) : [-1/0,1/0]
RESULT: (v0x3c09e50_0:REAL) : [-1/0,1/0]
RESULT: (v0x3c0a050_0:REAL) : [-1/0,1/0]
RESULT: (v0x3c0a250_0:REAL) : [-1/0,1/0]
RESULT: (v0x3c0a550_0:REAL) : [-1/0,1/0]
RESULT: (v0x3c0a750_0:REAL) : [-1/0,1/0]
RESULT: (v0x3c0a950_0:REAL) : [-1/0,1/0]
RESULT: (v0x3c0ac50_0:REAL) : [-1/0,1/0]
RESULT: (v0x3c0ae50_0:REAL) : [-1/0,1/0]
RESULT: (v0x3c0b150_0:REAL) : [-1/0,1/0]
RESULT: (v0x3c0b350_0:REAL) : [-1/0,1/0]
RESULT: (v0x3c07f80_0:REAL) : [-1/0,1/0]
RESULT: (v0x3c0b850_0:REAL) : [-1/0,1/0]
RESULT: (v0x3c07d80_0:REAL) : [-1/0,1/0]
RESULT: (v0x3c0bb50_0:REAL) : [-1/0,1/0]
RESULT: (v0x3c08980_0:REAL) : [-1/0,1/0]
RESULT: (v0x3c08b80_0:REAL) : [-1/0,1/0]
RESULT: (v0x3c0c640_0:REAL) : [-1/0,1/0]
RESULT: (v0x3c0c940_0:REAL) : [-1/0,1/0]
RESULT: (v0x3c0cb40_0:REAL) : [-1/0,1/0]
RESULT: (v0x3c0cd40_0:REAL) : [-1/0,1/0]
RESULT: (v0x3c0d040_0:REAL) : [-1/0,1/0]
RESULT: (v0x3c0d340_0:REAL) : [-1/0,1/0]
RESULT: (v0x3c0d540_0:REAL) : [-1/0,1/0]
RESULT: (v0x3c0d740_0:REAL) : [-1/0,1/0]
RESULT: (v0x3c0d940_0:REAL) : [-1/0,1/0]
RESULT: (v0x3c0db40_0:REAL) : [-1/0,1/0]
RESULT: (v0x3c07c80_0:REAL) : [-1/0,1/0]
RESULT: (v0x3c0de40_0:REAL) : [-1/0,1/0]
RESULT: (v0x3c07a80_0:REAL) : [-1/0,1/0]
RESULT: (v0x3c0e040_0:REAL) : [-1/0,1/0]
RESULT: (v0x3c0e240_0:REAL) : [-1/0,1/0]
RESULT: (v0x3c0e440_0:REAL) : [-1/0,1/0]
RESULT: (v0x3c0e640_0:REAL) : [-1/0,1/0]
RESULT: (v0x3c07880_0:REAL) : [-1/0,1/0]
RESULT: (v0x3c0e840_0:REAL) : [-1/0,1/0]
RESULT: (v0x3c0e940_0:REAL) : [-1/0,1/0]
RESULT: (v0x3c0eb40_0:REAL) : [-1/0,1/0]
RESULT: (v0x3c0ed40_0:REAL) : [-1/0,1/0]
RESULT: (v0x3c0ef40_0:REAL) : [-1/0,1/0]
RESULT: (v0x3c0f140_0:REAL) : [-1/0,1/0]
RESULT: (v0x3c0f340_0:REAL) : [-1/0,1/0]
RESULT: (v0x3c0f540_0:REAL) : [-1/0,1/0]
RESULT: (v0x3c0f740_0:REAL) : [-1/0,1/0]
RESULT: (v0x3c0f940_0:REAL) : [-1/0,1/0]
RESULT: (v0x3c0fa40_0:REAL) : [-1/0,1/0]
RESULT: (v0x3c0fd40_0:REAL) : [-1/0,1/0]
RESULT: (v0x3c0ff40_0:REAL) : [-1/0,1/0]
RESULT: (v0x3c10040_0:REAL) : [-1/0,1/0]
RESULT: (v0x3c10440_0:REAL) : [-1/0,1/0]
RESULT: (v0x3c10740_0:REAL) : [-1/0,1/0]
RESULT: (v0x3c10940_0:REAL) : [-1/0,1/0]
RESULT: (v0x3c10c40_0:REAL) : [-1/0,1/0]
RESULT: (v0x3c10e40_0:REAL) : [-1/0,1/0]
RESULT: (v0x3c11040_0:REAL) : [-1/0,1/0]
RESULT: (v0x3c11240_0:REAL) : [-1/0,1/0]
RESULT: (v0x3c11440_0:REAL) : [-1/0,1/0]
RESULT: (v0x3c11640_0:REAL) : [-1/0,1/0]
RESULT: (v0x3c11940_0:REAL) : [-1/0,1/0]
RESULT: (v0x3c11c40_0:REAL) : [-1/0,1/0]
RESULT: (v0x3c11e40_0:REAL) : [-1/0,1/0]
RESULT: (v0x3c12140_0:REAL) : [-1/0,1/0]
RESULT: (v0x3c12340_0:REAL) : [-1/0,1/0]
RESULT: (v0x3c12640_0:REAL) : [-1/0,1/0]
RESULT: (v0x3c12740_0:REAL) : [-1/0,1/0]
RESULT: (v0x3c12940_0:REAL) : [-1/0,1/0]
RESULT: (v0x3c12b40_0:REAL) : [-1/0,1/0]
RESULT: (v0x3c12d40_0:REAL) : [-1/0,1/0]
RESULT: (v0x3c12f40_0:REAL) : [-1/0,1/0]
RESULT: (v0x3c13140_0:REAL) : [-1/0,1/0]
RESULT: (v0x3c13240_0:REAL) : [-1/0,1/0]
RESULT: (v0x3c13440_0:REAL) : [-1/0,1/0]
RESULT: (v0x3c13640_0:REAL) : [-1/0,1/0]
RESULT: (v0x3c13840_0:REAL) : [-1/0,1/0]
RESULT: (v0x3c13a40_0:REAL) : [-1/0,1/0]
RESULT: (v0x3c13c40_0:REAL) : [-1/0,1/0]
RESULT: (v0x3c13d40_0:REAL) : [-1/0,1/0]
RESULT: (v0x3c0bd50_0:REAL) : [-1/0,1/0]
RESULT: (v0x3c0bf50_0:REAL) : [-1/0,1/0]
RESULT: (v0x3c0c150_0:REAL) : [-1/0,1/0]
RESULT: (v0x3c0c350_0:REAL) : [-1/0,1/0]
RESULT: (v0x3c14b80_0:REAL) : [-1/0,1/0]
RESULT: (v0x3c14d60_0:REAL) : [-1/0,1/0]
RESULT: (v0x3c14f60_0:REAL) : [-1/0,1/0]
RESULT: (v0x3c15160_0:REAL) : [-1/0,1/0]
RESULT: (v0x3c15260_0:REAL) : [-1/0,1/0]
RESULT: (v0x3c15460_0:REAL) : [-1/0,1/0]
RESULT: (v0x3c15660_0:REAL) : [-1/0,1/0]
RESULT: (v0x3c15860_0:REAL) : [-1/0,1/0]
RESULT: (v0x3c15a60_0:REAL) : [-1/0,1/0]
RESULT: (v0x3c15d60_0:REAL) : [-1/0,1/0]
RESULT: (v0x3c16060_0:REAL) : [-1/0,1/0]
RESULT: (v0x3c16260_0:REAL) : [-1/0,1/0]
RESULT: (v0x3c16460_0:REAL) : [-1/0,1/0]
RESULT: (v0x3c16660_0:REAL) : [-1/0,1/0]
RESULT: (v0x3c16860_0:REAL) : [-1/0,1/0]
RESULT: (v0x3c16a60_0:REAL) : [-1/0,1/0]
RESULT: (v0x3c16c60_0:REAL) : [-1/0,1/0]
RESULT: (v0x3c16e60_0:REAL) : [-1/0,1/0]
RESULT: (v0x3c17060_0:REAL) : [-1/0,1/0]
RESULT: (v0x3c17260_0:REAL) : [-1/0,1/0]
RESULT: (v0x3c17460_0:REAL) : [-1/0,1/0]
RESULT: (v0x3c17660_0:REAL) : [-1/0,1/0]
RESULT: (v0x3c17760_0:REAL) : [-1/0,1/0]
RESULT: (v0x3c17960_0:REAL) : [-1/0,1/0]
RESULT: (v0x3c17b60_0:REAL) : [-1/0,1/0]
RESULT: (v0x3c17d60_0:REAL) : [-1/0,1/0]
RESULT: (v0x3c17f60_0:REAL) : [-1/0,1/0]
RESULT: (v0x3c18160_0:REAL) : [-1/0,1/0]
RESULT: (v0x3c18260_0:REAL) : [-1/0,1/0]
RESULT: (v0x3c18460_0:REAL) : [-1/0,1/0]
RESULT: (v0x3c18660_0:REAL) : [-1/0,1/0]
RESULT: (v0x3c18860_0:REAL) : [-1/0,1/0]
RESULT: (v0x3c18a60_0:REAL) : [-1/0,1/0]
RESULT: (v0x3c18c60_0:REAL) : [-1/0,1/0]
RESULT: (v0x3c07780_0:REAL) : [-1/0,1/0]
RESULT: (v0x3c18e60_0:REAL) : [-1/0,1/0]
RESULT: (v0x3c19060_0:REAL) : [-1/0,1/0]
RESULT: (v0x3c19260_0:REAL) : [-1/0,1/0]
