RESULT: (v0x40658a0_0:REAL) : [1,1/0]
RESULT: (v0x4065aa0_0:REAL) : [0,1]
RESULT: (v0x4065ca0_0:REAL) : [0,1]
RESULT: (v0x4065ea0_0:REAL) : [0,1]
RESULT: (v0x40660a0_0:REAL) : [0,1]
RESULT: (v0x40662a0_0:REAL) : [0,1]
RESULT: (v0x40664a0_0:REAL) : [0,1]
RESULT: (v0x40666a0_0:REAL) : [0,1]
RESULT: (v0x40668a0_0:REAL) : [0,1]
RESULT: (v0x4066aa0_0:REAL) : [0,1]
RESULT: (v0x4066ca0_0:REAL) : [0,1]
RESULT: (v0x4066ea0_0:REAL) : [0,1]
RESULT: (v0x40670a0_0:REAL) : [0,1]
RESULT: (v0x40672a0_0:REAL) : [123,123]
RESULT: (v0x40674a0_0:REAL) : [0,666]
RESULT: (v0x40676a0_0:REAL) : [0,2]
RESULT: (v0x40678a0_0:REAL) : [1,1]
RESULT: (v0x4067aa0_0:REAL) : [0,2]
RESULT: (v0x4067ca0_0:REAL) : [0,456]
RESULT: (v0x4067ea0_0:REAL) : [123,123]
RESULT: (v0x40680a0_0:REAL) : [0,456]
RESULT: (v0x4055d70_0:REAL) : [0,3]
RESULT: (v0x403ec60_0:REAL) : [-1/0,1/0]
RESULT: (v0x403e960_0:REAL) : [0,456]
RESULT: (v0x403eb60_0:REAL) : [0,1]
