RESULT: (v0x43cd7f0_1:REAL) : [3,11]
RESULT: (v0x43cd9f0_1:REAL) : [-1/0,1/0]
RESULT: (v0x43cdbf0_1:REAL) : [0,1]
RESULT: (v0x43cddf0_1:REAL) : [0,1]
RESULT: (v0x43cdff0_1:REAL) : [-1/0,1/0]
RESULT: (v0x43ce1f0_1:REAL) : [0,1]
RESULT: (v0x43ce3f0_1:REAL) : [0,1]
RESULT: (v0x43ce5f0_1:REAL) : [0,1]
RESULT: (v0x43ce7f0_1:REAL) : [0,1]
RESULT: (v0x43ce9f0_1:REAL) : [0,1]
RESULT: (v0x43cebf0_1:REAL) : [0,1]
RESULT: (v0x43cedf0_1:REAL) : [0,1]
RESULT: (v0x43ceff0_1:REAL) : [0,1]
RESULT: (v0x43cf1f0_1:REAL) : [0,1]
RESULT: (v0x43cf3f0_1:REAL) : [0,1]
RESULT: (v0x430ccf0_1:REAL) : [0,1]
