RESULT: (v0x32f47f0_0:REAL) : [1,1/0]
RESULT: (v0x32f49f0_0:REAL) : [0,1]
RESULT: (v0x32f4bf0_0:REAL) : [0,1]
RESULT: (v0x32f4df0_0:REAL) : [0,1]
RESULT: (v0x32f4ff0_0:REAL) : [0,1]
RESULT: (v0x32f51f0_0:REAL) : [0,1]
RESULT: (v0x32f53f0_0:REAL) : [0,1]
RESULT: (v0x32f55f0_0:REAL) : [0,1]
RESULT: (v0x32f57f0_0:REAL) : [0,1]
RESULT: (v0x32f59f0_0:REAL) : [0,1]
RESULT: (v0x32f5bf0_0:REAL) : [0,1]
RESULT: (v0x32f5df0_0:REAL) : [0,2]
RESULT: (v0x32f5ff0_0:REAL) : [0,3]
RESULT: (v0x32f61f0_0:REAL) : [0,1]
RESULT: (v0x32f63f0_0:REAL) : [123,777]
RESULT: (v0x32f65f0_0:REAL) : [0,666]
RESULT: (v0x32f67f0_0:REAL) : [0,2]
RESULT: (v0x32f69f0_0:REAL) : [0,1]
RESULT: (v0x32f6bf0_0:REAL) : [0,2]
RESULT: (v0x32f6df0_0:REAL) : [0,456]
RESULT: (v0x32f6ff0_0:REAL) : [0,123]
RESULT: (v0x32f71f0_0:REAL) : [0,456]
RESULT: (v0x32f73f0_0:REAL) : [0,3]
RESULT: (v0x32f75f0_0:REAL) : [0,1]
RESULT: (v0x32df510_0:REAL) : [0,1]
