RESULT: (v0x4cbed60_0:REAL) : [789,789]
RESULT: (v0x5238230_0:REAL) : [1,1/0]
RESULT: (v0x5238430_0:REAL) : [0,1]
RESULT: (v0x5238630_0:REAL) : [0,1]
RESULT: (v0x5238830_0:REAL) : [0,1]
RESULT: (v0x5238a30_0:REAL) : [0,1]
RESULT: (v0x5238c30_0:REAL) : [0,1]
RESULT: (v0x5238e30_0:REAL) : [0,1]
RESULT: (v0x5239030_0:REAL) : [0,1]
RESULT: (v0x5239230_0:REAL) : [0,1]
RESULT: (v0x5239430_0:REAL) : [0,1]
RESULT: (v0x5239630_0:REAL) : [0,1]
RESULT: (v0x5239830_0:REAL) : [0,1]
RESULT: (v0x5239a30_0:REAL) : [0,2]
RESULT: (v0x5239c30_0:REAL) : [0,3]
RESULT: (v0x5239e30_0:REAL) : [0,1]
RESULT: (v0x523a030_0:REAL) : [123,777]
RESULT: (v0x523a230_0:REAL) : [0,666]
RESULT: (v0x523a430_0:REAL) : [0,2]
RESULT: (v0x523a630_0:REAL) : [0,1]
RESULT: (v0x523a830_0:REAL) : [0,2]
RESULT: (v0x523aa30_0:REAL) : [0,456]
RESULT: (v0x523ac30_0:REAL) : [0,123]
RESULT: (v0x523ae30_0:REAL) : [0,456]
RESULT: (v0x523b030_0:REAL) : [0,3]
RESULT: (v0x523b230_0:REAL) : [0,1]
