RESULT: (v0x42a0470_0:REAL) : [8512,8656]
RESULT: (v0x42a0670_0:REAL) : [3,8656]
RESULT: (v0x42a0970_0:REAL) : [3,8640]
RESULT: (v0x42a1070_0:REAL) : [0,1/0]
RESULT: (v0x41abda0_0:REAL) : [8560,8641]
RESULT: (v0x41a72f0_0:REAL) : [-1/0,1/0]
RESULT: (v0x42a0c70_0:REAL) : [-1/0,1/0]
RESULT: (v0x41abaa0_0:REAL) : [-1/0,1/0]
RESULT: (v0x41a7850_0:REAL) : [-1/0,1/0]
RESULT: (v0x41a7d50_0:REAL) : [-1/0,1/0]
RESULT: (v0x41ab520_0:REAL) : [-1/0,1/0]
RESULT: (v0x42a0d70_0:REAL) : [-1/0,1/0]
RESULT: (v0x429fbb0_0:REAL) : [-1/0,1/0]
RESULT: (v0x42a0070_0:REAL) : [-1/0,1/0]
