RESULT: (v0x5823c60_0:REAL) : [0,789]
RESULT: (v0x5a4d1e0_0:REAL) : [1,1/0]
RESULT: (v0x5a4d3e0_0:REAL) : [0,1]
RESULT: (v0x5a4d5e0_0:REAL) : [0,1]
RESULT: (v0x5a4d7e0_0:REAL) : [0,1]
RESULT: (v0x5a4d9e0_0:REAL) : [0,1]
RESULT: (v0x5a4dbe0_0:REAL) : [0,1]
RESULT: (v0x5a4dde0_0:REAL) : [0,1]
RESULT: (v0x5a4dfe0_0:REAL) : [0,1]
RESULT: (v0x5a4e1e0_0:REAL) : [0,1]
RESULT: (v0x5a4e3e0_0:REAL) : [0,1]
RESULT: (v0x5a4e5e0_0:REAL) : [0,1]
RESULT: (v0x5a4e7e0_0:REAL) : [0,1]
RESULT: (v0x5a4e9e0_0:REAL) : [0,2]
RESULT: (v0x5a4ebe0_0:REAL) : [0,3]
RESULT: (v0x5a4ede0_0:REAL) : [0,1]
RESULT: (v0x5a4efe0_0:REAL) : [0,777]
RESULT: (v0x5a4f1e0_0:REAL) : [0,666]
RESULT: (v0x5a4f3e0_0:REAL) : [0,2]
RESULT: (v0x5a4f5e0_0:REAL) : [0,1]
RESULT: (v0x5a4f7e0_0:REAL) : [0,2]
RESULT: (v0x5a4f9e0_0:REAL) : [1,456]
RESULT: (v0x5a4fbe0_0:REAL) : [0,123]
RESULT: (v0x5a4fde0_0:REAL) : [0,456]
RESULT: (v0x5a4ffe0_0:REAL) : [1,3]
RESULT: (v0x5a501e0_0:REAL) : [0,1]
