RESULT: (v0x4ba9300_0:REAL) : [1,1/0]
RESULT: (v0x4bb3a60_0:REAL) : [0,1]
RESULT: (v0x4bb3c60_0:REAL) : [0,1]
RESULT: (v0x4bb3e60_0:REAL) : [0,1]
RESULT: (v0x4bb4060_0:REAL) : [0,1]
RESULT: (v0x4bb4260_0:REAL) : [0,1]
RESULT: (v0x4bb4460_0:REAL) : [0,1]
RESULT: (v0x4bb4660_0:REAL) : [0,1]
RESULT: (v0x4bb4860_0:REAL) : [0,1]
RESULT: (v0x4bb4a60_0:REAL) : [0,1]
RESULT: (v0x4bb4c60_0:REAL) : [0,1]
RESULT: (v0x4bb4e60_0:REAL) : [0,2]
RESULT: (v0x4bb5060_0:REAL) : [0,3]
RESULT: (v0x4bb5260_0:REAL) : [123,777]
RESULT: (v0x4bb5460_0:REAL) : [0,666]
RESULT: (v0x4bb5660_0:REAL) : [0,2]
RESULT: (v0x4bb5860_0:REAL) : [0,1]
RESULT: (v0x4bb5a60_0:REAL) : [0,2]
RESULT: (v0x4bb5c60_0:REAL) : [0,456]
RESULT: (v0x4bb5e60_0:REAL) : [0,123]
RESULT: (v0x4bb6060_0:REAL) : [0,456]
RESULT: (v0x4bb6260_0:REAL) : [1,3]
RESULT: (v0x4bb6460_0:REAL) : [0,1]
RESULT: (v0x4b9e090_0:REAL) : [0,1]
