RESULT: (v0x379a120_0:REAL) : [0,0]
RESULT: (v0x379a220_0:REAL) : [0,0]
RESULT: (v0x379a320_0:REAL) : [0,0]
RESULT: (v0x379a4c0_0:REAL) : [0,0]
RESULT: (v0x379b120_0:REAL) : [0,0]
RESULT: (v0x379b420_0:REAL) : [0,0]
RESULT: (v0x379aac0_0:REAL) : [0,0]
RESULT: (v0x36e50c0_0:REAL) : [0,6]
RESULT: (v0x36e4d00_0:REAL) : [0,1]
RESULT: (v0x36e4dc0_0:REAL) : [0,2]
RESULT: (v0x36e36a0_0:REAL) : [0,1]
RESULT: (v0x36e35c0_0:REAL) : [0,1/0]
RESULT: (v0x36e3380_0:REAL) : [0,1/0]
RESULT: (v0x36e32a0_0:REAL) : [0,1/0]
RESULT: (v0x36e07b0_0:REAL) : [0,1]
RESULT: (v0x36abc80_0:REAL) : [0,1]
RESULT: (v0x36a89f0_0:REAL) : [0,1/0]
RESULT: (v0x36a8c80_0:REAL) : [0,0]
RESULT: (v0x36a8de0_0:REAL) : [1,1]
RESULT: (v0x36a9090_0:REAL) : [0,0]
RESULT: (v0x36a8c40_0:REAL) : [-1/0,1/0]
RESULT: (v0x36a0030_0:REAL) : [-1/0,1/0]
RESULT: (v0x37a3a70_0:REAL) : [0,6]
RESULT: (v0x37a3b70_0:REAL) : [0,1]
RESULT: (v0x37a3c70_0:REAL) : [0,2]
RESULT: (v0x37a3d70_0:REAL) : [0,1]
RESULT: (v0x37a3e70_0:REAL) : [0,1/0]
RESULT: (v0x37a3f70_0:REAL) : [0,1/0]
RESULT: (v0x37a4070_0:REAL) : [0,1/0]
RESULT: (v0x37a4170_0:REAL) : [0,0]
RESULT: (v0x37a4270_0:REAL) : [0,1]
RESULT: (v0x37a4370_0:REAL) : [0,3]
RESULT: (v0x37a4470_0:REAL) : [-1/0,1/0]
RESULT: (v0x37a4570_0:REAL) : [0,0]
RESULT: (v0x37a4670_0:REAL) : [1,1]
RESULT: (v0x37a4770_0:REAL) : [0,0]
RESULT: (v0x37a4870_0:REAL) : [-1/0,1/0]
RESULT: (v0x37a4a70_0:REAL) : [-1/0,1/0]
RESULT: (v0x396bce0_0:REAL) : [-1/0,1/0]
RESULT: (v0x39e9620_0:REAL) : [-1/0,1/0]
RESULT: (v0x3d13e10_0:REAL) : [-1/0,1/0]
RESULT: (v0x3dcc400_0:REAL) : [-1/0,1/0]
RESULT: (v0x3b7e5e0_0:REAL) : [-1/0,1/0]
RESULT: (v0x3b031c0_0:REAL) : [0,2]
RESULT: (v0x3bab2a0_0:REAL) : [1,1]
RESULT: (v0x3d3a770_0:REAL) : [1,1]
RESULT: (v0x36f6520_0:REAL) : [0,0]
RESULT: (v0x37a4970_0:REAL) : [-1/0,1/0]
