RESULT: (v0x5057fb0_1:REAL) : [2,2]
RESULT: (v0x50581b0_1:REAL) : [-80,340]
RESULT: (v0x50583b0_1:REAL) : [0,1]
RESULT: (v0x50585b0_1:REAL) : [0,1]
RESULT: (v0x50587b0_1:REAL) : [0,1]
RESULT: (v0x50589b0_1:REAL) : [0,1]
RESULT: (v0x5058bb0_1:REAL) : [0,1]
RESULT: (v0x5058db0_1:REAL) : [0,1]
RESULT: (v0x5058fb0_1:REAL) : [0,1]
RESULT: (v0x50591b0_1:REAL) : [0,1]
RESULT: (v0x50593b0_1:REAL) : [0,3]
RESULT: (v0x50595b0_1:REAL) : [0,1]
RESULT: (v0x50597b0_1:REAL) : [0,1]
RESULT: (v0x50599b0_1:REAL) : [0,1]
RESULT: (v0x5059bb0_1:REAL) : [0,1]
RESULT: (v0x5059db0_1:REAL) : [0,1]
