RESULT: (v0x4055830_0:REAL) : [1,1/0]
RESULT: (v0x4055a30_0:REAL) : [0,1]
RESULT: (v0x4055c30_0:REAL) : [0,1]
RESULT: (v0x4055e30_0:REAL) : [0,1]
RESULT: (v0x4056030_0:REAL) : [0,1]
RESULT: (v0x4056230_0:REAL) : [0,1]
RESULT: (v0x4056430_0:REAL) : [0,1]
RESULT: (v0x4056630_0:REAL) : [0,1]
RESULT: (v0x4056830_0:REAL) : [0,1]
RESULT: (v0x4056a30_0:REAL) : [0,1]
RESULT: (v0x4056c30_0:REAL) : [0,1]
RESULT: (v0x4056e30_0:REAL) : [123,777]
RESULT: (v0x4057030_0:REAL) : [0,666]
RESULT: (v0x4057230_0:REAL) : [0,2]
RESULT: (v0x4057430_0:REAL) : [0,1]
RESULT: (v0x4057630_0:REAL) : [0,2]
RESULT: (v0x4057830_0:REAL) : [0,456]
RESULT: (v0x4057a30_0:REAL) : [0,123]
RESULT: (v0x4057c30_0:REAL) : [0,456]
RESULT: (v0x4057e30_0:REAL) : [1,3]
RESULT: (v0x4058030_0:REAL) : [0,1]
RESULT: (v0x4045c60_0:REAL) : [0,1]
RESULT: (v0x402fa20_0:REAL) : [-1/0,1/0]
RESULT: (v0x402f720_0:REAL) : [0,456]
RESULT: (v0x4030820_0:REAL) : [-1/0,1/0]
RESULT: (v0x4030920_0:REAL) : [0,456]
RESULT: (v0x4030a20_0:REAL) : [0,1]
RESULT: (v0x4030e20_0:REAL) : [1,2]
RESULT: (v0x4030f20_0:REAL) : [0,2]
RESULT: (v0x4031020_0:REAL) : [0,1]
RESULT: (v0x4031120_0:REAL) : [0,1]
RESULT: (v0x402f920_0:REAL) : [0,1]
