RESULT: (v0x3558520_0:REAL) : [0,1/0]
RESULT: (v0x3558720_0:REAL) : [0,1]
RESULT: (v0x3558920_0:REAL) : [0,1]
RESULT: (v0x3558b20_0:REAL) : [0,1]
RESULT: (v0x3558d20_0:REAL) : [0,1]
RESULT: (v0x3558f20_0:REAL) : [0,1]
RESULT: (v0x3559120_0:REAL) : [0,1]
RESULT: (v0x3559320_0:REAL) : [0,1]
RESULT: (v0x3559520_0:REAL) : [0,1]
RESULT: (v0x3559720_0:REAL) : [0,1]
RESULT: (v0x3559920_0:REAL) : [0,1]
RESULT: (v0x3559b20_0:REAL) : [0,1]
RESULT: (v0x3559d20_0:REAL) : [0,1]
RESULT: (v0x3559f20_0:REAL) : [0,2]
RESULT: (v0x355a120_0:REAL) : [0,3]
RESULT: (v0x355a320_0:REAL) : [0,1]
RESULT: (v0x3550b60_0:REAL) : [123,777]
RESULT: (v0x3550d60_0:REAL) : [0,666]
RESULT: (v0x3550f60_0:REAL) : [0,2]
RESULT: (v0x3551160_0:REAL) : [0,1]
RESULT: (v0x3551340_0:REAL) : [0,2]
RESULT: (v0x355b320_0:REAL) : [0,456]
RESULT: (v0x355b520_0:REAL) : [0,123]
RESULT: (v0x355b720_0:REAL) : [0,456]
RESULT: (v0x3544b00_0:REAL) : [0,3]
