RESULT: (v0x35ef070_0:REAL) : [1,1/0]
RESULT: (v0x35ef270_0:REAL) : [0,1]
RESULT: (v0x35ef470_0:REAL) : [0,1]
RESULT: (v0x35ef670_0:REAL) : [0,1]
RESULT: (v0x35ef870_0:REAL) : [0,1]
RESULT: (v0x35efa70_0:REAL) : [0,1]
RESULT: (v0x35efc70_0:REAL) : [0,1]
RESULT: (v0x35efe70_0:REAL) : [0,1]
RESULT: (v0x35f0070_0:REAL) : [0,1]
RESULT: (v0x35f0270_0:REAL) : [0,1]
RESULT: (v0x35f0470_0:REAL) : [0,1]
RESULT: (v0x35f0670_0:REAL) : [0,2]
RESULT: (v0x35f0870_0:REAL) : [0,3]
RESULT: (v0x35f0a70_0:REAL) : [123,777]
RESULT: (v0x35f0c70_0:REAL) : [0,0]
RESULT: (v0x35f0e70_0:REAL) : [0,2]
RESULT: (v0x35f1030_0:REAL) : [0,1]
RESULT: (v0x35f1230_0:REAL) : [0,2]
RESULT: (v0x35f1430_0:REAL) : [0,456]
RESULT: (v0x35f1630_0:REAL) : [0,123]
RESULT: (v0x35f1830_0:REAL) : [0,456]
RESULT: (v0x35f1a30_0:REAL) : [1,3]
RESULT: (v0x35f1c30_0:REAL) : [0,1]
RESULT: (v0x346d300_0:REAL) : [0,1]
RESULT: (v0x35adc20_0:REAL) : [2,2]
RESULT: (v0x35add20_0:REAL) : [0,1]
RESULT: (v0x35ade20_0:REAL) : [0,456]
RESULT: (v0x35adf20_0:REAL) : [-1/0,1/0]
RESULT: (v0x35ae020_0:REAL) : [0,3]
RESULT: (v0x35ae120_0:REAL) : [2,2]
RESULT: (v0x35ae220_0:REAL) : [1,1]
RESULT: (v0x35ae720_0:REAL) : [0,0]
RESULT: (v0x35ae820_0:REAL) : [123,777]
RESULT: (v0x35ae920_0:REAL) : [0,0]
