RESULT: (v0x3c088e0_1:REAL) : [3,11]
RESULT: (v0x3c08ae0_1:REAL) : [0,1]
RESULT: (v0x3c08ce0_1:REAL) : [0,1]
RESULT: (v0x3c08ee0_1:REAL) : [-1/0,1/0]
RESULT: (v0x3c090e0_1:REAL) : [0,1]
RESULT: (v0x3c092e0_1:REAL) : [0,1]
RESULT: (v0x3c094e0_1:REAL) : [0,1]
RESULT: (v0x3c096e0_1:REAL) : [-1/0,1/0]
RESULT: (v0x3c098e0_1:REAL) : [0,1]
RESULT: (v0x3c09ae0_1:REAL) : [0,1]
RESULT: (v0x3c09ce0_1:REAL) : [0,1]
