RESULT: (v0x3691600_0:REAL) : [1,1/0]
RESULT: (v0x3691800_0:REAL) : [0,1]
RESULT: (v0x3691a00_0:REAL) : [0,1]
RESULT: (v0x3691c00_0:REAL) : [0,1]
RESULT: (v0x3691e00_0:REAL) : [0,1]
RESULT: (v0x3692000_0:REAL) : [0,1]
RESULT: (v0x3692200_0:REAL) : [0,1]
RESULT: (v0x3692400_0:REAL) : [0,1]
RESULT: (v0x3692600_0:REAL) : [0,1]
RESULT: (v0x3692800_0:REAL) : [0,1]
RESULT: (v0x3692a00_0:REAL) : [0,1]
RESULT: (v0x3692c00_0:REAL) : [0,1]
RESULT: (v0x3692e00_0:REAL) : [0,1]
RESULT: (v0x3693000_0:REAL) : [0,2]
RESULT: (v0x3693200_0:REAL) : [0,3]
RESULT: (v0x36899c0_0:REAL) : [0,1]
RESULT: (v0x3689bc0_0:REAL) : [123,777]
RESULT: (v0x3689dc0_0:REAL) : [0,666]
RESULT: (v0x3689fc0_0:REAL) : [0,2]
RESULT: (v0x368a1a0_0:REAL) : [0,1]
RESULT: (v0x36941e0_0:REAL) : [0,2]
RESULT: (v0x36943e0_0:REAL) : [1,456]
RESULT: (v0x36945e0_0:REAL) : [0,123]
RESULT: (v0x367c560_0:REAL) : [0,456]
