RESULT: (v0x4bdb940_0:REAL) : [8512,8656]
RESULT: (v0x4bdc940_0:REAL) : [3,8656]
RESULT: (v0x4bdb380_0:REAL) : [3,8640]
RESULT: (v0x4ab1230_0:REAL) : [21,21]
RESULT: (v0x4ae9df0_0:REAL) : [8640,8641]
RESULT: (v0x4ae9a50_0:REAL) : [-1/0,1/0]
RESULT: (v0x4bdd510_0:REAL) : [0,1]
