RESULT: (v0x37ac230_0:REAL) : [1,1/0]
RESULT: (v0x37ac430_0:REAL) : [0,1]
RESULT: (v0x37ac630_0:REAL) : [0,1]
RESULT: (v0x37ac830_0:REAL) : [0,1]
RESULT: (v0x37aca30_0:REAL) : [0,1]
RESULT: (v0x37acc30_0:REAL) : [0,1]
RESULT: (v0x37ace30_0:REAL) : [0,1]
RESULT: (v0x37ad030_0:REAL) : [0,1]
RESULT: (v0x37ad230_0:REAL) : [0,1]
RESULT: (v0x37ad430_0:REAL) : [0,1]
RESULT: (v0x37a3970_0:REAL) : [0,1]
RESULT: (v0x37a3b70_0:REAL) : [0,1]
RESULT: (v0x37a3d70_0:REAL) : [0,1]
RESULT: (v0x37a3f70_0:REAL) : [0,2]
RESULT: (v0x37a4150_0:REAL) : [0,3]
RESULT: (v0x37ae430_0:REAL) : [123,777]
RESULT: (v0x37ae630_0:REAL) : [0,666]
RESULT: (v0x37ae830_0:REAL) : [0,2]
RESULT: (v0x37aea30_0:REAL) : [0,1]
RESULT: (v0x37aec30_0:REAL) : [0,2]
RESULT: (v0x37aee30_0:REAL) : [0,456]
RESULT: (v0x37af030_0:REAL) : [0,123]
RESULT: (v0x37af230_0:REAL) : [0,456]
RESULT: (v0x3797680_0:REAL) : [0,3]
