RESULT: (v0x4fbf8b0_0:REAL) : [1,1/0]
RESULT: (v0x4fbfab0_0:REAL) : [0,1]
RESULT: (v0x4fbfcb0_0:REAL) : [0,1]
RESULT: (v0x4fbfeb0_0:REAL) : [0,1]
RESULT: (v0x4fc00b0_0:REAL) : [0,1]
RESULT: (v0x4fc02b0_0:REAL) : [0,1]
RESULT: (v0x4fc04b0_0:REAL) : [0,1]
RESULT: (v0x4fc06b0_0:REAL) : [0,1]
RESULT: (v0x4fc08b0_0:REAL) : [0,1]
RESULT: (v0x4fc0ab0_0:REAL) : [0,1]
RESULT: (v0x4fc0cb0_0:REAL) : [0,1]
RESULT: (v0x4fc0eb0_0:REAL) : [0,1]
RESULT: (v0x4fc10b0_0:REAL) : [0,1]
RESULT: (v0x4fc12b0_0:REAL) : [0,2]
RESULT: (v0x4fc14b0_0:REAL) : [0,3]
RESULT: (v0x4fc16b0_0:REAL) : [0,1]
RESULT: (v0x4fc18b0_0:REAL) : [123,777]
RESULT: (v0x4fb8170_0:REAL) : [0,666]
RESULT: (v0x4fb8370_0:REAL) : [0,2]
RESULT: (v0x4fb8570_0:REAL) : [0,1]
RESULT: (v0x4fb8770_0:REAL) : [0,2]
RESULT: (v0x4fb8950_0:REAL) : [0,456]
RESULT: (v0x4fc2890_0:REAL) : [0,123]
RESULT: (v0x4fab020_0:REAL) : [0,456]
