RESULT: (v0x36c1eb0_0:REAL) : [1,1/0]
RESULT: (v0x36c20b0_0:REAL) : [0,1]
RESULT: (v0x36c22b0_0:REAL) : [0,1]
RESULT: (v0x36c24b0_0:REAL) : [0,1]
RESULT: (v0x36b86f0_0:REAL) : [0,1]
RESULT: (v0x36b88f0_0:REAL) : [0,1]
RESULT: (v0x36b8af0_0:REAL) : [0,1]
RESULT: (v0x36b8cf0_0:REAL) : [0,1]
RESULT: (v0x36b8ed0_0:REAL) : [0,1]
RESULT: (v0x36c34b0_0:REAL) : [0,1]
RESULT: (v0x36c36b0_0:REAL) : [0,1]
RESULT: (v0x36c38b0_0:REAL) : [0,1]
RESULT: (v0x36c3ab0_0:REAL) : [0,1]
RESULT: (v0x36c3cb0_0:REAL) : [0,2]
RESULT: (v0x36c3eb0_0:REAL) : [0,3]
RESULT: (v0x36c40b0_0:REAL) : [0,1]
RESULT: (v0x36c42b0_0:REAL) : [123,777]
RESULT: (v0x36c44b0_0:REAL) : [0,666]
RESULT: (v0x36c46b0_0:REAL) : [0,2]
RESULT: (v0x36c48b0_0:REAL) : [0,1]
RESULT: (v0x36c4ab0_0:REAL) : [0,2]
RESULT: (v0x36c4cb0_0:REAL) : [1,456]
RESULT: (v0x36c4eb0_0:REAL) : [0,123]
RESULT: (v0x36c50b0_0:REAL) : [0,456]
RESULT: (v0x36aced0_0:REAL) : [0,3]
