RESULT: (v0x49efeb0_0:REAL) : [1,1/0]
RESULT: (v0x49f00b0_0:REAL) : [0,1]
RESULT: (v0x49f02b0_0:REAL) : [0,1]
RESULT: (v0x49f04b0_0:REAL) : [0,1]
RESULT: (v0x49f06b0_0:REAL) : [0,1]
RESULT: (v0x49f08b0_0:REAL) : [0,1]
RESULT: (v0x49f0ab0_0:REAL) : [0,1]
RESULT: (v0x49f0cb0_0:REAL) : [0,1]
RESULT: (v0x49f0eb0_0:REAL) : [0,1]
RESULT: (v0x49f10b0_0:REAL) : [0,1]
RESULT: (v0x49f12b0_0:REAL) : [0,1]
RESULT: (v0x49f14b0_0:REAL) : [0,2]
RESULT: (v0x49f16b0_0:REAL) : [0,3]
RESULT: (v0x49f18b0_0:REAL) : [0,1]
RESULT: (v0x49f1ab0_0:REAL) : [123,777]
RESULT: (v0x49f1cb0_0:REAL) : [0,666]
RESULT: (v0x49f1eb0_0:REAL) : [0,2]
RESULT: (v0x49f20b0_0:REAL) : [0,1]
RESULT: (v0x49f22b0_0:REAL) : [0,2]
RESULT: (v0x49f24b0_0:REAL) : [0,456]
RESULT: (v0x49f26b0_0:REAL) : [0,123]
RESULT: (v0x49f28b0_0:REAL) : [0,456]
RESULT: (v0x49f2ab0_0:REAL) : [0,3]
RESULT: (v0x49f2cb0_0:REAL) : [0,1]
RESULT: (v0x49da250_0:REAL) : [0,1]
