RESULT: (v0x3cdb850_0:REAL) : [1,1/0]
RESULT: (v0x3cdba50_0:REAL) : [0,1]
RESULT: (v0x3cdbc50_0:REAL) : [0,1]
RESULT: (v0x3cdbe50_0:REAL) : [0,1]
RESULT: (v0x3cdc050_0:REAL) : [0,1]
RESULT: (v0x3cdc250_0:REAL) : [0,1]
RESULT: (v0x3cdc450_0:REAL) : [0,1]
RESULT: (v0x3cdc650_0:REAL) : [0,1]
RESULT: (v0x3cdc850_0:REAL) : [0,1]
RESULT: (v0x3cdca50_0:REAL) : [0,1]
RESULT: (v0x3cdcc50_0:REAL) : [0,1]
RESULT: (v0x3cdce50_0:REAL) : [0,1]
RESULT: (v0x3cdd050_0:REAL) : [0,1]
RESULT: (v0x3cdd250_0:REAL) : [0,2]
RESULT: (v0x3cdd450_0:REAL) : [0,3]
RESULT: (v0x3cdd650_0:REAL) : [0,1]
RESULT: (v0x3cdd850_0:REAL) : [123,777]
RESULT: (v0x3cdda50_0:REAL) : [0,666]
RESULT: (v0x3cd4390_0:REAL) : [0,2]
RESULT: (v0x3cd4590_0:REAL) : [0,1]
RESULT: (v0x3cd4790_0:REAL) : [0,2]
RESULT: (v0x3cd4990_0:REAL) : [0,456]
RESULT: (v0x3cde850_0:REAL) : [0,123]
RESULT: (v0x3cc6ae0_0:REAL) : [0,456]
