RESULT: (v0x4fb3da0_0:REAL) : [0,1]
RESULT: (v0x4ed61e0_0:REAL) : [0,1]
RESULT: (v0x4ed5fa0_0:REAL) : [0,1]
RESULT: (v0x4ed5ee0_0:REAL) : [0,1]
RESULT: (v0x4ecef50_0:REAL) : [0,1]
RESULT: (v0x4ecee90_0:REAL) : [0,1]
RESULT: (v0x4ed5600_0:REAL) : [0,1]
RESULT: (v0x4ed5540_0:REAL) : [0,1]
RESULT: (v0x4ed5300_0:REAL) : [0,1]
RESULT: (v0x4ed5240_0:REAL) : [0,1]
RESULT: (v0x4ed5000_0:REAL) : [0,1]
RESULT: (v0x4ed4f40_0:REAL) : [0,1]
RESULT: (v0x4ed4d00_0:REAL) : [0,1]
RESULT: (v0x4ed4c40_0:REAL) : [0,1]
RESULT: (v0x4ed4a00_0:REAL) : [0,2]
RESULT: (v0x4ed4940_0:REAL) : [0,2]
RESULT: (v0x4ed4700_0:REAL) : [0,2]
RESULT: (v0x4ed4640_0:REAL) : [0,2]
RESULT: (v0x4ed4400_0:REAL) : [0,2]
RESULT: (v0x4ed4340_0:REAL) : [0,2]
RESULT: (v0x4ed4100_0:REAL) : [0,2]
RESULT: (v0x4ed4040_0:REAL) : [0,2]
RESULT: (v0x4ed3e00_0:REAL) : [0,2]
RESULT: (v0x4ed3d40_0:REAL) : [0,2]
RESULT: (v0x4ed3b00_0:REAL) : [0,2]
RESULT: (v0x4ed3a40_0:REAL) : [0,2]
RESULT: (v0x4ed3800_0:REAL) : [0,2]
RESULT: (v0x4ed3740_0:REAL) : [0,2]
RESULT: (v0x4fb8900_0:REAL) : [0,1]
RESULT: (v0x4fb8a00_0:REAL) : [0,2]
RESULT: (v0x4fb8b00_0:REAL) : [0,2]
RESULT: (v0x4fb8f00_0:REAL) : [0,1]
RESULT: (v0x4fb9000_0:REAL) : [0,2]
RESULT: (v0x4fb9100_0:REAL) : [0,2]
RESULT: (v0x4fb9500_0:REAL) : [0,1]
RESULT: (v0x4fb9600_0:REAL) : [0,2]
RESULT: (v0x4fb9700_0:REAL) : [0,2]
RESULT: (v0x4fb9b00_0:REAL) : [0,1]
RESULT: (v0x4fb9c00_0:REAL) : [0,2]
RESULT: (v0x4fb9d00_0:REAL) : [0,2]
RESULT: (v0x4fba100_0:REAL) : [0,1]
RESULT: (v0x4fba200_0:REAL) : [0,2]
RESULT: (v0x4fba300_0:REAL) : [0,2]
RESULT: (v0x4fba700_0:REAL) : [0,1]
RESULT: (v0x4fb7330_0:REAL) : [0,2]
RESULT: (v0x4fb7430_0:REAL) : [0,2]
RESULT: (v0x4fbb0f0_0:REAL) : [0,1]
RESULT: (v0x4fbb1f0_0:REAL) : [0,2]
RESULT: (v0x4fbb2f0_0:REAL) : [0,2]
RESULT: (v0x4fbb6f0_0:REAL) : [0,1]
RESULT: (v0x4fbb7f0_0:REAL) : [0,2]
RESULT: (v0x4fbb8f0_0:REAL) : [0,2]
RESULT: (v0x4fbbcf0_0:REAL) : [0,1]
RESULT: (v0x4fbbdf0_0:REAL) : [0,2]
RESULT: (v0x4fbbef0_0:REAL) : [0,2]
RESULT: (v0x4fbc2f0_0:REAL) : [0,1]
RESULT: (v0x4fbc3f0_0:REAL) : [0,2]
RESULT: (v0x4fbc4f0_0:REAL) : [0,2]
RESULT: (v0x4fbc8f0_0:REAL) : [0,1]
RESULT: (v0x4fbc9f0_0:REAL) : [0,2]
RESULT: (v0x4fbcaf0_0:REAL) : [0,2]
RESULT: (v0x4fbcef0_0:REAL) : [0,1]
RESULT: (v0x4fbcff0_0:REAL) : [0,2]
RESULT: (v0x4fbd0f0_0:REAL) : [0,2]
RESULT: (v0x4fbd3f0_0:REAL) : [0,1]
RESULT: (v0x4fbd4f0_0:REAL) : [0,2]
RESULT: (v0x4fbd5f0_0:REAL) : [0,0]
RESULT: (v0x4fbd6f0_0:REAL) : [-1/0,1/0]
