RESULT: (v0x463d220_0:REAL) : [1/0,-1/0]
RESULT: (v0x463d620_0:REAL) : [1/0,-1/0]
RESULT: (v0x463d820_0:REAL) : [1/0,-1/0]
RESULT: (v0x463dc20_0:REAL) : [1/0,-1/0]
RESULT: (v0x463de20_0:REAL) : [1/0,-1/0]
RESULT: (v0x463e020_0:REAL) : [1/0,-1/0]
RESULT: (v0x463e220_0:REAL) : [1/0,-1/0]
RESULT: (v0x463e420_0:REAL) : [1/0,-1/0]
RESULT: (v0x463d420_0:REAL) : [1/0,-1/0]
RESULT: (v0x463da20_0:REAL) : [1/0,-1/0]
RESULT: (v0x456f0f0_0:REAL) : [1/0,-1/0]
RESULT: (v0x4576bf0_0:REAL) : [1/0,-1/0]
RESULT: (v0x4576cf0_0:REAL) : [1/0,-1/0]
RESULT: (v0x4576df0_0:REAL) : [1/0,-1/0]
RESULT: (v0x4576ef0_0:REAL) : [1/0,-1/0]
RESULT: (v0x4576ff0_0:REAL) : [1/0,-1/0]
RESULT: (v0x45770f0_0:REAL) : [1/0,-1/0]
RESULT: (v0x45771f0_0:REAL) : [1/0,-1/0]
RESULT: (v0x45772f0_0:REAL) : [1/0,-1/0]
RESULT: (v0x45773f0_0:REAL) : [1/0,-1/0]
