RESULT: (v0x3433040_0:REAL) : [0,1/0]
RESULT: (v0x3434a10_0:REAL) : [0,1/0]
RESULT: (v0x35772f0_0:REAL) : [0,0]
RESULT: (v0x3576d30_0:REAL) : [1,1]
RESULT: (v0x34488f0_0:REAL) : [-1/0,1/0]
RESULT: (v0x3455ee0_0:REAL) : [-1/0,1/0]
RESULT: (v0x3455be0_0:REAL) : [-1/0,1/0]
RESULT: (v0x36e9550_0:REAL) : [0,0]
RESULT: (v0x34ad010_0:REAL) : [-1/0,1/0]
RESULT: (v0x3435ee0_0:REAL) : [6,6]
RESULT: (v0x343b1d0_0:REAL) : [-1/0,7]
RESULT: (v0x343b3d0_0:REAL) : [1,1/0]
RESULT: (v0x343b4d0_0:REAL) : [2,1/0]
RESULT: (v0x343bfd0_0:REAL) : [0,0]
RESULT: (v0x343c3d0_0:REAL) : [-1/0,1/0]
RESULT: (v0x343c5d0_0:REAL) : [0,1]
RESULT: (v0x343c7d0_0:REAL) : [-1/0,1/0]
RESULT: (v0x343d9d0_0:REAL) : [-1/0,1/0]
RESULT: (v0x343d8d0_0:REAL) : [-1/0,1/0]
RESULT: (v0x343ded0_0:REAL) : [-1/0,1/0]
RESULT: (v0x343ddd0_0:REAL) : [-1/0,1/0]
RESULT: (v0x343e0d0_0:REAL) : [-1/0,36]
RESULT: (v0x343e1d0_0:REAL) : [-1/0,1/0]
RESULT: (v0x343e2d0_0:REAL) : [-1/0,36]
RESULT: (v0x343e6d0_0:REAL) : [-1/0,1/0]
RESULT: (v0x343e8d0_0:REAL) : [0,1]
RESULT: (v0x343ead0_0:REAL) : [-1/0,1/0]
RESULT: (v0x343fcd0_0:REAL) : [-1/0,1/0]
RESULT: (v0x343fbd0_0:REAL) : [-1/0,1/0]
RESULT: (v0x343fed0_0:REAL) : [-1/0,1/0]
RESULT: (v0x343fdd0_0:REAL) : [-1/0,1/0]
RESULT: (v0x34404d0_0:REAL) : [-1/0,1/0]
RESULT: (v0x34406d0_0:REAL) : [0,1]
RESULT: (v0x34408d0_0:REAL) : [-1/0,1/0]
RESULT: (v0x3441ef0_0:REAL) : [-1/0,1/0]
RESULT: (v0x3441df0_0:REAL) : [-1/0,1/0]
RESULT: (v0x34423f0_0:REAL) : [-1/0,1/0]
RESULT: (v0x34422f0_0:REAL) : [-1/0,1/0]
RESULT: (v0x34425f0_0:REAL) : [-1/0,32]
RESULT: (v0x34426f0_0:REAL) : [-1/0,1/0]
RESULT: (v0x34427f0_0:REAL) : [-1/0,32]
RESULT: (v0x3442bf0_0:REAL) : [-1/0,1/0]
RESULT: (v0x3442df0_0:REAL) : [0,1]
RESULT: (v0x3442ff0_0:REAL) : [-1/0,1/0]
RESULT: (v0x34440f0_0:REAL) : [-1/0,1/0]
RESULT: (v0x34400d0_0:REAL) : [-1/0,1/0]
RESULT: (v0x34480f0_0:REAL) : [-1/0,1/0]
RESULT: (v0x3448ef0_0:REAL) : [-1/0,1/0]
RESULT: (v0x34411d0_0:REAL) : [-1/0,1/0]
RESULT: (v0x34413d0_0:REAL) : [0,1]
RESULT: (v0x34415d0_0:REAL) : [-1/0,1/0]
RESULT: (v0x344c3e0_0:REAL) : [-1/0,1/0]
RESULT: (v0x344c5e0_0:REAL) : [0,1]
RESULT: (v0x344c7e0_0:REAL) : [-1/0,1/0]
RESULT: (v0x344d9e0_0:REAL) : [-1/0,1/0]
RESULT: (v0x344d8e0_0:REAL) : [-1/0,1/0]
RESULT: (v0x344dee0_0:REAL) : [-1/0,1/0]
RESULT: (v0x344dde0_0:REAL) : [-1/0,1/0]
RESULT: (v0x344e0e0_0:REAL) : [-1/0,36]
RESULT: (v0x344e1e0_0:REAL) : [-1/0,1/0]
RESULT: (v0x344e2e0_0:REAL) : [-1/0,36]
RESULT: (v0x344e6e0_0:REAL) : [-1/0,1/0]
RESULT: (v0x344e8e0_0:REAL) : [0,1]
RESULT: (v0x344eae0_0:REAL) : [-1/0,1/0]
RESULT: (v0x344fbe0_0:REAL) : [-1,26]
RESULT: (v0x34505e0_0:REAL) : [-1/0,1/0]
RESULT: (v0x34507e0_0:REAL) : [1,2]
RESULT: (v0x3450be0_0:REAL) : [-1/0,1/0]
RESULT: (v0x3450de0_0:REAL) : [0,1]
RESULT: (v0x3450fe0_0:REAL) : [-1/0,1/0]
RESULT: (v0x34521e0_0:REAL) : [-1/0,1/0]
RESULT: (v0x34520e0_0:REAL) : [-1/0,1/0]
RESULT: (v0x34526e0_0:REAL) : [-1/0,1/0]
RESULT: (v0x34525e0_0:REAL) : [-1/0,1/0]
RESULT: (v0x34528e0_0:REAL) : [-1/0,32]
RESULT: (v0x34529e0_0:REAL) : [-1/0,1/0]
RESULT: (v0x3452ae0_0:REAL) : [-1/0,32]
RESULT: (v0x3452ee0_0:REAL) : [-1/0,1/0]
RESULT: (v0x34530e0_0:REAL) : [0,1]
RESULT: (v0x34532e0_0:REAL) : [-1/0,1/0]
RESULT: (v0x34543e0_0:REAL) : [18,26]
RESULT: (v0x34551e0_0:REAL) : [-1/0,512]
RESULT: (v0x34558e0_0:REAL) : [-1/0,511]
RESULT: (v0x34563e0_0:REAL) : [1,2]
RESULT: (v0x34562e0_0:REAL) : [1,2]
RESULT: (v0x344a8f0_0:REAL) : [-1/0,1/0]
RESULT: (v0x344a7f0_0:REAL) : [-1/0,1/0]
RESULT: (v0x344a9f0_0:REAL) : [-1/0,1/0]
RESULT: (v0x344acf0_0:REAL) : [-1/0,1/0]
RESULT: (v0x344abf0_0:REAL) : [-1/0,1/0]
RESULT: (v0x344adf0_0:REAL) : [-1/0,1/0]
RESULT: (v0x344aaf0_0:REAL) : [-1/0,1/0]
RESULT: (v0x3465310_0:REAL) : [-1/0,1/0]
RESULT: (v0x3466510_0:REAL) : [-1/0,1/0]
RESULT: (v0x3466410_0:REAL) : [-1/0,1/0]
RESULT: (v0x3466610_0:REAL) : [-1/0,1/0]
RESULT: (v0x3466a10_0:REAL) : [-1/0,1/0]
RESULT: (v0x3466910_0:REAL) : [-1/0,1/0]
RESULT: (v0x3466b10_0:REAL) : [-1/0,1/0]
RESULT: (v0x3467010_0:REAL) : [-1/0,1/0]
RESULT: (v0x3466f10_0:REAL) : [-1/0,1/0]
RESULT: (v0x3467110_0:REAL) : [-1/0,1/0]
RESULT: (v0x3466e10_0:REAL) : [-1/0,1/0]
RESULT: (v0x3467610_0:REAL) : [-1/0,1/0]
RESULT: (v0x3467b10_0:REAL) : [-1/0,1/0]
RESULT: (v0x3467a10_0:REAL) : [-1/0,1/0]
RESULT: (v0x3467d10_0:REAL) : [-1/0,1/0]
RESULT: (v0x3467c10_0:REAL) : [-1/0,1/0]
RESULT: (v0x3467f10_0:REAL) : [-1/0,1/0]
RESULT: (v0x3468610_0:REAL) : [-1/0,1/0]
