RESULT: (v0x46e4c60_0:REAL) : [1,1/0]
RESULT: (v0x46e4e60_0:REAL) : [0,1]
RESULT: (v0x46e5060_0:REAL) : [0,1]
RESULT: (v0x46e5260_0:REAL) : [0,1]
RESULT: (v0x46e5460_0:REAL) : [0,1]
RESULT: (v0x46e5660_0:REAL) : [0,1]
RESULT: (v0x46db9a0_0:REAL) : [0,1]
RESULT: (v0x46dbba0_0:REAL) : [0,1]
RESULT: (v0x46dbda0_0:REAL) : [0,1]
RESULT: (v0x46dbfa0_0:REAL) : [0,1]
RESULT: (v0x46e6460_0:REAL) : [0,1]
RESULT: (v0x46e6660_0:REAL) : [0,1]
RESULT: (v0x46e6860_0:REAL) : [0,1]
RESULT: (v0x46e6a60_0:REAL) : [0,2]
RESULT: (v0x46e6c60_0:REAL) : [0,3]
RESULT: (v0x46e6e60_0:REAL) : [0,1]
RESULT: (v0x46e7060_0:REAL) : [123,777]
RESULT: (v0x46e7260_0:REAL) : [0,666]
RESULT: (v0x46e7460_0:REAL) : [0,2]
RESULT: (v0x46e7660_0:REAL) : [0,1]
RESULT: (v0x46e7860_0:REAL) : [0,2]
RESULT: (v0x46e7a60_0:REAL) : [1,456]
RESULT: (v0x46e7c60_0:REAL) : [0,123]
RESULT: (v0x46cf790_0:REAL) : [0,456]
