RESULT: (v0x3f3f620_0:REAL) : [1,1/0]
RESULT: (v0x3f3f820_0:REAL) : [0,1]
RESULT: (v0x3f3fa20_0:REAL) : [0,1]
RESULT: (v0x3f3fc20_0:REAL) : [0,1]
RESULT: (v0x3f3fe20_0:REAL) : [0,1]
RESULT: (v0x3f40020_0:REAL) : [0,1]
RESULT: (v0x3f40220_0:REAL) : [0,1]
RESULT: (v0x3f40420_0:REAL) : [0,1]
RESULT: (v0x3f40620_0:REAL) : [0,1]
RESULT: (v0x3f40820_0:REAL) : [0,1]
RESULT: (v0x3f40a20_0:REAL) : [0,1]
RESULT: (v0x3f40c20_0:REAL) : [0,2]
RESULT: (v0x3f40e20_0:REAL) : [0,3]
RESULT: (v0x3f41020_0:REAL) : [0,1]
RESULT: (v0x3f41220_0:REAL) : [123,777]
RESULT: (v0x3f41420_0:REAL) : [0,666]
RESULT: (v0x3f41620_0:REAL) : [0,2]
RESULT: (v0x3f41820_0:REAL) : [0,1]
RESULT: (v0x3f41a20_0:REAL) : [0,2]
RESULT: (v0x3f41c20_0:REAL) : [1,456]
RESULT: (v0x3f41e20_0:REAL) : [0,123]
RESULT: (v0x3f42020_0:REAL) : [0,456]
RESULT: (v0x3f42220_0:REAL) : [0,3]
RESULT: (v0x3f42420_0:REAL) : [0,1]
RESULT: (v0x3f29a60_0:REAL) : [0,1]
