RESULT: (v0x56c9e00_0:REAL) : [789,789]
RESULT: (v0x5c534f0_0:REAL) : [1,1/0]
RESULT: (v0x5c536f0_0:REAL) : [0,1]
RESULT: (v0x5c538f0_0:REAL) : [0,1]
RESULT: (v0x5c53af0_0:REAL) : [0,1]
RESULT: (v0x5c53cf0_0:REAL) : [0,1]
RESULT: (v0x5c53ef0_0:REAL) : [0,1]
RESULT: (v0x5c540f0_0:REAL) : [0,1]
RESULT: (v0x5c542f0_0:REAL) : [0,1]
RESULT: (v0x5c544f0_0:REAL) : [0,1]
RESULT: (v0x5c546f0_0:REAL) : [0,1]
RESULT: (v0x5c548f0_0:REAL) : [0,1]
RESULT: (v0x5c54af0_0:REAL) : [0,2]
RESULT: (v0x5c54cf0_0:REAL) : [0,3]
RESULT: (v0x5c54ef0_0:REAL) : [0,1]
RESULT: (v0x5c550f0_0:REAL) : [123,777]
RESULT: (v0x5c552f0_0:REAL) : [0,666]
RESULT: (v0x5c554f0_0:REAL) : [0,2]
RESULT: (v0x5c556f0_0:REAL) : [0,1]
RESULT: (v0x5c558f0_0:REAL) : [0,2]
RESULT: (v0x5c55af0_0:REAL) : [0,456]
RESULT: (v0x5c55cf0_0:REAL) : [0,123]
RESULT: (v0x5c55ef0_0:REAL) : [0,456]
RESULT: (v0x5c560f0_0:REAL) : [0,3]
RESULT: (v0x5c562f0_0:REAL) : [0,1]
RESULT: (v0x5c564f0_0:REAL) : [0,1]
RESULT: (v0x56fb400_0:REAL) : [0,2]
RESULT: (v0x56fb500_0:REAL) : [1,1]
RESULT: (v0x56fb600_0:REAL) : [0,2]
RESULT: (v0x56fb700_0:REAL) : [0,3]
RESULT: (v0x56fb800_0:REAL) : [0,1]
RESULT: (v0x56fb900_0:REAL) : [0,456]
RESULT: (v0x56fba00_0:REAL) : [0,1]
RESULT: (v0x56cd300_0:REAL) : [-1/0,1/0]
RESULT: (v0x56fbe00_0:REAL) : [-1/0,1/0]
RESULT: (v0x56fbf00_0:REAL) : [0,0]
RESULT: (v0x56fc000_0:REAL) : [123,777]
RESULT: (v0x56fc100_0:REAL) : [0,0]
RESULT: (v0x56cd200_0:REAL) : [0,0]
