RESULT: (v0x41faff0_0:REAL) : [789,789]
RESULT: (v0x47d3ea0_0:REAL) : [0,1/0]
RESULT: (v0x47d40a0_0:REAL) : [0,1]
RESULT: (v0x47d42a0_0:REAL) : [0,1]
RESULT: (v0x47d44a0_0:REAL) : [0,1]
RESULT: (v0x47d46a0_0:REAL) : [0,1]
RESULT: (v0x47d48a0_0:REAL) : [0,1]
RESULT: (v0x47d4aa0_0:REAL) : [0,1]
RESULT: (v0x47d4ca0_0:REAL) : [0,1]
RESULT: (v0x47d4ea0_0:REAL) : [0,1]
RESULT: (v0x47d50a0_0:REAL) : [0,1]
RESULT: (v0x47d52a0_0:REAL) : [0,1]
RESULT: (v0x47d54a0_0:REAL) : [0,1]
RESULT: (v0x47d56a0_0:REAL) : [0,1]
RESULT: (v0x47d58a0_0:REAL) : [0,2]
RESULT: (v0x47d5aa0_0:REAL) : [0,3]
RESULT: (v0x47d5ca0_0:REAL) : [0,1]
RESULT: (v0x47d5ea0_0:REAL) : [123,777]
RESULT: (v0x47d60a0_0:REAL) : [0,666]
RESULT: (v0x47d62a0_0:REAL) : [0,2]
RESULT: (v0x47d64a0_0:REAL) : [0,1]
RESULT: (v0x47d66a0_0:REAL) : [0,2]
RESULT: (v0x47d68a0_0:REAL) : [0,456]
RESULT: (v0x47d6aa0_0:REAL) : [0,123]
RESULT: (v0x47d6ca0_0:REAL) : [0,456]
RESULT: (v0x47d6ea0_0:REAL) : [0,3]
RESULT: (v0x41fe4f0_0:REAL) : [-1/0,1/0]
RESULT: (v0x41fe3f0_0:REAL) : [0,0]
