RESULT: (v0x4ff37b0_0:REAL) : [1,2]
RESULT: (v0x4efbcc0_0:REAL) : [0,6]
RESULT: (v0x4f38ff0_0:REAL) : [0,1]
RESULT: (v0x4f38f10_0:REAL) : [0,2]
RESULT: (v0x4f38cd0_0:REAL) : [0,1]
RESULT: (v0x4f38bf0_0:REAL) : [0,1/0]
RESULT: (v0x4f389b0_0:REAL) : [0,1/0]
RESULT: (v0x4f04880_0:REAL) : [0,1/0]
RESULT: (v0x4f01230_0:REAL) : [0,1]
RESULT: (v0x4f01530_0:REAL) : [0,1]
RESULT: (v0x4f01690_0:REAL) : [0,1/0]
RESULT: (v0x4f01980_0:REAL) : [0,2]
RESULT: (v0x4f01ae0_0:REAL) : [0,1]
RESULT: (v0x4f01360_0:REAL) : [0,4]
RESULT: (v0x4f01910_0:REAL) : [-1/0,1/0]
RESULT: (v0x4f01e90_0:REAL) : [-1/0,1/0]
RESULT: (v0x4ffc100_0:REAL) : [0,6]
RESULT: (v0x4ffc200_0:REAL) : [0,1]
RESULT: (v0x4ffc300_0:REAL) : [0,2]
RESULT: (v0x4ffc400_0:REAL) : [0,1]
RESULT: (v0x4ffc500_0:REAL) : [0,1/0]
RESULT: (v0x4ffc600_0:REAL) : [0,1/0]
RESULT: (v0x4ffc700_0:REAL) : [0,1/0]
RESULT: (v0x4ffc800_0:REAL) : [0,1]
RESULT: (v0x4ffc900_0:REAL) : [0,1]
RESULT: (v0x4ffca00_0:REAL) : [0,1/0]
RESULT: (v0x4ffcb00_0:REAL) : [-1/0,1/0]
RESULT: (v0x4ffcc00_0:REAL) : [0,0]
RESULT: (v0x4ffcd00_0:REAL) : [0,1]
RESULT: (v0x4ffce00_0:REAL) : [0,4]
RESULT: (v0x4ffcf00_0:REAL) : [-1/0,1/0]
RESULT: (v0x4ff3e70_0:REAL) : [-1/0,1/0]
RESULT: (v0x4ff26b0_0:REAL) : [-1/0,1/0]
RESULT: (v0x4ff27b0_0:REAL) : [-1/0,1/0]
RESULT: (v0x4ff28b0_0:REAL) : [-1/0,1/0]
RESULT: (v0x4ff2a50_0:REAL) : [-1/0,1/0]
RESULT: (v0x4ff2b50_0:REAL) : [-1/0,1/0]
RESULT: (v0x4ff3ab0_0:REAL) : [-1/0,1/0]
RESULT: (v0x4ffd100_0:REAL) : [-1/0,1/0]
RESULT: (v0x5122940_0:REAL) : [-1/0,1/0]
RESULT: (v0x4f7bac0_0:REAL) : [-1/0,1/0]
RESULT: (v0x51135d0_0:REAL) : [-1/0,1/0]
RESULT: (v0x4f3b720_0:REAL) : [-1/0,1/0]
RESULT: (v0x527d1d0_0:REAL) : [-1/0,1/0]
RESULT: (v0x4f3c340_0:REAL) : [-1/0,1/0]
RESULT: (v0x52f78b0_0:REAL) : [0,2]
RESULT: (v0x511a110_0:REAL) : [0,1]
RESULT: (v0x5112a10_0:REAL) : [0,1]
RESULT: (v0x510df50_0:REAL) : [-1/0,1/0]
RESULT: (v0x4ffd000_0:REAL) : [-1/0,1/0]
