RESULT: (v0x4a2a380_0:REAL) : [0,1]
RESULT: (v0x4a27b10_0:REAL) : [0,1]
RESULT: (v0x4a2e1d0_0:REAL) : [0,1]
RESULT: (v0x4a2e3d0_0:REAL) : [0,1]
RESULT: (v0x4a2e5d0_0:REAL) : [0,1]
RESULT: (v0x4a2e7d0_0:REAL) : [0,1]
RESULT: (v0x4a2ea90_0:REAL) : [0,1]
RESULT: (v0x4a2ec90_0:REAL) : [0,1]
RESULT: (v0x4a2ee90_0:REAL) : [0,1]
RESULT: (v0x4a2f090_0:REAL) : [0,1]
RESULT: (v0x4a2f290_0:REAL) : [0,1]
RESULT: (v0x4a2f490_0:REAL) : [0,1]
RESULT: (v0x4a2f690_0:REAL) : [0,1]
RESULT: (v0x4a2f890_0:REAL) : [0,1]
RESULT: (v0x4a2fa90_0:REAL) : [0,2]
RESULT: (v0x4a2fc90_0:REAL) : [1,2]
RESULT: (v0x4a2fe90_0:REAL) : [0,2]
RESULT: (v0x4a30090_0:REAL) : [0,2]
RESULT: (v0x4a2e9d0_0:REAL) : [0,2]
RESULT: (v0x4a30560_0:REAL) : [0,2]
RESULT: (v0x4a30760_0:REAL) : [0,2]
RESULT: (v0x4a30960_0:REAL) : [0,2]
RESULT: (v0x4a30b60_0:REAL) : [0,2]
RESULT: (v0x4a30d60_0:REAL) : [0,2]
RESULT: (v0x4a30f60_0:REAL) : [0,2]
RESULT: (v0x4a31160_0:REAL) : [0,2]
RESULT: (v0x4a31360_0:REAL) : [0,2]
RESULT: (v0x4a2c580_0:REAL) : [1,2]
