RESULT: (v0x3d09b20_1:REAL) : [3,11]
RESULT: (v0x3d09d20_1:REAL) : [-1/0,1/0]
RESULT: (v0x3d09f20_1:REAL) : [0,1]
RESULT: (v0x3d0a120_1:REAL) : [0,1]
RESULT: (v0x3d0a320_1:REAL) : [0,1]
RESULT: (v0x3d0a520_1:REAL) : [0,1]
RESULT: (v0x3d0a720_1:REAL) : [0,1]
RESULT: (v0x3d0a920_1:REAL) : [0,1]
RESULT: (v0x3d0ab20_1:REAL) : [-1/0,1/0]
RESULT: (v0x3d0ad20_1:REAL) : [0,1]
RESULT: (v0x3d0af20_1:REAL) : [0,1]
RESULT: (v0x3d0b120_1:REAL) : [0,1]
RESULT: (v0x3d0b320_1:REAL) : [0,1]
RESULT: (v0x3d0b520_1:REAL) : [0,1]
RESULT: (v0x3d0b720_1:REAL) : [0,1]
RESULT: (v0x394dc80_1:REAL) : [0,1]
