RESULT: (v0x4aa99e0_0:REAL) : [1,1/0]
RESULT: (v0x4aa9be0_0:REAL) : [0,1]
RESULT: (v0x4aa9de0_0:REAL) : [0,1]
RESULT: (v0x4aa9fe0_0:REAL) : [0,1]
RESULT: (v0x4aaa1e0_0:REAL) : [0,1]
RESULT: (v0x4aaa3e0_0:REAL) : [0,1]
RESULT: (v0x4aaa5e0_0:REAL) : [0,1]
RESULT: (v0x4aaa7e0_0:REAL) : [0,1]
RESULT: (v0x4aaa9e0_0:REAL) : [0,1]
RESULT: (v0x4aaabe0_0:REAL) : [0,1]
RESULT: (v0x4aaade0_0:REAL) : [0,1]
RESULT: (v0x4aaafe0_0:REAL) : [0,1]
RESULT: (v0x4aab1e0_0:REAL) : [0,1]
RESULT: (v0x4aab3e0_0:REAL) : [0,2]
RESULT: (v0x4aab5e0_0:REAL) : [0,3]
RESULT: (v0x4aab7e0_0:REAL) : [0,1]
RESULT: (v0x4aab9e0_0:REAL) : [123,456]
RESULT: (v0x4aabbe0_0:REAL) : [0,666]
RESULT: (v0x4aa2520_0:REAL) : [0,2]
RESULT: (v0x4aa2720_0:REAL) : [0,1]
RESULT: (v0x4aa2920_0:REAL) : [0,2]
RESULT: (v0x4aa2b20_0:REAL) : [0,456]
RESULT: (v0x4aac9e0_0:REAL) : [0,123]
RESULT: (v0x4aacbe0_0:REAL) : [0,456]
RESULT: (v0x4a95de0_0:REAL) : [0,3]
