RESULT: (v0x509f530_0:REAL) : [789,789]
RESULT: (v0x560b4e0_0:REAL) : [1,1/0]
RESULT: (v0x560b6e0_0:REAL) : [0,1]
RESULT: (v0x560b8e0_0:REAL) : [0,1]
RESULT: (v0x560bae0_0:REAL) : [0,1]
RESULT: (v0x560bce0_0:REAL) : [0,1]
RESULT: (v0x560bee0_0:REAL) : [0,1]
RESULT: (v0x560c0e0_0:REAL) : [0,1]
RESULT: (v0x560c2e0_0:REAL) : [0,1]
RESULT: (v0x560c4e0_0:REAL) : [0,1]
RESULT: (v0x560c6e0_0:REAL) : [0,1]
RESULT: (v0x560c8e0_0:REAL) : [0,1]
RESULT: (v0x560cae0_0:REAL) : [0,1]
RESULT: (v0x560cce0_0:REAL) : [0,1]
RESULT: (v0x560cee0_0:REAL) : [0,2]
RESULT: (v0x560d0e0_0:REAL) : [0,3]
RESULT: (v0x560d2e0_0:REAL) : [0,1]
RESULT: (v0x560d4e0_0:REAL) : [123,777]
RESULT: (v0x560d6e0_0:REAL) : [0,666]
RESULT: (v0x560d8e0_0:REAL) : [0,2]
RESULT: (v0x560dae0_0:REAL) : [0,1]
RESULT: (v0x560dce0_0:REAL) : [0,2]
RESULT: (v0x560dee0_0:REAL) : [0,456]
RESULT: (v0x560e0e0_0:REAL) : [0,123]
RESULT: (v0x560e2e0_0:REAL) : [0,456]
RESULT: (v0x560e4e0_0:REAL) : [0,3]
