RESULT: (v0x39f4ed0_0:REAL) : [1,1/0]
RESULT: (v0x39f50d0_0:REAL) : [0,1]
RESULT: (v0x39f52d0_0:REAL) : [0,1]
RESULT: (v0x39f54d0_0:REAL) : [0,1]
RESULT: (v0x39f56d0_0:REAL) : [0,1]
RESULT: (v0x39f58d0_0:REAL) : [0,1]
RESULT: (v0x39f5ad0_0:REAL) : [0,1]
RESULT: (v0x39f5cd0_0:REAL) : [0,1]
RESULT: (v0x39f5ed0_0:REAL) : [0,1]
RESULT: (v0x39f60d0_0:REAL) : [0,1]
RESULT: (v0x39f62d0_0:REAL) : [0,1]
RESULT: (v0x39f64d0_0:REAL) : [123,777]
RESULT: (v0x39f66d0_0:REAL) : [0,0]
RESULT: (v0x39f68d0_0:REAL) : [0,2]
RESULT: (v0x39f6ad0_0:REAL) : [0,1]
RESULT: (v0x39f6cd0_0:REAL) : [0,2]
RESULT: (v0x39f6ed0_0:REAL) : [0,456]
RESULT: (v0x39f70d0_0:REAL) : [0,123]
RESULT: (v0x39f72d0_0:REAL) : [0,456]
RESULT: (v0x39f74d0_0:REAL) : [0,3]
RESULT: (v0x39f76d0_0:REAL) : [0,1]
RESULT: (v0x39e5050_0:REAL) : [0,1]
RESULT: (v0x39ce440_0:REAL) : [-1/0,1/0]
RESULT: (v0x39ce140_0:REAL) : [0,456]
RESULT: (v0x39cf340_0:REAL) : [-1/0,1/0]
RESULT: (v0x39cf440_0:REAL) : [0,456]
RESULT: (v0x39cf540_0:REAL) : [0,1]
RESULT: (v0x39cf940_0:REAL) : [1,2]
RESULT: (v0x39cfa40_0:REAL) : [0,2]
RESULT: (v0x39cfb40_0:REAL) : [0,1]
RESULT: (v0x39cfc40_0:REAL) : [0,1]
RESULT: (v0x39d1140_0:REAL) : [0,0]
RESULT: (v0x39d1240_0:REAL) : [123,777]
RESULT: (v0x39d1340_0:REAL) : [0,0]
RESULT: (v0x39d1440_0:REAL) : [1,1]
RESULT: (v0x39d1540_0:REAL) : [1,3]
RESULT: (v0x39d1640_0:REAL) : [2,2]
RESULT: (v0x39d1740_0:REAL) : [1,1]
RESULT: (v0x39d1840_0:REAL) : [1,3]
RESULT: (v0x39d2240_0:REAL) : [0,0]
RESULT: (v0x39d2340_0:REAL) : [0,456]
RESULT: (v0x39d2440_0:REAL) : [0,0]
RESULT: (v0x39d2540_0:REAL) : [-1/0,1/0]
RESULT: (v0x39d2640_0:REAL) : [2,2]
RESULT: (v0x39d2740_0:REAL) : [2,2]
RESULT: (v0x39d2840_0:REAL) : [0,0]
RESULT: (v0x39ce340_0:REAL) : [0,1]
