RESULT: (v0x3624580_0:REAL) : [1,1/0]
RESULT: (v0x3624780_0:REAL) : [0,1]
RESULT: (v0x3624980_0:REAL) : [0,1]
RESULT: (v0x3624b80_0:REAL) : [0,1]
RESULT: (v0x3624d80_0:REAL) : [0,1]
RESULT: (v0x3624f80_0:REAL) : [0,1]
RESULT: (v0x3625180_0:REAL) : [0,1]
RESULT: (v0x3625380_0:REAL) : [0,1]
RESULT: (v0x3625580_0:REAL) : [0,1]
RESULT: (v0x3625780_0:REAL) : [0,1]
RESULT: (v0x3625980_0:REAL) : [0,1]
RESULT: (v0x3625b80_0:REAL) : [0,2]
RESULT: (v0x3625d80_0:REAL) : [0,3]
RESULT: (v0x3625f80_0:REAL) : [123,456]
RESULT: (v0x3626180_0:REAL) : [0,666]
RESULT: (v0x3626380_0:REAL) : [0,2]
RESULT: (v0x3626580_0:REAL) : [0,1]
RESULT: (v0x3626780_0:REAL) : [0,2]
RESULT: (v0x3626980_0:REAL) : [0,456]
RESULT: (v0x3626b80_0:REAL) : [0,123]
RESULT: (v0x3626d80_0:REAL) : [0,456]
RESULT: (v0x3626f80_0:REAL) : [0,3]
RESULT: (v0x3627180_0:REAL) : [0,1]
RESULT: (v0x360f190_0:REAL) : [0,1]
