RESULT: (v0x5067220_0:REAL) : [1/0,-1/0]
RESULT: (v0x5067420_0:REAL) : [1/0,-1/0]
RESULT: (v0x5067620_0:REAL) : [1/0,-1/0]
RESULT: (v0x5067820_0:REAL) : [1/0,-1/0]
RESULT: (v0x5067a20_0:REAL) : [1/0,-1/0]
RESULT: (v0x5067e20_0:REAL) : [1/0,-1/0]
RESULT: (v0x5068020_0:REAL) : [1/0,-1/0]
RESULT: (v0x5068220_0:REAL) : [1/0,-1/0]
RESULT: (v0x5067020_0:REAL) : [1/0,-1/0]
RESULT: (v0x5067c20_0:REAL) : [1/0,-1/0]
RESULT: (v0x4eca1a0_0:REAL) : [1/0,-1/0]
RESULT: (v0x4fa3a70_0:REAL) : [1/0,-1/0]
RESULT: (v0x4fa3b70_0:REAL) : [1/0,-1/0]
RESULT: (v0x4fa3c70_0:REAL) : [1/0,-1/0]
RESULT: (v0x4fa3d70_0:REAL) : [1/0,-1/0]
RESULT: (v0x4fa3e70_0:REAL) : [1/0,-1/0]
RESULT: (v0x4fa3f70_0:REAL) : [1/0,-1/0]
RESULT: (v0x4fa4070_0:REAL) : [1/0,-1/0]
RESULT: (v0x4fa4170_0:REAL) : [1/0,-1/0]
RESULT: (v0x4fa4270_0:REAL) : [1/0,-1/0]
