RESULT: (v0x410ce70_0:REAL) : [1,1/0]
RESULT: (v0x410d070_0:REAL) : [0,1]
RESULT: (v0x410d270_0:REAL) : [0,1]
RESULT: (v0x410d470_0:REAL) : [0,1]
RESULT: (v0x410d670_0:REAL) : [0,1]
RESULT: (v0x410d870_0:REAL) : [0,1]
RESULT: (v0x410da70_0:REAL) : [0,1]
RESULT: (v0x410dc70_0:REAL) : [0,1]
RESULT: (v0x41040d0_0:REAL) : [0,1]
RESULT: (v0x41042d0_0:REAL) : [0,1]
RESULT: (v0x41044d0_0:REAL) : [0,1]
RESULT: (v0x41046d0_0:REAL) : [0,1]
RESULT: (v0x410ea70_0:REAL) : [0,1]
RESULT: (v0x410ec70_0:REAL) : [0,2]
RESULT: (v0x410ee70_0:REAL) : [0,3]
RESULT: (v0x410f070_0:REAL) : [0,1]
RESULT: (v0x410f270_0:REAL) : [123,777]
RESULT: (v0x410f470_0:REAL) : [0,666]
RESULT: (v0x410f670_0:REAL) : [0,2]
RESULT: (v0x410f870_0:REAL) : [0,1]
RESULT: (v0x410fa70_0:REAL) : [0,2]
RESULT: (v0x410fc70_0:REAL) : [0,456]
RESULT: (v0x410fe70_0:REAL) : [0,123]
RESULT: (v0x4110070_0:REAL) : [0,456]
RESULT: (v0x40f81d0_0:REAL) : [0,3]
