RESULT: (v0x544e150_0:REAL) : [0,789]
RESULT: (v0x57bb160_0:REAL) : [1,1/0]
RESULT: (v0x57bb360_0:REAL) : [0,1]
RESULT: (v0x57bb560_0:REAL) : [0,1]
RESULT: (v0x57bb760_0:REAL) : [0,1]
RESULT: (v0x57bb960_0:REAL) : [0,1]
RESULT: (v0x57bbb60_0:REAL) : [0,1]
RESULT: (v0x57bbd60_0:REAL) : [0,1]
RESULT: (v0x57bbf60_0:REAL) : [0,1]
RESULT: (v0x57bc160_0:REAL) : [0,1]
RESULT: (v0x57bc360_0:REAL) : [0,1]
RESULT: (v0x57bc560_0:REAL) : [0,1]
RESULT: (v0x57bc760_0:REAL) : [0,1]
RESULT: (v0x57bc960_0:REAL) : [0,1]
RESULT: (v0x57bcb60_0:REAL) : [0,2]
RESULT: (v0x57bcd60_0:REAL) : [0,3]
RESULT: (v0x57bcf60_0:REAL) : [0,1]
RESULT: (v0x57bd160_0:REAL) : [0,777]
RESULT: (v0x57bd360_0:REAL) : [0,666]
RESULT: (v0x57bd560_0:REAL) : [0,2]
RESULT: (v0x57bd760_0:REAL) : [0,1]
RESULT: (v0x57bd960_0:REAL) : [0,2]
RESULT: (v0x57bdb60_0:REAL) : [1,456]
RESULT: (v0x57bdd60_0:REAL) : [0,123]
RESULT: (v0x57bdf60_0:REAL) : [0,456]
RESULT: (v0x57be160_0:REAL) : [0,3]
