RESULT: (v0x49b54e0_0:REAL) : [0,2]
RESULT: (v0x4ac39b0_0:REAL) : [0,2]
RESULT: (v0x4ac4350_0:REAL) : [0,1/0]
RESULT: (v0x4ac4450_0:REAL) : [1,1/0]
RESULT: (v0x4ac3eb0_0:REAL) : [0,0]
RESULT: (v0x4ac4fb0_0:REAL) : [0,1/0]
RESULT: (v0x4ac50b0_0:REAL) : [1,1/0]
RESULT: (v0x4ac4550_0:REAL) : [0,1]
RESULT: (v0x4ac5370_0:REAL) : [0,1]
RESULT: (v0x4ac5470_0:REAL) : [0,1]
RESULT: (v0x4ac5570_0:REAL) : [1,1]
RESULT: (v0x4ac5670_0:REAL) : [0,2]
RESULT: (v0x4ac5770_0:REAL) : [0,0]
RESULT: (v0x4ac5a70_0:REAL) : [0,1/0]
RESULT: (v0x4abd9e0_0:REAL) : [0,1]
RESULT: (v0x4abdef0_0:REAL) : [0,1]
RESULT: (v0x4abcb90_0:REAL) : [0,1]
RESULT: (v0x4abe480_0:REAL) : [0,2]
RESULT: (v0x4a0bab0_0:REAL) : [0,1/0]
RESULT: (v0x4abf1e0_0:REAL) : [-1/0,1/0]
RESULT: (v0x4abf310_0:REAL) : [-1/0,1/0]
RESULT: (v0x4ac5870_0:REAL) : [-1/0,1/0]
RESULT: (v0x4ac5970_0:REAL) : [-1/0,1/0]
RESULT: (v0x4ac6270_0:REAL) : [0,1]
RESULT: (v0x4ac6370_0:REAL) : [0,1]
RESULT: (v0x4ac6470_0:REAL) : [0,1]
RESULT: (v0x4ac6570_0:REAL) : [0,2]
RESULT: (v0x4ac6670_0:REAL) : [-1/0,1/0]
RESULT: (v0x4ac6770_0:REAL) : [-1/0,1/0]
RESULT: (v0x4ac6870_0:REAL) : [0,1/0]
RESULT: (v0x4ac6970_0:REAL) : [-1/0,1/0]
