RESULT: (v0x3d0fca0_0:REAL) : [0,1]
RESULT: (v0x3d22f20_0:REAL) : [0,1]
RESULT: (v0x3d29610_0:REAL) : [0,1]
RESULT: (v0x3d29810_0:REAL) : [0,1]
RESULT: (v0x3d29a10_0:REAL) : [0,1]
RESULT: (v0x3d29c10_0:REAL) : [0,1]
RESULT: (v0x3d29ed0_0:REAL) : [0,1]
RESULT: (v0x3d2a0d0_0:REAL) : [0,1]
RESULT: (v0x3d2a2d0_0:REAL) : [0,1]
RESULT: (v0x3d2a4d0_0:REAL) : [0,1]
RESULT: (v0x3d2a6d0_0:REAL) : [0,1]
RESULT: (v0x3d2a8d0_0:REAL) : [0,1]
RESULT: (v0x3d2aad0_0:REAL) : [0,1]
RESULT: (v0x3d2acd0_0:REAL) : [1,1]
RESULT: (v0x3d2aed0_0:REAL) : [-1/0,1/0]
RESULT: (v0x3d2b0d0_0:REAL) : [-1/0,1/0]
RESULT: (v0x3d2b2d0_0:REAL) : [0,2]
RESULT: (v0x3d2b4d0_0:REAL) : [0,2]
RESULT: (v0x3d29e10_0:REAL) : [0,2]
RESULT: (v0x3d2b9a0_0:REAL) : [0,2]
RESULT: (v0x3d2bba0_0:REAL) : [0,2]
RESULT: (v0x3d2bda0_0:REAL) : [0,2]
RESULT: (v0x3d2bfa0_0:REAL) : [0,2]
RESULT: (v0x3d2c1a0_0:REAL) : [0,2]
RESULT: (v0x3d2c3a0_0:REAL) : [0,2]
RESULT: (v0x3d2c5a0_0:REAL) : [0,2]
RESULT: (v0x3d2c7a0_0:REAL) : [0,2]
RESULT: (v0x3d2c9a0_0:REAL) : [0,2]
RESULT: (v0x3d2cba0_0:REAL) : [0,2]
RESULT: (v0x3d27900_0:REAL) : [2,2]
