RESULT: (v0x361a360_1:REAL) : [2,2]
RESULT: (v0x361a560_1:REAL) : [-80,340]
RESULT: (v0x361a760_1:REAL) : [0,1]
RESULT: (v0x361a960_1:REAL) : [1,1]
RESULT: (v0x361ab60_1:REAL) : [0,2]
RESULT: (v0x361ad60_1:REAL) : [0,1]
RESULT: (v0x361af60_1:REAL) : [0,1]
RESULT: (v0x361b160_1:REAL) : [0,1]
RESULT: (v0x361b360_1:REAL) : [0,1]
RESULT: (v0x361b560_1:REAL) : [0,1]
RESULT: (v0x361b760_1:REAL) : [0,1]
RESULT: (v0x361b960_1:REAL) : [0,1]
RESULT: (v0x361bb60_1:REAL) : [0,1]
RESULT: (v0x361bd60_1:REAL) : [0,1]
RESULT: (v0x361bf60_1:REAL) : [0,1]
RESULT: (v0x35566d0_1:REAL) : [0,1]
