RESULT: (v0x52a9a30_0:REAL) : [2,10]
RESULT: (v0x52a9c30_0:REAL) : [0,1]
RESULT: (v0x52a9e30_0:REAL) : [0,1]
RESULT: (v0x52aa030_0:REAL) : [0,1]
RESULT: (v0x52aa230_0:REAL) : [0,1]
RESULT: (v0x52aa630_0:REAL) : [0,0]
RESULT: (v0x52aa830_0:REAL) : [0,0]
RESULT: (v0x52aac30_0:REAL) : [0,1]
RESULT: (v0x52aae30_0:REAL) : [0,1]
RESULT: (v0x52ab030_0:REAL) : [-1/0,1]
RESULT: (v0x52ab230_0:REAL) : [0,1]
RESULT: (v0x52ab430_0:REAL) : [0,1]
RESULT: (v0x52ab630_0:REAL) : [-1/0,1]
RESULT: (v0x52aa430_0:REAL) : [67,1/0]
RESULT: (v0x512f950_0:REAL) : [0,1]
RESULT: (v0x512fa50_0:REAL) : [0,1]
RESULT: (v0x512fb50_0:REAL) : [0,1]
RESULT: (v0x512fc50_0:REAL) : [0,1]
RESULT: (v0x512fd50_0:REAL) : [67,1/0]
RESULT: (v0x512fe50_0:REAL) : [0,1]
RESULT: (v0x512ff50_0:REAL) : [0,1]
RESULT: (v0x5130050_0:REAL) : [-1/0,1/0]
RESULT: (v0x5130150_0:REAL) : [0,1]
RESULT: (v0x5130250_0:REAL) : [0,0]
RESULT: (v0x5130350_0:REAL) : [-1/0,1]
RESULT: (v0x5130450_0:REAL) : [0,1]
RESULT: (v0x5130550_0:REAL) : [0,1]
RESULT: (v0x5130650_0:REAL) : [-1/0,1]
RESULT: (v0x52aaa30_0:REAL) : [-1/0,1/0]
RESULT: (v0x54295e0_0:REAL) : [0,0]
RESULT: (v0x5130950_0:REAL) : [-1/0,1/0]
