RESULT: (v0x4a70110_1:REAL) : [2,2]
RESULT: (v0x4a70310_1:REAL) : [0,1]
RESULT: (v0x4a70510_1:REAL) : [0,1]
RESULT: (v0x4a70710_1:REAL) : [0,1]
RESULT: (v0x4a70910_1:REAL) : [0,1]
RESULT: (v0x4a70b10_1:REAL) : [-80,340]
RESULT: (v0x4a70d10_1:REAL) : [0,1]
RESULT: (v0x4a70f10_1:REAL) : [0,1]
RESULT: (v0x4a71110_1:REAL) : [0,3]
RESULT: (v0x4a71310_1:REAL) : [0,1]
RESULT: (v0x4a71510_1:REAL) : [0,1]
RESULT: (v0x4a71710_1:REAL) : [0,1]
RESULT: (v0x4a71910_1:REAL) : [0,1]
RESULT: (v0x4a71b10_1:REAL) : [0,1]
RESULT: (v0x4a71d10_1:REAL) : [0,1]
RESULT: (v0x46ba2a0_1:REAL) : [0,1]
