RESULT: (v0x49f48b0_0:REAL) : [1,1/0]
RESULT: (v0x49f4ab0_0:REAL) : [0,1]
RESULT: (v0x49f4cb0_0:REAL) : [0,1]
RESULT: (v0x49f4eb0_0:REAL) : [0,1]
RESULT: (v0x49f50b0_0:REAL) : [0,1]
RESULT: (v0x49f52b0_0:REAL) : [0,1]
RESULT: (v0x49f54b0_0:REAL) : [0,1]
RESULT: (v0x49f56b0_0:REAL) : [0,1]
RESULT: (v0x49f58b0_0:REAL) : [0,1]
RESULT: (v0x49f5ab0_0:REAL) : [0,1]
RESULT: (v0x49f5cb0_0:REAL) : [0,1]
RESULT: (v0x49f5eb0_0:REAL) : [0,1]
RESULT: (v0x49f60b0_0:REAL) : [0,1]
RESULT: (v0x49f62b0_0:REAL) : [0,2]
RESULT: (v0x49f64b0_0:REAL) : [0,3]
RESULT: (v0x49ecc70_0:REAL) : [0,1]
RESULT: (v0x49ece70_0:REAL) : [123,777]
RESULT: (v0x49ed070_0:REAL) : [0,666]
RESULT: (v0x49ed270_0:REAL) : [0,2]
RESULT: (v0x49ed450_0:REAL) : [0,1]
RESULT: (v0x49f7490_0:REAL) : [0,2]
RESULT: (v0x49f7690_0:REAL) : [1,456]
RESULT: (v0x49f7890_0:REAL) : [0,123]
RESULT: (v0x49df7f0_0:REAL) : [0,456]
