RESULT: (v0x4be4630_0:REAL) : [1,1/0]
RESULT: (v0x4be4830_0:REAL) : [0,1]
RESULT: (v0x4be4a30_0:REAL) : [0,1]
RESULT: (v0x4be4c30_0:REAL) : [0,1]
RESULT: (v0x4be4e30_0:REAL) : [0,1]
RESULT: (v0x4be5030_0:REAL) : [0,1]
RESULT: (v0x4be5230_0:REAL) : [0,1]
RESULT: (v0x4be5430_0:REAL) : [0,1]
RESULT: (v0x4be5630_0:REAL) : [0,1]
RESULT: (v0x4be5830_0:REAL) : [0,1]
RESULT: (v0x4be5a30_0:REAL) : [0,1]
RESULT: (v0x4be5c30_0:REAL) : [0,1]
RESULT: (v0x4be5e30_0:REAL) : [0,1]
RESULT: (v0x4be6030_0:REAL) : [0,2]
RESULT: (v0x4be6230_0:REAL) : [0,3]
RESULT: (v0x4be6430_0:REAL) : [0,1]
RESULT: (v0x4be6630_0:REAL) : [123,777]
RESULT: (v0x4be6830_0:REAL) : [0,666]
RESULT: (v0x4be6a30_0:REAL) : [0,2]
RESULT: (v0x4be6c30_0:REAL) : [0,1]
RESULT: (v0x4be6e30_0:REAL) : [0,2]
RESULT: (v0x4be7030_0:REAL) : [0,456]
RESULT: (v0x4be7230_0:REAL) : [0,123]
RESULT: (v0x4be7430_0:REAL) : [0,456]
RESULT: (v0x4bceda0_0:REAL) : [0,3]
