RESULT: (v0x4094200_0:REAL) : [2,10]
RESULT: (v0x4094600_0:REAL) : [0,0]
RESULT: (v0x4094a00_0:REAL) : [0,1]
RESULT: (v0x4094c00_0:REAL) : [0,1]
RESULT: (v0x4094e00_0:REAL) : [0,1]
RESULT: (v0x4095000_0:REAL) : [0,1]
RESULT: (v0x4095200_0:REAL) : [-1/0,1]
RESULT: (v0x4095400_0:REAL) : [-1/0,1]
RESULT: (v0x4095600_0:REAL) : [0,1]
RESULT: (v0x4095800_0:REAL) : [0,1]
RESULT: (v0x3f925e0_0:REAL) : [-1/0,1]
RESULT: (v0x3f13d30_0:REAL) : [67,1/0]
RESULT: (v0x4094400_0:REAL) : [67,1/0]
RESULT: (v0x3f13e30_0:REAL) : [0,1]
RESULT: (v0x3f13f30_0:REAL) : [-1/0,1/0]
RESULT: (v0x3f14030_0:REAL) : [0,0]
RESULT: (v0x3f14130_0:REAL) : [0,0]
RESULT: (v0x3f14230_0:REAL) : [0,1]
RESULT: (v0x3f14330_0:REAL) : [0,1]
RESULT: (v0x3f14430_0:REAL) : [-1/0,1]
RESULT: (v0x3f14530_0:REAL) : [-1/0,1]
RESULT: (v0x3f14630_0:REAL) : [0,1]
RESULT: (v0x3f14730_0:REAL) : [0,1]
RESULT: (v0x3f14830_0:REAL) : [-1/0,1]
RESULT: (v0x4094800_0:REAL) : [-1/0,1/0]
RESULT: (v0x410c420_0:REAL) : [0,0]
RESULT: (v0x3f14b30_0:REAL) : [-1/0,1/0]
