RESULT: (v0x39ea6a0_0:REAL) : [0,1/0]
RESULT: (v0x39ec070_0:REAL) : [0,1/0]
RESULT: (v0x3b27a20_0:REAL) : [0,0]
RESULT: (v0x3b27460_0:REAL) : [1,1]
RESULT: (v0x39ff550_0:REAL) : [-1/0,1/0]
RESULT: (v0x3a0c540_0:REAL) : [-1/0,1/0]
RESULT: (v0x3a0c240_0:REAL) : [-1/0,1/0]
RESULT: (v0x3c995f0_0:REAL) : [0,0]
RESULT: (v0x3a63570_0:REAL) : [-1/0,1/0]
RESULT: (v0x39ed540_0:REAL) : [6,6]
RESULT: (v0x39f2830_0:REAL) : [-1/0,7]
RESULT: (v0x39f2a30_0:REAL) : [1,1/0]
RESULT: (v0x39f2b30_0:REAL) : [2,1/0]
RESULT: (v0x39f3430_0:REAL) : [0,0]
RESULT: (v0x39f3830_0:REAL) : [-1/0,1/0]
RESULT: (v0x39f3a30_0:REAL) : [0,1]
RESULT: (v0x39f3c30_0:REAL) : [-1/0,1/0]
RESULT: (v0x39f4f30_0:REAL) : [-1/0,1/0]
RESULT: (v0x39f4e30_0:REAL) : [-1/0,1/0]
RESULT: (v0x39f5030_0:REAL) : [-1/0,1/0]
RESULT: (v0x39f5230_0:REAL) : [-1/0,36]
RESULT: (v0x39f5330_0:REAL) : [-1/0,1/0]
RESULT: (v0x39f5430_0:REAL) : [-1/0,36]
RESULT: (v0x39f5830_0:REAL) : [-1/0,1/0]
RESULT: (v0x39f5a30_0:REAL) : [0,1]
RESULT: (v0x39f5c30_0:REAL) : [-1/0,1/0]
RESULT: (v0x39f6e30_0:REAL) : [-1/0,1/0]
RESULT: (v0x39f6d30_0:REAL) : [-1/0,1/0]
RESULT: (v0x39f7130_0:REAL) : [-1/0,1/0]
RESULT: (v0x39f7030_0:REAL) : [-1/0,1/0]
RESULT: (v0x39f7630_0:REAL) : [-1/0,1/0]
RESULT: (v0x39f7830_0:REAL) : [0,1]
RESULT: (v0x39f7a30_0:REAL) : [-1/0,1/0]
RESULT: (v0x39f0b40_0:REAL) : [-1/0,1/0]
RESULT: (v0x39f0a40_0:REAL) : [-1/0,1/0]
RESULT: (v0x39f9270_0:REAL) : [-1/0,1/0]
RESULT: (v0x39f9450_0:REAL) : [-1/0,32]
RESULT: (v0x39f9550_0:REAL) : [-1/0,1/0]
RESULT: (v0x39f9650_0:REAL) : [-1/0,32]
RESULT: (v0x39f9a50_0:REAL) : [-1/0,1/0]
RESULT: (v0x39f9c50_0:REAL) : [0,1]
RESULT: (v0x39f9e50_0:REAL) : [-1/0,1/0]
RESULT: (v0x39faf50_0:REAL) : [-1/0,1/0]
RESULT: (v0x39f7230_0:REAL) : [-1/0,1/0]
RESULT: (v0x39fed50_0:REAL) : [-1/0,1/0]
RESULT: (v0x39ffa50_0:REAL) : [-1/0,1/0]
RESULT: (v0x3a00650_0:REAL) : [-1/0,1/0]
RESULT: (v0x3a00850_0:REAL) : [0,1]
RESULT: (v0x3a00a50_0:REAL) : [-1/0,1/0]
RESULT: (v0x3a03040_0:REAL) : [-1/0,1/0]
RESULT: (v0x3a03240_0:REAL) : [0,1]
RESULT: (v0x3a03440_0:REAL) : [-1/0,1/0]
RESULT: (v0x3a04740_0:REAL) : [-1/0,1/0]
RESULT: (v0x3a04640_0:REAL) : [-1/0,1/0]
RESULT: (v0x3a04840_0:REAL) : [-1/0,1/0]
RESULT: (v0x3a04a40_0:REAL) : [-1/0,36]
RESULT: (v0x3a04b40_0:REAL) : [-1/0,1/0]
RESULT: (v0x3a04c40_0:REAL) : [-1/0,36]
RESULT: (v0x3a05040_0:REAL) : [-1/0,1/0]
RESULT: (v0x3a05240_0:REAL) : [0,1]
RESULT: (v0x3a05440_0:REAL) : [-1/0,1/0]
RESULT: (v0x3a06540_0:REAL) : [-1,26]
RESULT: (v0x3a06f40_0:REAL) : [-1/0,1/0]
RESULT: (v0x3a07140_0:REAL) : [1,2]
RESULT: (v0x3a07540_0:REAL) : [-1/0,1/0]
RESULT: (v0x3a07740_0:REAL) : [0,1]
RESULT: (v0x3a07940_0:REAL) : [-1/0,1/0]
RESULT: (v0x3a08c40_0:REAL) : [-1/0,1/0]
RESULT: (v0x3a08b40_0:REAL) : [-1/0,1/0]
RESULT: (v0x3a08d40_0:REAL) : [-1/0,1/0]
RESULT: (v0x3a08f40_0:REAL) : [-1/0,32]
RESULT: (v0x3a09040_0:REAL) : [-1/0,1/0]
RESULT: (v0x3a09140_0:REAL) : [-1/0,32]
RESULT: (v0x3a09540_0:REAL) : [-1/0,1/0]
RESULT: (v0x3a09740_0:REAL) : [0,1]
RESULT: (v0x3a09940_0:REAL) : [-1/0,1/0]
RESULT: (v0x3a0aa40_0:REAL) : [18,26]
RESULT: (v0x3a0b840_0:REAL) : [-1/0,512]
RESULT: (v0x3a0c040_0:REAL) : [-1/0,511]
RESULT: (v0x3a0ca40_0:REAL) : [1,2]
RESULT: (v0x3a00f50_0:REAL) : [-1/0,1/0]
RESULT: (v0x3a00e50_0:REAL) : [-1/0,1/0]
RESULT: (v0x3a01050_0:REAL) : [-1/0,1/0]
RESULT: (v0x3a01350_0:REAL) : [-1/0,1/0]
RESULT: (v0x3a01250_0:REAL) : [-1/0,1/0]
RESULT: (v0x3a01450_0:REAL) : [-1/0,1/0]
RESULT: (v0x3a01150_0:REAL) : [-1/0,1/0]
RESULT: (v0x3a01950_0:REAL) : [-1/0,1/0]
RESULT: (v0x3a1cb70_0:REAL) : [-1/0,1/0]
RESULT: (v0x3a1ca70_0:REAL) : [-1/0,1/0]
RESULT: (v0x3a1cc70_0:REAL) : [-1/0,1/0]
RESULT: (v0x3a1d070_0:REAL) : [-1/0,1/0]
RESULT: (v0x3a1cf70_0:REAL) : [-1/0,1/0]
RESULT: (v0x3a1d170_0:REAL) : [-1/0,1/0]
RESULT: (v0x3a1d670_0:REAL) : [-1/0,1/0]
RESULT: (v0x3a1d570_0:REAL) : [-1/0,1/0]
RESULT: (v0x3a1d770_0:REAL) : [-1/0,1/0]
RESULT: (v0x3a1d470_0:REAL) : [-1/0,1/0]
RESULT: (v0x3a1dc70_0:REAL) : [-1/0,1/0]
RESULT: (v0x3a1e170_0:REAL) : [-1/0,1/0]
RESULT: (v0x3a1e070_0:REAL) : [-1/0,1/0]
RESULT: (v0x3a1e370_0:REAL) : [-1/0,1/0]
RESULT: (v0x3a1e270_0:REAL) : [-1/0,1/0]
RESULT: (v0x3a1e570_0:REAL) : [-1/0,1/0]
RESULT: (v0x3a1ec70_0:REAL) : [-1/0,1/0]
