RESULT: (v0x31fd360_0:REAL) : [1,1/0]
RESULT: (v0x31fd560_0:REAL) : [0,1]
RESULT: (v0x31fd760_0:REAL) : [0,1]
RESULT: (v0x31fd960_0:REAL) : [0,1]
RESULT: (v0x31fdb60_0:REAL) : [0,1]
RESULT: (v0x31fdd60_0:REAL) : [0,1]
RESULT: (v0x31fdf60_0:REAL) : [0,1]
RESULT: (v0x31fe160_0:REAL) : [0,1]
RESULT: (v0x31fe360_0:REAL) : [0,1]
RESULT: (v0x31fe560_0:REAL) : [0,1]
RESULT: (v0x31fe760_0:REAL) : [0,1]
RESULT: (v0x31fe960_0:REAL) : [0,2]
RESULT: (v0x31feb60_0:REAL) : [0,3]
RESULT: (v0x31fed60_0:REAL) : [123,456]
RESULT: (v0x31fef60_0:REAL) : [0,666]
RESULT: (v0x31ff160_0:REAL) : [0,2]
RESULT: (v0x31ff360_0:REAL) : [0,1]
RESULT: (v0x31ff560_0:REAL) : [0,2]
RESULT: (v0x31ff760_0:REAL) : [0,456]
RESULT: (v0x31ff960_0:REAL) : [0,123]
RESULT: (v0x31ffb60_0:REAL) : [0,456]
RESULT: (v0x31f6620_0:REAL) : [0,3]
RESULT: (v0x31f6820_0:REAL) : [0,1]
RESULT: (v0x31e9860_0:REAL) : [0,1]
