RESULT: (v0x4fb9d40_0:REAL) : [789,789]
RESULT: (v0x579bb30_0:REAL) : [1,1/0]
RESULT: (v0x579bd30_0:REAL) : [0,1]
RESULT: (v0x579bf30_0:REAL) : [0,1]
RESULT: (v0x579c130_0:REAL) : [0,1]
RESULT: (v0x579c330_0:REAL) : [0,1]
RESULT: (v0x579c530_0:REAL) : [0,1]
RESULT: (v0x579c730_0:REAL) : [0,1]
RESULT: (v0x579c930_0:REAL) : [0,1]
RESULT: (v0x579cb30_0:REAL) : [0,1]
RESULT: (v0x579cd30_0:REAL) : [0,1]
RESULT: (v0x579cf30_0:REAL) : [0,1]
RESULT: (v0x579d130_0:REAL) : [0,1]
RESULT: (v0x579d330_0:REAL) : [0,2]
RESULT: (v0x579d530_0:REAL) : [0,3]
RESULT: (v0x579d730_0:REAL) : [0,1]
RESULT: (v0x579d930_0:REAL) : [123,456]
RESULT: (v0x579db30_0:REAL) : [0,666]
RESULT: (v0x579dd30_0:REAL) : [0,2]
RESULT: (v0x579df30_0:REAL) : [0,1]
RESULT: (v0x579e130_0:REAL) : [0,2]
RESULT: (v0x579e330_0:REAL) : [0,456]
RESULT: (v0x579e530_0:REAL) : [0,123]
RESULT: (v0x579e730_0:REAL) : [0,456]
RESULT: (v0x579e930_0:REAL) : [0,3]
RESULT: (v0x579eb30_0:REAL) : [0,1]
