RESULT: (v0x3a0a2f0_0:REAL) : [0,1/0]
RESULT: (v0x3a0a4f0_0:REAL) : [-1/0,1/0]
RESULT: (v0x3a0a5f0_0:REAL) : [-1/0,1/0]
RESULT: (v0x3a0a7f0_0:REAL) : [-1/0,1/0]
RESULT: (v0x3a0a9f0_0:REAL) : [-1/0,1/0]
RESULT: (v0x3a0abf0_0:REAL) : [-1/0,1/0]
RESULT: (v0x3a0adf0_0:REAL) : [-1/0,1/0]
RESULT: (v0x3a0aff0_0:REAL) : [-1/0,1/0]
RESULT: (v0x3a0b1f0_0:REAL) : [-1/0,1/0]
RESULT: (v0x3a0b3f0_0:REAL) : [-1/0,1/0]
RESULT: (v0x3902210_0:REAL) : [-1/0,1/0]
RESULT: (v0x3a09c40_0:REAL) : [-1/0,1/0]
RESULT: (v0x3a0bac0_0:REAL) : [-1/0,1/0]
RESULT: (v0x3a0bcc0_0:REAL) : [-1/0,1/0]
RESULT: (v0x3a0bec0_0:REAL) : [-1/0,1/0]
RESULT: (v0x3a0c0c0_0:REAL) : [-1/0,1/0]
RESULT: (v0x3a0c2c0_0:REAL) : [-1/0,1/0]
RESULT: (v0x3a0c4c0_0:REAL) : [-1/0,1/0]
RESULT: (v0x3a0a0f0_0:REAL) : [-1/0,1/0]
RESULT: (v0x3a0cac0_0:REAL) : [-1/0,1/0]
RESULT: (v0x3a0cbc0_0:REAL) : [-1/0,1/0]
RESULT: (v0x3a0cdc0_0:REAL) : [-1/0,1/0]
RESULT: (v0x3a0cfc0_0:REAL) : [-1/0,1/0]
RESULT: (v0x3a0d2c0_0:REAL) : [-1/0,1/0]
RESULT: (v0x3a0d3c0_0:REAL) : [-1/0,1/0]
RESULT: (v0x3a0d6c0_0:REAL) : [-1/0,1/0]
RESULT: (v0x3a0d7c0_0:REAL) : [-1/0,1/0]
RESULT: (v0x3a0d9c0_0:REAL) : [-1/0,1/0]
RESULT: (v0x3a0dbc0_0:REAL) : [-1/0,1/0]
RESULT: (v0x3a0ddc0_0:REAL) : [-1/0,1/0]
RESULT: (v0x3a0dfc0_0:REAL) : [-1/0,1/0]
RESULT: (v0x3a0e0c0_0:REAL) : [-1/0,1/0]
RESULT: (v0x3a0e2c0_0:REAL) : [-1/0,1/0]
RESULT: (v0x3a0e4c0_0:REAL) : [-1/0,1/0]
RESULT: (v0x3a0e7c0_0:REAL) : [-1/0,1/0]
RESULT: (v0x3a0e9c0_0:REAL) : [-1/0,1/0]
RESULT: (v0x3a0b5f0_0:REAL) : [-1/0,1/0]
RESULT: (v0x3a0b7f0_0:REAL) : [-1/0,1/0]
RESULT: (v0x3a0f2b0_0:REAL) : [-1/0,1/0]
RESULT: (v0x3a0f5b0_0:REAL) : [-1/0,1/0]
RESULT: (v0x3a0f6b0_0:REAL) : [-1/0,1/0]
RESULT: (v0x3a0f8b0_0:REAL) : [-1/0,1/0]
RESULT: (v0x3a0fab0_0:REAL) : [-1/0,1/0]
RESULT: (v0x3a0fdb0_0:REAL) : [-1/0,1/0]
RESULT: (v0x3a0feb0_0:REAL) : [-1/0,1/0]
RESULT: (v0x3a100b0_0:REAL) : [-1/0,1/0]
RESULT: (v0x3a102b0_0:REAL) : [-1/0,1/0]
RESULT: (v0x3a104b0_0:REAL) : [-1/0,1/0]
RESULT: (v0x3a106b0_0:REAL) : [-1/0,1/0]
RESULT: (v0x3a108b0_0:REAL) : [-1/0,1/0]
RESULT: (v0x3a10ab0_0:REAL) : [-1/0,1/0]
RESULT: (v0x3a10cb0_0:REAL) : [-1/0,1/0]
RESULT: (v0x3a10eb0_0:REAL) : [-1/0,1/0]
RESULT: (v0x3a110b0_0:REAL) : [-1/0,1/0]
RESULT: (v0x3a09ff0_0:REAL) : [-1/0,1/0]
RESULT: (v0x3a112b0_0:REAL) : [-1/0,1/0]
RESULT: (v0x3a114b0_0:REAL) : [-1/0,1/0]
RESULT: (v0x3a116b0_0:REAL) : [-1/0,1/0]
RESULT: (v0x3a11ab0_0:REAL) : [-1/0,1/0]
RESULT: (v0x3a11cb0_0:REAL) : [-1/0,1/0]
RESULT: (v0x3a11db0_0:REAL) : [-1/0,1/0]
RESULT: (v0x3a11fb0_0:REAL) : [-1/0,1/0]
RESULT: (v0x3a121b0_0:REAL) : [-1/0,1/0]
RESULT: (v0x3a123b0_0:REAL) : [-1/0,1/0]
RESULT: (v0x3a125b0_0:REAL) : [-1/0,1/0]
RESULT: (v0x3a127b0_0:REAL) : [-1/0,1/0]
RESULT: (v0x3a129b0_0:REAL) : [-1/0,1/0]
RESULT: (v0x3a12bb0_0:REAL) : [-1/0,1/0]
RESULT: (v0x3a12db0_0:REAL) : [-1/0,1/0]
RESULT: (v0x3a12fb0_0:REAL) : [-1/0,1/0]
RESULT: (v0x3a131b0_0:REAL) : [-1/0,1/0]
RESULT: (v0x3a133b0_0:REAL) : [-1/0,1/0]
RESULT: (v0x3a135b0_0:REAL) : [-1/0,1/0]
RESULT: (v0x3a137b0_0:REAL) : [-1/0,1/0]
RESULT: (v0x3a139b0_0:REAL) : [-1/0,1/0]
RESULT: (v0x3a13bb0_0:REAL) : [-1/0,1/0]
RESULT: (v0x3a09ef0_0:REAL) : [-1/0,1/0]
RESULT: (v0x3a141b0_0:REAL) : [-1/0,1/0]
RESULT: (v0x3a142b0_0:REAL) : [-1/0,1/0]
RESULT: (v0x3a144b0_0:REAL) : [-1/0,1/0]
RESULT: (v0x3a146b0_0:REAL) : [-1/0,1/0]
RESULT: (v0x3a149b0_0:REAL) : [-1/0,1/0]
RESULT: (v0x3a14ab0_0:REAL) : [-1/0,1/0]
RESULT: (v0x3a14db0_0:REAL) : [-1/0,1/0]
RESULT: (v0x3a14eb0_0:REAL) : [-1/0,1/0]
RESULT: (v0x3a150b0_0:REAL) : [-1/0,1/0]
RESULT: (v0x3a152b0_0:REAL) : [-1/0,1/0]
RESULT: (v0x3a154b0_0:REAL) : [-1/0,1/0]
RESULT: (v0x3a156b0_0:REAL) : [-1/0,1/0]
RESULT: (v0x3a157b0_0:REAL) : [-1/0,1/0]
RESULT: (v0x3a159b0_0:REAL) : [-1/0,1/0]
RESULT: (v0x3a15bb0_0:REAL) : [-1/0,1/0]
RESULT: (v0x3a15eb0_0:REAL) : [-1/0,1/0]
RESULT: (v0x3a160b0_0:REAL) : [-1/0,1/0]
RESULT: (v0x3a161b0_0:REAL) : [-1/0,1/0]
RESULT: (v0x3a163b0_0:REAL) : [-1/0,1/0]
RESULT: (v0x3a165b0_0:REAL) : [-1/0,1/0]
RESULT: (v0x3a168b0_0:REAL) : [-1/0,1/0]
RESULT: (v0x3a169b0_0:REAL) : [-1/0,1/0]
RESULT: (v0x3a16bb0_0:REAL) : [-1/0,1/0]
RESULT: (v0x3a0ebc0_0:REAL) : [-1/0,1/0]
RESULT: (v0x3a0eec0_0:REAL) : [-1/0,1/0]
RESULT: (v0x3a0efc0_0:REAL) : [-1/0,1/0]
RESULT: (v0x3a0f1c0_0:REAL) : [-1/0,1/0]
RESULT: (v0x3a179d0_0:REAL) : [-1/0,1/0]
RESULT: (v0x3a17bd0_0:REAL) : [-1/0,1/0]
RESULT: (v0x3a17dd0_0:REAL) : [-1/0,1/0]
RESULT: (v0x3a17fd0_0:REAL) : [-1/0,1/0]
RESULT: (v0x3a181d0_0:REAL) : [-1/0,1/0]
RESULT: (v0x3a183d0_0:REAL) : [-1/0,1/0]
RESULT: (v0x3a185d0_0:REAL) : [-1/0,1/0]
RESULT: (v0x3a187d0_0:REAL) : [-1/0,1/0]
RESULT: (v0x3a09df0_0:REAL) : [-1/0,1/0]
RESULT: (v0x3a189d0_0:REAL) : [-1/0,1/0]
RESULT: (v0x3a18bd0_0:REAL) : [-1/0,1/0]
RESULT: (v0x3a18dd0_0:REAL) : [-1/0,1/0]
RESULT: (v0x3a191d0_0:REAL) : [-1/0,1/0]
RESULT: (v0x3a193d0_0:REAL) : [-1/0,1/0]
RESULT: (v0x3a08360_0:REAL) : [-1/0,1/0]
RESULT: (v0x3a195d0_0:REAL) : [-1/0,1/0]
