RESULT: (v0x43d2900_0:REAL) : [0,1]
RESULT: (v0x43e92f0_0:REAL) : [0,1]
RESULT: (v0x43eb550_0:REAL) : [0,1]
RESULT: (v0x43eb750_0:REAL) : [0,1]
RESULT: (v0x43eb950_0:REAL) : [0,1]
RESULT: (v0x43eb450_0:REAL) : [0,1]
RESULT: (v0x43ebe10_0:REAL) : [0,1]
RESULT: (v0x43ec010_0:REAL) : [0,1]
RESULT: (v0x43ec210_0:REAL) : [0,1]
RESULT: (v0x43ec410_0:REAL) : [0,1]
RESULT: (v0x43ec610_0:REAL) : [0,1]
RESULT: (v0x43ec810_0:REAL) : [0,1]
RESULT: (v0x43eca10_0:REAL) : [0,1]
RESULT: (v0x43ecc10_0:REAL) : [0,1]
RESULT: (v0x43ece10_0:REAL) : [0,2]
RESULT: (v0x43ed010_0:REAL) : [1,2]
RESULT: (v0x43ed210_0:REAL) : [0,2]
RESULT: (v0x43ebb50_0:REAL) : [0,2]
RESULT: (v0x43ed6e0_0:REAL) : [0,2]
RESULT: (v0x43ed8e0_0:REAL) : [0,2]
RESULT: (v0x43edae0_0:REAL) : [0,2]
RESULT: (v0x43edce0_0:REAL) : [0,2]
RESULT: (v0x43edee0_0:REAL) : [0,2]
RESULT: (v0x43ee0e0_0:REAL) : [0,2]
RESULT: (v0x43ee2e0_0:REAL) : [0,2]
RESULT: (v0x43ee4e0_0:REAL) : [0,2]
RESULT: (v0x43ee6e0_0:REAL) : [0,2]
RESULT: (v0x43ee8e0_0:REAL) : [0,2]
RESULT: (v0x43e98e0_0:REAL) : [2,2]
