RESULT: (v0x4b688d0_0:REAL) : [1,1/0]
RESULT: (v0x4b68ad0_0:REAL) : [0,1]
RESULT: (v0x4b68cd0_0:REAL) : [0,1]
RESULT: (v0x4b68ed0_0:REAL) : [0,1]
RESULT: (v0x4b690d0_0:REAL) : [0,1]
RESULT: (v0x4b692d0_0:REAL) : [0,1]
RESULT: (v0x4b694d0_0:REAL) : [0,1]
RESULT: (v0x4b696d0_0:REAL) : [0,1]
RESULT: (v0x4b698d0_0:REAL) : [0,1]
RESULT: (v0x4b69ad0_0:REAL) : [0,1]
RESULT: (v0x4b69cd0_0:REAL) : [0,1]
RESULT: (v0x4b69ed0_0:REAL) : [0,2]
RESULT: (v0x4b6a0d0_0:REAL) : [0,3]
RESULT: (v0x4b6a2d0_0:REAL) : [123,777]
RESULT: (v0x4b6a4d0_0:REAL) : [0,666]
RESULT: (v0x4b6a6d0_0:REAL) : [0,2]
RESULT: (v0x4b6a8d0_0:REAL) : [0,1]
RESULT: (v0x4b6aad0_0:REAL) : [0,2]
RESULT: (v0x4b6acd0_0:REAL) : [0,456]
RESULT: (v0x4b6aed0_0:REAL) : [0,123]
RESULT: (v0x4b6b0d0_0:REAL) : [0,456]
RESULT: (v0x4b6b2d0_0:REAL) : [0,3]
RESULT: (v0x4b6b4d0_0:REAL) : [0,1]
RESULT: (v0x49e77d0_0:REAL) : [0,1]
