RESULT: (v0x4ea4cb0_0:REAL) : [1,1/0]
RESULT: (v0x4eaf430_0:REAL) : [0,1]
RESULT: (v0x4eaf630_0:REAL) : [0,1]
RESULT: (v0x4eaf830_0:REAL) : [0,1]
RESULT: (v0x4eafa30_0:REAL) : [0,1]
RESULT: (v0x4eafc30_0:REAL) : [0,1]
RESULT: (v0x4eafe30_0:REAL) : [0,1]
RESULT: (v0x4eb0030_0:REAL) : [0,1]
RESULT: (v0x4eb0230_0:REAL) : [0,1]
RESULT: (v0x4eb0430_0:REAL) : [0,1]
RESULT: (v0x4eb0630_0:REAL) : [0,1]
RESULT: (v0x4eb0830_0:REAL) : [0,1]
RESULT: (v0x4eb0a30_0:REAL) : [0,1]
RESULT: (v0x4eb0c30_0:REAL) : [0,2]
RESULT: (v0x4eb0e30_0:REAL) : [0,3]
RESULT: (v0x4eb1030_0:REAL) : [123,777]
RESULT: (v0x4eb1230_0:REAL) : [0,666]
RESULT: (v0x4eb1430_0:REAL) : [0,2]
RESULT: (v0x4eb1630_0:REAL) : [0,1]
RESULT: (v0x4eb1830_0:REAL) : [0,2]
RESULT: (v0x4eb1a30_0:REAL) : [0,456]
RESULT: (v0x4eb1c30_0:REAL) : [0,123]
RESULT: (v0x4eb1e30_0:REAL) : [0,456]
RESULT: (v0x4e99780_0:REAL) : [0,3]
