RESULT: (v0x4970ee0_0:REAL) : [1,1/0]
RESULT: (v0x49710e0_0:REAL) : [0,1]
RESULT: (v0x49712e0_0:REAL) : [0,1]
RESULT: (v0x49714e0_0:REAL) : [0,1]
RESULT: (v0x4967720_0:REAL) : [0,1]
RESULT: (v0x4967920_0:REAL) : [0,1]
RESULT: (v0x4967b20_0:REAL) : [0,1]
RESULT: (v0x4967d20_0:REAL) : [0,1]
RESULT: (v0x4967f00_0:REAL) : [0,1]
RESULT: (v0x49724c0_0:REAL) : [0,1]
RESULT: (v0x49726c0_0:REAL) : [0,1]
RESULT: (v0x49728c0_0:REAL) : [0,1]
RESULT: (v0x4972ac0_0:REAL) : [0,1]
RESULT: (v0x4972cc0_0:REAL) : [0,2]
RESULT: (v0x4972ec0_0:REAL) : [0,3]
RESULT: (v0x49730c0_0:REAL) : [0,1]
RESULT: (v0x49732c0_0:REAL) : [123,777]
RESULT: (v0x49734c0_0:REAL) : [0,666]
RESULT: (v0x49736c0_0:REAL) : [0,2]
RESULT: (v0x49738c0_0:REAL) : [0,1]
RESULT: (v0x4973ac0_0:REAL) : [0,2]
RESULT: (v0x4973cc0_0:REAL) : [1,456]
RESULT: (v0x4973ec0_0:REAL) : [0,123]
RESULT: (v0x49740c0_0:REAL) : [0,456]
RESULT: (v0x48105f0_0:REAL) : [0,3]
