RESULT: (v0x3529c50_0:REAL) : [1,1/0]
RESULT: (v0x3529e50_0:REAL) : [0,1]
RESULT: (v0x352a050_0:REAL) : [0,1]
RESULT: (v0x352a250_0:REAL) : [0,1]
RESULT: (v0x352a450_0:REAL) : [0,1]
RESULT: (v0x352a650_0:REAL) : [0,1]
RESULT: (v0x352a850_0:REAL) : [0,1]
RESULT: (v0x352aa50_0:REAL) : [0,1]
RESULT: (v0x352ac50_0:REAL) : [0,1]
RESULT: (v0x352ae50_0:REAL) : [0,1]
RESULT: (v0x352b050_0:REAL) : [0,1]
RESULT: (v0x352b250_0:REAL) : [123,777]
RESULT: (v0x352b450_0:REAL) : [0,666]
RESULT: (v0x352b650_0:REAL) : [0,2]
RESULT: (v0x352b850_0:REAL) : [0,1]
RESULT: (v0x352ba50_0:REAL) : [0,2]
RESULT: (v0x352bc50_0:REAL) : [0,456]
RESULT: (v0x352be50_0:REAL) : [0,123]
RESULT: (v0x352c050_0:REAL) : [0,456]
RESULT: (v0x352c250_0:REAL) : [0,3]
RESULT: (v0x352c450_0:REAL) : [0,1]
RESULT: (v0x3519f10_0:REAL) : [0,1]
RESULT: (v0x3503640_0:REAL) : [-1/0,1/0]
RESULT: (v0x3503340_0:REAL) : [0,456]
RESULT: (v0x3504540_0:REAL) : [-1/0,1/0]
RESULT: (v0x3504640_0:REAL) : [0,456]
RESULT: (v0x3504740_0:REAL) : [0,1]
RESULT: (v0x3504b40_0:REAL) : [1,2]
RESULT: (v0x3504c40_0:REAL) : [0,2]
RESULT: (v0x3504d40_0:REAL) : [0,1]
RESULT: (v0x3504e40_0:REAL) : [0,1]
RESULT: (v0x3506340_0:REAL) : [0,0]
RESULT: (v0x3506440_0:REAL) : [1,777]
RESULT: (v0x3506540_0:REAL) : [0,0]
RESULT: (v0x3506640_0:REAL) : [1,1]
RESULT: (v0x3506740_0:REAL) : [1,3]
RESULT: (v0x3506840_0:REAL) : [2,2]
RESULT: (v0x3506940_0:REAL) : [1,1]
RESULT: (v0x3506a40_0:REAL) : [1,3]
RESULT: (v0x3507440_0:REAL) : [0,0]
RESULT: (v0x3507540_0:REAL) : [0,123]
RESULT: (v0x3507640_0:REAL) : [0,0]
RESULT: (v0x3507740_0:REAL) : [0,1]
RESULT: (v0x3507840_0:REAL) : [2,2]
RESULT: (v0x3507940_0:REAL) : [2,2]
RESULT: (v0x3507a40_0:REAL) : [0,0]
RESULT: (v0x3507c40_0:REAL) : [0,1]
RESULT: (v0x3503540_0:REAL) : [0,1]
