RESULT: (v0x34002d0_0:REAL) : [0,1/0]
RESULT: (v0x34004d0_0:REAL) : [0,1]
RESULT: (v0x34006d0_0:REAL) : [0,1]
RESULT: (v0x34008d0_0:REAL) : [0,1]
RESULT: (v0x3400ad0_0:REAL) : [0,1]
RESULT: (v0x3400cd0_0:REAL) : [0,1]
RESULT: (v0x3400ed0_0:REAL) : [0,1]
RESULT: (v0x34010d0_0:REAL) : [0,1]
RESULT: (v0x34012d0_0:REAL) : [0,1]
RESULT: (v0x34014d0_0:REAL) : [0,1]
RESULT: (v0x34016d0_0:REAL) : [0,1]
RESULT: (v0x34018d0_0:REAL) : [0,1]
RESULT: (v0x3401ad0_0:REAL) : [0,1]
RESULT: (v0x3401cd0_0:REAL) : [0,2]
RESULT: (v0x3401ed0_0:REAL) : [0,3]
RESULT: (v0x34020d0_0:REAL) : [0,1]
RESULT: (v0x34022d0_0:REAL) : [123,777]
RESULT: (v0x34024d0_0:REAL) : [0,666]
RESULT: (v0x34026d0_0:REAL) : [0,2]
RESULT: (v0x34028d0_0:REAL) : [0,1]
RESULT: (v0x3402ad0_0:REAL) : [0,2]
RESULT: (v0x3402cd0_0:REAL) : [0,456]
RESULT: (v0x3402ed0_0:REAL) : [0,123]
RESULT: (v0x33ec9c0_0:REAL) : [0,456]
