RESULT: (v0x4ff26b0_0:REAL) : [0,0]
RESULT: (v0x4ff27b0_0:REAL) : [0,0]
RESULT: (v0x4ff28b0_0:REAL) : [0,0]
RESULT: (v0x4ff2a50_0:REAL) : [0,0]
RESULT: (v0x4ff2b50_0:REAL) : [0,0]
RESULT: (v0x4ff37b0_0:REAL) : [0,0]
RESULT: (v0x4ff3ab0_0:REAL) : [0,0]
RESULT: (v0x4ff3e70_0:REAL) : [0,0]
RESULT: (v0x4efbcc0_0:REAL) : [0,6]
RESULT: (v0x4f38ff0_0:REAL) : [-1/0,1/0]
RESULT: (v0x4f38f10_0:REAL) : [-1/0,1/0]
RESULT: (v0x4f38cd0_0:REAL) : [0,1]
RESULT: (v0x4f38bf0_0:REAL) : [0,1/0]
RESULT: (v0x4f389b0_0:REAL) : [0,1/0]
RESULT: (v0x4f04880_0:REAL) : [-1/0,1/0]
RESULT: (v0x4f01230_0:REAL) : [-1/0,1/0]
RESULT: (v0x4f01530_0:REAL) : [-1/0,1/0]
RESULT: (v0x4f01690_0:REAL) : [-1/0,1/0]
RESULT: (v0x4f01910_0:REAL) : [-1/0,1/0]
RESULT: (v0x4f01980_0:REAL) : [-1/0,1/0]
RESULT: (v0x4f01ae0_0:REAL) : [-1/0,1/0]
RESULT: (v0x4f01360_0:REAL) : [-1/0,4]
RESULT: (v0x4f01e90_0:REAL) : [-1/0,1/0]
