RESULT: (v0x35ad060_0:REAL) : [0,1/0]
RESULT: (v0x35ad260_0:REAL) : [0,1]
RESULT: (v0x35ad460_0:REAL) : [0,1]
RESULT: (v0x35ad660_0:REAL) : [0,1]
RESULT: (v0x35ad860_0:REAL) : [0,1]
RESULT: (v0x35ada60_0:REAL) : [0,1]
RESULT: (v0x35adc60_0:REAL) : [0,1]
RESULT: (v0x35ade60_0:REAL) : [0,1]
RESULT: (v0x35ae060_0:REAL) : [0,1]
RESULT: (v0x35ae260_0:REAL) : [0,1]
RESULT: (v0x35ae460_0:REAL) : [0,1]
RESULT: (v0x35ae660_0:REAL) : [0,2]
RESULT: (v0x35ae860_0:REAL) : [0,3]
RESULT: (v0x35aea60_0:REAL) : [0,1]
RESULT: (v0x35aec60_0:REAL) : [123,777]
RESULT: (v0x35aee60_0:REAL) : [0,666]
RESULT: (v0x35af060_0:REAL) : [0,2]
RESULT: (v0x35af260_0:REAL) : [0,1]
RESULT: (v0x35af460_0:REAL) : [0,2]
RESULT: (v0x35af660_0:REAL) : [0,456]
RESULT: (v0x35af860_0:REAL) : [0,123]
RESULT: (v0x35afa60_0:REAL) : [0,456]
RESULT: (v0x35afc60_0:REAL) : [0,3]
RESULT: (v0x35afe60_0:REAL) : [0,1]
RESULT: (v0x3597a40_0:REAL) : [0,1]
