RESULT: (v0x4114430_0:REAL) : [0,1/0]
RESULT: (v0x4114530_0:REAL) : [0,0]
RESULT: (v0x411cfc0_0:REAL) : [0,0]
RESULT: (v0x4123100_0:REAL) : [1,2]
RESULT: (v0x41232e0_0:REAL) : [27,27]
RESULT: (v0x41eb090_0:REAL) : [8,8]
RESULT: (v0x42be0d0_0:REAL) : [-1/0,1/0]
RESULT: (v0x42ea190_0:REAL) : [-1/0,1/0]
RESULT: (v0x426d370_0:REAL) : [-1/0,1/0]
RESULT: (v0x42bc0c0_0:REAL) : [-1/0,1/0]
RESULT: (v0x41ea6c0_0:REAL) : [-1/0,1/0]
RESULT: (v0x43d6150_0:REAL) : [-1/0,1/0]
RESULT: (v0x4520f70_0:REAL) : [-1/0,1/0]
RESULT: (v0x43e13c0_0:REAL) : [-1/0,1/0]
RESULT: (v0x4154a00_0:REAL) : [-1/0,1/0]
RESULT: (v0x4154700_0:REAL) : [-1/0,1/0]
RESULT: (v0x4154400_0:REAL) : [-1/0,1/0]
RESULT: (v0x4158b00_0:REAL) : [-1/0,1/0]
RESULT: (v0x4158c00_0:REAL) : [-1/0,1/0]
RESULT: (v0x4158d00_0:REAL) : [-1/0,1/0]
RESULT: (v0x4158e00_0:REAL) : [-1/0,1/0]
RESULT: (v0x4158f00_0:REAL) : [-1/0,1/0]
RESULT: (v0x4159000_0:REAL) : [-1/0,1/0]
RESULT: (v0x4159100_0:REAL) : [-1/0,1/0]
RESULT: (v0x4159200_0:REAL) : [-1/0,1/0]
RESULT: (v0x4159300_0:REAL) : [-1/0,1/0]
RESULT: (v0x42bdab0_0:REAL) : [-1/0,1/0]
RESULT: (v0x4159400_0:REAL) : [-1/0,1/0]
RESULT: (v0x42ba430_0:REAL) : [-1/0,1/0]
RESULT: (v0x4159500_0:REAL) : [-1/0,1/0]
RESULT: (v0x44be9e0_0:REAL) : [-1/0,1/0]
RESULT: (v0x4159600_0:REAL) : [-1/0,1/0]
RESULT: (v0x446eaa0_0:REAL) : [-1/0,1/0]
RESULT: (v0x4a1da60_0:REAL) : [-1/0,1/0]
RESULT: (v0x4152a00_0:REAL) : [-1/0,1/0]
RESULT: (v0x46adad0_0:REAL) : [0,0]
RESULT: (v0x4153900_0:REAL) : [24,24]
RESULT: (v0x4153a00_0:REAL) : [-1/0,1/0]
RESULT: (v0x4153b00_0:REAL) : [-1/0,1/0]
RESULT: (v0x4153c00_0:REAL) : [-1/0,1/0]
RESULT: (v0x4153d00_0:REAL) : [-1/0,1/0]
RESULT: (v0x4152600_0:REAL) : [-1/0,1/0]
RESULT: (v0x4153e00_0:REAL) : [-1/0,1/0]
RESULT: (v0x4152700_0:REAL) : [-1/0,1/0]
RESULT: (v0x4153f00_0:REAL) : [-1/0,1/0]
RESULT: (v0x4152500_0:REAL) : [-1/0,1/0]
RESULT: (v0x4154100_0:REAL) : [-1/0,1/0]
RESULT: (v0x4154000_0:REAL) : [-1/0,1/0]
RESULT: (v0x4154200_0:REAL) : [-1/0,1/0]
RESULT: (v0x4154500_0:REAL) : [-1/0,1/0]
RESULT: (v0x4154800_0:REAL) : [-1/0,1/0]
RESULT: (v0x4154c00_0:REAL) : [-1/0,1/0]
RESULT: (v0x4154d00_0:REAL) : [-1/0,1/0]
RESULT: (v0x4155000_0:REAL) : [-1/0,1/0]
RESULT: (v0x4154f00_0:REAL) : [-1/0,1/0]
RESULT: (v0x4159700_0:REAL) : [9,9]
RESULT: (v0x4152800_0:REAL) : [-1/0,1/0]
RESULT: (v0x4151300_0:REAL) : [-1/0,1/0]
RESULT: (v0x4152b00_0:REAL) : [-1/0,1/0]
RESULT: (v0x4159800_0:REAL) : [-1/0,1/0]
RESULT: (v0x4159a00_0:REAL) : [-1/0,1/0]
RESULT: (v0x4159b00_0:REAL) : [-1/0,1/0]
RESULT: (v0x4159c00_0:REAL) : [-1/0,1/0]
RESULT: (v0x4159d00_0:REAL) : [-1/0,1/0]
