RESULT: (v0x3ddcae0_0:REAL) : [1,1/0]
RESULT: (v0x3ddcce0_0:REAL) : [0,1]
RESULT: (v0x3ddcee0_0:REAL) : [0,1]
RESULT: (v0x3ddd0e0_0:REAL) : [0,1]
RESULT: (v0x3ddd2e0_0:REAL) : [0,1]
RESULT: (v0x3ddd4e0_0:REAL) : [0,1]
RESULT: (v0x3ddd6e0_0:REAL) : [0,1]
RESULT: (v0x3ddd8e0_0:REAL) : [0,1]
RESULT: (v0x3dddae0_0:REAL) : [0,1]
RESULT: (v0x3dd3fa0_0:REAL) : [0,1]
RESULT: (v0x3dd41a0_0:REAL) : [0,1]
RESULT: (v0x3dd43a0_0:REAL) : [0,1]
RESULT: (v0x3dd45a0_0:REAL) : [0,1]
RESULT: (v0x3dd4780_0:REAL) : [0,2]
RESULT: (v0x3ddeae0_0:REAL) : [0,3]
RESULT: (v0x3ddece0_0:REAL) : [0,1]
RESULT: (v0x3ddeee0_0:REAL) : [123,777]
RESULT: (v0x3ddf0e0_0:REAL) : [0,666]
RESULT: (v0x3ddf2e0_0:REAL) : [0,2]
RESULT: (v0x3ddf4e0_0:REAL) : [0,1]
RESULT: (v0x3ddf6e0_0:REAL) : [0,2]
RESULT: (v0x3ddf8e0_0:REAL) : [0,456]
RESULT: (v0x3ddfae0_0:REAL) : [0,123]
RESULT: (v0x3dc78d0_0:REAL) : [0,456]
