RESULT: (v0x385def0_0:REAL) : [0,1/0]
RESULT: (v0x385e0f0_0:REAL) : [0,1]
RESULT: (v0x385e2f0_0:REAL) : [0,1]
RESULT: (v0x385e4f0_0:REAL) : [0,1]
RESULT: (v0x385e6f0_0:REAL) : [0,1]
RESULT: (v0x385e8f0_0:REAL) : [0,1]
RESULT: (v0x3854c30_0:REAL) : [0,1]
RESULT: (v0x3854e30_0:REAL) : [0,1]
RESULT: (v0x3855030_0:REAL) : [0,1]
RESULT: (v0x3855230_0:REAL) : [0,1]
RESULT: (v0x3855410_0:REAL) : [0,1]
RESULT: (v0x385f8f0_0:REAL) : [0,1]
RESULT: (v0x385faf0_0:REAL) : [0,1]
RESULT: (v0x385fcf0_0:REAL) : [0,2]
RESULT: (v0x385fef0_0:REAL) : [0,3]
RESULT: (v0x38600f0_0:REAL) : [0,1]
RESULT: (v0x38602f0_0:REAL) : [123,777]
RESULT: (v0x38604f0_0:REAL) : [0,666]
RESULT: (v0x38606f0_0:REAL) : [0,2]
RESULT: (v0x38608f0_0:REAL) : [0,1]
RESULT: (v0x3860af0_0:REAL) : [0,2]
RESULT: (v0x3860cf0_0:REAL) : [0,456]
RESULT: (v0x3860ef0_0:REAL) : [0,123]
RESULT: (v0x36e3100_0:REAL) : [0,456]
