RESULT: (v0x42c1f00_0:REAL) : [1,2]
RESULT: (v0x41e22b0_0:REAL) : [0,6]
RESULT: (v0x41de570_0:REAL) : [0,1]
RESULT: (v0x41de630_0:REAL) : [0,2]
RESULT: (v0x41e1ac0_0:REAL) : [0,1]
RESULT: (v0x41e1b80_0:REAL) : [0,0]
RESULT: (v0x41e17c0_0:REAL) : [0,50]
RESULT: (v0x41e1880_0:REAL) : [0,0]
RESULT: (v0x41e14c0_0:REAL) : [0,1]
RESULT: (v0x41e1580_0:REAL) : [0,1]
RESULT: (v0x41dfb60_0:REAL) : [0,0]
RESULT: (v0x41dedc0_0:REAL) : [0,2]
RESULT: (v0x41d1590_0:REAL) : [0,1]
RESULT: (v0x41ce800_0:REAL) : [0,0]
RESULT: (v0x41dfa80_0:REAL) : [-1/0,1/0]
RESULT: (v0x41ceb00_0:REAL) : [-1/0,1/0]
RESULT: (v0x42ca850_0:REAL) : [0,6]
RESULT: (v0x42ca950_0:REAL) : [0,1]
RESULT: (v0x42caa50_0:REAL) : [0,2]
RESULT: (v0x42cab50_0:REAL) : [0,1]
RESULT: (v0x42cac50_0:REAL) : [0,0]
RESULT: (v0x42cad50_0:REAL) : [0,50]
RESULT: (v0x42cae50_0:REAL) : [0,0]
RESULT: (v0x42caf50_0:REAL) : [0,1]
RESULT: (v0x42cb050_0:REAL) : [0,1]
RESULT: (v0x42cb150_0:REAL) : [0,0]
RESULT: (v0x42cb250_0:REAL) : [-1/0,1/0]
RESULT: (v0x42cb350_0:REAL) : [0,0]
RESULT: (v0x42cb450_0:REAL) : [0,1]
RESULT: (v0x42cb550_0:REAL) : [0,0]
RESULT: (v0x42cb650_0:REAL) : [-1/0,1/0]
RESULT: (v0x42c2500_0:REAL) : [-1/0,1/0]
RESULT: (v0x42c1200_0:REAL) : [-1/0,1/0]
RESULT: (v0x42c2200_0:REAL) : [-1/0,1/0]
RESULT: (v0x42cb850_0:REAL) : [-1/0,1/0]
RESULT: (v0x41e6600_0:REAL) : [-1/0,1/0]
RESULT: (v0x4602240_0:REAL) : [-1/0,1/0]
RESULT: (v0x43f3160_0:REAL) : [0,2]
RESULT: (v0x41e3ff0_0:REAL) : [0,1]
RESULT: (v0x4403250_0:REAL) : [0,1]
RESULT: (v0x43e9550_0:REAL) : [-1/0,1/0]
RESULT: (v0x42cb750_0:REAL) : [-1/0,1/0]
