RESULT: (v0x379a120_0:REAL) : [0,0]
RESULT: (v0x379a220_0:REAL) : [0,0]
RESULT: (v0x379a320_0:REAL) : [0,0]
RESULT: (v0x379a4c0_0:REAL) : [0,0]
RESULT: (v0x379b120_0:REAL) : [0,0]
RESULT: (v0x379b420_0:REAL) : [0,0]
RESULT: (v0x379aac0_0:REAL) : [0,0]
RESULT: (v0x36e50c0_0:REAL) : [0,1]
RESULT: (v0x36e4d00_0:REAL) : [0,1]
RESULT: (v0x36e4dc0_0:REAL) : [0,0]
RESULT: (v0x36e36a0_0:REAL) : [0,1]
RESULT: (v0x36e35c0_0:REAL) : [0,1/0]
RESULT: (v0x36e3380_0:REAL) : [0,1/0]
RESULT: (v0x36e32a0_0:REAL) : [0,1/0]
RESULT: (v0x36e07b0_0:REAL) : [0,1]
RESULT: (v0x36abc80_0:REAL) : [0,1]
RESULT: (v0x36a89f0_0:REAL) : [0,1/0]
RESULT: (v0x36a8c80_0:REAL) : [0,0]
RESULT: (v0x36a8de0_0:REAL) : [1,1]
RESULT: (v0x36a9090_0:REAL) : [0,0]
RESULT: (v0x36a8c40_0:REAL) : [-1/0,1/0]
RESULT: (v0x36ea740_0:REAL) : [0,1]
RESULT: (v0x36eacf0_0:REAL) : [0,1/0]
RESULT: (v0x36e95d0_0:REAL) : [0,1/0]
RESULT: (v0x36eba60_0:REAL) : [0,1/0]
RESULT: (v0x36ec5a0_0:REAL) : [0,1]
RESULT: (v0x36eaac0_0:REAL) : [1,1]
RESULT: (v0x36eb980_0:REAL) : [0,1]
RESULT: (v0x36ebae0_0:REAL) : [0,1]
RESULT: (v0x36e8320_0:REAL) : [0,1/0]
RESULT: (v0x36e8f60_0:REAL) : [-1/0,1/0]
RESULT: (v0x36e8e00_0:REAL) : [0,0]
RESULT: (v0x36e84f0_0:REAL) : [1,1]
RESULT: (v0x379cbe0_0:REAL) : [-1/0,1/0]
