RESULT: (v0x43d9ef0_0:REAL) : [0,0]
RESULT: (v0x40f6e20_0:REAL) : [-1/0,1/0]
RESULT: (v0x40f7020_0:REAL) : [0,2]
RESULT: (v0x40f7120_0:REAL) : [0,0]
RESULT: (v0x40f7220_0:REAL) : [-1/0,1/0]
RESULT: (v0x40f6d20_0:REAL) : [-1/0,1/0]
RESULT: (v0x40f7420_0:REAL) : [-1/0,1/0]
RESULT: (v0x40f7520_0:REAL) : [-1/0,1/0]
RESULT: (v0x40f7720_0:REAL) : [-1/0,1/0]
RESULT: (v0x40f7920_0:REAL) : [-1/0,1/0]
RESULT: (v0x40f7c20_0:REAL) : [-1/0,1/0]
RESULT: (v0x40f7e20_0:REAL) : [-1/0,1/0]
RESULT: (v0x40f7f20_0:REAL) : [-1/0,1/0]
RESULT: (v0x40f8120_0:REAL) : [-1/0,1/0]
RESULT: (v0x40f8320_0:REAL) : [-1/0,1/0]
RESULT: (v0x40f8620_0:REAL) : [-1/0,1/0]
RESULT: (v0x40f8820_0:REAL) : [-1/0,1/0]
RESULT: (v0x40f8920_0:REAL) : [-1/0,1/0]
RESULT: (v0x40f8b20_0:REAL) : [-1/0,1/0]
RESULT: (v0x40f8d20_0:REAL) : [-1/0,1/0]
RESULT: (v0x40f9020_0:REAL) : [-1/0,1/0]
RESULT: (v0x40f9220_0:REAL) : [-1/0,1/0]
RESULT: (v0x40f9320_0:REAL) : [-1/0,1/0]
RESULT: (v0x40f9520_0:REAL) : [-1/0,1/0]
RESULT: (v0x40f9720_0:REAL) : [-1/0,1/0]
RESULT: (v0x40f9a20_0:REAL) : [-1/0,1/0]
RESULT: (v0x40f9c20_0:REAL) : [-1/0,1/0]
RESULT: (v0x40f9d20_0:REAL) : [-1/0,1/0]
RESULT: (v0x40f9f20_0:REAL) : [-1/0,1/0]
RESULT: (v0x40fa120_0:REAL) : [-1/0,1/0]
RESULT: (v0x40fa420_0:REAL) : [-1/0,1/0]
RESULT: (v0x40fa620_0:REAL) : [-1/0,1/0]
RESULT: (v0x40fa720_0:REAL) : [-1/0,1/0]
RESULT: (v0x40fa920_0:REAL) : [-1/0,1/0]
RESULT: (v0x40fab20_0:REAL) : [-1/0,1/0]
RESULT: (v0x40fae20_0:REAL) : [-1/0,1/0]
RESULT: (v0x40fb020_0:REAL) : [-1/0,1/0]
RESULT: (v0x40fb120_0:REAL) : [-1/0,1/0]
RESULT: (v0x40fb320_0:REAL) : [-1/0,1/0]
RESULT: (v0x40fb520_0:REAL) : [-1/0,1/0]
RESULT: (v0x40fb820_0:REAL) : [-1/0,1/0]
RESULT: (v0x40fba20_0:REAL) : [-1/0,1/0]
RESULT: (v0x40fbb20_0:REAL) : [-1/0,1/0]
RESULT: (v0x40fbd20_0:REAL) : [-1/0,1/0]
RESULT: (v0x40fbf20_0:REAL) : [-1/0,1/0]
RESULT: (v0x40fc220_0:REAL) : [-1/0,1/0]
RESULT: (v0x40fc420_0:REAL) : [-1/0,1/0]
RESULT: (v0x40fc520_0:REAL) : [-1/0,1/0]
RESULT: (v0x40fc720_0:REAL) : [-1/0,1/0]
RESULT: (v0x40fc920_0:REAL) : [-1/0,1/0]
RESULT: (v0x40fcc20_0:REAL) : [-1/0,1/0]
RESULT: (v0x40fce20_0:REAL) : [-1/0,1/0]
RESULT: (v0x40fcf20_0:REAL) : [-1/0,1/0]
RESULT: (v0x40fd120_0:REAL) : [-1/0,1/0]
RESULT: (v0x40fd320_0:REAL) : [-1/0,1/0]
RESULT: (v0x40fd620_0:REAL) : [-1/0,1/0]
RESULT: (v0x40f6c20_0:REAL) : [-1/0,1/0]
RESULT: (v0x40fdc20_0:REAL) : [-1/0,1/0]
RESULT: (v0x40fdd20_0:REAL) : [-1/0,1/0]
RESULT: (v0x40fdf20_0:REAL) : [-1/0,1/0]
RESULT: (v0x40fe120_0:REAL) : [-1/0,1/0]
RESULT: (v0x40fe320_0:REAL) : [-1/0,1/0]
RESULT: (v0x40fe520_0:REAL) : [-1/0,1/0]
RESULT: (v0x40fe720_0:REAL) : [-1/0,1/0]
RESULT: (v0x40fe920_0:REAL) : [-1/0,1/0]
RESULT: (v0x40feb20_0:REAL) : [-1/0,1/0]
RESULT: (v0x40fed20_0:REAL) : [-1/0,1/0]
RESULT: (v0x40fee20_0:REAL) : [-1/0,1/0]
RESULT: (v0x40ff020_0:REAL) : [-1/0,1/0]
RESULT: (v0x40ff220_0:REAL) : [-1/0,1/0]
RESULT: (v0x40ff520_0:REAL) : [-1/0,1/0]
RESULT: (v0x40ff720_0:REAL) : [-1/0,1/0]
RESULT: (v0x40ff820_0:REAL) : [-1/0,1/0]
RESULT: (v0x40ffa20_0:REAL) : [-1/0,1/0]
RESULT: (v0x40ffc20_0:REAL) : [-1/0,1/0]
RESULT: (v0x40fff20_0:REAL) : [-1/0,1/0]
RESULT: (v0x4100120_0:REAL) : [-1/0,1/0]
RESULT: (v0x4100220_0:REAL) : [-1/0,1/0]
RESULT: (v0x4100420_0:REAL) : [-1/0,1/0]
RESULT: (v0x40e7e30_0:REAL) : [-1/0,1/0]
RESULT: (v0x40e8130_0:REAL) : [-1/0,1/0]
RESULT: (v0x40e8330_0:REAL) : [-1/0,1/0]
RESULT: (v0x40e8430_0:REAL) : [-1/0,1/0]
RESULT: (v0x40e8630_0:REAL) : [-1/0,1/0]
RESULT: (v0x40e8830_0:REAL) : [-1/0,1/0]
RESULT: (v0x40e8b30_0:REAL) : [-1/0,1/0]
RESULT: (v0x40e8d30_0:REAL) : [-1/0,1/0]
RESULT: (v0x40e8e30_0:REAL) : [-1/0,1/0]
RESULT: (v0x40e9030_0:REAL) : [-1/0,1/0]
RESULT: (v0x40e9230_0:REAL) : [-1/0,1/0]
RESULT: (v0x40e9530_0:REAL) : [-1/0,1/0]
RESULT: (v0x4103850_0:REAL) : [-1/0,1/0]
RESULT: (v0x4103c50_0:REAL) : [-1/0,1/0]
RESULT: (v0x40f6b20_0:REAL) : [-1/0,1/0]
RESULT: (v0x40f6a20_0:REAL) : [-1/0,1/0]
RESULT: (v0x4104350_0:REAL) : [-1/0,1/0]
RESULT: (v0x4104450_0:REAL) : [-1/0,1/0]
RESULT: (v0x4104650_0:REAL) : [-1/0,1/0]
RESULT: (v0x4104850_0:REAL) : [-1/0,1/0]
RESULT: (v0x4104a50_0:REAL) : [-1/0,1/0]
RESULT: (v0x4104c50_0:REAL) : [-1/0,1/0]
RESULT: (v0x4104e50_0:REAL) : [-1/0,1/0]
RESULT: (v0x4105050_0:REAL) : [-1/0,1/0]
RESULT: (v0x4105250_0:REAL) : [-1/0,1/0]
RESULT: (v0x4105450_0:REAL) : [-1/0,1/0]
RESULT: (v0x4105550_0:REAL) : [-1/0,1/0]
RESULT: (v0x4105750_0:REAL) : [-1/0,1/0]
RESULT: (v0x4105950_0:REAL) : [-1/0,1/0]
RESULT: (v0x4105c50_0:REAL) : [-1/0,1/0]
RESULT: (v0x4105e50_0:REAL) : [-1/0,1/0]
RESULT: (v0x4105f50_0:REAL) : [-1/0,1/0]
RESULT: (v0x4106150_0:REAL) : [-1/0,1/0]
RESULT: (v0x4106350_0:REAL) : [-1/0,1/0]
RESULT: (v0x4106650_0:REAL) : [-1/0,1/0]
RESULT: (v0x4106850_0:REAL) : [-1/0,1/0]
RESULT: (v0x4106950_0:REAL) : [-1/0,1/0]
RESULT: (v0x4106b50_0:REAL) : [-1/0,1/0]
RESULT: (v0x4106d50_0:REAL) : [-1/0,1/0]
RESULT: (v0x4107050_0:REAL) : [-1/0,1/0]
RESULT: (v0x4107250_0:REAL) : [-1/0,1/0]
RESULT: (v0x4107350_0:REAL) : [-1/0,1/0]
RESULT: (v0x4107550_0:REAL) : [-1/0,1/0]
RESULT: (v0x4107750_0:REAL) : [-1/0,1/0]
RESULT: (v0x4107a50_0:REAL) : [-1/0,1/0]
RESULT: (v0x4107c50_0:REAL) : [-1/0,1/0]
RESULT: (v0x4107d50_0:REAL) : [-1/0,1/0]
RESULT: (v0x4107f50_0:REAL) : [-1/0,1/0]
RESULT: (v0x4108150_0:REAL) : [-1/0,1/0]
RESULT: (v0x4108450_0:REAL) : [-1/0,1/0]
RESULT: (v0x4108750_0:REAL) : [-1/0,1/0]
RESULT: (v0x4108b50_0:REAL) : [-1/0,1/0]
RESULT: (v0x40f6920_0:REAL) : [-1/0,1/0]
