RESULT: (v0x39bcd90_0:REAL) : [1,1/0]
RESULT: (v0x39bcf90_0:REAL) : [0,1]
RESULT: (v0x39bd190_0:REAL) : [0,1]
RESULT: (v0x39bd390_0:REAL) : [0,1]
RESULT: (v0x39bd590_0:REAL) : [0,1]
RESULT: (v0x39bd790_0:REAL) : [0,1]
RESULT: (v0x39bd990_0:REAL) : [0,1]
RESULT: (v0x39bdb90_0:REAL) : [0,1]
RESULT: (v0x39bdd90_0:REAL) : [0,1]
RESULT: (v0x39bdf90_0:REAL) : [0,1]
RESULT: (v0x39be190_0:REAL) : [0,1]
RESULT: (v0x39be390_0:REAL) : [0,2]
RESULT: (v0x39be590_0:REAL) : [0,3]
RESULT: (v0x39be790_0:REAL) : [0,1]
RESULT: (v0x39be990_0:REAL) : [123,777]
RESULT: (v0x39beb90_0:REAL) : [0,666]
RESULT: (v0x39b53d0_0:REAL) : [0,2]
RESULT: (v0x39b55d0_0:REAL) : [0,1]
RESULT: (v0x39b57d0_0:REAL) : [0,2]
RESULT: (v0x39b59d0_0:REAL) : [0,456]
RESULT: (v0x39b5bb0_0:REAL) : [0,123]
RESULT: (v0x39bfb90_0:REAL) : [0,456]
RESULT: (v0x39bfd90_0:REAL) : [0,3]
RESULT: (v0x39bff90_0:REAL) : [0,1]
RESULT: (v0x39a89d0_0:REAL) : [0,1]
RESULT: (v0x3988bb0_0:REAL) : [0,2]
RESULT: (v0x3988cb0_0:REAL) : [0,2]
RESULT: (v0x3988db0_0:REAL) : [1,1]
RESULT: (v0x3988eb0_0:REAL) : [0,1]
RESULT: (v0x3988fb0_0:REAL) : [1,3]
RESULT: (v0x39894b0_0:REAL) : [0,0]
RESULT: (v0x39895b0_0:REAL) : [123,777]
RESULT: (v0x39896b0_0:REAL) : [0,0]
