RESULT: (v0x4287a00_0:REAL) : [0,1]
RESULT: (v0x4270b60_0:REAL) : [0,1]
RESULT: (v0x42a1330_0:REAL) : [0,1]
RESULT: (v0x42a1530_0:REAL) : [0,1]
RESULT: (v0x42a1730_0:REAL) : [0,1]
RESULT: (v0x42a1930_0:REAL) : [0,1]
RESULT: (v0x42a1bf0_0:REAL) : [0,1]
RESULT: (v0x42a1df0_0:REAL) : [0,1]
RESULT: (v0x42a1ff0_0:REAL) : [0,1]
RESULT: (v0x42a21f0_0:REAL) : [0,1]
RESULT: (v0x42a23f0_0:REAL) : [0,1]
RESULT: (v0x42a25f0_0:REAL) : [0,1]
RESULT: (v0x42a27f0_0:REAL) : [0,1]
RESULT: (v0x42a29f0_0:REAL) : [1,1]
RESULT: (v0x42a2bf0_0:REAL) : [-1/0,1/0]
RESULT: (v0x42a2df0_0:REAL) : [-1/0,1/0]
RESULT: (v0x42a2ff0_0:REAL) : [0,2]
RESULT: (v0x42a31f0_0:REAL) : [0,2]
RESULT: (v0x42a1b30_0:REAL) : [0,2]
RESULT: (v0x42a36c0_0:REAL) : [0,2]
RESULT: (v0x42a38c0_0:REAL) : [0,2]
RESULT: (v0x42a3ac0_0:REAL) : [0,2]
RESULT: (v0x42a3cc0_0:REAL) : [0,2]
RESULT: (v0x42a3ec0_0:REAL) : [0,2]
RESULT: (v0x42a40c0_0:REAL) : [0,2]
RESULT: (v0x42a42c0_0:REAL) : [0,2]
RESULT: (v0x42a44c0_0:REAL) : [0,2]
RESULT: (v0x42a46c0_0:REAL) : [0,2]
RESULT: (v0x42a48c0_0:REAL) : [0,2]
RESULT: (v0x429f650_0:REAL) : [2,2]
