RESULT: (v0x3862560_1:REAL) : [3,11]
RESULT: (v0x3862760_1:REAL) : [-1/0,1/0]
RESULT: (v0x3862960_1:REAL) : [0,1]
RESULT: (v0x3862b60_1:REAL) : [0,1]
RESULT: (v0x3862d60_1:REAL) : [-1/0,1/0]
RESULT: (v0x3862f60_1:REAL) : [0,1]
RESULT: (v0x3863160_1:REAL) : [0,1]
RESULT: (v0x3863360_1:REAL) : [0,1]
RESULT: (v0x3863560_1:REAL) : [0,1]
RESULT: (v0x3863760_1:REAL) : [0,1]
RESULT: (v0x3863960_1:REAL) : [0,1]
RESULT: (v0x3863b60_1:REAL) : [0,1]
RESULT: (v0x3863d60_1:REAL) : [0,1]
RESULT: (v0x3863f60_1:REAL) : [0,1]
RESULT: (v0x3864160_1:REAL) : [0,1]
RESULT: (v0x34b8f40_1:REAL) : [0,1]
