RESULT: (v0x550ca40_0:REAL) : [0,0]
RESULT: (v0x4e8fc30_0:REAL) : [-1/0,1/0]
RESULT: (v0x4e8fa30_0:REAL) : [-1/0,1/0]
RESULT: (v0x4e90130_0:REAL) : [-1/0,1/0]
RESULT: (v0x4e90330_0:REAL) : [-1/0,1/0]
RESULT: (v0x4e8f830_0:REAL) : [-1/0,1/0]
RESULT: (v0x4e90630_0:REAL) : [-1/0,1/0]
RESULT: (v0x4e90830_0:REAL) : [-1/0,1/0]
RESULT: (v0x4e90a30_0:REAL) : [-1/0,1/0]
RESULT: (v0x4e90c30_0:REAL) : [-1/0,1/0]
RESULT: (v0x4e90e30_0:REAL) : [-1/0,1/0]
RESULT: (v0x4e91030_0:REAL) : [-1/0,1/0]
RESULT: (v0x4e91230_0:REAL) : [-1/0,1/0]
RESULT: (v0x4e91330_0:REAL) : [-1/0,1/0]
RESULT: (v0x4e91630_0:REAL) : [-1/0,1/0]
RESULT: (v0x4e91830_0:REAL) : [-1/0,1/0]
RESULT: (v0x4e91d30_0:REAL) : [-1/0,1/0]
RESULT: (v0x4e8f630_0:REAL) : [-1/0,1/0]
RESULT: (v0x4e92030_0:REAL) : [-1/0,1/0]
RESULT: (v0x4e92330_0:REAL) : [-1/0,1/0]
RESULT: (v0x4e92630_0:REAL) : [-1/0,1/0]
RESULT: (v0x4e8f530_0:REAL) : [-1/0,1/0]
RESULT: (v0x4e8f230_0:REAL) : [-1/0,1/0]
RESULT: (v0x4e92c30_0:REAL) : [0,1]
RESULT: (v0x4e92f30_0:REAL) : [-1/0,1/0]
RESULT: (v0x4e93030_0:REAL) : [-1/0,1/0]
RESULT: (v0x4e93230_0:REAL) : [-1/0,1/0]
RESULT: (v0x4e93430_0:REAL) : [-1/0,1/0]
RESULT: (v0x4e93630_0:REAL) : [-1/0,1/0]
RESULT: (v0x4e93830_0:REAL) : [-1/0,1/0]
RESULT: (v0x4e93a30_0:REAL) : [-1/0,1/0]
RESULT: (v0x4e8f330_0:REAL) : [-1/0,1/0]
RESULT: (v0x4e93c30_0:REAL) : [-1/0,1/0]
RESULT: (v0x4e93e30_0:REAL) : [-1/0,1/0]
RESULT: (v0x4e94030_0:REAL) : [-1/0,1/0]
RESULT: (v0x4e94130_0:REAL) : [-1/0,1/0]
RESULT: (v0x4e94330_0:REAL) : [-1/0,1/0]
RESULT: (v0x4e94530_0:REAL) : [-1/0,1/0]
RESULT: (v0x4e94730_0:REAL) : [-1/0,1/0]
RESULT: (v0x4e94930_0:REAL) : [-1/0,1/0]
RESULT: (v0x4e94b30_0:REAL) : [-1/0,1/0]
RESULT: (v0x4e94d30_0:REAL) : [-1/0,1/0]
RESULT: (v0x4e8cd40_0:REAL) : [-1/0,1/0]
RESULT: (v0x4e8cf40_0:REAL) : [-1/0,1/0]
RESULT: (v0x4e8d140_0:REAL) : [-1/0,1/0]
RESULT: (v0x4e8d340_0:REAL) : [-1/0,1/0]
RESULT: (v0x4e8f130_0:REAL) : [-1/0,1/0]
RESULT: (v0x4e95c50_0:REAL) : [0,1]
RESULT: (v0x4e95d50_0:REAL) : [-1/0,1/0]
RESULT: (v0x4e95e50_0:REAL) : [-1/0,1/0]
RESULT: (v0x4e96050_0:REAL) : [-1/0,1/0]
RESULT: (v0x4e96250_0:REAL) : [-1/0,1/0]
RESULT: (v0x4e96450_0:REAL) : [-1/0,1/0]
RESULT: (v0x4e96650_0:REAL) : [-1/0,1/0]
RESULT: (v0x4e96850_0:REAL) : [-1/0,1/0]
RESULT: (v0x4e96950_0:REAL) : [-1/0,1/0]
RESULT: (v0x4e96b50_0:REAL) : [-1/0,1/0]
RESULT: (v0x4e96d50_0:REAL) : [-1/0,1/0]
RESULT: (v0x4e96f50_0:REAL) : [-1/0,1/0]
RESULT: (v0x4e97150_0:REAL) : [-1/0,1/0]
RESULT: (v0x4e97450_0:REAL) : [-1/0,1/0]
RESULT: (v0x4e8ef30_0:REAL) : [-1/0,1/0]
RESULT: (v0x4e97650_0:REAL) : [-1/0,1/0]
RESULT: (v0x4e97750_0:REAL) : [-1/0,1/0]
RESULT: (v0x4e97950_0:REAL) : [-1/0,1/0]
RESULT: (v0x4e97b50_0:REAL) : [-1/0,1/0]
RESULT: (v0x4e97d50_0:REAL) : [-1/0,1/0]
RESULT: (v0x4e97f50_0:REAL) : [-1/0,1/0]
RESULT: (v0x4e98150_0:REAL) : [-1/0,1/0]
RESULT: (v0x4e98350_0:REAL) : [-1/0,1/0]
RESULT: (v0x4e98450_0:REAL) : [-1/0,1/0]
RESULT: (v0x4e98650_0:REAL) : [-1/0,1/0]
RESULT: (v0x4e98850_0:REAL) : [-1/0,1/0]
RESULT: (v0x4e98a50_0:REAL) : [-1/0,1/0]
RESULT: (v0x4e98c50_0:REAL) : [-1/0,1/0]
RESULT: (v0x4e98e50_0:REAL) : [-1/0,1/0]
RESULT: (v0x4e98f50_0:REAL) : [-1/0,1/0]
RESULT: (v0x4e99150_0:REAL) : [-1/0,1/0]
RESULT: (v0x4e99350_0:REAL) : [-1/0,1/0]
RESULT: (v0x4e99550_0:REAL) : [-1/0,1/0]
RESULT: (v0x4e99750_0:REAL) : [-1/0,1/0]
RESULT: (v0x4e99950_0:REAL) : [-1/0,1/0]
RESULT: (v0x4e8ed30_0:REAL) : [-1/0,1/0]
RESULT: (v0x4e99b50_0:REAL) : [-1/0,1/0]
RESULT: (v0x4e99d50_0:REAL) : [-1/0,1/0]
RESULT: (v0x4e99e50_0:REAL) : [-1/0,1/0]
RESULT: (v0x4e9a050_0:REAL) : [-1/0,1/0]
RESULT: (v0x4e9a250_0:REAL) : [-1/0,1/0]
RESULT: (v0x4e9a450_0:REAL) : [-1/0,1/0]
RESULT: (v0x4e9a650_0:REAL) : [-1/0,1/0]
RESULT: (v0x4e9aa50_0:REAL) : [-1/0,1/0]
RESULT: (v0x4e9ab50_0:REAL) : [-1/0,1/0]
RESULT: (v0x4e9ad50_0:REAL) : [-1/0,1/0]
RESULT: (v0x4e9ae50_0:REAL) : [-1/0,1/0]
RESULT: (v0x4e9b050_0:REAL) : [-1/0,1/0]
RESULT: (v0x4e9b250_0:REAL) : [-1/0,1/0]
RESULT: (v0x4e9b450_0:REAL) : [-1/0,1/0]
RESULT: (v0x4e9b650_0:REAL) : [-1/0,1/0]
RESULT: (v0x4e9b850_0:REAL) : [-1/0,1/0]
RESULT: (v0x4e9ba50_0:REAL) : [-1/0,1/0]
RESULT: (v0x4e9bc50_0:REAL) : [-1/0,1/0]
RESULT: (v0x4e9bd50_0:REAL) : [-1/0,1/0]
RESULT: (v0x4e9bf50_0:REAL) : [-1/0,1/0]
RESULT: (v0x4e9c150_0:REAL) : [-1/0,1/0]
RESULT: (v0x4e9c350_0:REAL) : [-1/0,1/0]
RESULT: (v0x4e9c550_0:REAL) : [-1/0,1/0]
RESULT: (v0x4e9c850_0:REAL) : [-1/0,1/0]
RESULT: (v0x4e9cb50_0:REAL) : [-1/0,1/0]
RESULT: (v0x4e8eb30_0:REAL) : [-1/0,1/0]
RESULT: (v0x4e9cd50_0:REAL) : [-1/0,1/0]
RESULT: (v0x4e9ce50_0:REAL) : [-1/0,1/0]
RESULT: (v0x4e9d150_0:REAL) : [-1/0,1/0]
RESULT: (v0x4e9d450_0:REAL) : [-1/0,1/0]
RESULT: (v0x4e9d650_0:REAL) : [-1/0,1/0]
RESULT: (v0x4e95030_0:REAL) : [-1/0,1/0]
RESULT: (v0x4e95230_0:REAL) : [-1/0,1/0]
RESULT: (v0x4e95430_0:REAL) : [-1/0,1/0]
RESULT: (v0x4e95530_0:REAL) : [-1/0,1/0]
RESULT: (v0x4e95730_0:REAL) : [-1/0,1/0]
RESULT: (v0x4e95930_0:REAL) : [-1/0,1/0]
RESULT: (v0x4e9ef40_0:REAL) : [-1/0,1/0]
RESULT: (v0x4e9f140_0:REAL) : [-1/0,1/0]
RESULT: (v0x4e9f340_0:REAL) : [-1/0,1/0]
RESULT: (v0x4e9f440_0:REAL) : [-1/0,1/0]
RESULT: (v0x4e9f640_0:REAL) : [-1/0,1/0]
RESULT: (v0x4e9f840_0:REAL) : [-1/0,1/0]
RESULT: (v0x4e9fa40_0:REAL) : [-1/0,1/0]
RESULT: (v0x4e9fc40_0:REAL) : [-1/0,1/0]
RESULT: (v0x4e9fe40_0:REAL) : [-1/0,1/0]
RESULT: (v0x4ea0040_0:REAL) : [-1/0,1/0]
RESULT: (v0x4ea0240_0:REAL) : [-1/0,1/0]
RESULT: (v0x4ea0440_0:REAL) : [-1/0,1/0]
RESULT: (v0x4ea0540_0:REAL) : [-1/0,1/0]
RESULT: (v0x4ea0740_0:REAL) : [-1/0,1/0]
RESULT: (v0x4ea0940_0:REAL) : [-1/0,1/0]
RESULT: (v0x4ea0b40_0:REAL) : [-1/0,1/0]
RESULT: (v0x4ea0d40_0:REAL) : [-1/0,1/0]
RESULT: (v0x4ea1040_0:REAL) : [-1/0,1/0]
RESULT: (v0x4ea1240_0:REAL) : [-1/0,1/0]
RESULT: (v0x4ea1440_0:REAL) : [-1/0,1/0]
RESULT: (v0x4ea1640_0:REAL) : [-1/0,1/0]
RESULT: (v0x4ea1840_0:REAL) : [-1/0,1/0]
RESULT: (v0x4ea1b40_0:REAL) : [-1/0,1/0]
RESULT: (v0x4ea1d40_0:REAL) : [-1/0,1/0]
RESULT: (v0x4ea1f40_0:REAL) : [-1/0,1/0]
RESULT: (v0x4e8ea30_0:REAL) : [-1/0,1/0]
RESULT: (v0x4ea2140_0:REAL) : [-1/0,1/0]
