RESULT: (v0x39ea6a0_0:REAL) : [1/0,-1/0]
RESULT: (v0x39ec070_0:REAL) : [1/0,-1/0]
RESULT: (v0x3b27a20_0:REAL) : [1/0,-1/0]
RESULT: (v0x3b27460_0:REAL) : [1/0,-1/0]
RESULT: (v0x39ff550_0:REAL) : [1/0,-1/0]
RESULT: (v0x3a0c540_0:REAL) : [1/0,-1/0]
RESULT: (v0x3a0c240_0:REAL) : [1/0,-1/0]
RESULT: (v0x3cfb610_0:REAL) : [1/0,-1/0]
RESULT: (v0x3a63570_0:REAL) : [1/0,-1/0]
RESULT: (v0x39ed540_0:REAL) : [1/0,-1/0]
RESULT: (v0x39f2830_0:REAL) : [1/0,-1/0]
RESULT: (v0x39f2a30_0:REAL) : [1/0,-1/0]
RESULT: (v0x39f2b30_0:REAL) : [1/0,-1/0]
RESULT: (v0x39f3430_0:REAL) : [1/0,-1/0]
RESULT: (v0x39f3830_0:REAL) : [1/0,-1/0]
RESULT: (v0x39f3a30_0:REAL) : [1/0,-1/0]
RESULT: (v0x39f3c30_0:REAL) : [1/0,-1/0]
RESULT: (v0x39f4f30_0:REAL) : [1/0,-1/0]
RESULT: (v0x39f4e30_0:REAL) : [1/0,-1/0]
RESULT: (v0x39f5030_0:REAL) : [1/0,-1/0]
RESULT: (v0x39f5230_0:REAL) : [1/0,-1/0]
RESULT: (v0x39f5330_0:REAL) : [1/0,-1/0]
RESULT: (v0x39f5430_0:REAL) : [1/0,-1/0]
RESULT: (v0x39f5830_0:REAL) : [1/0,-1/0]
RESULT: (v0x39f5a30_0:REAL) : [1/0,-1/0]
RESULT: (v0x39f5c30_0:REAL) : [1/0,-1/0]
RESULT: (v0x39f6e30_0:REAL) : [1/0,-1/0]
RESULT: (v0x39f6d30_0:REAL) : [1/0,-1/0]
RESULT: (v0x39f7130_0:REAL) : [1/0,-1/0]
RESULT: (v0x39f7030_0:REAL) : [1/0,-1/0]
RESULT: (v0x39f7630_0:REAL) : [1/0,-1/0]
RESULT: (v0x39f7830_0:REAL) : [1/0,-1/0]
RESULT: (v0x39f7a30_0:REAL) : [1/0,-1/0]
RESULT: (v0x39f0b40_0:REAL) : [1/0,-1/0]
RESULT: (v0x39f0a40_0:REAL) : [1/0,-1/0]
RESULT: (v0x39f9270_0:REAL) : [1/0,-1/0]
RESULT: (v0x39f9450_0:REAL) : [1/0,-1/0]
RESULT: (v0x39f9550_0:REAL) : [1/0,-1/0]
RESULT: (v0x39f9650_0:REAL) : [1/0,-1/0]
RESULT: (v0x39f9a50_0:REAL) : [1/0,-1/0]
RESULT: (v0x39f9c50_0:REAL) : [1/0,-1/0]
RESULT: (v0x39f9e50_0:REAL) : [1/0,-1/0]
RESULT: (v0x39faf50_0:REAL) : [1/0,-1/0]
RESULT: (v0x39f7230_0:REAL) : [1/0,-1/0]
RESULT: (v0x39fed50_0:REAL) : [1/0,-1/0]
RESULT: (v0x39ffa50_0:REAL) : [1/0,-1/0]
RESULT: (v0x3a00650_0:REAL) : [1/0,-1/0]
RESULT: (v0x3a00850_0:REAL) : [1/0,-1/0]
RESULT: (v0x3a00a50_0:REAL) : [1/0,-1/0]
RESULT: (v0x3a03040_0:REAL) : [1/0,-1/0]
RESULT: (v0x3a03240_0:REAL) : [1/0,-1/0]
RESULT: (v0x3a03440_0:REAL) : [1/0,-1/0]
RESULT: (v0x3a04740_0:REAL) : [1/0,-1/0]
RESULT: (v0x3a04640_0:REAL) : [1/0,-1/0]
RESULT: (v0x3a04840_0:REAL) : [1/0,-1/0]
RESULT: (v0x3a04a40_0:REAL) : [1/0,-1/0]
RESULT: (v0x3a04b40_0:REAL) : [1/0,-1/0]
RESULT: (v0x3a04c40_0:REAL) : [1/0,-1/0]
RESULT: (v0x3a05040_0:REAL) : [1/0,-1/0]
RESULT: (v0x3a05240_0:REAL) : [1/0,-1/0]
RESULT: (v0x3a05440_0:REAL) : [1/0,-1/0]
RESULT: (v0x3a06540_0:REAL) : [1/0,-1/0]
RESULT: (v0x3a06f40_0:REAL) : [1/0,-1/0]
RESULT: (v0x3a07140_0:REAL) : [1/0,-1/0]
RESULT: (v0x3a07540_0:REAL) : [1/0,-1/0]
RESULT: (v0x3a07740_0:REAL) : [1/0,-1/0]
RESULT: (v0x3a07940_0:REAL) : [1/0,-1/0]
RESULT: (v0x3a08c40_0:REAL) : [1/0,-1/0]
RESULT: (v0x3a08b40_0:REAL) : [1/0,-1/0]
RESULT: (v0x3a08d40_0:REAL) : [1/0,-1/0]
RESULT: (v0x3a08f40_0:REAL) : [1/0,-1/0]
RESULT: (v0x3a09040_0:REAL) : [1/0,-1/0]
RESULT: (v0x3a09140_0:REAL) : [1/0,-1/0]
RESULT: (v0x3a09540_0:REAL) : [1/0,-1/0]
RESULT: (v0x3a09740_0:REAL) : [1/0,-1/0]
RESULT: (v0x3a09940_0:REAL) : [1/0,-1/0]
RESULT: (v0x3a0aa40_0:REAL) : [1/0,-1/0]
RESULT: (v0x3a0b840_0:REAL) : [1/0,-1/0]
RESULT: (v0x3a0c040_0:REAL) : [1/0,-1/0]
RESULT: (v0x3a0ca40_0:REAL) : [1/0,-1/0]
RESULT: (v0x3a0ce40_0:REAL) : [1/0,-1/0]
RESULT: (v0x3a0cd40_0:REAL) : [1/0,-1/0]
RESULT: (v0x3a0cf40_0:REAL) : [1/0,-1/0]
RESULT: (v0x3a0cc40_0:REAL) : [1/0,-1/0]
RESULT: (v0x3a0d440_0:REAL) : [1/0,-1/0]
RESULT: (v0x3a0d940_0:REAL) : [1/0,-1/0]
RESULT: (v0x3a0d840_0:REAL) : [1/0,-1/0]
RESULT: (v0x3a0db40_0:REAL) : [1/0,-1/0]
RESULT: (v0x3a0da40_0:REAL) : [1/0,-1/0]
RESULT: (v0x3a0dd40_0:REAL) : [1/0,-1/0]
RESULT: (v0x3a0e440_0:REAL) : [1/0,-1/0]
