RESULT: (v0x3f5de00_0:REAL) : [4,4]
RESULT: (v0x3f5e000_0:REAL) : [27,280]
RESULT: (v0x3f5e200_0:REAL) : [0,1]
RESULT: (v0x3f5e400_0:REAL) : [0,1]
RESULT: (v0x3f5e600_0:REAL) : [0,1]
RESULT: (v0x3f5e800_0:REAL) : [0,1]
RESULT: (v0x3f5ea00_0:REAL) : [0,0]
RESULT: (v0x3f5ec00_0:REAL) : [-1,7]
RESULT: (v0x3f5ee00_0:REAL) : [0,1]
RESULT: (v0x3f5f000_0:REAL) : [0,1]
RESULT: (v0x3f5f200_0:REAL) : [0,1]
RESULT: (v0x3f5f400_0:REAL) : [0,1]
RESULT: (v0x3e6bc80_0:REAL) : [0,1]
RESULT: (v0x3dd9890_0:REAL) : [67,280]
RESULT: (v0x3dd9990_0:REAL) : [0,1]
RESULT: (v0x3dd9a90_0:REAL) : [0,1]
RESULT: (v0x3dd9b90_0:REAL) : [0,1]
RESULT: (v0x3dd9c90_0:REAL) : [0,1]
RESULT: (v0x3dd9d90_0:REAL) : [0,1]
RESULT: (v0x3dd9e90_0:REAL) : [0,6]
RESULT: (v0x3dd9f90_0:REAL) : [1,1]
RESULT: (v0x3dda090_0:REAL) : [0,0]
RESULT: (v0x3dda190_0:REAL) : [0,1]
RESULT: (v0x3dda290_0:REAL) : [0,1]
RESULT: (v0x3dda390_0:REAL) : [0,1]
RESULT: (v0x3f51aa0_0:REAL) : [0,0]
RESULT: (v0x3dda690_0:REAL) : [1,7]
