RESULT: (v0x4c3f3e0_0:REAL) : [1,2]
RESULT: (v0x4c267e0_0:REAL) : [0,6]
RESULT: (v0x4c26420_0:REAL) : [0,1]
RESULT: (v0x4c264e0_0:REAL) : [0,2]
RESULT: (v0x4c21db0_0:REAL) : [0,1]
RESULT: (v0x4c21e70_0:REAL) : [0,1]
RESULT: (v0x4c25cf0_0:REAL) : [0,51]
RESULT: (v0x4c25db0_0:REAL) : [0,1]
RESULT: (v0x4c244e0_0:REAL) : [0,1]
RESULT: (v0x4c24400_0:REAL) : [0,1]
RESULT: (v0x4c241c0_0:REAL) : [0,1]
RESULT: (v0x4b4f180_0:REAL) : [0,2]
RESULT: (v0x4b4c350_0:REAL) : [0,1]
RESULT: (v0x4b4c5a0_0:REAL) : [0,1]
RESULT: (v0x4c240e0_0:REAL) : [-1/0,1/0]
RESULT: (v0x4b4c5e0_0:REAL) : [-1/0,1/0]
RESULT: (v0x4c47d30_0:REAL) : [0,6]
RESULT: (v0x4c47e30_0:REAL) : [0,1]
RESULT: (v0x4c47f30_0:REAL) : [0,2]
RESULT: (v0x4c48030_0:REAL) : [0,1]
RESULT: (v0x4c48130_0:REAL) : [0,1]
RESULT: (v0x4c48230_0:REAL) : [0,51]
RESULT: (v0x4c48330_0:REAL) : [0,1]
RESULT: (v0x4c48430_0:REAL) : [0,1]
RESULT: (v0x4c48530_0:REAL) : [0,1]
RESULT: (v0x4c48630_0:REAL) : [0,1]
RESULT: (v0x4c48730_0:REAL) : [-1/0,1/0]
RESULT: (v0x4c48830_0:REAL) : [0,0]
RESULT: (v0x4c48930_0:REAL) : [0,1]
RESULT: (v0x4c48a30_0:REAL) : [0,1]
RESULT: (v0x4c48b30_0:REAL) : [-1/0,1/0]
RESULT: (v0x4c3f9e0_0:REAL) : [-1/0,1/0]
RESULT: (v0x4c3e5e0_0:REAL) : [-1/0,1/0]
RESULT: (v0x4c3e6e0_0:REAL) : [-1/0,1/0]
RESULT: (v0x4c3f6e0_0:REAL) : [-1/0,1/0]
RESULT: (v0x4c48d30_0:REAL) : [-1/0,1/0]
RESULT: (v0x4e0a100_0:REAL) : [-1/0,1/0]
RESULT: (v0x4f3de90_0:REAL) : [-1/0,1/0]
RESULT: (v0x4b981a0_0:REAL) : [-1/0,1/0]
RESULT: (v0x4babb30_0:REAL) : [0,2]
RESULT: (v0x4ba3340_0:REAL) : [0,1]
RESULT: (v0x4e060e0_0:REAL) : [0,1]
RESULT: (v0x4b99d80_0:REAL) : [-1/0,1/0]
RESULT: (v0x4c48c30_0:REAL) : [-1/0,1/0]
