RESULT: (v0x3d22e30_0:REAL) : [0,1/0]
RESULT: (v0x3d23030_0:REAL) : [0,1]
RESULT: (v0x3d23230_0:REAL) : [0,1]
RESULT: (v0x3d23430_0:REAL) : [0,1]
RESULT: (v0x3d23630_0:REAL) : [0,1]
RESULT: (v0x3d23830_0:REAL) : [0,1]
RESULT: (v0x3d23a30_0:REAL) : [0,1]
RESULT: (v0x3d23c30_0:REAL) : [0,1]
RESULT: (v0x3d23e30_0:REAL) : [0,1]
RESULT: (v0x3d24030_0:REAL) : [0,1]
RESULT: (v0x3d24230_0:REAL) : [0,1]
RESULT: (v0x3d24430_0:REAL) : [0,2]
RESULT: (v0x3d24630_0:REAL) : [0,3]
RESULT: (v0x3d24830_0:REAL) : [123,777]
RESULT: (v0x3d24a30_0:REAL) : [0,666]
RESULT: (v0x3d24c30_0:REAL) : [0,2]
RESULT: (v0x3d24e30_0:REAL) : [0,1]
RESULT: (v0x3d25030_0:REAL) : [0,2]
RESULT: (v0x3d25230_0:REAL) : [0,456]
RESULT: (v0x3d25430_0:REAL) : [0,123]
RESULT: (v0x3d25630_0:REAL) : [0,456]
RESULT: (v0x3d25830_0:REAL) : [0,3]
RESULT: (v0x3d25a30_0:REAL) : [0,1]
RESULT: (v0x3d0d910_0:REAL) : [0,1]
