RESULT: (v0x4e9c120_0:REAL) : [1,1/0]
RESULT: (v0x4e9c320_0:REAL) : [0,1]
RESULT: (v0x4e9c520_0:REAL) : [0,1]
RESULT: (v0x4e9c720_0:REAL) : [0,1]
RESULT: (v0x4e9c920_0:REAL) : [0,1]
RESULT: (v0x4e9cb20_0:REAL) : [0,1]
RESULT: (v0x4e9cd20_0:REAL) : [0,1]
RESULT: (v0x4e9cf20_0:REAL) : [0,1]
RESULT: (v0x4e9d120_0:REAL) : [0,1]
RESULT: (v0x4e9d320_0:REAL) : [0,1]
RESULT: (v0x4e9d520_0:REAL) : [0,1]
RESULT: (v0x4e9d720_0:REAL) : [0,1]
RESULT: (v0x4e9d920_0:REAL) : [0,1]
RESULT: (v0x4e9db20_0:REAL) : [0,2]
RESULT: (v0x4e9dd20_0:REAL) : [0,3]
RESULT: (v0x4e9df20_0:REAL) : [0,1]
RESULT: (v0x4e9e120_0:REAL) : [123,777]
RESULT: (v0x4e9e320_0:REAL) : [0,666]
RESULT: (v0x4e9e520_0:REAL) : [0,2]
RESULT: (v0x4e9e720_0:REAL) : [0,1]
RESULT: (v0x4e9e920_0:REAL) : [0,2]
RESULT: (v0x4e9eb20_0:REAL) : [0,456]
RESULT: (v0x4e9ed20_0:REAL) : [0,123]
RESULT: (v0x4e87e50_0:REAL) : [0,456]
RESULT: (v0x4e72530_0:REAL) : [0,2]
RESULT: (v0x4e72630_0:REAL) : [1,2]
RESULT: (v0x4e72730_0:REAL) : [0,2]
RESULT: (v0x4e72830_0:REAL) : [1,1]
RESULT: (v0x4e72d30_0:REAL) : [0,0]
RESULT: (v0x4e72e30_0:REAL) : [123,777]
RESULT: (v0x4e72f30_0:REAL) : [0,0]
