RESULT: (v0x5dc9960_0:REAL) : [2,2]
RESULT: (v0x5dc9b60_0:REAL) : [40,146]
RESULT: (v0x5dc9d60_0:REAL) : [0,1]
RESULT: (v0x5dc9f60_0:REAL) : [0,1]
RESULT: (v0x5dca160_0:REAL) : [0,1]
RESULT: (v0x5dca360_0:REAL) : [0,1]
RESULT: (v0x5dca560_0:REAL) : [0,1]
RESULT: (v0x5dca760_0:REAL) : [1,1]
RESULT: (v0x5dca960_0:REAL) : [1,5]
RESULT: (v0x5dcab60_0:REAL) : [0,1]
RESULT: (v0x5dcad60_0:REAL) : [0,1]
RESULT: (v0x5dcaf60_0:REAL) : [1,1]
RESULT: (v0x5dcb160_0:REAL) : [0,1]
RESULT: (v0x5dcb360_0:REAL) : [0,1]
RESULT: (v0x5dcb560_0:REAL) : [1,1]
RESULT: (v0x555bb20_0:REAL) : [67,146]
RESULT: (v0x555bc20_0:REAL) : [0,1]
RESULT: (v0x555bd20_0:REAL) : [0,1]
RESULT: (v0x555be20_0:REAL) : [0,1]
RESULT: (v0x555bf20_0:REAL) : [0,1]
RESULT: (v0x555c020_0:REAL) : [0,1]
RESULT: (v0x555c120_0:REAL) : [0,1]
RESULT: (v0x555c220_0:REAL) : [1,5]
RESULT: (v0x555c320_0:REAL) : [0,1]
RESULT: (v0x555c420_0:REAL) : [0,1]
RESULT: (v0x555c520_0:REAL) : [0,1]
RESULT: (v0x555c620_0:REAL) : [0,1]
RESULT: (v0x555c720_0:REAL) : [0,1]
RESULT: (v0x555c820_0:REAL) : [0,1]
RESULT: (v0x64789d0_0:REAL) : [0,4]
RESULT: (v0x555db20_0:REAL) : [2,6]
