RESULT: (v0x3e93a40_0:REAL) : [789,789]
RESULT: (v0x43f9130_0:REAL) : [1,1/0]
RESULT: (v0x43f9330_0:REAL) : [0,1]
RESULT: (v0x43f9530_0:REAL) : [0,1]
RESULT: (v0x43f9730_0:REAL) : [0,1]
RESULT: (v0x43f9930_0:REAL) : [0,1]
RESULT: (v0x43f9b30_0:REAL) : [0,1]
RESULT: (v0x43f9d30_0:REAL) : [0,1]
RESULT: (v0x43f9f30_0:REAL) : [0,1]
RESULT: (v0x43fa130_0:REAL) : [0,1]
RESULT: (v0x43fa330_0:REAL) : [0,1]
RESULT: (v0x43fa530_0:REAL) : [0,1]
RESULT: (v0x43fa730_0:REAL) : [0,1]
RESULT: (v0x43fa930_0:REAL) : [0,1]
RESULT: (v0x43fab30_0:REAL) : [0,2]
RESULT: (v0x43fad30_0:REAL) : [0,3]
RESULT: (v0x43faf30_0:REAL) : [0,1]
RESULT: (v0x43fb130_0:REAL) : [123,777]
RESULT: (v0x43fb330_0:REAL) : [0,666]
RESULT: (v0x43fb530_0:REAL) : [0,2]
RESULT: (v0x43fb730_0:REAL) : [0,1]
RESULT: (v0x43fb930_0:REAL) : [0,2]
RESULT: (v0x43fbb30_0:REAL) : [0,456]
RESULT: (v0x43fbd30_0:REAL) : [0,123]
RESULT: (v0x43fbf30_0:REAL) : [0,456]
RESULT: (v0x43fc130_0:REAL) : [0,3]
