RESULT: (v0x4336250_0:REAL) : [2,10]
RESULT: (v0x4336450_0:REAL) : [0,1]
RESULT: (v0x4336650_0:REAL) : [0,1]
RESULT: (v0x4336850_0:REAL) : [0,1]
RESULT: (v0x4336a50_0:REAL) : [0,1]
RESULT: (v0x4336e50_0:REAL) : [1,1]
RESULT: (v0x4337250_0:REAL) : [0,1]
RESULT: (v0x4337450_0:REAL) : [-1/0,1]
RESULT: (v0x4337650_0:REAL) : [0,1]
RESULT: (v0x4337850_0:REAL) : [0,1]
RESULT: (v0x421b440_0:REAL) : [-1/0,1]
RESULT: (v0x41b7510_0:REAL) : [0,1]
RESULT: (v0x41b7610_0:REAL) : [0,1]
RESULT: (v0x41b7710_0:REAL) : [0,1]
RESULT: (v0x41b7810_0:REAL) : [0,1]
RESULT: (v0x41b7910_0:REAL) : [67,1/0]
RESULT: (v0x4336c50_0:REAL) : [27,1/0]
RESULT: (v0x41b7a10_0:REAL) : [0,1]
RESULT: (v0x41b7b10_0:REAL) : [-1/0,1/0]
RESULT: (v0x41b7c10_0:REAL) : [0,1]
RESULT: (v0x41b7d10_0:REAL) : [-1/0,1]
RESULT: (v0x41b7e10_0:REAL) : [0,1]
RESULT: (v0x41b7f10_0:REAL) : [0,1]
RESULT: (v0x41b8010_0:REAL) : [-1/0,1]
RESULT: (v0x4337050_0:REAL) : [-1/0,1/0]
RESULT: (v0x429e5b0_0:REAL) : [-1/0,1/0]
RESULT: (v0x41b9310_0:REAL) : [-1/0,1/0]
