RESULT: (v0x5dc9960_0:REAL) : [2,2]
RESULT: (v0x5dc9b60_0:REAL) : [40,146]
RESULT: (v0x5dc9d60_0:REAL) : [0,1]
RESULT: (v0x5dc9f60_0:REAL) : [0,1]
RESULT: (v0x5dca160_0:REAL) : [0,1]
RESULT: (v0x5dca360_0:REAL) : [0,1]
RESULT: (v0x5dca560_0:REAL) : [0,1]
RESULT: (v0x5dca760_0:REAL) : [1,1]
RESULT: (v0x5dca960_0:REAL) : [1,5]
RESULT: (v0x5dcab60_0:REAL) : [0,1]
RESULT: (v0x5dcad60_0:REAL) : [0,1]
RESULT: (v0x5dcaf60_0:REAL) : [1,1]
RESULT: (v0x5dcb160_0:REAL) : [0,1]
RESULT: (v0x5dcb360_0:REAL) : [0,1]
RESULT: (v0x5dcb560_0:REAL) : [1,1]
RESULT: (v0x556ab20_0:REAL) : [67,146]
RESULT: (v0x556ac20_0:REAL) : [0,1]
RESULT: (v0x556ad20_0:REAL) : [0,1]
RESULT: (v0x556ae20_0:REAL) : [0,1]
RESULT: (v0x556af20_0:REAL) : [0,1]
RESULT: (v0x556b020_0:REAL) : [0,1]
RESULT: (v0x556b120_0:REAL) : [1,4]
RESULT: (v0x556b220_0:REAL) : [0,1]
RESULT: (v0x556b320_0:REAL) : [0,1]
RESULT: (v0x556b420_0:REAL) : [0,1]
RESULT: (v0x556b520_0:REAL) : [0,1]
RESULT: (v0x556b620_0:REAL) : [0,1]
RESULT: (v0x556b720_0:REAL) : [0,1]
RESULT: (v0x5826b50_0:REAL) : [0,3]
RESULT: (v0x556ca20_0:REAL) : [2,5]
