RESULT: (v0x3470930_0:REAL) : [1,1/0]
RESULT: (v0x3470b30_0:REAL) : [0,1]
RESULT: (v0x3470d30_0:REAL) : [0,1]
RESULT: (v0x3470f30_0:REAL) : [0,1]
RESULT: (v0x3471130_0:REAL) : [0,1]
RESULT: (v0x3471330_0:REAL) : [0,1]
RESULT: (v0x3471530_0:REAL) : [0,1]
RESULT: (v0x34678f0_0:REAL) : [0,1]
RESULT: (v0x3467af0_0:REAL) : [0,1]
RESULT: (v0x3467cf0_0:REAL) : [0,1]
RESULT: (v0x3467ef0_0:REAL) : [0,1]
RESULT: (v0x3472330_0:REAL) : [0,2]
RESULT: (v0x3472530_0:REAL) : [0,3]
RESULT: (v0x3472730_0:REAL) : [0,1]
RESULT: (v0x3472930_0:REAL) : [123,777]
RESULT: (v0x3472b30_0:REAL) : [0,666]
RESULT: (v0x3472d30_0:REAL) : [0,2]
RESULT: (v0x3472f30_0:REAL) : [0,1]
RESULT: (v0x3473130_0:REAL) : [0,2]
RESULT: (v0x3473330_0:REAL) : [0,456]
RESULT: (v0x3473530_0:REAL) : [0,123]
RESULT: (v0x3473730_0:REAL) : [0,456]
RESULT: (v0x3473930_0:REAL) : [0,3]
RESULT: (v0x3473b30_0:REAL) : [0,1]
RESULT: (v0x345bc50_0:REAL) : [0,1]
