RESULT: (v0x50868b0_0:REAL) : [1,1/0]
RESULT: (v0x5086ab0_0:REAL) : [0,1]
RESULT: (v0x5086cb0_0:REAL) : [0,1]
RESULT: (v0x5086eb0_0:REAL) : [0,1]
RESULT: (v0x50830a0_0:REAL) : [0,1]
RESULT: (v0x50832a0_0:REAL) : [0,1]
RESULT: (v0x50878d0_0:REAL) : [0,1]
RESULT: (v0x5087ad0_0:REAL) : [0,1]
RESULT: (v0x5087cd0_0:REAL) : [0,1]
RESULT: (v0x5087ed0_0:REAL) : [0,1]
RESULT: (v0x50880d0_0:REAL) : [0,1]
RESULT: (v0x50882d0_0:REAL) : [0,1]
RESULT: (v0x50884d0_0:REAL) : [0,1]
RESULT: (v0x50886d0_0:REAL) : [123,777]
RESULT: (v0x50888d0_0:REAL) : [0,666]
RESULT: (v0x5088ad0_0:REAL) : [0,2]
RESULT: (v0x5088cd0_0:REAL) : [0,1]
RESULT: (v0x5088ed0_0:REAL) : [0,2]
RESULT: (v0x50890d0_0:REAL) : [0,456]
RESULT: (v0x50892d0_0:REAL) : [0,123]
RESULT: (v0x50894d0_0:REAL) : [0,456]
RESULT: (v0x5077430_0:REAL) : [1,3]
RESULT: (v0x5066bd0_0:REAL) : [-1/0,1/0]
RESULT: (v0x5066cd0_0:REAL) : [0,456]
RESULT: (v0x50666d0_0:REAL) : [-1/0,1/0]
RESULT: (v0x50663d0_0:REAL) : [0,456]
RESULT: (v0x50670d0_0:REAL) : [0,2]
RESULT: (v0x50671d0_0:REAL) : [0,1]
RESULT: (v0x50672d0_0:REAL) : [0,1]
RESULT: (v0x50673d0_0:REAL) : [1,2]
RESULT: (v0x50665d0_0:REAL) : [0,1]
