RESULT: (v0x4114430_0:REAL) : [0,0]
RESULT: (v0x4114530_0:REAL) : [0,0]
RESULT: (v0x411cfc0_0:REAL) : [0,0]
RESULT: (v0x4123100_0:REAL) : [1,1]
RESULT: (v0x41232e0_0:REAL) : [1,1]
RESULT: (v0x4123de0_0:REAL) : [0,0]
RESULT: (v0x4123ee0_0:REAL) : [32,32]
RESULT: (v0x41241e0_0:REAL) : [0,0]
RESULT: (v0x41247e0_0:REAL) : [0,0]
RESULT: (v0x41248e0_0:REAL) : [680,680]
RESULT: (v0x4124be0_0:REAL) : [688,688]
RESULT: (v0x4124de0_0:REAL) : [0,0]
RESULT: (v0x4124ee0_0:REAL) : [-48,-48]
RESULT: (v0x4124fe0_0:REAL) : [692,692]
RESULT: (v0x41251e0_0:REAL) : [32,1200]
RESULT: (v0x41252e0_0:REAL) : [0,1168]
RESULT: (v0x41253e0_0:REAL) : [0,1/0]
RESULT: (v0x41254e0_0:REAL) : [0,0]
RESULT: (v0x41258e0_0:REAL) : [0,0]
RESULT: (v0x4126de0_0:REAL) : [672,672]
RESULT: (v0x4126fe0_0:REAL) : [1234,1234]
RESULT: (v0x41270e0_0:REAL) : [1232,1232]
RESULT: (v0x41271e0_0:REAL) : [1233,1233]
RESULT: (v0x42b6aa0_0:REAL) : [0,4343634]
RESULT: (v0x41f1a00_0:REAL) : [0,1/0]
RESULT: (v0x438b6d0_0:REAL) : [0,1/0]
RESULT: (v0x41eb830_0:REAL) : [0,1325400064]
RESULT: (v0x42761e0_0:REAL) : [0,4343634]
RESULT: (v0x4278790_0:REAL) : [0,1375731712]
RESULT: (v0x4279cf0_0:REAL) : [0,4343634]
RESULT: (v0x42be690_0:REAL) : [0,1342177280]
RESULT: (v0x42790b0_0:REAL) : [0,5658965]
RESULT: (v0x42bdf90_0:REAL) : [0,1/0]
RESULT: (v0x41f0ba0_0:REAL) : [0,1/0]
RESULT: (v0x42e9d70_0:REAL) : [0,1442840576]
RESULT: (v0x4276680_0:REAL) : [8,8]
RESULT: (v0x4128ce0_0:REAL) : [-1/0,1/0]
RESULT: (v0x4128fe0_0:REAL) : [-1/0,1/0]
RESULT: (v0x41292e0_0:REAL) : [-1/0,1/0]
RESULT: (v0x412dfd0_0:REAL) : [0,1442840576]
RESULT: (v0x412e0d0_0:REAL) : [0,1/0]
RESULT: (v0x412e1d0_0:REAL) : [0,1/0]
RESULT: (v0x412e2d0_0:REAL) : [0,5658965]
RESULT: (v0x412e3d0_0:REAL) : [0,1342177280]
RESULT: (v0x412e4d0_0:REAL) : [0,4343634]
RESULT: (v0x412e5d0_0:REAL) : [0,1375731712]
RESULT: (v0x412e6d0_0:REAL) : [0,4343634]
RESULT: (v0x412e7d0_0:REAL) : [0,1325400064]
RESULT: (v0x412e8d0_0:REAL) : [0,1/0]
RESULT: (v0x412e9d0_0:REAL) : [0,1/0]
RESULT: (v0x412ead0_0:REAL) : [0,4343634]
RESULT: (v0x462fd80_0:REAL) : [-1/0,1/0]
RESULT: (v0x41272e0_0:REAL) : [-1/0,1/0]
RESULT: (v0x4630090_0:REAL) : [0,0]
RESULT: (v0x41281e0_0:REAL) : [24,24]
RESULT: (v0x41282e0_0:REAL) : [-1/0,1/0]
RESULT: (v0x41283e0_0:REAL) : [-1/0,1/0]
RESULT: (v0x41284e0_0:REAL) : [-1/0,1/0]
RESULT: (v0x41285e0_0:REAL) : [1256,1256]
RESULT: (v0x41286e0_0:REAL) : [1257,1257]
RESULT: (v0x41287e0_0:REAL) : [1258,1258]
RESULT: (v0x41289e0_0:REAL) : [-1/0,1/0]
RESULT: (v0x41288e0_0:REAL) : [-1/0,1/0]
RESULT: (v0x4128ae0_0:REAL) : [-1/0,1/0]
RESULT: (v0x4128de0_0:REAL) : [-1/0,1/0]
RESULT: (v0x41290e0_0:REAL) : [-1/0,1/0]
RESULT: (v0x41294e0_0:REAL) : [-1/0,1/0]
RESULT: (v0x41295e0_0:REAL) : [-1/0,1/0]
RESULT: (v0x41298e0_0:REAL) : [-1/0,1/0]
RESULT: (v0x41297e0_0:REAL) : [-1/0,1/0]
RESULT: (v0x412ebd0_0:REAL) : [9,9]
RESULT: (v0x41273e0_0:REAL) : [-1/0,1/0]
RESULT: (v0x412ecd0_0:REAL) : [1259,1259]
RESULT: (v0x412eed0_0:REAL) : [1232,1232]
RESULT: (v0x412efd0_0:REAL) : [1233,1233]
RESULT: (v0x412f0d0_0:REAL) : [1234,1234]
