RESULT: (v0x3c86a00_0:REAL) : [8512,8656]
RESULT: (v0x3c87a00_0:REAL) : [3,8656]
RESULT: (v0x3c86440_0:REAL) : [3,8640]
RESULT: (v0x3b887a0_0:REAL) : [4,4]
RESULT: (v0x3b95180_0:REAL) : [8672,8673]
RESULT: (v0x3b94de0_0:REAL) : [-1/0,1/0]
RESULT: (v0x3c882d0_0:REAL) : [0,1]
