RESULT: (v0x4e57aa0_0:REAL) : [1,1/0]
RESULT: (v0x4e57ca0_0:REAL) : [0,1]
RESULT: (v0x4e57ea0_0:REAL) : [0,1]
RESULT: (v0x4e580a0_0:REAL) : [0,1]
RESULT: (v0x4e582a0_0:REAL) : [0,1]
RESULT: (v0x4e584a0_0:REAL) : [0,1]
RESULT: (v0x4e4e7e0_0:REAL) : [0,1]
RESULT: (v0x4e4e9e0_0:REAL) : [0,1]
RESULT: (v0x4e4ebe0_0:REAL) : [0,1]
RESULT: (v0x4e4ede0_0:REAL) : [0,1]
RESULT: (v0x4e592a0_0:REAL) : [0,1]
RESULT: (v0x4e594a0_0:REAL) : [0,1]
RESULT: (v0x4e596a0_0:REAL) : [0,1]
RESULT: (v0x4e598a0_0:REAL) : [0,2]
RESULT: (v0x4e59aa0_0:REAL) : [0,3]
RESULT: (v0x4e59ca0_0:REAL) : [0,1]
RESULT: (v0x4e59ea0_0:REAL) : [123,777]
RESULT: (v0x4e5a0a0_0:REAL) : [0,666]
RESULT: (v0x4e5a2a0_0:REAL) : [0,2]
RESULT: (v0x4e5a4a0_0:REAL) : [0,1]
RESULT: (v0x4e5a6a0_0:REAL) : [0,2]
RESULT: (v0x4e5a8a0_0:REAL) : [1,456]
RESULT: (v0x4e5aaa0_0:REAL) : [0,123]
RESULT: (v0x4e42530_0:REAL) : [0,456]
