RESULT: (v0x4b11c80_0:REAL) : [789,789]
RESULT: (v0x507e960_0:REAL) : [1,1/0]
RESULT: (v0x507eb60_0:REAL) : [0,1]
RESULT: (v0x507ed60_0:REAL) : [0,1]
RESULT: (v0x507ef60_0:REAL) : [0,1]
RESULT: (v0x507f160_0:REAL) : [0,1]
RESULT: (v0x507f360_0:REAL) : [0,1]
RESULT: (v0x507f560_0:REAL) : [0,1]
RESULT: (v0x507f760_0:REAL) : [0,1]
RESULT: (v0x507f960_0:REAL) : [0,1]
RESULT: (v0x507fb60_0:REAL) : [0,1]
RESULT: (v0x507fd60_0:REAL) : [0,1]
RESULT: (v0x507ff60_0:REAL) : [0,1]
RESULT: (v0x5080160_0:REAL) : [0,2]
RESULT: (v0x5080360_0:REAL) : [0,3]
RESULT: (v0x5080560_0:REAL) : [0,1]
RESULT: (v0x5080760_0:REAL) : [123,777]
RESULT: (v0x5080960_0:REAL) : [0,666]
RESULT: (v0x5080b60_0:REAL) : [0,2]
RESULT: (v0x5080d60_0:REAL) : [0,1]
RESULT: (v0x5080f60_0:REAL) : [0,2]
RESULT: (v0x5081160_0:REAL) : [1,456]
RESULT: (v0x5081360_0:REAL) : [0,123]
RESULT: (v0x5081560_0:REAL) : [0,456]
RESULT: (v0x5081760_0:REAL) : [0,3]
RESULT: (v0x5081960_0:REAL) : [0,1]
