RESULT: (v0x4f5a950_1:REAL) : [1,1]
RESULT: (v0x4f5ab50_1:REAL) : [0,150]
RESULT: (v0x4f5ad50_1:REAL) : [0,0]
RESULT: (v0x4f5af50_1:REAL) : [0,0]
RESULT: (v0x4f5b150_1:REAL) : [0,0]
RESULT: (v0x4f5b350_1:REAL) : [1,1]
RESULT: (v0x4f5b550_1:REAL) : [1,1]
RESULT: (v0x4f5b750_1:REAL) : [1,1]
RESULT: (v0x4f5b950_1:REAL) : [1,1]
RESULT: (v0x4f5bb50_1:REAL) : [1,1]
RESULT: (v0x4f5bd50_1:REAL) : [1,1]
