RESULT: (v0x4fa64b0_1:REAL) : [3,3]
RESULT: (v0x4fa66b0_1:REAL) : [0,1]
RESULT: (v0x4fa68b0_1:REAL) : [0,1]
RESULT: (v0x4fa6ab0_1:REAL) : [0,1]
RESULT: (v0x4fa6cb0_1:REAL) : [0,1]
RESULT: (v0x4fa6eb0_1:REAL) : [-230,530]
RESULT: (v0x4fa70b0_1:REAL) : [0,1]
RESULT: (v0x4fa72b0_1:REAL) : [0,1]
RESULT: (v0x4fa74b0_1:REAL) : [-1,3]
RESULT: (v0x4fa76b0_1:REAL) : [0,1]
RESULT: (v0x4fa78b0_1:REAL) : [0,1]
RESULT: (v0x4fa7ab0_1:REAL) : [0,1]
RESULT: (v0x4fa7cb0_1:REAL) : [0,1]
RESULT: (v0x4fa7eb0_1:REAL) : [0,1]
RESULT: (v0x4fa80b0_1:REAL) : [0,1]
RESULT: (v0x4e875f0_1:REAL) : [0,1]
