RESULT: (v0x31a2170_0:REAL) : [0,1]
RESULT: (v0x31a43f0_0:REAL) : [0,1]
RESULT: (v0x31bdd50_0:REAL) : [0,1]
RESULT: (v0x31bdf30_0:REAL) : [0,1]
RESULT: (v0x31be130_0:REAL) : [0,1]
RESULT: (v0x31be330_0:REAL) : [0,1]
RESULT: (v0x31bdc50_0:REAL) : [0,1]
RESULT: (v0x31be7f0_0:REAL) : [0,1]
RESULT: (v0x31be9f0_0:REAL) : [0,1]
RESULT: (v0x31bebf0_0:REAL) : [0,1]
RESULT: (v0x31bedf0_0:REAL) : [0,1]
RESULT: (v0x31beff0_0:REAL) : [0,1]
RESULT: (v0x31bf1f0_0:REAL) : [1,1]
RESULT: (v0x31bf3f0_0:REAL) : [-1/0,1/0]
RESULT: (v0x31bf5f0_0:REAL) : [-1/0,1/0]
RESULT: (v0x31bf7f0_0:REAL) : [0,2]
RESULT: (v0x31bf9f0_0:REAL) : [0,2]
RESULT: (v0x31bfbf0_0:REAL) : [0,2]
RESULT: (v0x31be530_0:REAL) : [0,2]
RESULT: (v0x31c00c0_0:REAL) : [0,2]
RESULT: (v0x31c02c0_0:REAL) : [0,2]
RESULT: (v0x31c04c0_0:REAL) : [0,2]
RESULT: (v0x31c06c0_0:REAL) : [0,2]
RESULT: (v0x31c08c0_0:REAL) : [0,2]
RESULT: (v0x31c0ac0_0:REAL) : [0,2]
RESULT: (v0x31c0cc0_0:REAL) : [0,2]
RESULT: (v0x31c0ec0_0:REAL) : [0,2]
RESULT: (v0x31bc160_0:REAL) : [2,2]
