RESULT: (v0x3cb9980_0:REAL) : [2,10]
RESULT: (v0x3cb9d80_0:REAL) : [0,0]
RESULT: (v0x3cb9f80_0:REAL) : [0,0]
RESULT: (v0x3cba380_0:REAL) : [0,1]
RESULT: (v0x3cba580_0:REAL) : [0,1]
RESULT: (v0x3cba780_0:REAL) : [-1/0,1]
RESULT: (v0x3cba980_0:REAL) : [0,1]
RESULT: (v0x3cbab80_0:REAL) : [0,1]
RESULT: (v0x3cbad80_0:REAL) : [-1/0,1]
RESULT: (v0x3cbaf80_0:REAL) : [0,1]
RESULT: (v0x3cbb180_0:REAL) : [0,1]
RESULT: (v0x3cbb380_0:REAL) : [0,1]
RESULT: (v0x3cbb580_0:REAL) : [0,1]
RESULT: (v0x3b48000_0:REAL) : [67,1/0]
RESULT: (v0x3cb9b80_0:REAL) : [27,1/0]
RESULT: (v0x3b48100_0:REAL) : [0,1]
RESULT: (v0x3b48200_0:REAL) : [0,1]
RESULT: (v0x3b48300_0:REAL) : [-1/0,1/0]
RESULT: (v0x3b48400_0:REAL) : [0,1]
RESULT: (v0x3b48500_0:REAL) : [1,1]
RESULT: (v0x3b48600_0:REAL) : [-1/0,1]
RESULT: (v0x3b48700_0:REAL) : [0,1]
RESULT: (v0x3b48800_0:REAL) : [0,1]
RESULT: (v0x3b48900_0:REAL) : [-1/0,1]
RESULT: (v0x3b48a00_0:REAL) : [0,1]
RESULT: (v0x3b48b00_0:REAL) : [0,1]
RESULT: (v0x3b48c00_0:REAL) : [0,1]
RESULT: (v0x3b48d00_0:REAL) : [0,1]
RESULT: (v0x3cba180_0:REAL) : [-1/0,1/0]
RESULT: (v0x3eb3a40_0:REAL) : [0,0]
RESULT: (v0x3b49000_0:REAL) : [-1/0,1/0]
