RESULT: (v0x4d43640_0:REAL) : [1,1/0]
RESULT: (v0x4d43840_0:REAL) : [0,1]
RESULT: (v0x4d43a40_0:REAL) : [0,1]
RESULT: (v0x4d43c40_0:REAL) : [0,1]
RESULT: (v0x4d43e40_0:REAL) : [0,1]
RESULT: (v0x4d44040_0:REAL) : [0,1]
RESULT: (v0x4d3a3a0_0:REAL) : [0,1]
RESULT: (v0x4d3a5a0_0:REAL) : [0,1]
RESULT: (v0x4d3a7a0_0:REAL) : [0,1]
RESULT: (v0x4d3a9a0_0:REAL) : [0,1]
RESULT: (v0x4d3ab80_0:REAL) : [0,1]
RESULT: (v0x4d45020_0:REAL) : [0,2]
RESULT: (v0x4d45220_0:REAL) : [0,3]
RESULT: (v0x4d45420_0:REAL) : [0,1]
RESULT: (v0x4d45620_0:REAL) : [123,777]
RESULT: (v0x4d45820_0:REAL) : [0,666]
RESULT: (v0x4d45a20_0:REAL) : [0,2]
RESULT: (v0x4d45c20_0:REAL) : [0,1]
RESULT: (v0x4d45e20_0:REAL) : [0,2]
RESULT: (v0x4d46020_0:REAL) : [0,456]
RESULT: (v0x4d46220_0:REAL) : [0,123]
RESULT: (v0x4d46420_0:REAL) : [0,456]
RESULT: (v0x4d46620_0:REAL) : [0,3]
RESULT: (v0x4d46820_0:REAL) : [0,1]
RESULT: (v0x4d2ee40_0:REAL) : [0,1]
