RESULT: (v0x4114430_0:REAL) : [0,0]
RESULT: (v0x4114530_0:REAL) : [0,0]
RESULT: (v0x411cfc0_0:REAL) : [0,0]
RESULT: (v0x4123100_0:REAL) : [1,1]
RESULT: (v0x41232e0_0:REAL) : [1,1]
RESULT: (v0x4123de0_0:REAL) : [0,0]
RESULT: (v0x4123ee0_0:REAL) : [32,32]
RESULT: (v0x41241e0_0:REAL) : [0,0]
RESULT: (v0x41247e0_0:REAL) : [0,0]
RESULT: (v0x41248e0_0:REAL) : [680,680]
RESULT: (v0x4124be0_0:REAL) : [688,688]
RESULT: (v0x4124de0_0:REAL) : [0,0]
RESULT: (v0x4124ee0_0:REAL) : [-48,-48]
RESULT: (v0x4124fe0_0:REAL) : [692,692]
RESULT: (v0x41251e0_0:REAL) : [32,1200]
RESULT: (v0x41252e0_0:REAL) : [0,1168]
RESULT: (v0x41253e0_0:REAL) : [0,1/0]
RESULT: (v0x41254e0_0:REAL) : [0,0]
RESULT: (v0x41258e0_0:REAL) : [0,0]
RESULT: (v0x4126de0_0:REAL) : [672,672]
RESULT: (v0x4126fe0_0:REAL) : [1234,1234]
RESULT: (v0x41270e0_0:REAL) : [1232,1232]
RESULT: (v0x41271e0_0:REAL) : [1233,1233]
RESULT: (v0x41274e0_0:REAL) : [0,4343634]
RESULT: (v0x41275e0_0:REAL) : [0,1/0]
RESULT: (v0x41276e0_0:REAL) : [0,1/0]
RESULT: (v0x41277e0_0:REAL) : [0,1325400064]
RESULT: (v0x41278e0_0:REAL) : [0,4343634]
RESULT: (v0x41279e0_0:REAL) : [0,1375731712]
RESULT: (v0x4127ae0_0:REAL) : [0,4343634]
RESULT: (v0x4127be0_0:REAL) : [0,1342177280]
RESULT: (v0x4127ce0_0:REAL) : [0,5658965]
RESULT: (v0x4127de0_0:REAL) : [0,1/0]
RESULT: (v0x4127ee0_0:REAL) : [0,1/0]
RESULT: (v0x4127fe0_0:REAL) : [0,1442840576]
RESULT: (v0x41280e0_0:REAL) : [8,8]
RESULT: (v0x41281e0_0:REAL) : [24,24]
RESULT: (v0x41285e0_0:REAL) : [1256,1256]
RESULT: (v0x41286e0_0:REAL) : [1257,1257]
RESULT: (v0x41287e0_0:REAL) : [1258,1258]
RESULT: (v0x412dfd0_0:REAL) : [0,1442840576]
RESULT: (v0x412e0d0_0:REAL) : [0,1/0]
RESULT: (v0x412e1d0_0:REAL) : [0,1/0]
RESULT: (v0x412e2d0_0:REAL) : [0,5658965]
RESULT: (v0x412e3d0_0:REAL) : [0,1342177280]
RESULT: (v0x412e4d0_0:REAL) : [0,4343634]
RESULT: (v0x412e5d0_0:REAL) : [0,1375731712]
RESULT: (v0x412e6d0_0:REAL) : [0,4343634]
RESULT: (v0x412e7d0_0:REAL) : [0,1325400064]
RESULT: (v0x412e8d0_0:REAL) : [0,1/0]
RESULT: (v0x412e9d0_0:REAL) : [0,1/0]
RESULT: (v0x412ead0_0:REAL) : [0,4343634]
RESULT: (v0x412ebd0_0:REAL) : [9,9]
RESULT: (v0x412ecd0_0:REAL) : [1259,1259]
RESULT: (v0x412eed0_0:REAL) : [1232,1232]
RESULT: (v0x412efd0_0:REAL) : [1233,1233]
RESULT: (v0x412f0d0_0:REAL) : [1234,1234]
RESULT: (v0x412f2d0_0:REAL) : [1,1]
RESULT: (v0x426e400_1:REAL) : [-1/0,1/0]
RESULT: (v0x46e94f0_1:REAL) : [-1/0,1/0]
RESULT: (v0x49c31c0_1:REAL) : [-1/0,1/0]
RESULT: (v0x4932e10_1:REAL) : [-1/0,1/0]
RESULT: (v0x41ea300_1:REAL) : [-1/0,1/0]
RESULT: (v0x43d5db0_1:REAL) : [-1/0,1/0]
RESULT: (v0x49f6e50_1:REAL) : [-1/0,1/0]
RESULT: (v0x48e3f10_1:REAL) : [-1/0,1/0]
RESULT: (v0x4a1e8d0_1:REAL) : [-1/0,1/0]
RESULT: (v0x4863c00_1:REAL) : [-1/0,1/0]
RESULT: (v0x41ef9c0_1:REAL) : [-1/0,1/0]
RESULT: (v0x4433ae0_1:REAL) : [-1/0,1/0]
RESULT: (v0x499aa30_1:REAL) : [3,3]
RESULT: (v0x412f3d0_0:REAL) : [-1/0,1/0]
