RESULT: (v0x3e93170_0:REAL) : [0,1]
RESULT: (v0x3e953f0_0:REAL) : [0,1]
RESULT: (v0x3eaed50_0:REAL) : [0,1]
RESULT: (v0x3eaef30_0:REAL) : [0,1]
RESULT: (v0x3eaf130_0:REAL) : [0,1]
RESULT: (v0x3eaf330_0:REAL) : [0,1]
RESULT: (v0x3eaec50_0:REAL) : [0,1]
RESULT: (v0x3eaf7f0_0:REAL) : [0,1]
RESULT: (v0x3eaf9f0_0:REAL) : [0,1]
RESULT: (v0x3eafbf0_0:REAL) : [0,1]
RESULT: (v0x3eafdf0_0:REAL) : [0,1]
RESULT: (v0x3eafff0_0:REAL) : [0,1]
RESULT: (v0x3eb01f0_0:REAL) : [1,1]
RESULT: (v0x3eb03f0_0:REAL) : [-1/0,1/0]
RESULT: (v0x3eb05f0_0:REAL) : [-1/0,1/0]
RESULT: (v0x3eb07f0_0:REAL) : [0,2]
RESULT: (v0x3eb09f0_0:REAL) : [0,2]
RESULT: (v0x3eb0bf0_0:REAL) : [0,2]
RESULT: (v0x3eaf530_0:REAL) : [0,2]
RESULT: (v0x3eb10c0_0:REAL) : [0,2]
RESULT: (v0x3eb12c0_0:REAL) : [0,2]
RESULT: (v0x3eb14c0_0:REAL) : [0,2]
RESULT: (v0x3eb16c0_0:REAL) : [0,2]
RESULT: (v0x3eb18c0_0:REAL) : [0,2]
RESULT: (v0x3eb1ac0_0:REAL) : [0,2]
RESULT: (v0x3eb1cc0_0:REAL) : [0,2]
RESULT: (v0x3eb1ec0_0:REAL) : [0,2]
RESULT: (v0x3ead160_0:REAL) : [2,2]
