RESULT: (v0x4728a90_0:REAL) : [0,0]
RESULT: (v0x4728b90_0:REAL) : [0,0]
RESULT: (v0x4728c90_0:REAL) : [0,0]
RESULT: (v0x4729990_0:REAL) : [0,0]
RESULT: (v0x4729c90_0:REAL) : [0,0]
RESULT: (v0x4729f90_0:REAL) : [0,0]
RESULT: (v0x4672530_0:REAL) : [0,6]
RESULT: (v0x4672170_0:REAL) : [0,1]
RESULT: (v0x4672230_0:REAL) : [0,2]
RESULT: (v0x4671e70_0:REAL) : [0,1]
RESULT: (v0x4671f30_0:REAL) : [0,2]
RESULT: (v0x46706e0_0:REAL) : [0,52]
RESULT: (v0x466e0d0_0:REAL) : [0,2]
RESULT: (v0x466de90_0:REAL) : [0,1]
RESULT: (v0x4670190_0:REAL) : [0,1]
RESULT: (v0x4639cb0_0:REAL) : [0,2]
RESULT: (v0x4636dc0_0:REAL) : [0,0]
RESULT: (v0x4636f20_0:REAL) : [1,1]
RESULT: (v0x46371a0_0:REAL) : [0,0]
RESULT: (v0x4636ac0_0:REAL) : [-1/0,1/0]
RESULT: (v0x4637210_0:REAL) : [-1/0,1/0]
RESULT: (v0x47322e0_0:REAL) : [0,6]
RESULT: (v0x47323e0_0:REAL) : [0,1]
RESULT: (v0x47324e0_0:REAL) : [0,2]
RESULT: (v0x47325e0_0:REAL) : [0,1]
RESULT: (v0x47326e0_0:REAL) : [0,2]
RESULT: (v0x47327e0_0:REAL) : [0,52]
RESULT: (v0x47328e0_0:REAL) : [0,2]
RESULT: (v0x47329e0_0:REAL) : [0,0]
RESULT: (v0x4732ae0_0:REAL) : [0,1]
RESULT: (v0x4732be0_0:REAL) : [0,2]
RESULT: (v0x4732ce0_0:REAL) : [-1/0,1/0]
RESULT: (v0x4732de0_0:REAL) : [0,0]
RESULT: (v0x4732ee0_0:REAL) : [1,1]
RESULT: (v0x4732fe0_0:REAL) : [0,0]
RESULT: (v0x47330e0_0:REAL) : [-1/0,1/0]
RESULT: (v0x47332e0_0:REAL) : [-1/0,1/0]
RESULT: (v0x4a8ed90_0:REAL) : [-1/0,1/0]
RESULT: (v0x4d069b0_0:REAL) : [-1/0,1/0]
RESULT: (v0x48f7a10_0:REAL) : [-1/0,1/0]
RESULT: (v0x49ab9f0_0:REAL) : [-1/0,1/0]
RESULT: (v0x4ce9320_0:REAL) : [0,2]
RESULT: (v0x4af1bf0_0:REAL) : [1,1]
RESULT: (v0x4be62f0_0:REAL) : [1,1]
RESULT: (v0x4bc1c40_0:REAL) : [0,0]
RESULT: (v0x47331e0_0:REAL) : [-1/0,1/0]
