RESULT: (v0x48b0700_0:REAL) : [0,0]
RESULT: (v0x48b0f00_0:REAL) : [1,1]
RESULT: (v0x4e8b140_1:REAL) : [0,1]
RESULT: (v0x4e8b320_1:REAL) : [0,1]
RESULT: (v0x4e8b520_1:REAL) : [-1/0,1/0]
RESULT: (v0x4e8b720_1:REAL) : [3,11]
RESULT: (v0x4e8b920_1:REAL) : [0,1/0]
RESULT: (v0x4e8bb20_1:REAL) : [-1/0,1/0]
RESULT: (v0x4e8bd20_1:REAL) : [-1/0,1/0]
RESULT: (v0x4e8bf20_1:REAL) : [0,1]
RESULT: (v0x4e8c120_1:REAL) : [0,1]
RESULT: (v0x4e8c320_1:REAL) : [0,1]
