RESULT: (v0x3378ca0_0:REAL) : [0,1]
RESULT: (v0x338bf20_0:REAL) : [0,1]
RESULT: (v0x3392610_0:REAL) : [0,1]
RESULT: (v0x3392810_0:REAL) : [0,1]
RESULT: (v0x3392a10_0:REAL) : [0,1]
RESULT: (v0x3392c10_0:REAL) : [0,1]
RESULT: (v0x3392ed0_0:REAL) : [0,1]
RESULT: (v0x33930d0_0:REAL) : [0,1]
RESULT: (v0x33932d0_0:REAL) : [0,1]
RESULT: (v0x33934d0_0:REAL) : [0,1]
RESULT: (v0x33936d0_0:REAL) : [0,1]
RESULT: (v0x33938d0_0:REAL) : [0,1]
RESULT: (v0x3393ad0_0:REAL) : [0,1]
RESULT: (v0x3393cd0_0:REAL) : [1,1]
RESULT: (v0x3393ed0_0:REAL) : [-1/0,1/0]
RESULT: (v0x33940d0_0:REAL) : [-1/0,1/0]
RESULT: (v0x33942d0_0:REAL) : [0,2]
RESULT: (v0x33944d0_0:REAL) : [0,2]
RESULT: (v0x3392e10_0:REAL) : [0,2]
RESULT: (v0x33949a0_0:REAL) : [0,2]
RESULT: (v0x3394ba0_0:REAL) : [0,2]
RESULT: (v0x3394da0_0:REAL) : [0,2]
RESULT: (v0x3394fa0_0:REAL) : [0,2]
RESULT: (v0x33951a0_0:REAL) : [0,2]
RESULT: (v0x33953a0_0:REAL) : [0,2]
RESULT: (v0x33955a0_0:REAL) : [0,2]
RESULT: (v0x33957a0_0:REAL) : [0,2]
RESULT: (v0x33959a0_0:REAL) : [0,2]
RESULT: (v0x3395ba0_0:REAL) : [0,2]
RESULT: (v0x3390900_0:REAL) : [2,2]
