RESULT: (v0x44dcf60_0:REAL) : [1,1/0]
RESULT: (v0x44dd160_0:REAL) : [0,1]
RESULT: (v0x44dd360_0:REAL) : [0,1]
RESULT: (v0x44dd560_0:REAL) : [0,1]
RESULT: (v0x44dd760_0:REAL) : [0,1]
RESULT: (v0x44dd960_0:REAL) : [0,1]
RESULT: (v0x44ddb60_0:REAL) : [0,1]
RESULT: (v0x44ddd60_0:REAL) : [0,1]
RESULT: (v0x44d41a0_0:REAL) : [0,1]
RESULT: (v0x44d43a0_0:REAL) : [0,1]
RESULT: (v0x44d45a0_0:REAL) : [0,1]
RESULT: (v0x44d47a0_0:REAL) : [0,1]
RESULT: (v0x44deb60_0:REAL) : [0,1]
RESULT: (v0x44ded60_0:REAL) : [0,2]
RESULT: (v0x44def60_0:REAL) : [0,3]
RESULT: (v0x44df160_0:REAL) : [0,1]
RESULT: (v0x44df360_0:REAL) : [123,456]
RESULT: (v0x44df560_0:REAL) : [0,666]
RESULT: (v0x44df760_0:REAL) : [0,2]
RESULT: (v0x44df960_0:REAL) : [0,1]
RESULT: (v0x44dfb60_0:REAL) : [0,2]
RESULT: (v0x44dfd60_0:REAL) : [0,456]
RESULT: (v0x44dff60_0:REAL) : [0,123]
RESULT: (v0x4362c90_0:REAL) : [0,456]
