RESULT: (v0x42f7310_0:REAL) : [0,1]
RESULT: (v0x42e8910_0:REAL) : [0,1]
RESULT: (v0x42e86d0_0:REAL) : [0,1]
RESULT: (v0x42e8610_0:REAL) : [0,1]
RESULT: (v0x42e83d0_0:REAL) : [0,1]
RESULT: (v0x42e8310_0:REAL) : [0,1]
RESULT: (v0x42e80d0_0:REAL) : [0,1]
RESULT: (v0x42e8010_0:REAL) : [0,1]
RESULT: (v0x42e7dd0_0:REAL) : [0,1]
RESULT: (v0x42e7d10_0:REAL) : [0,1]
RESULT: (v0x42e7ad0_0:REAL) : [0,1]
RESULT: (v0x42e7a10_0:REAL) : [0,1]
RESULT: (v0x42e77d0_0:REAL) : [0,1]
RESULT: (v0x42e7710_0:REAL) : [0,2]
RESULT: (v0x42e74d0_0:REAL) : [0,2]
RESULT: (v0x42e7410_0:REAL) : [0,2]
RESULT: (v0x42e71d0_0:REAL) : [0,2]
RESULT: (v0x42e7110_0:REAL) : [0,2]
RESULT: (v0x42e6ed0_0:REAL) : [0,2]
RESULT: (v0x42e6e10_0:REAL) : [0,2]
RESULT: (v0x42e6bd0_0:REAL) : [0,2]
RESULT: (v0x42e6b10_0:REAL) : [0,2]
RESULT: (v0x422f220_0:REAL) : [0,2]
RESULT: (v0x422f1e0_0:REAL) : [0,2]
RESULT: (v0x422efa0_0:REAL) : [0,2]
RESULT: (v0x422eee0_0:REAL) : [0,2]
RESULT: (v0x42fb970_0:REAL) : [0,1]
RESULT: (v0x42fba70_0:REAL) : [0,2]
RESULT: (v0x42fbb70_0:REAL) : [0,2]
RESULT: (v0x42fbf70_0:REAL) : [0,1]
RESULT: (v0x42fc070_0:REAL) : [0,2]
RESULT: (v0x42fc170_0:REAL) : [0,2]
RESULT: (v0x42fc570_0:REAL) : [0,1]
RESULT: (v0x42fc670_0:REAL) : [0,2]
RESULT: (v0x42fc770_0:REAL) : [0,2]
RESULT: (v0x42fcb70_0:REAL) : [0,1]
RESULT: (v0x42fcc70_0:REAL) : [0,2]
RESULT: (v0x42fcd70_0:REAL) : [0,2]
RESULT: (v0x42fd170_0:REAL) : [0,1]
RESULT: (v0x42fd270_0:REAL) : [0,2]
RESULT: (v0x42fd370_0:REAL) : [0,2]
RESULT: (v0x42fd770_0:REAL) : [0,1]
RESULT: (v0x42fd870_0:REAL) : [0,2]
RESULT: (v0x42fd970_0:REAL) : [0,2]
RESULT: (v0x42fdd70_0:REAL) : [0,1]
RESULT: (v0x42fde70_0:REAL) : [0,2]
RESULT: (v0x42faaa0_0:REAL) : [0,2]
RESULT: (v0x42fe760_0:REAL) : [0,1]
RESULT: (v0x42fe860_0:REAL) : [0,2]
RESULT: (v0x42fe960_0:REAL) : [0,2]
RESULT: (v0x42fed60_0:REAL) : [0,1]
RESULT: (v0x42fee60_0:REAL) : [0,2]
RESULT: (v0x42fef60_0:REAL) : [0,2]
RESULT: (v0x42ff360_0:REAL) : [0,1]
RESULT: (v0x42ff460_0:REAL) : [0,2]
RESULT: (v0x42ff560_0:REAL) : [0,2]
RESULT: (v0x42ff960_0:REAL) : [0,1]
RESULT: (v0x42ffa60_0:REAL) : [0,2]
RESULT: (v0x42ffb60_0:REAL) : [0,2]
RESULT: (v0x42ffe60_0:REAL) : [0,1]
RESULT: (v0x42fff60_0:REAL) : [0,2]
RESULT: (v0x4300060_0:REAL) : [0,0]
RESULT: (v0x4300160_0:REAL) : [-1/0,1/0]
