RESULT: (v0x35a2930_0:REAL) : [1,1/0]
RESULT: (v0x35a2b30_0:REAL) : [0,1]
RESULT: (v0x35a2d30_0:REAL) : [0,1]
RESULT: (v0x35a2f30_0:REAL) : [0,1]
RESULT: (v0x35a3130_0:REAL) : [0,1]
RESULT: (v0x35a3330_0:REAL) : [0,1]
RESULT: (v0x35a3530_0:REAL) : [0,1]
RESULT: (v0x35a3730_0:REAL) : [0,1]
RESULT: (v0x35a3930_0:REAL) : [0,1]
RESULT: (v0x35a3b30_0:REAL) : [0,1]
RESULT: (v0x35a3d30_0:REAL) : [0,1]
RESULT: (v0x35a3f30_0:REAL) : [0,1]
RESULT: (v0x35a4130_0:REAL) : [0,1]
RESULT: (v0x35a4330_0:REAL) : [0,2]
RESULT: (v0x35a4530_0:REAL) : [0,3]
RESULT: (v0x35a4730_0:REAL) : [123,777]
RESULT: (v0x35a4930_0:REAL) : [0,666]
RESULT: (v0x35a4b30_0:REAL) : [0,2]
RESULT: (v0x35a4d30_0:REAL) : [0,1]
RESULT: (v0x35a4f30_0:REAL) : [0,2]
RESULT: (v0x35a5130_0:REAL) : [1,456]
RESULT: (v0x35a5330_0:REAL) : [0,123]
RESULT: (v0x35a5530_0:REAL) : [0,456]
RESULT: (v0x358cec0_0:REAL) : [0,3]
