RESULT: (v0x3544f20_0:REAL) : [1,1/0]
RESULT: (v0x3545120_0:REAL) : [0,1]
RESULT: (v0x3545320_0:REAL) : [0,1]
RESULT: (v0x3545520_0:REAL) : [0,1]
RESULT: (v0x3545720_0:REAL) : [0,1]
RESULT: (v0x3545920_0:REAL) : [0,1]
RESULT: (v0x3545b20_0:REAL) : [0,1]
RESULT: (v0x3545d20_0:REAL) : [0,1]
RESULT: (v0x3545f20_0:REAL) : [0,1]
RESULT: (v0x3546120_0:REAL) : [0,1]
RESULT: (v0x3546320_0:REAL) : [0,1]
RESULT: (v0x3546520_0:REAL) : [0,2]
RESULT: (v0x3546720_0:REAL) : [0,3]
RESULT: (v0x3546920_0:REAL) : [0,1]
RESULT: (v0x3546b20_0:REAL) : [123,456]
RESULT: (v0x3546d20_0:REAL) : [0,666]
RESULT: (v0x3546f20_0:REAL) : [0,2]
RESULT: (v0x3547120_0:REAL) : [0,1]
RESULT: (v0x3547320_0:REAL) : [0,2]
RESULT: (v0x3547520_0:REAL) : [0,456]
RESULT: (v0x3547720_0:REAL) : [0,123]
RESULT: (v0x3547920_0:REAL) : [0,456]
RESULT: (v0x3547b20_0:REAL) : [0,3]
RESULT: (v0x3547d20_0:REAL) : [0,1]
RESULT: (v0x352fa00_0:REAL) : [0,1]
