RESULT: (v0x42a0470_0:REAL) : [8512,8656]
RESULT: (v0x42a0670_0:REAL) : [3,8656]
RESULT: (v0x42a0970_0:REAL) : [3,8640]
RESULT: (v0x429fbb0_0:REAL) : [-1/0,1/0]
RESULT: (v0x41a6f80_0:REAL) : [-1/0,1/0]
RESULT: (v0x41a8870_0:REAL) : [-1/0,1/0]
RESULT: (v0x41a8590_0:REAL) : [-1/0,1/0]
RESULT: (v0x41a8110_0:REAL) : [-1/0,1/0]
RESULT: (v0x41a7f10_0:REAL) : [-1/0,1/0]
RESULT: (v0x41a18a0_0:REAL) : [-1/0,1/0]
RESULT: (v0x41ad140_0:REAL) : [0,4]
RESULT: (v0x41ad200_0:REAL) : [-1/0,1/0]
RESULT: (v0x41ac2e0_0:REAL) : [-1/0,1/0]
RESULT: (v0x42a0070_0:REAL) : [-1/0,1/0]
