RESULT: (v0x41535b0_0:REAL) : [1,1/0]
RESULT: (v0x41537b0_0:REAL) : [0,1]
RESULT: (v0x41539b0_0:REAL) : [0,1]
RESULT: (v0x4153bb0_0:REAL) : [0,1]
RESULT: (v0x4153db0_0:REAL) : [0,1]
RESULT: (v0x4153fb0_0:REAL) : [0,1]
RESULT: (v0x41541b0_0:REAL) : [0,1]
RESULT: (v0x41543b0_0:REAL) : [0,1]
RESULT: (v0x41545b0_0:REAL) : [0,1]
RESULT: (v0x41547b0_0:REAL) : [0,1]
RESULT: (v0x41549b0_0:REAL) : [0,1]
RESULT: (v0x4154bb0_0:REAL) : [0,1]
RESULT: (v0x4154db0_0:REAL) : [0,1]
RESULT: (v0x4154fb0_0:REAL) : [0,2]
RESULT: (v0x41551b0_0:REAL) : [0,3]
RESULT: (v0x41553b0_0:REAL) : [123,777]
RESULT: (v0x41555b0_0:REAL) : [0,666]
RESULT: (v0x41557b0_0:REAL) : [0,2]
RESULT: (v0x41559b0_0:REAL) : [0,1]
RESULT: (v0x4155bb0_0:REAL) : [0,2]
RESULT: (v0x4155db0_0:REAL) : [0,456]
RESULT: (v0x4155fb0_0:REAL) : [0,123]
RESULT: (v0x41561b0_0:REAL) : [0,456]
RESULT: (v0x413e430_0:REAL) : [0,3]
