RESULT: (v0x4920c30_0:REAL) : [1,1/0]
RESULT: (v0x4920e30_0:REAL) : [0,1]
RESULT: (v0x4921030_0:REAL) : [0,1]
RESULT: (v0x4921230_0:REAL) : [0,1]
RESULT: (v0x4921430_0:REAL) : [0,1]
RESULT: (v0x4921630_0:REAL) : [0,1]
RESULT: (v0x4921830_0:REAL) : [0,1]
RESULT: (v0x4921a30_0:REAL) : [0,1]
RESULT: (v0x4917e70_0:REAL) : [0,1]
RESULT: (v0x4918070_0:REAL) : [0,1]
RESULT: (v0x4918270_0:REAL) : [0,1]
RESULT: (v0x4918470_0:REAL) : [0,2]
RESULT: (v0x4922830_0:REAL) : [0,3]
RESULT: (v0x4922a30_0:REAL) : [123,777]
RESULT: (v0x4922c30_0:REAL) : [0,666]
RESULT: (v0x4922e30_0:REAL) : [0,2]
RESULT: (v0x4923030_0:REAL) : [0,1]
RESULT: (v0x4923230_0:REAL) : [0,2]
RESULT: (v0x4923430_0:REAL) : [1,456]
RESULT: (v0x4923630_0:REAL) : [0,123]
RESULT: (v0x4923830_0:REAL) : [0,456]
RESULT: (v0x4923a30_0:REAL) : [0,3]
RESULT: (v0x4923c30_0:REAL) : [0,1]
RESULT: (v0x490bdb0_0:REAL) : [0,1]
