RESULT: (v0x464dd70_0:REAL) : [1,1/0]
RESULT: (v0x464df70_0:REAL) : [0,1]
RESULT: (v0x464e130_0:REAL) : [0,1]
RESULT: (v0x464e330_0:REAL) : [0,1]
RESULT: (v0x464e530_0:REAL) : [0,1]
RESULT: (v0x464e730_0:REAL) : [0,1]
RESULT: (v0x464e930_0:REAL) : [0,1]
RESULT: (v0x464eb30_0:REAL) : [0,1]
RESULT: (v0x464ed30_0:REAL) : [0,1]
RESULT: (v0x464ef30_0:REAL) : [0,1]
RESULT: (v0x464f130_0:REAL) : [0,1]
RESULT: (v0x464f330_0:REAL) : [0,2]
RESULT: (v0x464f530_0:REAL) : [0,3]
RESULT: (v0x464f730_0:REAL) : [123,777]
RESULT: (v0x464f930_0:REAL) : [0,666]
RESULT: (v0x464fb30_0:REAL) : [0,2]
RESULT: (v0x464fd30_0:REAL) : [0,1]
RESULT: (v0x464ff30_0:REAL) : [0,2]
RESULT: (v0x4650130_0:REAL) : [1,456]
RESULT: (v0x4650330_0:REAL) : [0,123]
RESULT: (v0x4650530_0:REAL) : [0,456]
RESULT: (v0x4650730_0:REAL) : [0,3]
RESULT: (v0x4650930_0:REAL) : [0,1]
RESULT: (v0x46382a0_0:REAL) : [0,1]
