RESULT: (v0x4c9f250_0:REAL) : [1,1/0]
RESULT: (v0x4c9f450_0:REAL) : [0,1]
RESULT: (v0x4c9f650_0:REAL) : [0,1]
RESULT: (v0x4c9f850_0:REAL) : [0,1]
RESULT: (v0x4c9fa50_0:REAL) : [0,1]
RESULT: (v0x4c9fc50_0:REAL) : [0,1]
RESULT: (v0x4c9fe50_0:REAL) : [0,1]
RESULT: (v0x4ca0050_0:REAL) : [0,1]
RESULT: (v0x4ca0250_0:REAL) : [0,1]
RESULT: (v0x4ca0450_0:REAL) : [0,1]
RESULT: (v0x4ca0650_0:REAL) : [0,1]
RESULT: (v0x4ca0850_0:REAL) : [0,1]
RESULT: (v0x4ca0a50_0:REAL) : [0,1]
RESULT: (v0x4ca0c50_0:REAL) : [0,2]
RESULT: (v0x4ca0e50_0:REAL) : [0,3]
RESULT: (v0x4ca1050_0:REAL) : [0,1]
RESULT: (v0x4ca1250_0:REAL) : [123,777]
RESULT: (v0x4ca1450_0:REAL) : [0,666]
RESULT: (v0x4ca1650_0:REAL) : [0,2]
RESULT: (v0x4c98050_0:REAL) : [0,1]
RESULT: (v0x4c98250_0:REAL) : [0,2]
RESULT: (v0x4c98450_0:REAL) : [0,456]
RESULT: (v0x4c98650_0:REAL) : [0,123]
RESULT: (v0x4c8a6a0_0:REAL) : [0,456]
