RESULT: (v0x36c09b0_0:REAL) : [1,1/0]
RESULT: (v0x36c0bb0_0:REAL) : [0,1]
RESULT: (v0x36c0db0_0:REAL) : [0,1]
RESULT: (v0x36c0fb0_0:REAL) : [0,1]
RESULT: (v0x36c11b0_0:REAL) : [0,1]
RESULT: (v0x36c13b0_0:REAL) : [0,1]
RESULT: (v0x36c15b0_0:REAL) : [0,1]
RESULT: (v0x36c17b0_0:REAL) : [0,1]
RESULT: (v0x36b7bf0_0:REAL) : [0,1]
RESULT: (v0x36b7df0_0:REAL) : [0,1]
RESULT: (v0x36b7ff0_0:REAL) : [0,1]
RESULT: (v0x36b81f0_0:REAL) : [0,1]
RESULT: (v0x36c25b0_0:REAL) : [0,1]
RESULT: (v0x36c27b0_0:REAL) : [0,2]
RESULT: (v0x36c29b0_0:REAL) : [0,3]
RESULT: (v0x36c2bb0_0:REAL) : [0,1]
RESULT: (v0x36c2db0_0:REAL) : [123,777]
RESULT: (v0x36c2fb0_0:REAL) : [0,666]
RESULT: (v0x36c31b0_0:REAL) : [0,2]
RESULT: (v0x36c33b0_0:REAL) : [0,1]
RESULT: (v0x36c35b0_0:REAL) : [0,2]
RESULT: (v0x36c37b0_0:REAL) : [0,456]
RESULT: (v0x36c39b0_0:REAL) : [0,123]
RESULT: (v0x36c3bb0_0:REAL) : [0,456]
RESULT: (v0x36abcb0_0:REAL) : [1,3]
