RESULT: (v0x4a78790_0:REAL) : [2,10]
RESULT: (v0x4a78990_0:REAL) : [0,1]
RESULT: (v0x4a78b90_0:REAL) : [0,1]
RESULT: (v0x4a78d90_0:REAL) : [0,1]
RESULT: (v0x4a78f90_0:REAL) : [0,1]
RESULT: (v0x4a79390_0:REAL) : [0,0]
RESULT: (v0x4a79790_0:REAL) : [0,1]
RESULT: (v0x4a79990_0:REAL) : [0,1]
RESULT: (v0x4a79b90_0:REAL) : [0,1]
RESULT: (v0x4a79d90_0:REAL) : [0,1]
RESULT: (v0x495f500_0:REAL) : [-1/0,1]
RESULT: (v0x4a79190_0:REAL) : [27,1/0]
RESULT: (v0x48f5060_0:REAL) : [0,1]
RESULT: (v0x48f5160_0:REAL) : [0,1]
RESULT: (v0x48f5260_0:REAL) : [0,1]
RESULT: (v0x48f5360_0:REAL) : [0,1]
RESULT: (v0x48f5460_0:REAL) : [67,1/0]
RESULT: (v0x48f5560_0:REAL) : [0,1]
RESULT: (v0x48f5660_0:REAL) : [-1/0,1/0]
RESULT: (v0x48f5760_0:REAL) : [1,1]
RESULT: (v0x48f5860_0:REAL) : [0,0]
RESULT: (v0x48f5960_0:REAL) : [0,1]
RESULT: (v0x48f5a60_0:REAL) : [0,1]
RESULT: (v0x48f5b60_0:REAL) : [-1/0,1]
RESULT: (v0x4a79590_0:REAL) : [-1/0,1/0]
RESULT: (v0x49eacc0_0:REAL) : [0,0]
RESULT: (v0x48f5e60_0:REAL) : [-1/0,1/0]
