RESULT: (v0x51d8800_0:REAL) : [0,0]
RESULT: (v0x51d8d00_0:REAL) : [0,150]
RESULT: (v0x51d8f00_0:REAL) : [0,0]
RESULT: (v0x51d9000_0:REAL) : [2,2]
RESULT: (v0x51d9100_0:REAL) : [0,0]
RESULT: (v0x5b5be70_1:REAL) : [3,11]
RESULT: (v0x5b5c070_1:REAL) : [-1/0,1/0]
RESULT: (v0x5b5c270_1:REAL) : [0,1]
RESULT: (v0x5b5c470_1:REAL) : [0,1]
RESULT: (v0x5b5c670_1:REAL) : [0,1]
RESULT: (v0x5b5c870_1:REAL) : [0,1]
RESULT: (v0x5b5ca70_1:REAL) : [-1/0,1/0]
RESULT: (v0x5b5cc70_1:REAL) : [0,1]
RESULT: (v0x5b5ce70_1:REAL) : [0,1]
RESULT: (v0x5b5d070_1:REAL) : [-1/0,1]
RESULT: (v0x5b5d270_1:REAL) : [0,1]
RESULT: (v0x5b5d470_1:REAL) : [-1/0,1]
