RESULT: (v0x461aec0_0:REAL) : [1,1/0]
RESULT: (v0x461b0c0_0:REAL) : [0,1]
RESULT: (v0x461b2c0_0:REAL) : [0,1]
RESULT: (v0x461b4c0_0:REAL) : [0,1]
RESULT: (v0x461b6c0_0:REAL) : [0,1]
RESULT: (v0x461b8c0_0:REAL) : [0,1]
RESULT: (v0x461bac0_0:REAL) : [0,1]
RESULT: (v0x461bcc0_0:REAL) : [0,1]
RESULT: (v0x461bec0_0:REAL) : [0,1]
RESULT: (v0x461c0c0_0:REAL) : [0,1]
RESULT: (v0x461c2c0_0:REAL) : [0,1]
RESULT: (v0x4612880_0:REAL) : [0,2]
RESULT: (v0x4612a80_0:REAL) : [0,3]
RESULT: (v0x4612c80_0:REAL) : [123,777]
RESULT: (v0x4612e80_0:REAL) : [0,666]
RESULT: (v0x4613060_0:REAL) : [0,2]
RESULT: (v0x461d2c0_0:REAL) : [0,1]
RESULT: (v0x461d4c0_0:REAL) : [0,2]
RESULT: (v0x461d6c0_0:REAL) : [0,456]
RESULT: (v0x461d8c0_0:REAL) : [0,123]
RESULT: (v0x461dac0_0:REAL) : [0,456]
RESULT: (v0x461dcc0_0:REAL) : [1,3]
RESULT: (v0x461dec0_0:REAL) : [0,1]
RESULT: (v0x4607d00_0:REAL) : [0,1]
