RESULT: (v0x4d4c470_0:REAL) : [1,1/0]
RESULT: (v0x4d4c670_0:REAL) : [0,1]
RESULT: (v0x4d4c870_0:REAL) : [0,1]
RESULT: (v0x4d4ca70_0:REAL) : [0,1]
RESULT: (v0x4d4cc70_0:REAL) : [0,1]
RESULT: (v0x4d4ce70_0:REAL) : [0,1]
RESULT: (v0x4d4d070_0:REAL) : [0,1]
RESULT: (v0x4d4d270_0:REAL) : [0,1]
RESULT: (v0x4d4d470_0:REAL) : [0,1]
RESULT: (v0x4d4d670_0:REAL) : [0,1]
RESULT: (v0x4d4d870_0:REAL) : [0,1]
RESULT: (v0x4d4da70_0:REAL) : [0,2]
RESULT: (v0x4d4dc70_0:REAL) : [0,3]
RESULT: (v0x4d4de70_0:REAL) : [0,1]
RESULT: (v0x4d4e070_0:REAL) : [123,777]
RESULT: (v0x4d4e270_0:REAL) : [0,666]
RESULT: (v0x4d4e470_0:REAL) : [0,2]
RESULT: (v0x4d4e670_0:REAL) : [0,1]
RESULT: (v0x4d4e870_0:REAL) : [0,2]
RESULT: (v0x4d4ea70_0:REAL) : [0,456]
RESULT: (v0x4d4ec70_0:REAL) : [0,123]
RESULT: (v0x4d4ee70_0:REAL) : [0,456]
RESULT: (v0x4d4f070_0:REAL) : [1,3]
RESULT: (v0x4d4f270_0:REAL) : [0,1]
RESULT: (v0x4d36b40_0:REAL) : [0,1]
