RESULT: (v0x4b12e60_0:REAL) : [1,1/0]
RESULT: (v0x4b13060_0:REAL) : [0,1]
RESULT: (v0x4b13260_0:REAL) : [0,1]
RESULT: (v0x4b13460_0:REAL) : [0,1]
RESULT: (v0x4b13660_0:REAL) : [0,1]
RESULT: (v0x4b13860_0:REAL) : [0,1]
RESULT: (v0x4b13a60_0:REAL) : [0,1]
RESULT: (v0x4b13c60_0:REAL) : [0,1]
RESULT: (v0x4b13e60_0:REAL) : [0,1]
RESULT: (v0x4b14060_0:REAL) : [0,1]
RESULT: (v0x4b0a5a0_0:REAL) : [0,1]
RESULT: (v0x4b0a7a0_0:REAL) : [0,2]
RESULT: (v0x4b0a9a0_0:REAL) : [0,3]
RESULT: (v0x4b0aba0_0:REAL) : [123,777]
RESULT: (v0x4b14e60_0:REAL) : [0,666]
RESULT: (v0x4b15060_0:REAL) : [0,2]
RESULT: (v0x4b15260_0:REAL) : [0,1]
RESULT: (v0x4b15460_0:REAL) : [0,2]
RESULT: (v0x4b15660_0:REAL) : [0,456]
RESULT: (v0x4b15860_0:REAL) : [0,123]
RESULT: (v0x4b15a60_0:REAL) : [0,456]
RESULT: (v0x4b15c60_0:REAL) : [0,3]
RESULT: (v0x4b15e60_0:REAL) : [0,1]
RESULT: (v0x4afe730_0:REAL) : [0,1]
