RESULT: (v0x4e2c680_0:REAL) : [1,1/0]
RESULT: (v0x4e2c880_0:REAL) : [0,1]
RESULT: (v0x4e2ca80_0:REAL) : [0,1]
RESULT: (v0x4e2cc80_0:REAL) : [0,1]
RESULT: (v0x4e2ce80_0:REAL) : [0,1]
RESULT: (v0x4e2d080_0:REAL) : [0,1]
RESULT: (v0x4e2d280_0:REAL) : [0,1]
RESULT: (v0x4e2d480_0:REAL) : [0,1]
RESULT: (v0x4e2d680_0:REAL) : [0,1]
RESULT: (v0x4e2d880_0:REAL) : [0,1]
RESULT: (v0x4e2da80_0:REAL) : [0,1]
RESULT: (v0x4e2dc80_0:REAL) : [0,1]
RESULT: (v0x4e2de80_0:REAL) : [0,1]
RESULT: (v0x4e2e080_0:REAL) : [0,2]
RESULT: (v0x4e2e280_0:REAL) : [0,3]
RESULT: (v0x4e2e480_0:REAL) : [0,1]
RESULT: (v0x4e2e680_0:REAL) : [123,777]
RESULT: (v0x4e2e880_0:REAL) : [0,666]
RESULT: (v0x4e2ea80_0:REAL) : [0,2]
RESULT: (v0x4e2ec80_0:REAL) : [0,1]
RESULT: (v0x4e2ee80_0:REAL) : [0,2]
RESULT: (v0x4e2f080_0:REAL) : [0,456]
RESULT: (v0x4e2f280_0:REAL) : [0,123]
RESULT: (v0x4e2f480_0:REAL) : [0,456]
RESULT: (v0x4e168c0_0:REAL) : [0,3]
RESULT: (v0x4de89e0_0:REAL) : [0,2]
RESULT: (v0x4de8ae0_0:REAL) : [1,1]
RESULT: (v0x4de8be0_0:REAL) : [0,1]
RESULT: (v0x4de8ce0_0:REAL) : [0,456]
RESULT: (v0x4de8de0_0:REAL) : [-1/0,1/0]
RESULT: (v0x4de8ee0_0:REAL) : [1,3]
RESULT: (v0x4de93e0_0:REAL) : [0,0]
RESULT: (v0x4de94e0_0:REAL) : [123,777]
RESULT: (v0x4de95e0_0:REAL) : [0,0]
