RESULT: (v0x36f3d60_0:REAL) : [1,1/0]
RESULT: (v0x36f3f60_0:REAL) : [0,1]
RESULT: (v0x36f4160_0:REAL) : [0,1]
RESULT: (v0x36f4360_0:REAL) : [0,1]
RESULT: (v0x36f4560_0:REAL) : [0,1]
RESULT: (v0x36f4760_0:REAL) : [0,1]
RESULT: (v0x36eaaa0_0:REAL) : [0,1]
RESULT: (v0x36eaca0_0:REAL) : [0,1]
RESULT: (v0x36eaea0_0:REAL) : [0,1]
RESULT: (v0x36eb0a0_0:REAL) : [0,1]
RESULT: (v0x36eb280_0:REAL) : [0,1]
RESULT: (v0x36f5760_0:REAL) : [0,1]
RESULT: (v0x36f5960_0:REAL) : [0,1]
RESULT: (v0x36f5b60_0:REAL) : [0,2]
RESULT: (v0x36f5d60_0:REAL) : [0,3]
RESULT: (v0x36f5f60_0:REAL) : [0,1]
RESULT: (v0x36f6160_0:REAL) : [123,777]
RESULT: (v0x36f6360_0:REAL) : [0,666]
RESULT: (v0x36f6560_0:REAL) : [0,2]
RESULT: (v0x36f6760_0:REAL) : [0,1]
RESULT: (v0x36f6960_0:REAL) : [0,2]
RESULT: (v0x36f6b60_0:REAL) : [0,456]
RESULT: (v0x36f6d60_0:REAL) : [0,123]
RESULT: (v0x36de5b0_0:REAL) : [0,456]
RESULT: (v0x36bce40_0:REAL) : [0,2]
RESULT: (v0x36bcf40_0:REAL) : [0,456]
RESULT: (v0x36bd040_0:REAL) : [-1/0,1/0]
RESULT: (v0x36bd140_0:REAL) : [1,2]
RESULT: (v0x36bd240_0:REAL) : [0,2]
RESULT: (v0x36bd340_0:REAL) : [1,1]
RESULT: (v0x36bd840_0:REAL) : [0,0]
RESULT: (v0x36bd940_0:REAL) : [123,777]
RESULT: (v0x36bda40_0:REAL) : [0,0]
