RESULT: (v0x3775760_0:REAL) : [1,1/0]
RESULT: (v0x3775960_0:REAL) : [0,1]
RESULT: (v0x3775b60_0:REAL) : [0,1]
RESULT: (v0x3775d60_0:REAL) : [0,1]
RESULT: (v0x3775f60_0:REAL) : [0,1]
RESULT: (v0x3776160_0:REAL) : [0,1]
RESULT: (v0x3776360_0:REAL) : [0,1]
RESULT: (v0x3776560_0:REAL) : [0,1]
RESULT: (v0x3776760_0:REAL) : [0,1]
RESULT: (v0x3776960_0:REAL) : [0,1]
RESULT: (v0x3776b60_0:REAL) : [1,1]
RESULT: (v0x3776d60_0:REAL) : [123,777]
RESULT: (v0x3776f60_0:REAL) : [0,666]
RESULT: (v0x3777160_0:REAL) : [0,2]
RESULT: (v0x3777360_0:REAL) : [0,1]
RESULT: (v0x3777560_0:REAL) : [0,2]
RESULT: (v0x3777760_0:REAL) : [0,456]
RESULT: (v0x3777960_0:REAL) : [0,123]
RESULT: (v0x3777b60_0:REAL) : [0,456]
RESULT: (v0x3777d60_0:REAL) : [0,3]
RESULT: (v0x3777f60_0:REAL) : [0,1]
RESULT: (v0x3765b50_0:REAL) : [0,1]
RESULT: (v0x374fa90_0:REAL) : [-1/0,1/0]
RESULT: (v0x374f790_0:REAL) : [0,456]
RESULT: (v0x3750890_0:REAL) : [-1/0,1/0]
RESULT: (v0x3750990_0:REAL) : [0,456]
RESULT: (v0x3750a90_0:REAL) : [0,1]
RESULT: (v0x374f990_0:REAL) : [0,1]
