RESULT: (v0x4f4dbe0_0:REAL) : [2,10]
RESULT: (v0x4f4dfe0_0:REAL) : [0,1/0]
RESULT: (v0x4f4e1e0_0:REAL) : [0,0]
RESULT: (v0x4f4e5e0_0:REAL) : [0,1]
RESULT: (v0x4f4e7e0_0:REAL) : [0,1]
RESULT: (v0x4f4e9e0_0:REAL) : [-1/0,1]
RESULT: (v0x4f4ebe0_0:REAL) : [0,1]
RESULT: (v0x4f4ede0_0:REAL) : [0,1]
RESULT: (v0x4f4efe0_0:REAL) : [-1/0,1]
RESULT: (v0x4f4f1e0_0:REAL) : [-1/0,1]
RESULT: (v0x4f4f3e0_0:REAL) : [0,1]
RESULT: (v0x4f4f5e0_0:REAL) : [0,1]
RESULT: (v0x4f4f7e0_0:REAL) : [-1/0,1]
RESULT: (v0x4dd67d0_0:REAL) : [67,1/0]
RESULT: (v0x4f4dde0_0:REAL) : [67,1/0]
RESULT: (v0x4dd68d0_0:REAL) : [0,1]
RESULT: (v0x4dd69d0_0:REAL) : [0,1]
RESULT: (v0x4dd6ad0_0:REAL) : [-1/0,1/0]
RESULT: (v0x4dd6bd0_0:REAL) : [0,1]
RESULT: (v0x4dd6cd0_0:REAL) : [0,0]
RESULT: (v0x4dd6dd0_0:REAL) : [-1/0,1]
RESULT: (v0x4dd6ed0_0:REAL) : [0,1]
RESULT: (v0x4dd6fd0_0:REAL) : [0,1]
RESULT: (v0x4dd70d0_0:REAL) : [-1/0,1]
RESULT: (v0x4dd71d0_0:REAL) : [-1/0,1]
RESULT: (v0x4dd72d0_0:REAL) : [0,1]
RESULT: (v0x4dd73d0_0:REAL) : [0,1]
RESULT: (v0x4dd74d0_0:REAL) : [-1/0,1]
RESULT: (v0x4f4e3e0_0:REAL) : [-1/0,1/0]
RESULT: (v0x4f04ec0_0:REAL) : [0,0]
RESULT: (v0x4dd77d0_0:REAL) : [-1/0,1/0]
