RESULT: (v0x372ec00_0:REAL) : [1,1/0]
RESULT: (v0x372ee00_0:REAL) : [0,1]
RESULT: (v0x372f000_0:REAL) : [0,1]
RESULT: (v0x372f200_0:REAL) : [0,1]
RESULT: (v0x372f400_0:REAL) : [0,1]
RESULT: (v0x372f600_0:REAL) : [0,1]
RESULT: (v0x372f800_0:REAL) : [0,1]
RESULT: (v0x372fa00_0:REAL) : [0,1]
RESULT: (v0x372fc00_0:REAL) : [0,1]
RESULT: (v0x372fe00_0:REAL) : [0,1]
RESULT: (v0x3730000_0:REAL) : [0,1]
RESULT: (v0x3730200_0:REAL) : [0,1]
RESULT: (v0x3730400_0:REAL) : [0,1]
RESULT: (v0x3730600_0:REAL) : [123,777]
RESULT: (v0x3730800_0:REAL) : [0,666]
RESULT: (v0x3730a00_0:REAL) : [2,2]
RESULT: (v0x3730c00_0:REAL) : [0,1]
RESULT: (v0x3730e00_0:REAL) : [0,2]
RESULT: (v0x3731000_0:REAL) : [1,456]
RESULT: (v0x3731200_0:REAL) : [0,123]
RESULT: (v0x3731400_0:REAL) : [0,456]
RESULT: (v0x371ed70_0:REAL) : [0,3]
RESULT: (v0x3707900_0:REAL) : [-1/0,1/0]
RESULT: (v0x3707600_0:REAL) : [1,456]
RESULT: (v0x3708b00_0:REAL) : [0,0]
RESULT: (v0x3708c00_0:REAL) : [0,456]
RESULT: (v0x3708d00_0:REAL) : [0,1]
RESULT: (v0x3709100_0:REAL) : [0,2]
RESULT: (v0x3709200_0:REAL) : [0,1]
RESULT: (v0x3709300_0:REAL) : [0,1]
RESULT: (v0x3709400_0:REAL) : [1,2]
RESULT: (v0x370a900_0:REAL) : [0,0]
RESULT: (v0x370aa00_0:REAL) : [1,777]
RESULT: (v0x370ab00_0:REAL) : [0,0]
RESULT: (v0x370ac00_0:REAL) : [1,1]
RESULT: (v0x370ad00_0:REAL) : [2,2]
RESULT: (v0x370ae00_0:REAL) : [1,1]
RESULT: (v0x370af00_0:REAL) : [1,3]
RESULT: (v0x370b000_0:REAL) : [1,3]
RESULT: (v0x370ba00_0:REAL) : [0,0]
RESULT: (v0x370bb00_0:REAL) : [0,456]
RESULT: (v0x370bc00_0:REAL) : [0,0]
RESULT: (v0x370bd00_0:REAL) : [0,0]
RESULT: (v0x370be00_0:REAL) : [2,2]
RESULT: (v0x370bf00_0:REAL) : [2,2]
RESULT: (v0x370c000_0:REAL) : [0,0]
RESULT: (v0x3707800_0:REAL) : [0,0]
