RESULT: (v0x522de60_1:REAL) : [3,3]
RESULT: (v0x522e060_1:REAL) : [-230,530]
RESULT: (v0x522e260_1:REAL) : [0,1]
RESULT: (v0x522e460_1:REAL) : [0,1]
RESULT: (v0x522e660_1:REAL) : [0,1]
RESULT: (v0x522e860_1:REAL) : [0,1]
RESULT: (v0x522ea60_1:REAL) : [0,1]
RESULT: (v0x522ec60_1:REAL) : [0,1]
RESULT: (v0x522ee60_1:REAL) : [0,1]
RESULT: (v0x522f060_1:REAL) : [0,1]
RESULT: (v0x522f260_1:REAL) : [-1,3]
RESULT: (v0x522f460_1:REAL) : [0,1]
RESULT: (v0x522f660_1:REAL) : [0,1]
RESULT: (v0x522f860_1:REAL) : [0,1]
RESULT: (v0x522fa60_1:REAL) : [0,1]
RESULT: (v0x5166b00_1:REAL) : [0,1]
