RESULT: (v0x5560090_0:REAL) : [1,1]
RESULT: (v0x5560290_0:REAL) : [40,40]
RESULT: (v0x5560490_0:REAL) : [0,0]
RESULT: (v0x5560690_0:REAL) : [1,1]
RESULT: (v0x5560890_0:REAL) : [1,1]
RESULT: (v0x5560a90_0:REAL) : [1,1]
RESULT: (v0x5560c90_0:REAL) : [1,1]
RESULT: (v0x5560e90_0:REAL) : [1,1]
RESULT: (v0x5561090_0:REAL) : [4,4]
RESULT: (v0x5561290_0:REAL) : [0,0]
RESULT: (v0x5561490_0:REAL) : [0,0]
RESULT: (v0x5561690_0:REAL) : [1,1]
RESULT: (v0x5561890_0:REAL) : [0,0]
RESULT: (v0x5561a90_0:REAL) : [0,0]
RESULT: (v0x5561c90_0:REAL) : [1,1]
RESULT: (v0x53e0110_0:REAL) : [80,80]
RESULT: (v0x53e0210_0:REAL) : [0,0]
RESULT: (v0x53e0310_0:REAL) : [1,1]
RESULT: (v0x53e0410_0:REAL) : [0,0]
RESULT: (v0x53e0510_0:REAL) : [0,0]
RESULT: (v0x53e0610_0:REAL) : [1,1]
RESULT: (v0x53e0710_0:REAL) : [1,1]
RESULT: (v0x53e0810_0:REAL) : [4,4]
RESULT: (v0x53e0910_0:REAL) : [1,1]
RESULT: (v0x53e0a10_0:REAL) : [1,1]
RESULT: (v0x53e0b10_0:REAL) : [1,1]
RESULT: (v0x53e0c10_0:REAL) : [1,1]
RESULT: (v0x53e0d10_0:REAL) : [0,0]
RESULT: (v0x53e0e10_0:REAL) : [1,1]
RESULT: (v0x54ae410_0:REAL) : [3,3]
RESULT: (v0x53e2110_0:REAL) : [5,5]
