RESULT: (v0x3d3cc10_0:REAL) : [1,1/0]
RESULT: (v0x3d3ce10_0:REAL) : [0,1]
RESULT: (v0x3d3d010_0:REAL) : [0,1]
RESULT: (v0x3d3d210_0:REAL) : [0,1]
RESULT: (v0x3d3d410_0:REAL) : [0,1]
RESULT: (v0x3d3d610_0:REAL) : [0,1]
RESULT: (v0x3d3d810_0:REAL) : [0,1]
RESULT: (v0x3d3da10_0:REAL) : [0,1]
RESULT: (v0x3d3dc10_0:REAL) : [0,1]
RESULT: (v0x3d3de10_0:REAL) : [0,1]
RESULT: (v0x3d3e010_0:REAL) : [0,1]
RESULT: (v0x3d3e210_0:REAL) : [123,777]
RESULT: (v0x3d3e410_0:REAL) : [0,666]
RESULT: (v0x3d3e610_0:REAL) : [2,2]
RESULT: (v0x3d3e810_0:REAL) : [0,1]
RESULT: (v0x3d3ea10_0:REAL) : [0,2]
RESULT: (v0x3d3ec10_0:REAL) : [1,456]
RESULT: (v0x3d3ee10_0:REAL) : [0,123]
RESULT: (v0x3d3f010_0:REAL) : [0,456]
RESULT: (v0x3d3f210_0:REAL) : [0,3]
RESULT: (v0x3d3f410_0:REAL) : [0,1]
RESULT: (v0x3d2cd80_0:REAL) : [0,1]
RESULT: (v0x3d15910_0:REAL) : [-1/0,1/0]
RESULT: (v0x3d15610_0:REAL) : [1,456]
RESULT: (v0x3d16b10_0:REAL) : [0,0]
RESULT: (v0x3d16c10_0:REAL) : [0,456]
RESULT: (v0x3d16d10_0:REAL) : [0,1]
RESULT: (v0x3d17110_0:REAL) : [1,2]
RESULT: (v0x3d17210_0:REAL) : [0,2]
RESULT: (v0x3d17310_0:REAL) : [0,1]
RESULT: (v0x3d17410_0:REAL) : [0,1]
RESULT: (v0x3d18910_0:REAL) : [0,0]
RESULT: (v0x3d18a10_0:REAL) : [1,777]
RESULT: (v0x3d18b10_0:REAL) : [0,0]
RESULT: (v0x3d18c10_0:REAL) : [1,1]
RESULT: (v0x3d18d10_0:REAL) : [1,3]
RESULT: (v0x3d18e10_0:REAL) : [2,2]
RESULT: (v0x3d18f10_0:REAL) : [1,1]
RESULT: (v0x3d19010_0:REAL) : [1,3]
RESULT: (v0x3d19a10_0:REAL) : [0,0]
RESULT: (v0x3d19b10_0:REAL) : [0,456]
RESULT: (v0x3d19c10_0:REAL) : [0,0]
RESULT: (v0x3d19d10_0:REAL) : [0,0]
RESULT: (v0x3d19e10_0:REAL) : [2,2]
RESULT: (v0x3d19f10_0:REAL) : [2,2]
RESULT: (v0x3d1a010_0:REAL) : [0,0]
RESULT: (v0x3d15810_0:REAL) : [0,0]
