RESULT: (v0x3517cc0_0:REAL) : [1,1/0]
RESULT: (v0x3517ec0_0:REAL) : [0,1]
RESULT: (v0x35180c0_0:REAL) : [0,1]
RESULT: (v0x35182c0_0:REAL) : [0,1]
RESULT: (v0x35184c0_0:REAL) : [0,1]
RESULT: (v0x35186c0_0:REAL) : [0,1]
RESULT: (v0x35188c0_0:REAL) : [0,1]
RESULT: (v0x3518ac0_0:REAL) : [0,1]
RESULT: (v0x350ef00_0:REAL) : [0,1]
RESULT: (v0x350f100_0:REAL) : [0,1]
RESULT: (v0x350f300_0:REAL) : [0,1]
RESULT: (v0x350f500_0:REAL) : [0,2]
RESULT: (v0x35198c0_0:REAL) : [0,3]
RESULT: (v0x3519ac0_0:REAL) : [123,777]
RESULT: (v0x3519cc0_0:REAL) : [0,666]
RESULT: (v0x3519ec0_0:REAL) : [0,2]
RESULT: (v0x351a0c0_0:REAL) : [0,1]
RESULT: (v0x351a2c0_0:REAL) : [0,2]
RESULT: (v0x351a4c0_0:REAL) : [1,456]
RESULT: (v0x351a6c0_0:REAL) : [0,123]
RESULT: (v0x351a8c0_0:REAL) : [0,456]
RESULT: (v0x351aac0_0:REAL) : [0,3]
RESULT: (v0x351acc0_0:REAL) : [0,1]
RESULT: (v0x3502e00_0:REAL) : [0,1]
