RESULT: (v0x4c09d10_1:REAL) : [3,11]
RESULT: (v0x4c09f10_1:REAL) : [0,1]
RESULT: (v0x4c0a110_1:REAL) : [0,1]
RESULT: (v0x4c0a310_1:REAL) : [0,1]
RESULT: (v0x4c0a510_1:REAL) : [0,1]
RESULT: (v0x4c0a710_1:REAL) : [-1/0,1/0]
RESULT: (v0x4c0a910_1:REAL) : [0,1]
RESULT: (v0x4c0ab10_1:REAL) : [0,1]
RESULT: (v0x4c0ad10_1:REAL) : [0,1]
RESULT: (v0x4c0af10_1:REAL) : [0,1]
RESULT: (v0x4c0b110_1:REAL) : [-1/0,1/0]
RESULT: (v0x4c0b310_1:REAL) : [0,1]
RESULT: (v0x4c0b510_1:REAL) : [0,1]
RESULT: (v0x4c0b710_1:REAL) : [0,1]
RESULT: (v0x4c0b910_1:REAL) : [0,1]
RESULT: (v0x4942180_1:REAL) : [0,1]
