RESULT: (v0x4c31de0_0:REAL) : [1,1/0]
RESULT: (v0x4c31fe0_0:REAL) : [0,1]
RESULT: (v0x4c321e0_0:REAL) : [0,1]
RESULT: (v0x4c323e0_0:REAL) : [0,1]
RESULT: (v0x4c325e0_0:REAL) : [0,1]
RESULT: (v0x4c327e0_0:REAL) : [0,1]
RESULT: (v0x4c329e0_0:REAL) : [0,1]
RESULT: (v0x4c32be0_0:REAL) : [0,1]
RESULT: (v0x4c32de0_0:REAL) : [0,1]
RESULT: (v0x4c292a0_0:REAL) : [0,1]
RESULT: (v0x4c294a0_0:REAL) : [0,1]
RESULT: (v0x4c296a0_0:REAL) : [0,1]
RESULT: (v0x4c298a0_0:REAL) : [0,1]
RESULT: (v0x4c29a80_0:REAL) : [0,2]
RESULT: (v0x4c33dc0_0:REAL) : [0,3]
RESULT: (v0x4c33fc0_0:REAL) : [0,1]
RESULT: (v0x4c341c0_0:REAL) : [123,777]
RESULT: (v0x4c343c0_0:REAL) : [0,666]
RESULT: (v0x4c345c0_0:REAL) : [0,2]
RESULT: (v0x4c347c0_0:REAL) : [0,1]
RESULT: (v0x4c349c0_0:REAL) : [0,2]
RESULT: (v0x4c34bc0_0:REAL) : [0,456]
RESULT: (v0x4c34dc0_0:REAL) : [0,123]
RESULT: (v0x4c1c8e0_0:REAL) : [0,456]
