RESULT: (v0x4bf7500_0:REAL) : [1,1/0]
RESULT: (v0x4bf7700_0:REAL) : [0,1]
RESULT: (v0x4bf7900_0:REAL) : [0,1]
RESULT: (v0x4bf7b00_0:REAL) : [0,1]
RESULT: (v0x4bf7d00_0:REAL) : [0,1]
RESULT: (v0x4bf7f00_0:REAL) : [0,1]
RESULT: (v0x4bf8100_0:REAL) : [0,1]
RESULT: (v0x4bf8300_0:REAL) : [0,1]
RESULT: (v0x4bee740_0:REAL) : [0,1]
RESULT: (v0x4bee940_0:REAL) : [0,1]
RESULT: (v0x4beeb40_0:REAL) : [0,1]
RESULT: (v0x4beed40_0:REAL) : [0,1]
RESULT: (v0x4bf9100_0:REAL) : [0,1]
RESULT: (v0x4bf9300_0:REAL) : [0,2]
RESULT: (v0x4bf9500_0:REAL) : [0,3]
RESULT: (v0x4bf9700_0:REAL) : [0,1]
RESULT: (v0x4bf9900_0:REAL) : [123,777]
RESULT: (v0x4bf9b00_0:REAL) : [0,666]
RESULT: (v0x4bf9d00_0:REAL) : [0,2]
RESULT: (v0x4bf9f00_0:REAL) : [0,1]
RESULT: (v0x4bfa100_0:REAL) : [0,2]
RESULT: (v0x4bfa300_0:REAL) : [0,456]
RESULT: (v0x4bfa500_0:REAL) : [0,123]
RESULT: (v0x4be2830_0:REAL) : [0,456]
