RESULT: (v0x40f2700_0:REAL) : [1,1/0]
RESULT: (v0x40f2900_0:REAL) : [0,1]
RESULT: (v0x40f2b00_0:REAL) : [0,1]
RESULT: (v0x40f2d00_0:REAL) : [0,1]
RESULT: (v0x40f2f00_0:REAL) : [0,1]
RESULT: (v0x40f3100_0:REAL) : [0,1]
RESULT: (v0x40f3300_0:REAL) : [0,1]
RESULT: (v0x40f3500_0:REAL) : [0,1]
RESULT: (v0x40f3700_0:REAL) : [0,1]
RESULT: (v0x40f3900_0:REAL) : [0,1]
RESULT: (v0x40f3b00_0:REAL) : [0,1]
RESULT: (v0x40f3d00_0:REAL) : [0,1]
RESULT: (v0x40f3f00_0:REAL) : [0,1]
RESULT: (v0x40f4100_0:REAL) : [0,2]
RESULT: (v0x40f4300_0:REAL) : [0,3]
RESULT: (v0x40f4500_0:REAL) : [0,1]
RESULT: (v0x40f4700_0:REAL) : [123,777]
RESULT: (v0x40f4900_0:REAL) : [0,666]
RESULT: (v0x40f4b00_0:REAL) : [0,2]
RESULT: (v0x40f4d00_0:REAL) : [0,1]
RESULT: (v0x40f4f00_0:REAL) : [0,2]
RESULT: (v0x40f5100_0:REAL) : [1,456]
RESULT: (v0x40f5300_0:REAL) : [0,123]
RESULT: (v0x40f5500_0:REAL) : [0,456]
RESULT: (v0x40dcb00_0:REAL) : [0,3]
