RESULT: (v0x3df7dd0_0:REAL) : [1,1/0]
RESULT: (v0x3df7fd0_0:REAL) : [0,1]
RESULT: (v0x3df81d0_0:REAL) : [0,1]
RESULT: (v0x3df83d0_0:REAL) : [0,1]
RESULT: (v0x3df85d0_0:REAL) : [0,1]
RESULT: (v0x3df87d0_0:REAL) : [0,1]
RESULT: (v0x3df89d0_0:REAL) : [0,1]
RESULT: (v0x3df8bd0_0:REAL) : [0,1]
RESULT: (v0x3df8dd0_0:REAL) : [0,1]
RESULT: (v0x3df8fd0_0:REAL) : [0,1]
RESULT: (v0x3df91d0_0:REAL) : [0,1]
RESULT: (v0x3df93d0_0:REAL) : [0,1]
RESULT: (v0x3df95d0_0:REAL) : [0,1]
RESULT: (v0x3df97d0_0:REAL) : [0,2]
RESULT: (v0x3df99d0_0:REAL) : [0,3]
RESULT: (v0x3df9bd0_0:REAL) : [0,1]
RESULT: (v0x3df9dd0_0:REAL) : [123,456]
RESULT: (v0x3df9fd0_0:REAL) : [0,666]
RESULT: (v0x3dfa1d0_0:REAL) : [0,2]
RESULT: (v0x3dfa3d0_0:REAL) : [0,1]
RESULT: (v0x3dfa5d0_0:REAL) : [0,2]
RESULT: (v0x3dfa7d0_0:REAL) : [0,456]
RESULT: (v0x3dfa9d0_0:REAL) : [0,123]
RESULT: (v0x3de4620_0:REAL) : [0,456]
