RESULT: (v0x4b6c7e0_0:REAL) : [0,0]
RESULT: (v0x4b851b0_0:REAL) : [14,14]
RESULT: (v0x4c17ce0_0:REAL) : [0,0]
RESULT: (v0x4c17de0_0:REAL) : [1160,1160]
RESULT: (v0x4c182e0_0:REAL) : [0,0]
RESULT: (v0x4c183e0_0:REAL) : [840,840]
RESULT: (v0x4c186e0_0:REAL) : [0,0]
RESULT: (v0x4c187e0_0:REAL) : [40,40]
RESULT: (v0x4c18de0_0:REAL) : [-1080,-1080]
RESULT: (v0x4c18ee0_0:REAL) : [0,0]
RESULT: (v0x4c191e0_0:REAL) : [0,1/0]
RESULT: (v0x4c192e0_0:REAL) : [1080,1/0]
RESULT: (v0x4c194e0_0:REAL) : [0,0]
RESULT: (v0x4c195e0_0:REAL) : [160,160]
RESULT: (v0x4c196e0_0:REAL) : [864,1/0]
RESULT: (v0x4c199e0_0:REAL) : [-7,-7]
RESULT: (v0x4c19ae0_0:REAL) : [0,0]
RESULT: (v0x4c19be0_0:REAL) : [-1,-1]
RESULT: (v0x4c19ce0_0:REAL) : [164,164]
RESULT: (v0x4c19ee0_0:REAL) : [0,0]
RESULT: (v0x4c19fe0_0:REAL) : [168,168]
RESULT: (v0x4c1a1e0_0:REAL) : [0,0]
RESULT: (v0x4c1a2e0_0:REAL) : [7,7]
RESULT: (v0x4c1a3e0_0:REAL) : [0,0]
RESULT: (v0x4c1a4e0_0:REAL) : [172,172]
RESULT: (v0x4c1a6e0_0:REAL) : [1,1]
RESULT: (v0x4c1a7e0_0:REAL) : [176,176]
RESULT: (v0x4c1a9e0_0:REAL) : [0,0]
RESULT: (v0x4c1aae0_0:REAL) : [7,7]
RESULT: (v0x4c1abe0_0:REAL) : [0,0]
RESULT: (v0x4c1ace0_0:REAL) : [180,180]
RESULT: (v0x4c1aee0_0:REAL) : [0,0]
RESULT: (v0x4c1afe0_0:REAL) : [184,184]
RESULT: (v0x4c1b1e0_0:REAL) : [0,0]
RESULT: (v0x4c1b5e0_0:REAL) : [0,0]
RESULT: (v0x4c1b6e0_0:REAL) : [288,288]
RESULT: (v0x4c1b9e0_0:REAL) : [292,292]
RESULT: (v0x4c1bce0_0:REAL) : [-1,-1]
RESULT: (v0x4c1bee0_0:REAL) : [0,0]
RESULT: (v0x4c1bfe0_0:REAL) : [0,0]
RESULT: (v0x4c1c1e0_0:REAL) : [1,1]
RESULT: (v0x4c1cbe0_0:REAL) : [32896,32896]
RESULT: (v0x4c1cce0_0:REAL) : [16908802,16908802]
RESULT: (v0x4c1cde0_0:REAL) : [50332160,50332160]
RESULT: (v0x4c1cee0_0:REAL) : [8,8]
RESULT: (v0x4c1cfe0_0:REAL) : [0,0]
RESULT: (v0x4c1d0e0_0:REAL) : [0,0]
RESULT: (v0x4c1d1e0_0:REAL) : [1065,1/0]
RESULT: (v0x4c1d3e0_0:REAL) : [6,6]
RESULT: (v0x4c1dee0_0:REAL) : [0,0]
RESULT: (v0x4c1dfe0_0:REAL) : [344,344]
RESULT: (v0x4c1e1e0_0:REAL) : [0,0]
RESULT: (v0x4c1e2e0_0:REAL) : [0,0]
RESULT: (v0x4c1eae0_0:REAL) : [0,2097152]
RESULT: (v0x4c1ede0_0:REAL) : [0,2097152]
RESULT: (v0x4c1f5e0_0:REAL) : [268,268]
RESULT: (v0x4c1f7e0_0:REAL) : [1,1]
RESULT: (v0x4c1f8e0_0:REAL) : [0,0]
RESULT: (v0x4c1f9e0_0:REAL) : [280,280]
RESULT: (v0x4c1fbe0_0:REAL) : [0,0]
RESULT: (v0x4c1fce0_0:REAL) : [0,0]
RESULT: (v0x4c1fde0_0:REAL) : [0,0]
RESULT: (v0x4c1fee0_0:REAL) : [264,264]
RESULT: (v0x4c200e0_0:REAL) : [0,0]
RESULT: (v0x4c201e0_0:REAL) : [0,0]
RESULT: (v0x4c202e0_0:REAL) : [0,0]
RESULT: (v0x4c203e0_0:REAL) : [276,276]
RESULT: (v0x4c205e0_0:REAL) : [0,0]
RESULT: (v0x4c206e0_0:REAL) : [0,0]
RESULT: (v0x4c207e0_0:REAL) : [284,284]
RESULT: (v0x4c209e0_0:REAL) : [0,0]
RESULT: (v0x4c20ae0_0:REAL) : [0,0]
RESULT: (v0x4c20be0_0:REAL) : [272,272]
RESULT: (v0x4c20de0_0:REAL) : [0,0]
RESULT: (v0x4c20ee0_0:REAL) : [0,0]
RESULT: (v0x4c20fe0_0:REAL) : [1136,1/0]
RESULT: (v0x4c273e0_0:REAL) : [0,1]
RESULT: (v0x4c274e0_0:REAL) : [0,1]
RESULT: (v0x4c275e0_0:REAL) : [0,0]
RESULT: (v0x4c276e0_0:REAL) : [0,0]
RESULT: (v0x4c277e0_0:REAL) : [0,0]
RESULT: (v0x4c278e0_0:REAL) : [0,0]
RESULT: (v0x4c279e0_0:REAL) : [0,0]
RESULT: (v0x4c27ae0_0:REAL) : [0,0]
RESULT: (v0x4c27be0_0:REAL) : [0,0]
RESULT: (v0x4c27ce0_0:REAL) : [-1,-1]
RESULT: (v0x4c27de0_0:REAL) : [1,1]
RESULT: (v0x4c27ee0_0:REAL) : [0,0]
RESULT: (v0x4c27fe0_0:REAL) : [1,1]
RESULT: (v0x4c280e0_0:REAL) : [0,0]
RESULT: (v0x4c281e0_0:REAL) : [-1,-1]
RESULT: (v0x4c282e0_0:REAL) : [0,0]
RESULT: (v0x4c283e0_0:REAL) : [0,0]
RESULT: (v0x4c29ae0_0:REAL) : [1,1]
RESULT: (v0x4c29be0_0:REAL) : [1,1]
RESULT: (v0x4c29ce0_0:REAL) : [0,0]
RESULT: (v0x4c29de0_0:REAL) : [0,0]
RESULT: (v0x4c29ee0_0:REAL) : [-1,-1]
RESULT: (v0x4c29fe0_0:REAL) : [0,0]
RESULT: (v0x4c2a0e0_0:REAL) : [-1,-1]
RESULT: (v0x4c2a1e0_0:REAL) : [0,0]
RESULT: (v0x4c2a2e0_0:REAL) : [0,0]
RESULT: (v0x4c2b5e0_0:REAL) : [0,16]
RESULT: (v0x4c2b6e0_0:REAL) : [868,1/0]
RESULT: (v0x4c2b8e0_0:REAL) : [872,1/0]
RESULT: (v0x4c2bae0_0:REAL) : [876,1/0]
RESULT: (v0x4c2bce0_0:REAL) : [880,1/0]
RESULT: (v0x4c2bee0_0:REAL) : [904,1/0]
RESULT: (v0x4c2c1e0_0:REAL) : [0,0]
RESULT: (v0x4c2c2e0_0:REAL) : [0,0]
RESULT: (v0x4c2c3e0_0:REAL) : [0,0]
RESULT: (v0x4c2c4e0_0:REAL) : [0,0]
RESULT: (v0x4c2c8e0_0:REAL) : [900,1/0]
RESULT: (v0x4c2cae0_0:REAL) : [884,1/0]
RESULT: (v0x4c2cee0_0:REAL) : [888,1/0]
RESULT: (v0x4c2cfe0_0:REAL) : [0,163]
RESULT: (v0x4c2d0e0_0:REAL) : [0,163]
RESULT: (v0x4c2dae0_0:REAL) : [892,1/0]
RESULT: (v0x4c2dee0_0:REAL) : [896,1/0]
RESULT: (v0x4c2dfe0_0:REAL) : [0,165]
RESULT: (v0x4c2e0e0_0:REAL) : [0,165]
RESULT: (v0x4c2e4e0_0:REAL) : [908,1/0]
RESULT: (v0x4c2e7e0_0:REAL) : [134217728,134217729]
RESULT: (v0x4bcbae0_0:REAL) : [-1/0,166]
RESULT: (v0x4bcbce0_0:REAL) : [-1/0,166]
RESULT: (v0x4bcc2e0_0:REAL) : [948,1/0]
RESULT: (v0x4bcc7e0_0:REAL) : [920,1/0]
RESULT: (v0x4bccae0_0:REAL) : [1044,1/0]
RESULT: (v0x4bcd3e0_0:REAL) : [0,1]
RESULT: (v0x4bcd5e0_0:REAL) : [1144,1/0]
RESULT: (v0x4bcd7e0_0:REAL) : [0,0]
RESULT: (v0x4bcd8e0_0:REAL) : [0,0]
RESULT: (v0x4bcdbe0_0:REAL) : [0,0]
RESULT: (v0x5601640_1:REAL) : [-1/0,1/0]
RESULT: (v0x57c26a0_1:REAL) : [-1/0,1/0]
