RESULT: (v0x3bb73c0_0:REAL) : [0,1/0]
RESULT: (v0x3bb75c0_0:REAL) : [0,1]
RESULT: (v0x3bb77c0_0:REAL) : [0,1]
RESULT: (v0x3bb79c0_0:REAL) : [0,1]
RESULT: (v0x3bb7bc0_0:REAL) : [0,1]
RESULT: (v0x3bb7dc0_0:REAL) : [0,1]
RESULT: (v0x3bb7fc0_0:REAL) : [0,1]
RESULT: (v0x3bb81c0_0:REAL) : [0,1]
RESULT: (v0x3bb83c0_0:REAL) : [0,1]
RESULT: (v0x3bb85c0_0:REAL) : [0,1]
RESULT: (v0x3bb87c0_0:REAL) : [0,1]
RESULT: (v0x3bb89c0_0:REAL) : [0,1]
RESULT: (v0x3bb8bc0_0:REAL) : [0,1]
RESULT: (v0x3bb8dc0_0:REAL) : [123,777]
RESULT: (v0x3bb8fc0_0:REAL) : [0,666]
RESULT: (v0x3bb91c0_0:REAL) : [0,2]
RESULT: (v0x3bb93c0_0:REAL) : [0,1]
RESULT: (v0x3bb95c0_0:REAL) : [0,2]
RESULT: (v0x3bb97c0_0:REAL) : [0,456]
RESULT: (v0x3bb99c0_0:REAL) : [0,123]
RESULT: (v0x3bb9bc0_0:REAL) : [0,456]
RESULT: (v0x3ba7720_0:REAL) : [0,3]
RESULT: (v0x3b907a0_0:REAL) : [-1/0,1/0]
RESULT: (v0x3b908a0_0:REAL) : [0,456]
RESULT: (v0x3b900a0_0:REAL) : [-1/0,1/0]
RESULT: (v0x3b8fda0_0:REAL) : [0,456]
RESULT: (v0x3b8ffa0_0:REAL) : [0,1]
RESULT: (v0x3b90ca0_0:REAL) : [0,123]
