RESULT: (v0x5207260_0:REAL) : [1,1/0]
RESULT: (v0x5207460_0:REAL) : [0,1]
RESULT: (v0x5207660_0:REAL) : [0,1]
RESULT: (v0x5207860_0:REAL) : [0,1]
RESULT: (v0x5207a60_0:REAL) : [0,1]
RESULT: (v0x5207c60_0:REAL) : [0,1]
RESULT: (v0x5207e60_0:REAL) : [0,1]
RESULT: (v0x5208060_0:REAL) : [0,1]
RESULT: (v0x5208260_0:REAL) : [0,1]
RESULT: (v0x5208460_0:REAL) : [0,1]
RESULT: (v0x5208660_0:REAL) : [0,1]
RESULT: (v0x5208860_0:REAL) : [0,2]
RESULT: (v0x5208a60_0:REAL) : [0,3]
RESULT: (v0x5208c60_0:REAL) : [0,1]
RESULT: (v0x5208e60_0:REAL) : [123,777]
RESULT: (v0x5209060_0:REAL) : [0,666]
RESULT: (v0x5209260_0:REAL) : [0,2]
RESULT: (v0x5209460_0:REAL) : [0,1]
RESULT: (v0x5209660_0:REAL) : [0,2]
RESULT: (v0x5209860_0:REAL) : [0,456]
RESULT: (v0x5209a60_0:REAL) : [0,123]
RESULT: (v0x5209c60_0:REAL) : [0,456]
RESULT: (v0x5209e60_0:REAL) : [0,3]
RESULT: (v0x520a060_0:REAL) : [0,1]
RESULT: (v0x51f1960_0:REAL) : [0,1]
